1 41 49 2 -10 200 399
2 35 17 9 -7 200 399
3 55 45 9 -13 200 399
4 55 20 16 -19 200 399
5 15 30 17 -26 200 399
6 25 30 22 -3 200 399
7 20 50 28 -5 200 399
8 10 43 35 -9 200 399
9 55 60 41 -16 200 399
10 30 60 47 -16 200 399
11 20 65 48 -12 200 399
12 50 35 49 -19 200 399
13 30 25 57 -23 200 399
14 15 10 57 -20 200 399
15 30 5 59 -8 200 399
16 10 20 59 -19 200 399
17 5 30 60 -2 200 399
18 20 40 64 -12 200 399
19 15 60 64 -17 200 399
20 45 65 73 -9 200 399
21 45 20 75 -11 200 399
22 45 10 75 -18 200 399
23 55 5 82 -29 200 399
24 65 35 83 -3 200 399
25 65 20 83 -6 200 399
26 45 30 86 -17 200 399
27 35 40 89 -16 200 399
28 41 37 94 -16 200 399
29 64 42 94 -9 200 399
30 40 60 97 -21 200 399
31 31 52 102 -27 200 399
32 35 69 105 -23 200 399
33 53 52 106 -11 200 399
34 65 55 108 -14 200 399
35 63 65 111 -8 200 399
36 2 60 114 -5 200 399
37 20 20 119 -8 200 399
38 5 5 124 -16 200 399
39 60 12 126 -31 200 399
40 40 25 141 -9 200 399
41 42 7 146 -5 200 399
42 24 12 147 -5 200 399
43 23 3 149 -7 200 399
44 11 14 149 -18 200 399
45 6 38 153 -16 200 399
46 2 48 159 -1 200 399
47 8 56 160 -27 200 399
48 13 52 161 -36 200 399
49 6 68 163 -30 200 399
50 47 47 167 -13 200 399
51 49 58 167 -10 200 399
52 27 43 167 -9 200 399
53 37 31 169 -14 200 399
54 57 29 171 -18 200 399
55 63 23 174 -2 200 399
56 53 12 175 -6 200 399
57 32 12 176 -7 200 399
58 36 26 177 -18 200 399
59 21 24 185 -28 200 399
60 17 34 0 -3 200 399
61 12 24 0 -13 200 399
62 24 58 0 -19 200 399
63 27 69 0 -10 200 399
64 15 77 0 -9 200 399
65 62 77 0 -20 200 399
66 49 73 0 -25 200 399
67 67 5 0 -25 200 399
68 56 39 0 -36 200 399
69 37 47 0 -6 200 399
70 37 56 0 -5 200 399
71 57 68 0 -15 200 399
72 47 16 0 -25 200 399
73 44 17 0 -9 200 399
74 46 13 0 -8 200 399
75 49 11 0 -18 200 399
76 49 42 0 -13 200 399
77 53 43 0 -14 200 399
78 61 52 0 -3 200 399
79 57 48 0 -23 200 399
80 56 37 0 -6 200 399
81 55 54 0 -26 200 399
82 15 47 0 -16 200 399
83 14 37 0 -11 200 399
84 11 31 0 -7 200 399
85 16 22 0 -41 200 399
86 4 18 0 -35 200 399
87 28 18 0 -26 200 399
88 26 52 0 -9 200 399
89 26 35 0 -15 200 399
90 31 67 0 -3 200 399
91 15 19 0 -1 200 399
92 22 22 0 -2 200 399
93 18 24 0 -22 200 399
94 26 27 0 -27 200 399
95 25 24 0 -20 200 399
96 22 27 0 -11 200 399
97 25 21 0 -12 200 399
98 19 21 0 -10 200 399
99 20 26 0 -9 200 399
100 18 18 0 -17 200 399
