1 25 1 1 -25 200 794
2 25 3 14 -7 200 794
3 31 5 26 -13 200 794
4 32 5 27 -6 200 794
5 31 7 29 -14 200 794
6 32 9 34 -5 200 794
7 34 9 35 -11 200 794
8 46 9 38 -19 200 794
9 35 7 46 -5 200 794
10 34 6 62 -15 200 794
11 35 5 70 -15 200 794
12 47 6 70 -17 200 794
13 40 5 71 -13 200 794
14 39 3 89 -12 200 794
15 36 3 114 -18 200 794
16 73 6 122 -13 200 794
17 73 8 140 -18 200 794
18 24 36 152 -12 200 794
19 76 6 166 -17 200 794
20 76 10 172 -4 200 794
21 76 13 181 -7 200 794
22 78 3 188 -12 200 794
23 78 9 200 -13 200 794
24 79 3 206 -8 200 794
25 79 5 223 -16 200 794
26 79 11 223 -15 200 794
27 82 3 226 -6 200 794
28 82 7 234 -5 200 794
29 90 15 235 -9 200 794
30 84 3 251 -11 200 794
31 84 5 254 -10 200 794
32 84 9 273 -3 200 794
33 85 1 274 -7 200 794
34 87 5 276 -2 200 794
35 85 8 289 -4 200 794
36 87 7 292 -4 200 794
37 86 41 304 -18 200 794
38 86 44 324 -14 200 794
39 86 46 324 -12 200 794
40 85 55 324 -17 200 794
41 89 43 330 -20 200 794
42 89 46 330 -14 200 794
43 89 52 339 -16 200 794
44 92 42 346 -10 200 794
45 92 52 356 -9 200 794
46 94 42 358 -11 200 794
47 94 44 361 -7 200 794
48 94 48 377 -13 200 794
49 96 42 383 -5 200 794
50 99 46 396 -4 200 794
51 99 50 0 -21 200 794
52 83 80 0 -13 200 794
53 83 83 0 -11 200 794
54 85 81 0 -12 200 794
55 85 85 0 -14 200 794
56 85 89 0 -10 200 794
57 87 80 0 -8 200 794
58 87 86 0 -16 200 794
59 90 77 0 -19 200 794
60 90 88 0 -5 200 794
61 93 82 0 -17 200 794
62 93 84 0 -7 200 794
63 93 89 0 -16 200 794
64 94 86 0 -14 200 794
65 95 80 0 -17 200 794
66 99 89 0 -13 200 794
67 37 83 0 -17 200 794
68 50 80 0 -13 200 794
69 35 85 0 -14 200 794
70 35 87 0 -16 200 794
71 44 86 0 -7 200 794
72 46 89 0 -13 200 794
73 46 83 0 -9 200 794
74 46 87 0 -11 200 794
75 46 89 0 -35 200 794
76 48 83 0 -5 200 794
77 50 85 0 -28 200 794
78 50 88 0 -7 200 794
79 54 86 0 -3 200 794
80 54 90 0 -10 200 794
81 10 35 0 -7 200 794
82 10 40 0 -12 200 794
83 18 30 0 -11 200 794
84 17 35 0 -10 200 794
85 16 38 0 -8 200 794
86 14 40 0 -11 200 794
87 15 42 0 -21 200 794
88 11 42 0 -4 200 794
89 18 40 0 -15 200 794
90 21 39 0 -16 200 794
91 20 40 0 -4 200 794
92 18 41 0 -16 200 794
93 20 44 0 -7 200 794
94 22 44 0 -10 200 794
95 16 45 0 -9 200 794
96 20 45 0 -11 200 794
97 25 45 0 -17 200 794
98 30 55 0 -12 200 794
99 20 50 0 -11 200 794
100 22 51 0 -7 200 794
101 18 49 0 -9 200 794
102 16 48 0 -11 200 794
103 20 55 0 -12 200 794
104 18 53 0 -7 200 794
105 14 50 0 -8 200 794
106 15 51 0 -6 200 794
107 16 54 0 -5 200 794
108 28 33 0 -12 200 794
109 33 38 0 -13 200 794
110 30 50 0 -7 200 794
111 13 40 0 -7 200 794
112 15 36 0 -8 200 794
113 18 31 0 -11 200 794
114 25 37 0 -13 200 794
115 30 46 0 -11 200 794
116 25 52 0 -10 200 794
117 16 33 0 -7 200 794
118 25 35 0 -4 200 794
119 5 40 0 -20 200 794
120 5 50 0 -13 200 794
