1 -33 -40 55 -133 1000 979
2 -6 -60 0 -88 1000 979
3 -65 82 0 -174 1000 979
4 -30 -93 0 -117 1000 979
5 -65 19 0 -131 1000 979
6 31 -70 0 -138 1000 979
7 -53 16 359 -93 1000 979
8 79 -9 0 -90 1000 979
9 -32 -1 0 -123 1000 979
10 85 5 267 -143 1000 979
11 0 -23 0 -127 1000 979
12 14 86 0 -148 1000 979
13 47 -13 0 -136 1000 979
14 -57 -51 290 -142 1000 979
15 -39 75 377 -79 1000 979
16 73 -63 0 -147 1000 979
17 -61 -82 0 -100 1000 979
18 70 -52 0 -110 1000 979
19 89 72 0 -122 1000 979
20 -45 67 0 -122 1000 979
21 68 -27 296 -111 1000 979
22 -71 -62 356 -102 1000 979
23 51 54 0 -107 1000 979
24 -11 -12 411 -166 1000 979
25 91 -5 0 -84 1000 979
26 27 96 0 -118 1000 979
27 -67 -82 468 -43 1000 979
28 -19 -81 0 -104 1000 979
29 96 27 0 -109 1000 979
30 -71 -60 126 -176 1000 979
31 78 -48 0 -94 1000 979
32 -61 -36 0 -97 1000 979
33 24 74 235 -79 1000 979
34 59 -90 0 -131 1000 979
35 47 -59 469 -162 1000 979
36 50 14 323 -86 1000 979
37 5 -93 0 -112 1000 979
38 26 -96 0 -170 1000 979
39 -9 -61 461 -103 1000 979
40 -49 -32 252 -147 1000 979
41 -89 -43 375 -137 1000 979
42 -13 -63 292 -165 1000 979
43 54 -59 0 -150 1000 979
44 -74 -54 421 -110 1000 979
45 97 -19 0 -96 1000 979
46 63 73 238 -113 1000 979
47 96 -45 289 -151 1000 979
48 -93 51 0 -107 1000 979
49 13 -32 137 -120 1000 979
50 -20 92 472 -150 1000 979
51 -9 26 0 -87 1000 979
52 -19 69 328 -117 1000 979
53 14 -76 0 -85 1000 979
54 -48 11 50 -129 1000 979
55 75 55 0 -121 1000 979
56 99 -48 0 -124 1000 979
57 86 0 377 -105 1000 979
58 97 17 213 -102 1000 979
59 32 -3 48 -153 1000 979
60 -40 22 331 -128 1000 979
61 73 -96 0 -119 1000 979
62 34 -23 353 -83 1000 979
63 -2 -24 0 -149 1000 979
64 26 -87 45 -112 1000 979
65 38 -42 70 -86 1000 979
66 34 53 0 -111 1000 979
67 76 60 159 -113 1000 979
68 38 -59 0 -109 1000 979
69 100 84 89 -141 1000 979
70 -50 -80 0 -157 1000 979
71 -4 78 350 -166 1000 979
72 -97 3 229 -115 1000 979
73 -50 -73 0 -152 1000 979
74 -35 -32 30 -93 1000 979
75 34 -57 430 -121 1000 979
76 50 66 0 -198 1000 979
77 -32 -7 391 -125 1000 979
78 -44 -33 0 -115 1000 979
79 47 -71 97 -106 1000 979
80 25 74 314 -150 1000 979
81 27 -89 0 -138 1000 979
82 -57 23 72 -117 1000 979
83 81 57 0 -100 1000 979
84 17 16 414 -162 1000 979
85 -66 5 0 -112 1000 979
86 37 -18 469 -92 1000 979
87 -77 46 0 -165 1000 979
88 6 77 18 -65 1000 979
89 88 -77 188 -115 1000 979
90 -70 -35 376 -125 1000 979
91 18 -27 301 -111 1000 979
92 76 -49 0 -71 1000 979
93 -64 -76 0 -105 1000 979
94 -6 17 0 -74 1000 979
95 -72 -59 486 -147 1000 979
96 -80 16 129 -154 1000 979
97 -42 18 0 -119 1000 979
98 -51 95 0 -118 1000 979
99 45 -58 93 -148 1000 979
100 7 -51 0 -171 1000 979
