1 2 82 351 -137 1000 979
2 64 88 0 -81 1000 979
3 -4 -81 0 -157 1000 979
4 -72 1 0 -113 1000 979
5 38 -12 0 -126 1000 979
6 11 76 260 -120 1000 979
7 24 -86 63 -145 1000 979
8 71 -23 0 -101 1000 979
9 -29 -69 0 -118 1000 979
10 66 87 0 -120 1000 979
11 58 15 43 -126 1000 979
12 1 42 0 -135 1000 979
13 -60 89 0 -98 1000 979
14 -84 -16 103 -142 1000 979
15 -69 82 0 -151 1000 979
16 32 -79 0 -132 1000 979
17 -16 51 330 -152 1000 979
18 36 61 223 -155 1000 979
19 9 75 363 -164 1000 979
20 28 -88 0 -107 1000 979
21 80 67 19 -71 1000 979
22 65 -66 0 -114 1000 979
23 71 -40 0 -152 1000 979
24 56 -35 0 -108 1000 979
25 1 37 0 -110 1000 979
26 60 93 0 -103 1000 979
27 -35 83 126 -181 1000 979
28 -72 89 295 -112 1000 979
29 -5 -79 199 -89 1000 979
30 -86 30 91 -144 1000 979
31 38 -13 142 -174 1000 979
32 13 35 218 -158 1000 979
33 28 -59 80 -166 1000 979
34 81 64 0 -89 1000 979
35 -61 -65 0 -111 1000 979
36 71 75 0 -161 1000 979
37 59 -43 0 -124 1000 979
38 4 -84 0 -138 1000 979
39 57 42 248 -103 1000 979
40 -82 67 0 -114 1000 979
41 -74 86 43 -133 1000 979
42 -7 -83 0 -122 1000 979
43 -3 82 238 -123 1000 979
44 3 -16 16 -104 1000 979
45 11 76 0 -155 1000 979
46 25 63 61 -103 1000 979
47 -3 65 138 -153 1000 979
48 -65 -68 388 -137 1000 979
49 65 -96 0 -87 1000 979
50 59 -36 0 -132 1000 979
51 -58 -22 0 -103 1000 979
52 54 90 0 -139 1000 979
53 -86 78 295 -155 1000 979
54 -73 -12 227 -89 1000 979
55 -2 -80 0 -123 1000 979
56 -89 -4 198 -132 1000 979
57 38 -37 0 -169 1000 979
58 12 74 216 -150 1000 979
59 30 44 79 -139 1000 979
60 -87 64 74 -105 1000 979
61 -9 -62 0 -90 1000 979
62 66 85 0 -131 1000 979
63 58 -36 0 -116 1000 979
64 3 37 0 -144 1000 979
65 58 -94 407 -99 1000 979
66 -81 32 242 -144 1000 979
67 -67 84 0 -145 1000 979
68 -9 -82 308 -140 1000 979
69 -84 3 379 -83 1000 979
70 36 11 0 -117 1000 979
71 8 72 0 -156 1000 979
72 -28 -78 0 -118 1000 979
73 -14 65 475 -79 1000 979
74 -62 -66 274 -191 1000 979
75 66 82 378 -106 1000 979
76 56 -36 0 -97 1000 979
77 52 33 0 -137 1000 979
78 55 94 0 -112 1000 979
79 -78 83 0 -127 1000 979
80 -71 88 0 -121 1000 979
81 -1 -83 0 -150 1000 979
82 33 47 373 -126 1000 979
83 38 -14 0 -106 1000 979
84 13 72 0 -123 1000 979
85 28 -85 0 -94 1000 979
86 82 -31 45 -107 1000 979
87 -62 -70 413 -155 1000 979
88 66 -65 0 -151 1000 979
89 13 -39 0 -96 1000 979
90 2 20 0 -155 1000 979
91 56 91 0 -126 1000 979
92 -82 88 0 -140 1000 979
93 -71 83 0 -119 1000 979
94 -7 -86 463 -140 1000 979
95 -89 13 263 -139 1000 979
96 34 -11 379 -136 1000 979
97 12 74 0 -115 1000 979
98 30 -87 473 -96 1000 979
99 78 53 0 -133 1000 979
100 -58 -63 460 -126 1000 979
