1 -35 -51 0 -36 1000 929
2 63 74 8 -112 1000 929
3 48 -73 350 -5 1000 929
4 68 -73 114 -13 1000 929
5 95 32 0 -102 1000 929
6 -83 -95 0 -71 1000 929
7 -83 52 0 -1 1000 929
8 44 26 0 -1 1000 929
9 -30 -58 407 -94 1000 929
10 66 79 184 -131 1000 929
11 -38 -31 0 -232 1000 929
12 40 -46 0 -1 1000 929
13 16 48 103 -71 1000 929
14 -11 -98 256 -191 1000 929
15 -39 49 0 -18 1000 929
16 45 37 318 -52 1000 929
17 -6 -58 396 -1 1000 929
18 64 69 331 -153 1000 929
19 -54 29 0 -90 1000 929
20 52 -40 73 -11 1000 929
21 99 36 157 -6 1000 929
22 -88 -92 255 -14 1000 929
23 20 41 144 -2 1000 929
24 89 45 0 -104 1000 929
25 19 -70 2 -65 1000 929
26 68 73 0 -1 1000 929
27 -60 28 0 -4 1000 929
28 -92 -43 231 -1 1000 929
29 98 35 277 -39 1000 929
30 59 -97 0 -6 1000 929
31 29 36 323 -1 1000 929
32 30 32 0 -262 1000 929
33 79 -57 83 -59 1000 929
34 59 -28 236 -199 1000 929
35 23 30 115 -15 1000 929
36 48 -49 345 -68 1000 929
37 -12 -29 0 -1 1000 929
38 -91 -91 206 -1 1000 929
39 -71 49 0 -3 1000 929
40 59 83 5 -860 1000 929
41 -39 -86 362 -49 1000 929
42 -42 79 27 -12 1000 929
43 29 -63 0 -193 1000 929
44 46 -49 291 -1 1000 929
45 97 -40 0 -3 1000 929
46 -59 -85 0 -236 1000 929
47 -74 40 0 -111 1000 929
48 47 29 0 -66 1000 929
49 18 -70 0 -128 1000 929
50 61 72 0 -172 1000 929
51 21 36 0 -1 1000 929
52 48 -44 0 -10 1000 929
53 -9 38 0 -11 1000 929
54 -83 -82 0 -83 1000 929
55 -83 41 24 -65 1000 929
56 53 32 0 -422 1000 929
57 -44 -97 0 -1 1000 929
58 58 67 0 -29 1000 929
59 26 24 459 -1 1000 929
60 48 -45 328 -173 1000 929
61 -84 49 0 -41 1000 929
62 -90 10 460 -9 1000 929
63 -77 46 354 -105 1000 929
64 48 32 0 -3 1000 929
65 -51 -63 0 -57 1000 929
66 68 0 289 -324 1000 929
67 97 -26 0 -199 1000 929
68 53 -49 0 -44 1000 929
69 94 49 11 -145 1000 929
70 -90 -88 242 -13 1000 929
71 -16 42 14 -165 1000 929
72 -82 28 311 -48 1000 929
73 -40 91 213 -385 1000 929
74 -85 66 342 -35 1000 929
75 -73 26 0 -95 1000 929
76 54 -50 0 -1 1000 929
77 -72 31 185 -58 1000 929
78 56 -79 388 -84 1000 929
79 -80 43 0 -17 1000 929
80 40 17 0 -136 1000 929
81 -23 -47 241 -1 1000 929
82 67 79 69 -104 1000 929
83 27 23 448 -1 1000 929
84 44 -44 215 -50 1000 929
85 93 41 377 -47 1000 929
86 -85 -84 155 -11 1000 929
87 -78 39 156 -13 1000 929
88 -41 36 95 -61 1000 929
89 -60 -68 0 -1 1000 929
90 65 61 0 -240 1000 929
91 35 23 170 -3 1000 929
92 91 43 0 -1 1000 929
93 -18 24 122 -26 1000 929
94 -5 -100 141 -72 1000 929
95 -83 45 0 -1 1000 929
96 42 34 0 -170 1000 929
97 -42 -53 223 -132 1000 929
98 57 79 0 -6 1000 929
99 26 33 0 -86 1000 929
100 57 -46 348 -106 1000 929
