1 -34 9 299 -18 100 740
2 -1 12 0 -31 100 740
3 21 66 0 -14 100 740
4 -74 -100 135 -35 100 740
5 72 -84 23 -49 100 740
6 -15 -98 101 -26 100 740
7 35 -4 296 -32 100 740
8 -5 -55 174 -29 100 740
9 67 -46 0 -15 100 740
10 60 32 0 -33 100 740
11 33 47 195 -24 100 740
12 -26 -38 0 -10 100 740
13 -73 -75 193 -28 100 740
14 90 -72 125 -26 100 740
15 -87 31 0 -33 100 740
16 -72 -34 0 -35 100 740
17 96 -84 0 -20 100 740
