1 -64 86 73 -124 1000 989
2 91 -23 0 -241 1000 989
3 29 -50 296 -230 1000 989
4 -43 63 0 -215 1000 989
5 99 -12 0 -189 1000 989
6 95 -72 0 -102 1000 989
7 53 34 0 -225 1000 989
8 -88 -66 0 -178 1000 989
9 46 72 0 -67 1000 989
10 30 5 0 -221 1000 989
11 78 86 0 -44 1000 989
12 28 -21 64 -187 1000 989
13 -16 -51 387 -15 1000 989
14 -7 91 0 -42 1000 989
15 -65 88 0 -156 1000 989
16 93 -28 262 -64 1000 989
17 34 -50 474 -233 1000 989
18 -39 64 0 -227 1000 989
19 97 -13 25 -135 1000 989
20 92 -69 0 -178 1000 989
21 50 35 287 -56 1000 989
22 -86 -67 72 -139 1000 989
23 45 73 0 -245 1000 989
24 35 3 295 -133 1000 989
25 81 92 207 -175 1000 989
26 32 -21 54 -53 1000 989
27 -20 -49 77 -106 1000 989
28 -8 91 0 -112 1000 989
29 -61 88 417 -228 1000 989
30 91 -30 346 -35 1000 989
31 31 -50 402 -232 1000 989
32 -40 64 0 -51 1000 989
33 95 -13 292 -31 1000 989
34 95 -67 412 -76 1000 989
35 52 33 0 -214 1000 989
36 -88 -60 472 -106 1000 989
37 43 76 0 -29 1000 989
38 30 0 207 -155 1000 989
39 80 88 0 -111 1000 989
40 29 -24 163 -173 1000 989
41 -16 -48 113 -148 1000 989
42 -8 88 80 -250 1000 989
43 -63 90 0 -191 1000 989
44 93 -27 0 -14 1000 989
45 34 -49 274 -233 1000 989
46 -41 62 409 -175 1000 989
47 98 -16 90 -191 1000 989
48 94 -71 0 -128 1000 989
49 47 31 484 -16 1000 989
50 -85 -67 0 -23 1000 989
51 45 75 197 -170 1000 989
52 32 0 324 -205 1000 989
53 78 84 12 -24 1000 989
54 33 -22 0 -134 1000 989
55 -16 -44 119 -146 1000 989
56 -6 89 0 -208 1000 989
57 -63 86 0 -65 1000 989
58 90 -26 0 -103 1000 989
59 34 -46 0 -110 1000 989
60 -39 65 394 -201 1000 989
61 100 -14 133 -131 1000 989
62 91 -69 384 -174 1000 989
63 51 31 0 -15 1000 989
64 -84 -61 438 -75 1000 989
65 41 75 0 -99 1000 989
66 34 2 0 -29 1000 989
67 83 86 0 -140 1000 989
68 37 -22 39 -92 1000 989
69 -18 -50 309 -198 1000 989
70 -9 84 268 -170 1000 989
71 -62 93 189 -187 1000 989
72 89 -25 0 -94 1000 989
73 30 -48 306 -247 1000 989
74 -38 61 0 -173 1000 989
75 99 -18 0 -85 1000 989
76 92 -71 0 -160 1000 989
77 54 41 0 -67 1000 989
78 -85 -67 0 -15 1000 989
79 46 74 206 -74 1000 989
80 34 2 243 -208 1000 989
81 79 87 304 -10 1000 989
82 31 -22 420 -75 1000 989
83 -15 -49 429 -145 1000 989
84 -6 87 0 -75 1000 989
85 -61 89 0 -85 1000 989
86 93 -27 477 -209 1000 989
87 33 -49 66 -48 1000 989
88 -42 63 184 -117 1000 989
89 97 -15 84 -220 1000 989
90 97 -68 0 -129 1000 989
91 52 34 0 -209 1000 989
92 -84 -63 115 -212 1000 989
93 38 76 126 -188 1000 989
94 30 4 0 -146 1000 989
95 79 84 0 -94 1000 989
96 31 -21 420 -245 1000 989
97 -16 -50 0 -249 1000 989
98 -5 88 490 -249 1000 989
99 -63 86 0 -123 1000 989
100 85 -21 0 -110 1000 989
