1 -41 34 0 -79 1000 979
2 -26 -3 0 -147 1000 979
3 -45 -33 112 -140 1000 979
4 91 -23 213 -141 1000 979
5 -53 -46 0 -113 1000 979
6 52 93 0 -59 1000 979
7 69 -83 0 -91 1000 979
8 22 12 142 -144 1000 979
9 -38 45 121 -148 1000 979
10 -64 57 172 -140 1000 979
11 -89 31 0 -132 1000 979
12 46 44 149 -100 1000 979
13 59 69 0 -114 1000 979
14 -49 36 0 -150 1000 979
15 -25 -3 245 -101 1000 979
16 -45 -30 0 -102 1000 979
17 96 -27 0 -66 1000 979
18 -49 -47 0 -128 1000 979
19 55 97 0 -141 1000 979
20 68 -78 0 -113 1000 979
21 23 14 0 -159 1000 979
22 -35 43 0 -151 1000 979
23 -60 52 78 -122 1000 979
24 -87 32 0 -115 1000 979
25 41 48 0 -147 1000 979
26 55 71 0 -120 1000 979
27 -45 29 0 -87 1000 979
28 -29 -2 0 -59 1000 979
29 -43 -33 0 -146 1000 979
30 92 -23 0 -127 1000 979
31 -52 -43 59 -138 1000 979
32 55 97 131 -120 1000 979
33 70 -80 0 -173 1000 979
34 23 11 0 -134 1000 979
35 -36 49 386 -154 1000 979
36 -67 58 443 -158 1000 979
37 -86 31 0 -142 1000 979
38 48 41 317 -124 1000 979
39 58 72 0 -137 1000 979
40 -40 34 0 -119 1000 979
41 -29 -5 41 -100 1000 979
42 -46 -31 0 -159 1000 979
43 97 -24 0 -151 1000 979
44 -54 -47 101 -137 1000 979
45 48 98 211 -139 1000 979
46 67 -78 0 -167 1000 979
47 23 9 0 -153 1000 979
48 -33 45 0 -154 1000 979
49 -64 57 239 -110 1000 979
50 -88 33 0 -137 1000 979
51 45 44 0 -110 1000 979
52 56 78 0 -97 1000 979
53 -43 35 4 -121 1000 979
54 -27 1 371 -135 1000 979
55 -45 -33 0 -172 1000 979
56 96 -23 0 -130 1000 979
57 -52 -49 189 -110 1000 979
58 50 96 0 -120 1000 979
59 70 -79 336 -119 1000 979
60 23 10 0 -126 1000 979
61 -34 46 419 -161 1000 979
62 -66 56 427 -107 1000 979
63 -88 33 0 -110 1000 979
64 46 47 80 -125 1000 979
65 56 74 0 -141 1000 979
66 -44 36 176 -153 1000 979
67 -28 0 356 -137 1000 979
68 -47 -28 0 -137 1000 979
69 95 -24 0 -115 1000 979
70 -50 -47 0 -122 1000 979
71 49 95 0 -129 1000 979
72 69 -79 380 -161 1000 979
73 22 14 0 -128 1000 979
74 -35 45 0 -140 1000 979
75 -65 54 459 -143 1000 979
76 -84 29 331 -168 1000 979
77 44 45 0 -136 1000 979
78 55 71 464 -129 1000 979
79 -42 35 432 -130 1000 979
80 -27 -4 0 -107 1000 979
81 -46 -27 0 -103 1000 979
82 95 -30 0 -126 1000 979
83 -50 -47 156 -160 1000 979
84 51 98 0 -117 1000 979
85 64 -80 0 -130 1000 979
86 27 13 266 -64 1000 979
87 -34 48 0 -74 1000 979
88 -64 52 431 -166 1000 979
89 -83 31 0 -122 1000 979
90 45 48 0 -104 1000 979
91 53 79 82 -110 1000 979
92 -42 32 126 -110 1000 979
93 -29 -4 232 -111 1000 979
94 -44 -29 0 -146 1000 979
95 94 -28 273 -116 1000 979
96 -56 -46 212 -155 1000 979
97 50 95 444 -155 1000 979
98 64 -81 0 -100 1000 979
99 19 14 194 -99 1000 979
100 -33 51 0 -157 1000 979
