1 1 -85 0 -13 1000 929
2 -80 0 0 -202 1000 929
3 -77 -93 311 -24 1000 929
4 88 -93 450 -28 1000 929
5 36 37 384 -113 1000 929
6 15 2 257 -112 1000 929
7 -40 66 264 -26 1000 929
8 33 -70 0 -187 1000 929
9 -38 80 317 -1 1000 929
10 -81 -82 141 -39 1000 929
11 54 54 76 -115 1000 929
12 66 -51 0 -43 1000 929
13 42 -83 0 -56 1000 929
14 41 5 0 -6 1000 929
15 -74 8 328 -4 1000 929
16 81 -33 45 -407 1000 929
17 93 37 0 -262 1000 929
18 96 37 0 -9 1000 929
19 -63 -21 195 -5 1000 929
20 -46 -69 261 -75 1000 929
21 -100 54 0 -47 1000 929
22 63 -19 319 -104 1000 929
23 19 76 394 -2 1000 929
24 -74 -93 403 -41 1000 929
25 77 100 447 -214 1000 929
26 -2 25 38 -79 1000 929
27 92 -35 242 -77 1000 929
28 -66 -82 0 -136 1000 929
29 -65 38 0 -220 1000 929
30 49 83 0 -79 1000 929
31 -36 73 0 -107 1000 929
32 92 -64 42 -73 1000 929
33 4 52 331 -6 1000 929
34 38 -72 337 -31 1000 929
35 28 58 0 -61 1000 929
36 15 -42 0 -57 1000 929
37 86 -83 0 -121 1000 929
38 43 69 0 -105 1000 929
39 25 33 0 -1 1000 929
40 18 24 0 -15 1000 929
41 69 53 98 -20 1000 929
42 60 53 129 -8 1000 929
43 66 42 0 -8 1000 929
44 78 -38 437 -6 1000 929
45 82 3 249 -123 1000 929
46 -88 74 0 -1 1000 929
47 -67 -34 179 -28 1000 929
48 -89 -90 0 -62 1000 929
49 74 -59 0 -7 1000 929
50 -98 16 0 -38 1000 929
51 93 59 393 -1 1000 929
52 -9 7 0 -6 1000 929
53 -92 98 0 -18 1000 929
54 45 -2 0 -367 1000 929
55 -93 -67 297 -12 1000 929
56 -9 50 403 -1 1000 929
57 -85 -62 0 -120 1000 929
58 -36 91 0 -18 1000 929
59 98 -54 0 -22 1000 929
60 -67 5 282 -8 1000 929
61 80 -77 0 -194 1000 929
62 -85 -43 0 -42 1000 929
63 0 -32 271 -108 1000 929
64 -95 -42 163 -36 1000 929
65 34 87 377 -344 1000 929
66 99 -50 380 -160 1000 929
67 18 43 0 -125 1000 929
68 7 18 96 -58 1000 929
69 42 -79 464 -22 1000 929
70 -16 83 10 -7 1000 929
71 -15 -43 162 -1 1000 929
72 -6 68 0 -205 1000 929
73 -99 -6 0 -456 1000 929
74 3 -49 0 -28 1000 929
75 -9 -89 137 -8 1000 929
76 39 10 132 -73 1000 929
77 90 -41 0 -10 1000 929
78 -92 -81 136 -259 1000 929
79 49 62 215 -1 1000 929
80 99 -48 360 -180 1000 929
81 75 61 255 -1 1000 929
82 32 -85 284 -135 1000 929
83 -12 52 440 -114 1000 929
84 -29 9 338 -76 1000 929
85 38 46 442 -36 1000 929
86 -84 -43 0 -49 1000 929
87 19 -35 308 -10 1000 929
88 34 -93 0 -12 1000 929
89 -54 -31 0 -1 1000 929
90 53 31 0 -31 1000 929
91 19 75 369 -72 1000 929
92 82 25 0 -3 1000 929
93 -14 60 0 -17 1000 929
94 -64 -39 0 -85 1000 929
95 45 73 0 -312 1000 929
96 63 33 0 -21 1000 929
97 21 -91 204 -2 1000 929
98 -31 5 224 -3 1000 929
99 57 -95 0 -26 1000 929
100 -66 19 0 -7 1000 929
