1 -5 -97 0 -1 1000 939
2 65 24 285 -433 1000 939
3 85 93 0 -325 1000 939
4 44 84 0 -29 1000 939
5 -95 -48 0 -108 1000 939
6 -65 35 0 -73 1000 939
7 82 -18 211 -1 1000 939
8 38 -57 0 -53 1000 939
9 -42 -82 0 -1 1000 939
10 -16 -100 371 -56 1000 939
11 64 31 0 -3 1000 939
12 82 102 0 -45 1000 939
13 43 88 0 -305 1000 939
14 -104 -37 385 -141 1000 939
15 -61 34 0 -92 1000 939
16 73 -8 336 -19 1000 939
17 26 -51 68 -24 1000 939
18 -43 -81 0 -31 1000 939
19 -9 -98 179 -10 1000 939
20 68 26 392 -69 1000 939
21 76 99 0 -28 1000 939
22 37 80 48 -37 1000 939
23 -93 -40 0 -340 1000 939
24 -62 35 163 -135 1000 939
25 79 -16 0 -30 1000 939
26 32 -56 262 -77 1000 939
27 -49 -82 443 -102 1000 939
28 -12 -102 447 -164 1000 939
29 66 31 176 -199 1000 939
30 83 100 325 -19 1000 939
31 42 85 0 -112 1000 939
32 -96 -42 0 -57 1000 939
33 -60 30 0 -136 1000 939
34 76 -15 46 -158 1000 939
35 32 -60 128 -160 1000 939
36 -40 -80 0 -10 1000 939
37 -8 -100 339 -37 1000 939
38 72 27 0 -78 1000 939
39 80 98 0 -21 1000 939
40 43 85 316 -132 1000 939
41 -95 -36 171 -92 1000 939
42 -56 31 145 -53 1000 939
43 82 -17 392 -5 1000 939
44 41 -58 271 -30 1000 939
45 -42 -80 0 -44 1000 939
46 -9 -104 0 -57 1000 939
47 62 25 200 -71 1000 939
48 83 95 0 -81 1000 939
49 40 87 52 -72 1000 939
50 -99 -36 0 -40 1000 939
51 -50 29 0 -31 1000 939
52 70 -10 0 -57 1000 939
53 30 -66 0 -15 1000 939
54 -53 -79 401 -28 1000 939
55 -8 -102 465 -14 1000 939
56 65 31 0 -31 1000 939
57 80 97 0 -47 1000 939
58 34 85 0 -303 1000 939
59 -94 -49 0 -99 1000 939
60 -59 28 158 -55 1000 939
61 84 -15 0 -90 1000 939
62 35 -58 0 -87 1000 939
63 -45 -79 0 -158 1000 939
64 -12 -92 0 -269 1000 939
65 66 31 0 -141 1000 939
66 75 96 300 -148 1000 939
67 39 92 352 -140 1000 939
68 -92 -41 0 -5 1000 939
69 -55 33 0 -35 1000 939
70 74 -18 0 -64 1000 939
71 20 -50 0 -24 1000 939
72 -38 -84 365 -202 1000 939
73 -15 -107 0 -15 1000 939
74 64 30 235 -113 1000 939
75 71 96 26 -41 1000 939
76 40 88 304 -37 1000 939
77 -95 -35 9 -102 1000 939
78 -60 27 412 -423 1000 939
79 79 -15 0 -57 1000 939
80 24 -54 176 -19 1000 939
81 -51 -86 0 -18 1000 939
82 -4 -98 444 -24 1000 939
83 68 27 92 -76 1000 939
84 84 95 370 -166 1000 939
85 42 85 0 -46 1000 939
86 -97 -47 0 -34 1000 939
87 -61 25 0 -36 1000 939
88 76 -14 336 -15 1000 939
89 30 -56 0 -19 1000 939
90 -44 -80 49 -58 1000 939
91 -10 -95 0 -6 1000 939
92 71 16 322 -32 1000 939
93 79 91 0 -117 1000 939
94 30 84 409 -29 1000 939
95 -92 -48 258 -7 1000 939
96 -59 27 110 -42 1000 939
97 80 -20 0 -87 1000 939
98 33 -55 0 -18 1000 939
99 -49 -73 0 -207 1000 939
100 -11 -105 0 -26 1000 939
