1 -41 3 0 -154 1000 959
2 65 32 0 -135 1000 959
3 -17 18 0 -113 1000 959
4 -98 -84 75 -95 1000 959
5 -90 -69 162 -145 1000 959
6 46 97 35 -123 1000 959
7 -85 98 230 -131 1000 959
8 -86 -41 0 -161 1000 959
9 27 58 1 -183 1000 959
10 -17 37 218 -94 1000 959
11 -14 -20 161 -179 1000 959
12 -84 -21 144 -97 1000 959
13 -45 77 0 -133 1000 959
14 59 64 466 -132 1000 959
15 -82 -47 0 -116 1000 959
16 -45 -64 278 -171 1000 959
17 -73 91 0 -104 1000 959
18 33 67 276 -146 1000 959
19 96 -31 0 -125 1000 959
20 -58 68 75 -95 1000 959
21 -26 -98 0 -164 1000 959
22 -76 -57 174 -55 1000 959
23 56 83 0 -108 1000 959
24 -87 -90 0 -74 1000 959
25 57 74 300 -131 1000 959
26 -75 31 0 -133 1000 959
27 55 -56 0 -146 1000 959
28 -28 -98 251 -92 1000 959
29 23 -84 0 -146 1000 959
30 83 53 0 -133 1000 959
31 -79 -93 0 -95 1000 959
32 43 55 0 -128 1000 959
33 -69 -21 199 -110 1000 959
34 -48 57 221 -77 1000 959
35 55 -93 464 -130 1000 959
36 19 -27 442 -104 1000 959
37 -81 -58 0 -119 1000 959
38 -68 93 1 -147 1000 959
39 40 13 0 -126 1000 959
40 -46 -12 0 -190 1000 959
41 -41 61 302 -149 1000 959
42 13 -67 0 -136 1000 959
43 -31 -59 241 -88 1000 959
44 99 -30 297 -138 1000 959
45 -57 -10 0 -95 1000 959
46 18 -79 406 -93 1000 959
47 -18 20 0 -119 1000 959
48 8 -80 0 -136 1000 959
49 62 91 0 -151 1000 959
50 -98 16 0 -154 1000 959
51 35 -66 362 -120 1000 959
52 76 4 159 -150 1000 959
53 -18 -89 181 -127 1000 959
54 79 -64 0 -81 1000 959
55 62 -94 324 -113 1000 959
56 -90 -17 0 -95 1000 959
57 90 42 66 -124 1000 959
58 0 -12 231 -147 1000 959
59 -1 -5 233 -153 1000 959
60 -60 -24 371 -132 1000 959
61 36 56 0 -95 1000 959
62 9 92 0 -151 1000 959
63 22 -11 0 -169 1000 959
64 -38 -45 420 -109 1000 959
65 -67 31 184 -140 1000 959
66 69 51 79 -164 1000 959
67 -65 18 0 -121 1000 959
68 17 -27 67 -142 1000 959
69 95 2 0 -132 1000 959
70 7 -71 453 -121 1000 959
71 62 -47 46 -130 1000 959
72 30 -65 0 -156 1000 959
73 54 79 0 -138 1000 959
74 -93 12 0 -110 1000 959
75 12 -32 27 -50 1000 959
76 -76 -43 380 -124 1000 959
77 37 50 102 -87 1000 959
78 83 13 23 -173 1000 959
79 12 13 0 -149 1000 959
80 15 27 313 -114 1000 959
