1 26 -48 0 -217 1000 899
2 68 -67 446 -69 1000 899
3 71 -36 435 -6 1000 899
4 -22 2 156 -56 1000 899
5 -24 85 0 -278 1000 899
6 79 2 408 -44 1000 899
7 29 -48 0 -29 1000 899
8 48 -91 187 -140 1000 899
9 21 -16 206 -7 1000 899
10 81 71 0 -51 1000 899
11 -41 -31 0 -215 1000 899
12 -62 -74 69 -15 1000 899
13 77 -25 32 -97 1000 899
14 1 26 0 -93 1000 899
15 75 -22 0 -20 1000 899
16 -62 38 0 -25 1000 899
17 52 38 0 -37 1000 899
18 45 11 0 -21 1000 899
19 89 -14 0 -27 1000 899
20 10 -9 0 -82 1000 899
21 42 -39 0 -35 1000 899
22 -22 16 0 -99 1000 899
23 -80 82 215 -114 1000 899
24 85 -71 232 -178 1000 899
25 -43 -17 0 -49 1000 899
26 18 -58 407 -9 1000 899
27 -78 -14 157 -105 1000 899
28 68 -73 0 -51 1000 899
29 -36 -8 94 -98 1000 899
30 57 89 0 -163 1000 899
31 -46 52 0 -159 1000 899
32 -56 87 0 -99 1000 899
33 3 -6 296 -15 1000 899
34 -46 21 407 -115 1000 899
35 -64 -3 0 -130 1000 899
36 4 -78 163 -31 1000 899
37 13 -50 0 -39 1000 899
38 -74 0 68 -235 1000 899
39 -49 -25 250 -241 1000 899
40 44 87 191 -53 1000 899
41 92 5 256 -28 1000 899
42 -80 -37 0 -107 1000 899
43 53 -44 401 -23 1000 899
44 90 58 0 -50 1000 899
45 64 40 0 -55 1000 899
46 -38 -67 371 -8 1000 899
47 30 -87 57 -153 1000 899
48 91 51 302 -365 1000 899
49 91 24 0 -38 1000 899
50 -32 -66 304 -110 1000 899
