1 96 79 0 -103 1000 979
2 -24 2 0 -152 1000 979
3 -37 -92 0 -90 1000 979
4 4 -15 0 -120 1000 979
5 -89 21 22 -121 1000 979
6 -56 84 439 -116 1000 979
7 -52 26 465 -95 1000 979
8 -80 21 0 -109 1000 979
9 -74 63 0 -136 1000 979
10 97 7 0 -159 1000 979
11 5 91 212 -132 1000 979
12 91 25 0 -164 1000 979
13 7 -31 322 -189 1000 979
14 -30 -39 0 -182 1000 979
15 -24 -48 386 -138 1000 979
16 -36 44 467 -108 1000 979
17 -9 71 171 -76 1000 979
18 38 32 0 -155 1000 979
19 2 91 383 -136 1000 979
20 -39 -28 457 -141 1000 979
21 -1 73 297 -69 1000 979
22 40 10 95 -121 1000 979
23 60 30 62 -106 1000 979
24 -68 -20 470 -120 1000 979
25 30 35 320 -144 1000 979
26 -73 -75 233 -97 1000 979
27 43 83 166 -151 1000 979
28 4 -48 331 -88 1000 979
29 19 -61 0 -119 1000 979
30 73 0 43 -131 1000 979
31 -94 49 0 -99 1000 979
32 35 38 0 -116 1000 979
33 66 12 222 -145 1000 979
34 42 79 0 -102 1000 979
35 82 17 55 -86 1000 979
36 69 93 0 -130 1000 979
37 -35 -86 0 -114 1000 979
38 90 -61 0 -162 1000 979
39 8 -26 457 -138 1000 979
40 -29 -76 58 -160 1000 979
41 70 73 0 -115 1000 979
42 84 33 0 -92 1000 979
43 8 81 27 -177 1000 979
44 -29 -23 422 -140 1000 979
45 -46 -90 0 -138 1000 979
46 -9 38 0 -150 1000 979
47 -12 -23 398 -161 1000 979
48 43 65 441 -155 1000 979
49 11 13 0 -170 1000 979
50 38 -15 217 -136 1000 979
51 -50 -59 14 -82 1000 979
52 -6 30 367 -122 1000 979
53 -23 49 0 -139 1000 979
54 48 38 423 -105 1000 979
55 -71 -97 0 -97 1000 979
56 -52 -95 412 -176 1000 979
57 -50 98 89 -130 1000 979
58 54 -6 241 -170 1000 979
59 85 -79 0 -86 1000 979
60 -66 -45 226 -81 1000 979
61 33 42 195 -141 1000 979
62 19 -56 380 -91 1000 979
63 -21 51 0 -165 1000 979
64 -4 -74 224 -100 1000 979
65 -84 -65 167 -134 1000 979
66 -89 3 126 -113 1000 979
67 -64 -25 1 -133 1000 979
68 96 -26 0 -126 1000 979
69 -15 98 0 -110 1000 979
70 95 76 472 -140 1000 979
71 -11 -54 141 -143 1000 979
72 14 9 298 -113 1000 979
73 98 53 279 -103 1000 979
74 -23 -16 60 -109 1000 979
75 -58 61 0 -98 1000 979
76 13 92 0 -112 1000 979
77 -47 -49 0 -108 1000 979
78 -60 55 211 -113 1000 979
79 72 23 0 -85 1000 979
80 -55 54 407 -125 1000 979
81 -44 -60 0 -131 1000 979
82 -4 38 98 -74 1000 979
83 -99 92 0 -117 1000 979
84 -91 -34 361 -136 1000 979
85 62 -73 153 -108 1000 979
86 0 64 0 -132 1000 979
87 -12 12 0 -149 1000 979
88 -71 90 0 -163 1000 979
89 -6 65 0 -128 1000 979
90 9 -24 445 -128 1000 979
91 38 99 0 -188 1000 979
92 -51 86 0 -87 1000 979
93 -5 71 242 -165 1000 979
94 44 69 392 -76 1000 979
95 100 -25 0 -129 1000 979
96 9 34 284 -122 1000 979
97 88 8 0 -87 1000 979
98 11 86 0 -154 1000 979
99 87 56 391 -91 1000 979
100 34 6 0 -138 1000 979
