1 93 16 0 -227 1000 959
2 25 -95 267 -4 1000 959
3 -38 -78 161 -2 1000 959
4 -44 -20 0 -7 1000 959
5 -2 -78 322 -96 1000 959
6 -5 -84 397 -12 1000 959
7 -17 -24 0 -100 1000 959
8 -45 -84 194 -16 1000 959
9 16 56 337 -155 1000 959
10 35 30 329 -17 1000 959
11 84 0 0 -156 1000 959
12 -47 -87 59 -58 1000 959
13 21 -90 0 -32 1000 959
14 -36 -4 455 -138 1000 959
15 -28 -28 22 -44 1000 959
16 -16 -82 0 -23 1000 959
17 37 -68 142 -3 1000 959
18 -13 -35 158 -6 1000 959
19 -44 -86 419 -75 1000 959
20 39 12 46 -16 1000 959
21 43 31 0 -121 1000 959
22 39 -1 0 -74 1000 959
23 2 26 0 -135 1000 959
24 20 -95 46 -30 1000 959
25 -37 -4 199 -260 1000 959
26 -84 -20 388 -8 1000 959
27 -6 77 105 -24 1000 959
28 -12 -85 0 -160 1000 959
29 -34 57 0 -145 1000 959
30 -43 -67 0 -60 1000 959
31 17 54 72 -30 1000 959
32 27 32 0 -47 1000 959
33 -58 31 359 -150 1000 959
34 94 22 468 -58 1000 959
35 -5 -91 0 -132 1000 959
36 -40 -4 0 -10 1000 959
37 -35 -22 215 -89 1000 959
38 -62 -76 0 -167 1000 959
39 7 99 0 -51 1000 959
40 -17 -94 0 -86 1000 959
41 -45 -88 0 -99 1000 959
42 -97 29 229 -37 1000 959
43 31 33 0 -92 1000 959
44 35 -6 0 -3 1000 959
45 12 63 241 -343 1000 959
46 86 -88 302 -93 1000 959
47 -32 -6 293 -40 1000 959
48 30 -26 408 -275 1000 959
49 -71 -77 0 -143 1000 959
50 17 -59 0 -15 1000 959
51 70 -32 191 -111 1000 959
52 41 -92 0 -122 1000 959
53 -33 -26 0 -233 1000 959
54 -11 31 0 -97 1000 959
55 37 -18 0 -314 1000 959
56 -2 -77 226 -80 1000 959
57 27 -86 0 -71 1000 959
58 -31 -9 83 -25 1000 959
59 46 -27 328 -93 1000 959
60 -4 -80 172 -43 1000 959
61 -15 -41 231 -53 1000 959
62 -42 -29 0 -77 1000 959
63 -11 -91 86 -14 1000 959
64 13 -64 0 -200 1000 959
65 34 27 463 -39 1000 959
66 41 13 0 -93 1000 959
67 5 20 47 -201 1000 959
68 61 9 295 -234 1000 959
69 93 -14 149 -14 1000 959
70 -25 -28 0 -52 1000 959
71 49 1 53 -186 1000 959
72 -19 -85 0 -125 1000 959
73 -20 -33 69 -330 1000 959
74 -47 -89 0 -86 1000 959
75 67 45 382 -27 1000 959
76 28 29 293 -359 1000 959
77 -28 -21 0 -15 1000 959
78 58 18 0 -213 1000 959
79 29 -86 0 -148 1000 959
80 -36 -1 216 -80 1000 959
81 -30 -26 0 -223 1000 959
82 -5 -77 236 -58 1000 959
83 90 -84 0 -261 1000 959
84 -15 -31 32 -33 1000 959
85 27 90 0 -98 1000 959
86 -6 54 0 -75 1000 959
87 32 33 471 -136 1000 959
88 37 -1 0 -183 1000 959
89 42 -83 322 -45 1000 959
90 25 -85 0 -276 1000 959
91 -34 78 453 -9 1000 959
92 -34 -23 226 -13 1000 959
93 -1 -60 286 -91 1000 959
94 54 70 286 -11 1000 959
95 -15 -31 0 -3 1000 959
96 65 -81 118 -72 1000 959
97 72 6 0 -299 1000 959
98 61 34 0 -89 1000 959
99 38 -11 0 -182 1000 959
100 2 -11 76 -100 1000 959
