1 -73 -76 390 -217 1000 939
2 -93 -43 198 -69 1000 939
3 9 -29 403 -6 1000 939
4 -40 70 125 -56 1000 939
5 13 56 432 -278 1000 939
6 -28 84 0 -44 1000 939
7 -82 68 0 -29 1000 939
8 16 -75 0 -140 1000 939
9 -30 7 442 -7 1000 939
10 -78 -71 0 -51 1000 939
11 -96 -53 455 -215 1000 939
12 26 -37 102 -15 1000 939
13 -38 71 233 -97 1000 939
14 11 57 468 -93 1000 939
15 -34 85 350 -20 1000 939
16 -77 67 0 -25 1000 939
17 7 -72 0 -37 1000 939
18 -35 22 298 -21 1000 939
19 -71 -73 261 -27 1000 939
20 -85 -56 0 -82 1000 939
21 24 -28 0 -35 1000 939
22 -32 69 155 -99 1000 939
23 10 60 61 -114 1000 939
24 -34 78 0 -178 1000 939
25 -73 67 0 -49 1000 939
26 3 -62 159 -9 1000 939
27 -35 22 58 -105 1000 939
28 -70 -83 102 -51 1000 939
29 -92 -56 358 -98 1000 939
30 22 -27 159 -163 1000 939
31 -35 66 280 -159 1000 939
32 8 61 180 -99 1000 939
33 -22 89 241 -15 1000 939
34 -72 68 170 -115 1000 939
35 9 -69 448 -130 1000 939
36 -33 19 0 -31 1000 939
37 -83 -81 26 -39 1000 939
38 -89 -39 0 -235 1000 939
39 19 -35 0 -241 1000 939
40 -39 66 350 -53 1000 939
41 9 54 45 -28 1000 939
42 -25 96 130 -107 1000 939
43 -76 72 302 -23 1000 939
44 9 -73 145 -50 1000 939
45 -31 19 124 -55 1000 939
46 -79 -71 208 -8 1000 939
47 -89 -39 213 -153 1000 939
48 16 -28 123 -365 1000 939
49 -32 62 0 -38 1000 939
50 13 52 307 -110 1000 939
51 -39 97 0 -1 1000 939
52 -77 59 0 -96 1000 939
53 19 -57 93 -31 1000 939
54 -30 17 112 -87 1000 939
55 -81 -78 47 -69 1000 939
56 -99 -48 0 -8 1000 939
57 22 -25 0 -73 1000 939
58 -41 68 89 -2 1000 939
59 19 48 463 -44 1000 939
60 -22 90 433 -242 1000 939
61 -78 70 352 -36 1000 939
62 10 -67 0 -59 1000 939
63 -39 14 166 -170 1000 939
64 -74 -86 0 -91 1000 939
65 -98 -50 64 -82 1000 939
66 8 -33 376 -206 1000 939
67 -29 63 133 -110 1000 939
68 16 53 182 -13 1000 939
69 -26 86 0 -37 1000 939
70 -74 67 0 -55 1000 939
71 13 -67 251 -17 1000 939
72 -31 22 465 -140 1000 939
73 -82 -79 78 -52 1000 939
74 -93 -50 332 -61 1000 939
75 18 -28 0 -194 1000 939
76 -30 72 0 -13 1000 939
77 14 56 0 -14 1000 939
78 -24 81 293 -31 1000 939
79 -71 69 381 -6 1000 939
80 9 -71 0 -39 1000 939
81 -35 26 0 -202 1000 939
82 -84 -74 0 -177 1000 939
83 -89 -51 0 -215 1000 939
84 23 -31 0 -86 1000 939
85 -37 64 252 -72 1000 939
86 7 57 0 -4 1000 939
87 -24 89 0 -22 1000 939
88 -71 72 276 -5 1000 939
89 12 -69 375 -219 1000 939
90 -28 17 0 -174 1000 939
91 -80 -80 72 -8 1000 939
92 -88 -46 342 -224 1000 939
93 14 -30 416 -122 1000 939
94 -35 67 147 -158 1000 939
95 15 61 0 -143 1000 939
96 -35 96 0 -135 1000 939
97 -70 64 0 -43 1000 939
98 13 -63 166 -117 1000 939
99 -30 14 0 -185 1000 939
100 -80 -75 361 -10 1000 939
