1 -6 -44 234 -205 1000 989
2 -8 -40 0 -213 1000 989
3 -8 -43 0 -185 1000 989
4 -6 -46 0 -82 1000 989
5 -8 -44 0 -168 1000 989
6 -7 -41 19 -74 1000 989
7 -15 -7 0 -161 1000 989
8 -17 -6 0 -44 1000 989
9 -16 -6 361 -160 1000 989
10 -14 -8 0 -122 1000 989
11 -15 -6 0 -163 1000 989
12 -12 -6 132 -135 1000 989
13 -90 77 185 -225 1000 989
14 -89 73 0 -249 1000 989
15 -94 74 156 -135 1000 989
16 -91 77 0 -156 1000 989
17 -93 75 0 -186 1000 989
18 36 14 348 -217 1000 989
19 35 19 0 -248 1000 989
20 34 17 155 -163 1000 989
21 36 20 124 -12 1000 989
22 35 14 0 -170 1000 989
23 -53 -100 0 -234 1000 989
24 -53 -98 0 -196 1000 989
25 -55 -94 66 -226 1000 989
26 -55 -93 0 -220 1000 989
27 56 -79 0 -249 1000 989
28 55 -79 0 -8 1000 989
29 53 -79 97 -97 1000 989
30 55 -79 358 -195 1000 989
31 56 -77 12 -4 1000 989
32 55 -79 0 -88 1000 989
33 55 -77 0 -17 1000 989
34 53 -79 318 -90 1000 989
35 53 -80 0 -5 1000 989
36 53 -82 282 -68 1000 989
37 57 -75 240 -60 1000 989
38 59 -79 229 -50 1000 989
39 53 -81 0 -50 1000 989
40 47 45 0 -214 1000 989
41 45 46 0 -110 1000 989
42 45 43 493 -57 1000 989
43 47 44 0 -86 1000 989
44 48 47 136 -157 1000 989
45 42 45 0 -247 1000 989
46 45 48 0 -106 1000 989
47 -21 -45 38 -110 1000 989
48 -26 -43 0 -64 1000 989
49 -25 -42 116 -120 1000 989
50 -23 -45 481 -217 1000 989
51 -25 -45 199 -160 1000 989
52 -25 -44 261 -231 1000 989
53 -25 -42 275 -70 1000 989
54 -43 97 0 -163 1000 989
55 -41 95 288 -208 1000 989
56 -48 93 475 -122 1000 989
57 -47 98 0 -174 1000 989
58 -47 95 124 -44 1000 989
59 -46 94 0 -94 1000 989
60 -59 -12 0 -213 1000 989
61 -61 -12 232 -14 1000 989
62 -59 -17 305 -2 1000 989
63 -58 -11 23 -159 1000 989
64 -59 -12 89 -98 1000 989
65 -61 -13 0 -10 1000 989
66 -62 -12 0 -108 1000 989
67 -60 -10 471 -149 1000 989
68 -63 -11 178 -169 1000 989
69 -60 -13 0 -28 1000 989
70 -95 76 0 -106 1000 989
71 -95 78 97 -199 1000 989
72 -92 78 453 -152 1000 989
73 -95 80 0 -36 1000 989
74 -95 79 231 -35 1000 989
75 -96 81 0 -250 1000 989
76 -97 79 0 -37 1000 989
77 -93 75 0 -155 1000 989
78 -4 -56 0 -162 1000 989
79 -1 -53 288 -41 1000 989
80 -6 -54 405 -165 1000 989
81 -5 -58 88 -221 1000 989
82 -3 -53 402 -155 1000 989
83 -4 -53 0 -103 1000 989
84 -48 -58 443 -171 1000 989
85 -50 -63 263 -235 1000 989
86 -53 -61 82 -102 1000 989
87 -50 -61 0 -235 1000 989
88 -48 -61 72 -149 1000 989
89 -62 -18 267 -153 1000 989
90 -61 -16 0 -16 1000 989
91 -62 -14 484 -14 1000 989
92 -62 -13 0 -166 1000 989
93 -60 -16 55 -28 1000 989
94 -62 -17 309 -243 1000 989
95 -65 -14 0 -242 1000 989
96 51 70 0 -222 1000 989
97 51 66 0 -84 1000 989
98 50 68 0 -163 1000 989
99 50 72 0 -190 1000 989
100 53 69 413 -60 1000 989
