1 -43 10 0 -1 1000 919
2 -97 16 0 -218 1000 919
3 -89 31 0 -109 1000 919
4 27 62 0 -18 1000 919
5 4 -62 224 -1 1000 919
6 86 32 394 -1 1000 919
7 -44 64 0 -13 1000 919
8 -43 -11 353 -1 1000 919
9 -88 26 186 -5 1000 919
10 -75 27 0 -97 1000 919
11 30 60 0 -12 1000 919
12 -6 -64 0 -421 1000 919
13 63 30 80 -223 1000 919
14 -44 57 0 -129 1000 919
15 -35 -12 0 -87 1000 919
16 -91 31 0 -62 1000 919
17 -75 46 336 -5 1000 919
18 30 65 0 -211 1000 919
19 -6 -60 0 -63 1000 919
20 77 37 0 -79 1000 919
21 -53 65 0 -103 1000 919
22 -47 -6 44 -1 1000 919
23 -93 29 0 -7 1000 919
24 -85 26 0 -16 1000 919
25 22 58 360 -19 1000 919
26 5 -51 0 -182 1000 919
27 68 38 0 -123 1000 919
28 -51 65 311 -136 1000 919
29 -62 -10 71 -13 1000 919
30 -85 22 0 -81 1000 919
31 -83 41 171 -148 1000 919
32 23 63 268 -24 1000 919
33 -2 -62 0 -6 1000 919
34 70 41 0 -1 1000 919
35 -42 54 324 -7 1000 919
36 -47 -5 165 -82 1000 919
37 -85 35 0 -1 1000 919
38 -83 46 0 -22 1000 919
39 24 68 0 -90 1000 919
40 -8 -53 0 -36 1000 919
41 77 30 0 -4 1000 919
42 -50 73 346 -1 1000 919
43 -41 -6 152 -192 1000 919
44 -94 23 372 -12 1000 919
45 -87 40 0 -30 1000 919
46 39 59 79 -7 1000 919
47 7 -43 80 -9 1000 919
48 68 35 0 -10 1000 919
49 -53 56 0 -1 1000 919
50 -49 -10 0 -1 1000 919
51 -74 23 315 -1 1000 919
52 -91 35 0 -2 1000 919
53 28 62 0 -202 1000 919
54 3 -56 0 -27 1000 919
55 65 53 0 -118 1000 919
56 -38 71 0 -197 1000 919
57 -42 -14 421 -16 1000 919
58 -77 36 0 -387 1000 919
59 -86 35 0 -19 1000 919
60 24 74 0 -446 1000 919
61 6 -64 186 -11 1000 919
62 79 39 255 -91 1000 919
63 -41 70 0 -42 1000 919
64 -51 -14 0 -5 1000 919
65 -81 43 238 -83 1000 919
66 -78 49 0 -19 1000 919
67 26 63 0 -1 1000 919
68 2 -56 0 -1 1000 919
69 81 36 132 -12 1000 919
70 -39 65 0 -127 1000 919
71 -41 5 0 -8 1000 919
72 -94 20 0 -1 1000 919
73 -86 36 0 -1 1000 919
74 19 62 110 -119 1000 919
75 7 -66 0 -135 1000 919
76 84 46 264 -1 1000 919
77 -38 66 0 -95 1000 919
78 -45 -4 56 -184 1000 919
79 -90 27 0 -1 1000 919
80 -80 35 78 -1 1000 919
81 14 65 0 -7 1000 919
82 -2 -59 0 -57 1000 919
83 84 48 0 -15 1000 919
84 -49 58 340 -73 1000 919
85 -50 -3 182 -1 1000 919
86 -94 31 319 -9 1000 919
87 -81 51 0 -175 1000 919
88 33 63 207 -64 1000 919
89 6 -57 0 -39 1000 919
90 69 35 0 -180 1000 919
91 -55 68 307 -44 1000 919
92 -39 -12 0 -174 1000 919
93 -87 30 182 -1 1000 919
94 -92 41 0 -9 1000 919
95 26 64 0 -1 1000 919
96 6 -67 0 -1 1000 919
97 77 44 436 -18 1000 919
98 -46 72 73 -1 1000 919
99 -51 -5 5 -274 1000 919
100 -88 21 106 -95 1000 919
