1 80 -89 457 -62 1000 939
2 5 48 0 -3 1000 939
3 -86 8 7 -22 1000 939
4 -7 44 424 -44 1000 939
5 -96 -24 9 -88 1000 939
6 41 -64 134 -110 1000 939
7 -81 -38 0 -24 1000 939
8 -6 -49 190 -152 1000 939
9 61 47 0 -71 1000 939
10 -62 -89 0 -8 1000 939
11 -24 -72 0 -91 1000 939
12 91 57 0 -94 1000 939
13 62 -11 0 -87 1000 939
14 -16 27 0 -188 1000 939
15 52 66 23 -9 1000 939
16 -84 82 0 -8 1000 939
17 -53 52 0 -160 1000 939
18 78 65 0 -169 1000 939
19 59 83 391 -18 1000 939
20 -78 -3 239 -48 1000 939
21 -5 47 283 -56 1000 939
22 89 6 0 -22 1000 939
23 40 86 0 -90 1000 939
24 -68 -37 0 -28 1000 939
25 0 2 0 -45 1000 939
26 6 -79 0 -128 1000 939
27 18 90 17 -17 1000 939
28 -19 -66 0 -221 1000 939
29 -73 76 416 -53 1000 939
30 8 62 0 -30 1000 939
31 -93 76 17 -147 1000 939
32 93 -21 428 -12 1000 939
33 -46 80 14 -402 1000 939
34 24 -23 0 -6 1000 939
35 22 47 0 -31 1000 939
36 -94 42 0 -21 1000 939
37 66 -80 307 -32 1000 939
38 24 14 70 -18 1000 939
39 95 44 109 -128 1000 939
40 -59 12 0 -49 1000 939
41 59 -86 0 -238 1000 939
42 -71 20 0 -41 1000 939
43 29 -22 87 -14 1000 939
44 46 0 32 -107 1000 939
45 -55 -43 0 -58 1000 939
46 96 75 458 -166 1000 939
47 93 -55 464 -206 1000 939
48 -72 -10 96 -146 1000 939
49 77 70 0 -40 1000 939
50 44 -7 403 -251 1000 939
51 48 -60 361 -12 1000 939
52 59 100 0 -86 1000 939
53 81 0 10 -194 1000 939
54 -11 -42 376 -53 1000 939
55 -52 84 0 -18 1000 939
56 -85 -19 440 -2 1000 939
57 38 29 0 -90 1000 939
58 88 -13 0 -72 1000 939
59 22 45 284 -175 1000 939
60 61 -18 315 -144 1000 939
61 -19 -71 0 -36 1000 939
62 65 51 65 -75 1000 939
63 -29 -45 361 -113 1000 939
64 -51 40 307 -263 1000 939
65 35 54 0 -2 1000 939
66 -60 34 342 -52 1000 939
67 -42 -97 429 -125 1000 939
68 -37 -18 0 -6 1000 939
69 -100 -88 198 -116 1000 939
70 50 87 348 -11 1000 939
71 -40 38 0 -96 1000 939
72 39 -4 0 -95 1000 939
73 3 -81 0 -16 1000 939
74 35 -69 0 -146 1000 939
75 -20 -63 0 -67 1000 939
76 1 -15 370 -21 1000 939
77 85 15 0 -49 1000 939
78 -97 -16 0 -297 1000 939
79 68 -13 0 -35 1000 939
80 -31 -53 0 -74 1000 939
81 -54 -79 0 -49 1000 939
82 -1 34 213 -55 1000 939
83 -55 16 0 -36 1000 939
84 -50 53 0 -173 1000 939
85 -62 79 118 -17 1000 939
86 87 -8 0 -121 1000 939
87 -44 24 147 -99 1000 939
88 -48 -46 9 -55 1000 939
89 -37 -42 0 -128 1000 939
90 66 62 100 -48 1000 939
91 53 49 0 -86 1000 939
92 34 -20 72 -19 1000 939
93 -26 -68 254 -39 1000 939
94 -50 -94 0 -288 1000 939
95 56 -99 235 -6 1000 939
96 -57 45 0 -207 1000 939
97 -93 -89 0 -63 1000 939
98 -28 -84 0 -228 1000 939
99 -2 -37 0 -28 1000 939
100 10 -88 469 -106 1000 939
