1 -17 86 53 -19 100 740
2 -49 91 90 -5 100 740
3 72 25 247 -12 100 740
4 -96 -30 0 -18 100 740
5 -23 66 0 -21 100 740
6 -44 68 303 -29 100 740
7 -5 92 0 -26 100 740
8 -50 4 0 -44 100 740
9 -29 77 0 -35 100 740
10 -32 80 0 -29 100 740
11 -36 62 0 -39 100 740
12 79 46 120 -15 100 740
13 -19 4 344 -32 100 740
14 -26 82 340 -38 100 740
15 -56 -33 0 -42 100 740
16 -47 28 73 -21 100 740
17 -52 -14 329 -9 100 740
