1 -12 88 0 -11 1000 899
2 50 -39 0 -88 1000 899
3 87 -5 140 -449 1000 899
4 -86 66 0 -60 1000 899
5 -22 -69 223 -21 1000 899
6 -74 86 0 -542 1000 899
7 96 -63 96 -28 1000 899
8 -68 -41 0 -291 1000 899
9 -77 -49 56 -4 1000 899
10 57 -78 82 -41 1000 899
11 81 -85 270 -1 1000 899
12 20 -92 0 -105 1000 899
13 -40 84 443 -11 1000 899
14 -55 47 0 -1 1000 899
15 28 -45 53 -39 1000 899
16 -44 -30 308 -25 1000 899
17 -6 74 0 -521 1000 899
18 85 54 391 -52 1000 899
19 -11 98 227 -152 1000 899
20 -65 96 132 -1 1000 899
21 -7 -31 0 -1 1000 899
22 73 79 0 -53 1000 899
23 64 29 0 -121 1000 899
24 89 -41 22 -1 1000 899
25 3 -43 318 -309 1000 899
26 -79 -89 340 -4 1000 899
27 83 100 23 -90 1000 899
28 98 92 0 -1 1000 899
29 9 -72 49 -1 1000 899
30 -18 91 39 -409 1000 899
31 14 76 5 -1 1000 899
32 87 -53 186 -1 1000 899
33 -4 62 0 -79 1000 899
34 -11 85 307 -1 1000 899
35 -33 65 323 -43 1000 899
36 -88 71 0 -8 1000 899
37 16 69 0 -85 1000 899
38 -66 58 0 -281 1000 899
39 68 46 65 -230 1000 899
40 -44 -43 415 -29 1000 899
41 58 46 0 -74 1000 899
42 46 9 117 -1 1000 899
43 68 -63 0 -1 1000 899
44 -1 -29 0 -75 1000 899
45 92 35 202 -6 1000 899
46 -85 64 384 -23 1000 899
47 28 -29 0 -217 1000 899
48 70 -17 0 -2 1000 899
49 12 100 0 -24 1000 899
50 17 74 255 -139 1000 899
