1 20 -91 0 -103 1000 939
2 31 -29 0 -24 1000 939
3 35 -22 0 -174 1000 939
4 80 -42 453 -29 1000 939
5 96 41 232 -106 1000 939
6 -93 -12 0 -116 1000 939
7 29 -66 0 -207 1000 939
8 -82 17 0 -258 1000 939
9 75 -92 0 -59 1000 939
10 29 -81 380 -82 1000 939
11 37 -19 0 -7 1000 939
12 41 -26 0 -134 1000 939
13 -16 -5 0 -128 1000 939
14 76 -56 172 -11 1000 939
15 8 56 74 -92 1000 939
16 17 -58 45 -160 1000 939
17 -96 -69 150 -88 1000 939
18 79 -72 0 -4 1000 939
19 25 -92 0 -392 1000 939
20 44 -25 104 -3 1000 939
21 27 -23 0 -36 1000 939
22 77 -59 348 -20 1000 939
23 10 -15 328 -262 1000 939
24 0 75 337 -11 1000 939
25 89 -42 0 -48 1000 939
26 -91 93 393 -24 1000 939
27 83 -66 331 -100 1000 939
28 28 -97 258 -45 1000 939
29 49 -30 0 -53 1000 939
30 28 -27 0 -65 1000 939
31 84 -61 111 -132 1000 939
32 5 -71 199 -36 1000 939
33 -100 52 0 -227 1000 939
34 24 -73 272 -60 1000 939
35 -93 -72 339 -61 1000 939
36 80 61 0 -221 1000 939
37 22 -100 0 -16 1000 939
38 10 -27 27 -152 1000 939
39 -99 57 371 -37 1000 939
40 67 28 259 -104 1000 939
41 -1 -17 0 -19 1000 939
42 -106 54 0 -38 1000 939
43 24 -41 0 -263 1000 939
44 -94 -86 0 -209 1000 939
45 83 -66 0 -39 1000 939
46 24 -95 0 -79 1000 939
47 46 -23 137 -393 1000 939
48 -14 -26 0 -50 1000 939
49 6 -89 0 -27 1000 939
50 19 -16 252 -79 1000 939
51 -94 55 98 -36 1000 939
52 -45 91 427 -37 1000 939
53 -89 -77 330 -1 1000 939
54 85 7 422 -222 1000 939
55 29 -92 0 -63 1000 939
56 36 -26 215 -2 1000 939
57 36 -28 423 -12 1000 939
58 76 -12 0 -104 1000 939
59 67 -24 0 -36 1000 939
60 -95 50 234 -28 1000 939
61 24 -74 0 -6 1000 939
62 74 -79 0 -214 1000 939
63 1 27 0 -56 1000 939
64 31 -92 107 -97 1000 939
65 43 -24 0 -220 1000 939
66 35 52 0 -100 1000 939
67 46 26 396 -59 1000 939
68 2 -20 310 -86 1000 939
69 73 55 140 -182 1000 939
70 25 -65 0 -36 1000 939
71 -2 42 420 -152 1000 939
72 78 0 283 -71 1000 939
73 -23 63 263 -38 1000 939
74 16 22 204 -114 1000 939
75 86 -16 172 -40 1000 939
76 76 -8 0 -9 1000 939
77 2 25 198 -62 1000 939
78 -95 53 0 -8 1000 939
79 22 -63 0 -153 1000 939
80 -88 -72 150 -4 1000 939
81 87 -68 0 -44 1000 939
82 19 22 70 -74 1000 939
83 43 -18 0 -1 1000 939
84 34 -84 0 -71 1000 939
85 82 -2 86 -26 1000 939
86 0 -19 0 -42 1000 939
87 -96 95 25 -8 1000 939
88 23 -70 239 -10 1000 939
89 -91 80 0 -1 1000 939
90 78 -67 131 -32 1000 939
91 20 -98 263 -81 1000 939
92 38 -26 0 -240 1000 939
93 32 -80 386 -37 1000 939
94 74 3 362 -26 1000 939
95 15 -14 0 -359 1000 939
96 -97 57 0 -72 1000 939
97 27 -69 82 -200 1000 939
98 -76 21 169 -65 1000 939
99 77 -68 462 -62 1000 939
100 23 -92 94 -147 1000 939
