1 34 70 0 -79 1000 979
2 0 -11 0 -147 1000 979
3 -23 -94 112 -140 1000 979
4 -77 15 213 -141 1000 979
5 -77 21 0 -113 1000 979
6 -74 64 0 -59 1000 979
7 -92 25 0 -91 1000 979
8 -21 -66 142 -144 1000 979
9 22 -61 121 -148 1000 979
10 -1 -36 172 -140 1000 979
11 -86 100 0 -132 1000 979
12 54 47 149 -100 1000 979
13 -68 -74 0 -114 1000 979
14 -65 -24 0 -150 1000 979
15 48 -9 245 -101 1000 979
16 -31 -88 0 -102 1000 979
17 -62 16 0 -66 1000 979
18 -74 -83 0 -128 1000 979
19 -77 63 0 -141 1000 979
20 97 -20 0 -113 1000 979
21 50 -65 0 -159 1000 979
22 55 -63 0 -151 1000 979
23 -4 -71 78 -122 1000 979
24 45 14 0 -115 1000 979
25 -100 55 0 -147 1000 979
26 58 -80 0 -120 1000 979
27 -62 -27 0 -87 1000 979
28 -17 -13 0 -59 1000 979
29 -21 -92 0 -146 1000 979
30 24 10 0 -127 1000 979
31 -61 -89 59 -138 1000 979
32 -74 59 131 -120 1000 979
33 -62 28 0 -173 1000 979
34 52 7 0 -134 1000 979
35 51 -60 386 -154 1000 979
36 -4 -34 443 -158 1000 979
37 -70 101 0 -142 1000 979
38 50 51 317 -124 1000 979
39 -65 41 0 -137 1000 979
40 -62 -24 0 -119 1000 979
41 -50 -10 41 -100 1000 979
42 -20 -90 0 -159 1000 979
43 -80 15 0 -151 1000 979
44 -73 -86 101 -137 1000 979
45 -77 62 211 -139 1000 979
46 -62 22 0 -167 1000 979
47 -19 -62 0 -153 1000 979
48 54 -61 0 -154 1000 979
49 -32 -32 239 -110 1000 979
50 -85 97 0 -137 1000 979
51 48 54 0 -110 1000 979
52 -62 -76 0 -97 1000 979
53 -62 -25 4 -121 1000 979
54 51 -10 371 -135 1000 979
55 -8 -33 0 -172 1000 979
56 29 16 0 -130 1000 979
57 -74 -93 189 -110 1000 979
58 -11 64 0 -120 1000 979
59 -63 -86 336 -119 1000 979
60 49 -73 0 -126 1000 979
61 56 -65 419 -161 1000 979
62 18 -34 427 -107 1000 979
63 -54 95 0 -110 1000 979
64 51 52 80 -125 1000 979
65 -65 -61 0 -141 1000 979
66 -60 -24 176 -153 1000 979
67 -87 -15 356 -137 1000 979
68 -65 -89 0 -137 1000 979
69 -82 9 0 -115 1000 979
70 -76 -84 0 -122 1000 979
71 -73 64 0 -129 1000 979
72 -27 27 380 -161 1000 979
73 51 -60 0 -128 1000 979
74 -28 -61 0 -140 1000 979
75 -4 -33 459 -143 1000 979
76 9 94 331 -168 1000 979
77 49 53 0 -136 1000 979
78 59 -68 464 -129 1000 979
79 -61 -25 432 -130 1000 979
80 31 -11 0 -107 1000 979
81 -23 53 0 -103 1000 979
82 -79 -62 0 -126 1000 979
83 -79 -88 156 -160 1000 979
84 -77 -12 0 -117 1000 979
85 -60 24 0 -130 1000 979
86 49 47 266 -64 1000 979
87 -80 -62 0 -74 1000 979
88 -7 -29 431 -166 1000 979
89 -85 -67 0 -122 1000 979
90 54 50 0 -104 1000 979
91 -72 -74 82 -110 1000 979
92 -65 -25 126 -110 1000 979
93 -72 -10 232 -111 1000 979
94 -25 -92 0 -146 1000 979
95 93 -29 273 -116 1000 979
96 -76 -40 212 -155 1000 979
97 -79 64 444 -155 1000 979
98 -59 28 0 -100 1000 979
99 49 -61 194 -99 1000 979
100 54 94 0 -157 1000 979
