1 14 -79 432 -207 1000 949
2 92 3 0 -87 1000 949
3 91 -84 0 -13 1000 949
4 38 35 294 -35 1000 949
5 9 -64 0 -97 1000 949
6 -12 -86 104 -149 1000 949
7 16 -59 0 -131 1000 949
8 49 -68 0 -89 1000 949
9 -53 96 354 -125 1000 949
10 78 46 282 -23 1000 949
11 10 -72 0 -207 1000 949
12 69 3 135 -225 1000 949
13 -62 -84 52 -233 1000 949
14 38 35 359 -93 1000 949
15 16 -57 0 -54 1000 949
16 84 -96 0 -82 1000 949
17 86 -53 0 -90 1000 949
18 48 -66 353 -119 1000 949
19 -58 95 0 -260 1000 949
20 76 46 292 -125 1000 949
21 12 19 153 -32 1000 949
22 19 1 460 -44 1000 949
23 87 -89 0 -119 1000 949
24 38 35 11 -6 1000 949
25 15 -47 0 -212 1000 949
26 -56 -90 426 -149 1000 949
27 -36 -55 0 -88 1000 949
28 48 -72 265 -22 1000 949
29 -55 -4 210 -22 1000 949
30 54 52 74 -148 1000 949
31 13 21 369 -23 1000 949
32 93 -91 0 -30 1000 949
33 83 -18 0 -66 1000 949
34 39 41 205 -27 1000 949
35 83 -50 271 -126 1000 949
36 83 -93 0 -278 1000 949
37 -65 -61 0 -43 1000 949
38 50 -40 134 -72 1000 949
39 -56 -83 0 -40 1000 949
40 41 45 0 -114 1000 949
41 15 29 91 -47 1000 949
42 95 5 148 -7 1000 949
43 -28 -85 438 -83 1000 949
44 46 36 152 -288 1000 949
45 12 -56 74 -1 1000 949
46 82 -89 0 -108 1000 949
47 -40 -53 380 -40 1000 949
48 -56 -16 0 -5 1000 949
49 -63 -87 0 -46 1000 949
50 80 46 107 -109 1000 949
51 15 24 461 -259 1000 949
52 36 40 0 -65 1000 949
53 -64 -88 0 -15 1000 949
54 39 36 0 -72 1000 949
55 -16 -49 0 -46 1000 949
56 76 -87 0 -375 1000 949
57 78 -68 0 -50 1000 949
58 43 -66 0 -100 1000 949
59 -59 97 0 -57 1000 949
60 74 12 0 -310 1000 949
61 9 25 131 -1 1000 949
62 -30 -1 161 -42 1000 949
63 83 -90 0 -13 1000 949
64 37 33 0 -21 1000 949
65 87 -52 153 -194 1000 949
66 79 -86 0 -42 1000 949
67 75 -59 0 -150 1000 949
68 40 -44 114 -8 1000 949
69 -57 -5 0 -169 1000 949
70 74 8 0 -63 1000 949
71 71 32 0 -108 1000 949
72 33 -35 359 -43 1000 949
73 88 88 438 -11 1000 949
74 47 32 186 -6 1000 949
75 17 -51 439 -46 1000 949
76 83 -11 107 -102 1000 949
77 -35 -51 0 -189 1000 949
78 -77 -73 149 -164 1000 949
79 96 91 222 -58 1000 949
80 -90 96 0 -95 1000 949
81 16 21 0 -78 1000 949
82 95 1 426 -1 1000 949
83 38 -91 375 -13 1000 949
84 40 29 288 -30 1000 949
85 15 -51 332 -121 1000 949
86 78 -53 0 -9 1000 949
87 -90 -59 418 -11 1000 949
88 45 -31 0 -37 1000 949
89 -59 97 288 -11 1000 949
90 67 50 57 -111 1000 949
91 4 24 0 -432 1000 949
92 91 2 418 -56 1000 949
93 93 26 463 -381 1000 949
94 -17 40 0 -187 1000 949
95 24 -49 294 -102 1000 949
96 90 -91 0 -149 1000 949
97 -32 -58 0 -137 1000 949
98 97 -73 0 -60 1000 949
99 -57 -64 0 -40 1000 949
100 -74 51 333 -138 1000 949
