1 33 69 234 -205 1000 989
2 -31 -56 0 -213 1000 989
3 35 70 0 -185 1000 989
4 -25 -23 0 -82 1000 989
5 -37 97 0 -168 1000 989
6 -40 -60 19 -74 1000 989
7 -63 -25 0 -161 1000 989
8 50 -85 0 -44 1000 989
9 7 42 361 -160 1000 989
10 -91 -97 0 -122 1000 989
11 -91 -20 0 -163 1000 989
12 72 70 132 -135 1000 989
13 -51 30 185 -225 1000 989
14 38 76 0 -249 1000 989
15 32 68 156 -135 1000 989
16 -30 -54 0 -156 1000 989
17 32 62 0 -186 1000 989
18 -27 -20 348 -217 1000 989
19 -38 98 0 -248 1000 989
20 -40 -61 155 -163 1000 989
21 -65 -26 124 -12 1000 989
22 44 -86 0 -170 1000 989
23 -1 41 0 -234 1000 989
24 -91 -96 0 -196 1000 989
25 -91 -14 66 -226 1000 989
26 76 66 0 -220 1000 989
27 -49 29 0 -249 1000 989
28 37 78 0 -8 1000 989
29 37 69 97 -97 1000 989
30 -35 -57 358 -195 1000 989
31 34 62 12 -4 1000 989
32 -24 -23 0 -88 1000 989
33 -37 95 0 -17 1000 989
34 -39 -59 318 -90 1000 989
35 -65 -24 0 -5 1000 989
36 46 -88 282 -68 1000 989
37 1 45 240 -60 1000 989
38 -91 -97 229 -50 1000 989
39 -89 -19 0 -50 1000 989
40 77 66 0 -214 1000 989
41 -49 29 0 -110 1000 989
42 36 74 493 -57 1000 989
43 33 70 0 -86 1000 989
44 -29 -59 136 -157 1000 989
45 34 68 0 -247 1000 989
46 -21 -20 0 -106 1000 989
47 -40 94 38 -110 1000 989
48 -38 -58 0 -64 1000 989
49 -64 -30 116 -120 1000 989
50 45 -87 481 -217 1000 989
51 0 44 199 -160 1000 989
52 -88 -94 261 -231 1000 989
53 -87 -14 275 -70 1000 989
54 67 68 0 -163 1000 989
55 -49 29 288 -208 1000 989
56 37 74 475 -122 1000 989
57 36 70 0 -174 1000 989
58 -36 -58 124 -44 1000 989
59 34 67 0 -94 1000 989
60 -25 -23 0 -213 1000 989
61 -35 98 232 -14 1000 989
62 -39 -57 305 -2 1000 989
63 -66 -27 23 -159 1000 989
64 46 -89 89 -98 1000 989
65 5 43 0 -10 1000 989
66 -86 -95 0 -108 1000 989
67 -92 -15 471 -149 1000 989
68 72 66 178 -169 1000 989
69 -51 27 0 -28 1000 989
70 36 75 0 -106 1000 989
71 30 66 97 -199 1000 989
72 -28 -58 453 -152 1000 989
73 33 67 0 -36 1000 989
74 -24 -21 231 -35 1000 989
75 -37 99 0 -250 1000 989
76 -40 -63 0 -37 1000 989
77 -62 -25 0 -155 1000 989
78 47 -88 0 -162 1000 989
79 4 47 288 -41 1000 989
80 -85 -93 405 -165 1000 989
81 -90 -15 88 -221 1000 989
82 72 66 402 -155 1000 989
83 -50 31 0 -103 1000 989
84 36 74 443 -171 1000 989
85 36 70 263 -235 1000 989
86 -29 -57 82 -102 1000 989
87 35 70 0 -235 1000 989
88 -25 -23 72 -149 1000 989
89 -41 100 267 -153 1000 989
90 -40 -57 0 -16 1000 989
91 -67 -27 484 -14 1000 989
92 48 -86 0 -166 1000 989
93 4 41 55 -28 1000 989
94 -92 -96 309 -243 1000 989
95 -92 -15 0 -242 1000 989
96 73 62 0 -222 1000 989
97 -52 29 0 -84 1000 989
98 39 75 0 -163 1000 989
99 31 65 0 -190 1000 989
100 -31 -57 413 -60 1000 989
