1 74 1 0 -1 1000 939
2 50 -90 285 -433 1000 939
3 -15 -21 0 -325 1000 939
4 -16 -5 0 -29 1000 939
5 37 87 0 -108 1000 939
6 -76 60 0 -73 1000 939
7 -41 -86 211 -1 1000 939
8 -60 -55 0 -53 1000 939
9 71 -1 0 -1 1000 939
10 -90 11 371 -56 1000 939
11 33 2 0 -3 1000 939
12 -21 -75 0 -45 1000 939
13 -93 0 0 -305 1000 939
14 -67 -22 385 -141 1000 939
15 -51 -34 0 -92 1000 939
16 -14 -86 336 -19 1000 939
17 -95 -31 68 -24 1000 939
18 39 -8 0 -31 1000 939
19 77 12 179 -10 1000 939
20 72 -69 392 -69 1000 939
21 -22 -67 0 -28 1000 939
22 -31 -44 48 -37 1000 939
23 -73 88 0 -340 1000 939
24 -29 73 163 -135 1000 939
25 -8 -29 0 -30 1000 939
26 74 94 262 -77 1000 939
27 28 95 443 -102 1000 939
28 -5 -47 447 -164 1000 939
29 -62 -46 176 -199 1000 939
30 2 -95 325 -19 1000 939
31 -5 -6 0 -112 1000 939
32 -65 -41 0 -57 1000 939
33 -44 -93 0 -136 1000 939
34 -77 -59 46 -158 1000 939
35 48 58 128 -160 1000 939
36 -1 -49 0 -10 1000 939
37 96 -86 339 -37 1000 939
38 30 -6 0 -78 1000 939
39 61 -100 0 -21 1000 939
40 82 -58 316 -132 1000 939
41 -2 -82 171 -92 1000 939
42 -91 40 145 -53 1000 939
43 45 -21 392 -5 1000 939
44 -80 -5 271 -30 1000 939
45 78 -30 0 -44 1000 939
46 -21 -66 0 -57 1000 939
47 -76 -45 200 -71 1000 939
48 66 93 0 -81 1000 939
49 -46 -49 52 -72 1000 939
50 90 100 0 -40 1000 939
51 30 92 0 -31 1000 939
52 -72 -76 0 -57 1000 939
53 -84 -2 0 -15 1000 939
54 -10 -44 401 -28 1000 939
55 78 12 465 -14 1000 939
56 58 54 0 -31 1000 939
57 1 -55 0 -47 1000 939
58 61 85 0 -303 1000 939
59 -89 -88 0 -99 1000 939
60 59 -50 158 -55 1000 939
61 -49 99 0 -90 1000 939
62 85 -39 0 -87 1000 939
63 -43 71 0 -158 1000 939
64 59 59 0 -269 1000 939
65 -63 64 0 -141 1000 939
66 85 75 300 -148 1000 939
67 86 36 352 -140 1000 939
68 -63 -45 0 -5 1000 939
69 -11 -46 0 -35 1000 939
70 -29 60 0 -64 1000 939
71 9 3 0 -24 1000 939
72 -97 34 365 -202 1000 939
73 -70 -63 0 -15 1000 939
74 -26 31 235 -113 1000 939
75 -34 82 26 -41 1000 939
76 -74 38 304 -37 1000 939
77 -16 58 9 -102 1000 939
78 -95 -20 412 -423 1000 939
79 -80 25 0 -57 1000 939
80 -10 -9 176 -19 1000 939
81 66 -15 0 -18 1000 939
82 -60 57 444 -24 1000 939
83 36 -72 92 -76 1000 939
84 12 -69 370 -166 1000 939
85 -42 12 0 -46 1000 939
86 -78 6 0 -34 1000 939
87 79 99 0 -36 1000 939
88 -70 -22 336 -15 1000 939
89 -1 64 0 -19 1000 939
90 -60 66 49 -58 1000 939
91 -57 54 0 -6 1000 939
92 -17 -58 322 -32 1000 939
93 -31 84 0 -117 1000 939
94 -86 -68 409 -29 1000 939
95 -94 79 258 -7 1000 939
96 39 -74 110 -42 1000 939
97 67 97 0 -87 1000 939
98 83 -5 0 -18 1000 939
99 -39 52 0 -207 1000 939
100 -19 61 0 -26 1000 939
