1 7 38 40 -61 1000 949
2 8 38 0 -218 1000 949
3 2 31 71 -88 1000 949
4 12 40 0 -52 1000 949
5 9 38 0 -29 1000 949
6 6 36 0 -85 1000 949
7 8 37 0 -33 1000 949
8 8 44 290 -209 1000 949
9 13 33 0 -84 1000 949
10 5 35 0 -137 1000 949
11 3 -55 0 -41 1000 949
12 9 -47 0 -96 1000 949
13 5 -50 0 -9 1000 949
14 4 -61 0 -199 1000 949
15 0 -54 0 -43 1000 949
16 8 -55 0 -14 1000 949
17 5 -57 0 -114 1000 949
18 7 -58 0 -35 1000 949
19 1 -61 181 -6 1000 949
20 -2 -54 0 -120 1000 949
21 1 -54 224 -302 1000 949
22 96 0 0 -167 1000 949
23 91 -8 408 -165 1000 949
24 90 -7 0 -116 1000 949
25 101 -9 0 -63 1000 949
26 84 -12 255 -253 1000 949
27 93 -8 27 -134 1000 949
28 87 -4 91 -4 1000 949
29 87 -3 0 -89 1000 949
30 63 -77 322 -69 1000 949
31 54 -81 439 -98 1000 949
32 68 -85 0 -45 1000 949
33 67 -77 0 -208 1000 949
34 57 -80 0 -16 1000 949
35 64 -80 0 -107 1000 949
36 59 -77 252 -77 1000 949
37 59 -78 42 -66 1000 949
38 65 -72 423 -39 1000 949
39 64 -76 0 -147 1000 949
40 61 -79 171 -67 1000 949
41 52 65 0 -125 1000 949
42 60 64 0 -311 1000 949
43 53 75 0 -39 1000 949
44 53 64 0 -157 1000 949
45 48 72 0 -170 1000 949
46 53 68 0 -94 1000 949
47 2 86 0 -209 1000 949
48 1 87 0 -141 1000 949
49 8 83 429 -233 1000 949
50 5 93 0 -121 1000 949
51 3 85 123 -15 1000 949
52 8 80 336 -25 1000 949
53 6 86 0 -12 1000 949
54 4 84 0 -98 1000 949
55 5 84 0 -93 1000 949
56 3 82 0 -7 1000 949
57 29 46 441 -131 1000 949
58 25 42 0 -144 1000 949
59 23 45 0 -21 1000 949
60 27 47 0 -79 1000 949
61 25 46 148 -19 1000 949
62 23 45 0 -374 1000 949
63 17 50 369 -79 1000 949
64 22 45 0 -83 1000 949
65 62 39 0 -101 1000 949
66 59 42 174 -125 1000 949
67 57 35 459 -40 1000 949
68 67 36 57 -154 1000 949
69 64 38 0 -15 1000 949
70 62 44 0 -167 1000 949
71 62 41 0 -36 1000 949
72 66 44 0 -86 1000 949
73 57 41 230 -37 1000 949
74 58 45 0 -25 1000 949
75 58 44 11 -151 1000 949
76 11 97 280 -69 1000 949
77 4 88 0 -123 1000 949
78 8 95 0 -254 1000 949
79 17 88 309 -115 1000 949
80 9 89 0 -131 1000 949
81 10 93 273 -71 1000 949
82 10 94 0 -21 1000 949
83 14 96 0 -44 1000 949
84 13 91 0 -15 1000 949
85 9 93 0 -33 1000 949
86 8 97 73 -18 1000 949
87 7 92 213 -94 1000 949
88 4 -86 0 -344 1000 949
89 5 -89 454 -37 1000 949
90 4 -87 0 -27 1000 949
91 7 -85 299 -10 1000 949
92 9 -88 145 -30 1000 949
93 8 -89 170 -78 1000 949
94 6 -91 0 -19 1000 949
95 14 -92 245 -66 1000 949
96 9 -81 360 -41 1000 949
97 6 -92 0 -194 1000 949
98 8 -89 0 -18 1000 949
99 7 -89 0 -133 1000 949
100 73 5 0 -123 1000 949
