1 -17 -60 276 -260 1000 959
2 -3 -51 220 -277 1000 959
3 -33 23 0 -111 1000 959
4 66 -91 44 -135 1000 959
5 -82 34 59 -429 1000 959
6 -4 -35 0 -13 1000 959
7 34 81 254 -93 1000 959
8 -16 95 0 -152 1000 959
9 73 -55 182 -11 1000 959
10 14 -36 435 -176 1000 959
11 -52 -98 364 -82 1000 959
12 -21 -65 444 -133 1000 959
13 12 -47 424 -102 1000 959
14 -30 19 0 -4 1000 959
15 -48 -88 0 -70 1000 959
16 -78 58 0 -133 1000 959
17 -91 -55 0 -21 1000 959
18 58 86 421 -1 1000 959
19 76 95 0 -65 1000 959
20 -19 -50 0 -49 1000 959
21 -25 47 0 -52 1000 959
22 69 -100 0 -312 1000 959
23 -29 -62 368 -143 1000 959
24 5 -65 0 -17 1000 959
25 -33 22 369 -71 1000 959
26 65 -92 0 -87 1000 959
27 -77 34 0 -351 1000 959
28 -90 -51 0 -51 1000 959
29 59 84 236 -278 1000 959
30 79 21 412 -79 1000 959
31 13 -54 162 -274 1000 959
32 36 28 0 -251 1000 959
33 91 -96 0 -51 1000 959
34 -26 -63 455 -122 1000 959
35 6 33 0 -200 1000 959
36 -30 19 0 -4 1000 959
37 66 50 0 -195 1000 959
38 -80 39 0 -85 1000 959
39 16 -57 449 -121 1000 959
40 28 84 0 -64 1000 959
41 84 42 20 -51 1000 959
42 4 -55 151 -1 1000 959
43 -27 40 0 -13 1000 959
44 92 68 0 -60 1000 959
45 -27 -62 324 -45 1000 959
46 6 -47 434 -54 1000 959
47 -27 28 74 -206 1000 959
48 -72 -93 0 -129 1000 959
49 -79 32 356 -40 1000 959
50 23 -54 373 -6 1000 959
51 60 18 140 -63 1000 959
52 29 86 0 -274 1000 959
53 2 -52 35 -95 1000 959
54 -26 85 234 -77 1000 959
55 35 -96 125 -72 1000 959
56 -24 -97 0 -11 1000 959
57 8 -40 0 -66 1000 959
58 -33 16 246 -26 1000 959
59 67 -98 391 -249 1000 959
60 -50 26 382 -24 1000 959
61 -93 -52 321 -149 1000 959
62 -57 88 48 -244 1000 959
63 77 -33 0 -29 1000 959
64 6 -53 0 -168 1000 959
65 -27 -91 3 -130 1000 959
66 -48 -46 0 -230 1000 959
67 -25 -67 81 -26 1000 959
68 -3 -7 0 -46 1000 959
69 74 14 0 -21 1000 959
70 64 -89 0 -142 1000 959
71 -38 -60 450 -33 1000 959
72 -91 -52 0 -35 1000 959
73 58 82 0 -261 1000 959
74 84 -71 126 -82 1000 959
75 8 -52 0 -299 1000 959
76 -27 41 0 -55 1000 959
77 95 -41 0 -72 1000 959
78 -25 34 349 -71 1000 959
79 10 -48 99 -39 1000 959
80 -29 17 229 -101 1000 959
81 -25 -85 270 -186 1000 959
82 -79 30 0 -38 1000 959
83 -90 -84 0 -70 1000 959
84 64 87 0 -13 1000 959
85 82 94 0 -129 1000 959
86 7 -52 0 -90 1000 959
87 -70 22 185 -137 1000 959
88 21 -92 71 -239 1000 959
89 -19 26 0 -14 1000 959
90 5 -43 0 -13 1000 959
91 27 19 32 -57 1000 959
92 63 78 218 -35 1000 959
93 -66 32 0 -81 1000 959
94 -84 -54 0 -59 1000 959
95 62 87 0 -103 1000 959
96 80 93 145 -32 1000 959
97 4 -50 0 -14 1000 959
98 -27 41 325 -213 1000 959
99 29 -93 164 -29 1000 959
100 21 -66 0 -63 1000 959
