1 -39 83 181 -86 1000 979
2 -33 90 31 -217 1000 979
3 -34 84 0 -104 1000 979
4 -35 94 0 -154 1000 979
5 -36 86 253 -117 1000 979
6 -36 82 0 -19 1000 979
7 -39 86 353 -18 1000 979
8 -34 88 294 -115 1000 979
9 -37 91 431 -121 1000 979
10 -93 -60 0 -246 1000 979
11 -92 -64 119 -203 1000 979
12 -99 -59 0 -43 1000 979
13 -91 -65 0 -88 1000 979
14 -94 -62 0 -82 1000 979
15 -94 -64 0 -94 1000 979
16 -94 -65 0 -205 1000 979
17 22 -67 328 -142 1000 979
18 27 -64 395 -162 1000 979
19 30 -64 106 -132 1000 979
20 22 -67 366 -141 1000 979
21 20 -63 233 -9 1000 979
22 26 -63 101 -19 1000 979
23 19 -68 275 -152 1000 979
24 29 -64 444 -218 1000 979
25 25 -64 298 -3 1000 979
26 77 80 0 -89 1000 979
27 77 84 295 -17 1000 979
28 82 84 275 -152 1000 979
29 80 82 0 -112 1000 979
30 80 89 0 -56 1000 979
31 80 84 279 -196 1000 979
32 74 86 0 -201 1000 979
33 75 82 246 -121 1000 979
34 62 -63 325 -103 1000 979
35 61 -59 0 -220 1000 979
36 60 -64 428 -86 1000 979
37 57 -58 0 -120 1000 979
38 60 -62 380 -190 1000 979
39 58 -60 0 -228 1000 979
40 58 -57 322 -20 1000 979
41 -50 90 0 -221 1000 979
42 -51 92 0 -12 1000 979
43 -51 93 42 -33 1000 979
44 -52 90 368 -136 1000 979
45 -49 91 0 -170 1000 979
46 -46 93 342 -116 1000 979
47 -51 91 120 -177 1000 979
48 -48 96 7 -20 1000 979
49 1 -68 0 -241 1000 979
50 6 -68 75 -236 1000 979
51 2 -64 423 -4 1000 979
52 3 -70 441 -7 1000 979
53 3 -68 391 -248 1000 979
54 -2 -66 0 -75 1000 979
55 -72 -52 358 -248 1000 979
56 -78 -50 278 -230 1000 979
57 -76 -56 443 -159 1000 979
58 -75 -54 418 -17 1000 979
59 -76 -49 0 -7 1000 979
60 -75 -52 0 -49 1000 979
61 -74 -50 0 -49 1000 979
62 -73 -54 207 -114 1000 979
63 -79 -50 0 -13 1000 979
64 88 35 162 -154 1000 979
65 90 32 480 -86 1000 979
66 88 38 0 -191 1000 979
67 91 37 0 -120 1000 979
68 89 37 0 -117 1000 979
69 88 30 211 -12 1000 979
70 91 30 0 -161 1000 979
71 -37 -35 109 -204 1000 979
72 -36 -29 15 -97 1000 979
73 -35 -35 467 -183 1000 979
74 -33 -31 0 -50 1000 979
75 -34 -34 0 -241 1000 979
76 -31 -29 476 -129 1000 979
77 71 93 0 -232 1000 979
78 71 94 253 -193 1000 979
79 72 89 0 -191 1000 979
80 73 89 460 -70 1000 979
81 75 87 0 -55 1000 979
82 74 96 0 -2 1000 979
83 74 92 413 -188 1000 979
84 40 28 0 -103 1000 979
85 43 27 381 -172 1000 979
86 44 31 138 -77 1000 979
87 44 25 292 -180 1000 979
88 39 29 0 -239 1000 979
89 39 29 89 -151 1000 979
90 26 -87 0 -166 1000 979
91 27 -88 0 -132 1000 979
92 20 -90 0 -147 1000 979
93 24 -91 0 -122 1000 979
94 24 -85 0 -161 1000 979
95 25 -85 298 -169 1000 979
96 74 13 441 -180 1000 979
97 73 14 275 -230 1000 979
98 77 13 0 -7 1000 979
99 77 11 0 -115 1000 979
100 75 14 0 -243 1000 979
