1 -46 0 0 -26 1000 939
2 -44 6 0 -688 1000 939
3 -50 9 174 -1 1000 939
4 -46 4 118 -202 1000 939
5 -45 5 0 -1 1000 939
6 -20 14 0 -120 1000 939
7 -12 14 317 -439 1000 939
8 -21 14 238 -3 1000 939
9 -18 6 0 -1 1000 939
10 -19 14 131 -97 1000 939
11 -13 6 0 -110 1000 939
12 -21 17 425 -4 1000 939
13 37 63 0 -355 1000 939
14 38 65 361 -9 1000 939
15 41 66 179 -7 1000 939
16 29 61 0 -181 1000 939
17 40 65 28 -159 1000 939
18 48 66 0 -1 1000 939
19 38 63 0 -114 1000 939
20 40 62 125 -21 1000 939
21 35 64 418 -1 1000 939
22 46 62 124 -31 1000 939
23 -15 61 78 -311 1000 939
24 -11 68 0 -7 1000 939
25 -11 68 95 -47 1000 939
26 -8 59 0 -53 1000 939
27 -10 62 0 -24 1000 939
28 -12 62 387 -21 1000 939
29 -14 62 422 -6 1000 939
30 -3 57 411 -81 1000 939
31 -10 70 308 -5 1000 939
32 -13 58 0 -79 1000 939
33 1 70 0 -1 1000 939
34 -6 58 0 -1 1000 939
35 -8 61 189 -15 1000 939
36 -11 73 0 -16 1000 939
37 -4 65 371 -3 1000 939
38 -14 67 0 -34 1000 939
39 -10 60 0 -45 1000 939
40 -11 61 0 -92 1000 939
41 -9 73 9 -34 1000 939
42 -11 59 154 -80 1000 939
43 -11 70 432 -6 1000 939
44 -15 -61 0 -324 1000 939
45 -23 -67 0 -145 1000 939
46 -17 -66 0 -40 1000 939
47 -22 -62 0 -1 1000 939
48 -11 -69 252 -74 1000 939
49 -18 -60 348 -285 1000 939
50 53 80 0 -316 1000 939
51 56 83 0 -33 1000 939
52 54 79 231 -64 1000 939
53 56 74 0 -33 1000 939
54 55 69 324 -219 1000 939
55 58 74 0 -2 1000 939
56 48 74 0 -2 1000 939
57 52 77 29 -1 1000 939
58 56 78 0 -1 1000 939
59 53 75 453 -2 1000 939
60 55 80 25 -98 1000 939
61 50 79 0 -150 1000 939
62 -66 -80 131 -136 1000 939
63 -72 -80 388 -295 1000 939
64 -72 -74 176 -16 1000 939
65 -68 -78 47 -40 1000 939
66 -66 -79 0 -7 1000 939
67 -60 -80 127 -1 1000 939
68 -71 -85 99 -158 1000 939
69 4 19 454 -396 1000 939
70 9 16 26 -24 1000 939
71 7 18 0 -113 1000 939
72 15 18 0 -11 1000 939
73 9 29 199 -41 1000 939
74 8 3 0 -44 1000 939
75 7 19 0 -26 1000 939
76 2 15 318 -72 1000 939
77 1 22 0 -17 1000 939
78 1 25 114 -14 1000 939
79 5 19 238 -56 1000 939
80 4 10 136 -1 1000 939
81 -27 -1 237 -362 1000 939
82 -25 7 0 -24 1000 939
83 -29 3 0 -1 1000 939
84 -29 2 94 -17 1000 939
85 -30 7 369 -31 1000 939
86 -34 5 0 -235 1000 939
87 -27 1 0 -61 1000 939
88 -27 6 0 -11 1000 939
89 -33 0 395 -117 1000 939
90 -35 6 465 -2 1000 939
91 -34 2 100 -1 1000 939
92 -28 8 0 -1 1000 939
93 -30 6 464 -124 1000 939
94 -10 96 0 -100 1000 939
95 -13 105 0 -231 1000 939
96 -14 97 137 -33 1000 939
97 -8 98 377 -1 1000 939
98 -12 94 0 -3 1000 939
99 -15 99 245 -3 1000 939
100 -9 95 133 -138 1000 939
