1 29 -9 463 -9 1000 949
2 -34 77 298 -82 1000 949
3 -39 -5 0 -5 1000 949
4 -6 -7 177 -210 1000 949
5 35 86 0 -176 1000 949
6 84 13 0 -219 1000 949
7 -15 -86 361 -136 1000 949
8 77 8 0 -74 1000 949
9 82 -51 321 -12 1000 949
10 66 -14 0 -272 1000 949
11 59 35 0 -114 1000 949
12 62 73 0 -111 1000 949
13 7 -14 388 -209 1000 949
14 91 -20 430 -64 1000 949
15 -48 -75 74 -132 1000 949
16 75 92 23 -22 1000 949
17 53 32 330 -21 1000 949
18 -68 -26 0 -8 1000 949
19 -9 -20 0 -31 1000 949
20 -67 -61 153 -25 1000 949
21 -23 -21 0 -138 1000 949
22 -98 25 181 -7 1000 949
23 68 13 287 -226 1000 949
24 -68 -99 0 -290 1000 949
25 -56 -31 0 -57 1000 949
26 -74 25 27 -12 1000 949
27 22 -93 256 -20 1000 949
28 -15 78 0 -112 1000 949
29 32 -88 0 -272 1000 949
30 31 -79 196 -101 1000 949
31 46 -44 349 -173 1000 949
32 -86 -59 0 -39 1000 949
33 65 -61 0 -173 1000 949
34 23 -53 466 -100 1000 949
35 -29 56 312 -8 1000 949
36 58 -85 37 -69 1000 949
37 54 -2 0 -18 1000 949
38 40 -88 59 -207 1000 949
39 78 -85 4 -107 1000 949
40 -18 6 0 -28 1000 949
41 47 7 0 -107 1000 949
42 -50 49 251 -100 1000 949
43 40 67 0 -64 1000 949
44 -51 -22 43 -203 1000 949
45 -36 -45 0 -43 1000 949
46 34 -47 423 -258 1000 949
47 59 6 289 -147 1000 949
48 -60 49 0 -140 1000 949
49 -33 97 242 -135 1000 949
50 26 81 25 -122 1000 949
51 -11 57 459 -125 1000 949
52 45 26 0 -54 1000 949
53 84 -41 430 -87 1000 949
54 65 29 134 -49 1000 949
55 37 -89 467 -114 1000 949
56 29 32 455 -19 1000 949
57 45 -54 298 -76 1000 949
58 -55 -34 324 -69 1000 949
59 17 -28 71 -43 1000 949
60 40 -84 227 -19 1000 949
61 -3 -68 0 -94 1000 949
62 -46 77 363 -1 1000 949
63 96 -54 103 -101 1000 949
64 -88 23 133 -189 1000 949
65 -29 86 38 -21 1000 949
66 -99 84 447 -39 1000 949
67 -89 94 461 -22 1000 949
68 -91 65 0 -19 1000 949
69 -10 0 0 -51 1000 949
70 88 -22 275 -193 1000 949
71 -93 -82 0 -118 1000 949
72 -17 -80 0 -99 1000 949
73 -37 12 135 -14 1000 949
74 -9 20 424 -32 1000 949
75 -62 23 0 -67 1000 949
76 -35 13 71 -99 1000 949
77 -100 -10 262 -22 1000 949
78 -86 90 101 -126 1000 949
79 -30 10 0 -256 1000 949
80 -92 70 0 -11 1000 949
81 67 -56 234 -5 1000 949
82 48 -10 309 -74 1000 949
83 -42 -69 0 -26 1000 949
84 96 95 0 -45 1000 949
85 -47 67 0 -84 1000 949
86 18 -7 0 -121 1000 949
87 -40 -33 98 -14 1000 949
88 92 64 0 -17 1000 949
89 94 -59 371 -59 1000 949
90 97 49 205 -160 1000 949
91 84 84 403 -12 1000 949
92 51 77 0 -10 1000 949
93 -54 1 333 -106 1000 949
94 41 32 0 -29 1000 949
95 -24 94 0 -46 1000 949
96 -17 -59 350 -59 1000 949
97 76 -51 115 -378 1000 949
98 49 -28 0 -34 1000 949
99 24 -17 0 -58 1000 949
100 -99 9 249 -270 1000 949
