1 -85 -54 73 -124 1000 989
2 22 30 0 -241 1000 989
3 -81 -20 296 -230 1000 989
4 -14 14 0 -215 1000 989
5 -66 -49 0 -189 1000 989
6 50 -48 0 -102 1000 989
7 81 -24 0 -225 1000 989
8 71 44 0 -178 1000 989
9 -27 52 0 -67 1000 989
10 -16 74 0 -221 1000 989
11 27 -5 0 -44 1000 989
12 -98 68 64 -187 1000 989
13 10 42 387 -15 1000 989
14 53 -28 0 -42 1000 989
15 -91 30 0 -156 1000 989
16 -22 37 262 -64 1000 989
17 63 -24 474 -233 1000 989
18 -14 -17 0 -227 1000 989
19 99 -47 25 -135 1000 989
20 70 -44 0 -178 1000 989
21 79 97 287 -56 1000 989
22 -90 68 72 -139 1000 989
23 -26 -30 0 -245 1000 989
24 -16 -57 295 -133 1000 989
25 76 -4 207 -175 1000 989
26 -35 -33 54 -53 1000 989
27 7 14 77 -106 1000 989
28 -17 -27 0 -112 1000 989
29 -87 -53 417 -228 1000 989
30 -22 44 346 -35 1000 989
31 -78 -65 402 -232 1000 989
32 -13 31 0 -51 1000 989
33 10 -50 292 -31 1000 989
34 -37 -46 412 -76 1000 989
35 77 68 0 -214 1000 989
36 -90 72 472 -106 1000 989
37 -26 48 0 -29 1000 989
38 -15 74 207 -155 1000 989
39 72 -88 0 -111 1000 989
40 -99 -32 163 -173 1000 989
41 11 44 113 -148 1000 989
42 96 -26 80 -250 1000 989
43 42 -56 0 -191 1000 989
44 -21 35 0 -14 1000 989
45 -78 -19 274 -233 1000 989
46 -12 -18 409 -175 1000 989
47 12 -48 90 -191 1000 989
48 88 -98 0 -128 1000 989
49 77 -28 484 -16 1000 989
50 -92 71 0 -23 1000 989
51 -57 52 197 -170 1000 989
52 -15 73 324 -205 1000 989
53 75 -2 12 -24 1000 989
54 40 -36 0 -134 1000 989
55 94 44 119 -146 1000 989
56 92 -30 0 -208 1000 989
57 -88 -57 0 -65 1000 989
58 -10 33 0 -103 1000 989
59 -79 38 0 -110 1000 989
60 -13 -16 394 -201 1000 989
61 15 -50 133 -131 1000 989
62 -21 -19 384 -174 1000 989
63 79 -24 0 -15 1000 989
64 -94 68 438 -75 1000 989
65 -24 48 0 -99 1000 989
66 -11 73 0 -29 1000 989
67 26 -3 0 -140 1000 989
68 97 -32 39 -92 1000 989
69 -54 47 309 -198 1000 989
70 91 -28 268 -170 1000 989
71 -14 -53 189 -187 1000 989
72 -21 33 0 -94 1000 989
73 -22 -17 306 -247 1000 989
74 -18 88 0 -173 1000 989
75 11 -48 0 -85 1000 989
76 8 -45 0 -160 1000 989
77 80 -14 0 -67 1000 989
78 -91 66 0 -15 1000 989
79 -28 51 206 -74 1000 989
80 -16 74 243 -208 1000 989
81 75 -77 304 -10 1000 989
82 -65 -36 420 -75 1000 989
83 10 44 429 -145 1000 989
84 6 -60 0 -75 1000 989
85 -83 -55 0 -85 1000 989
86 -20 34 477 -209 1000 989
87 -78 -20 66 -48 1000 989
88 -13 -17 184 -117 1000 989
89 14 -47 84 -220 1000 989
90 8 -46 0 -129 1000 989
91 82 -27 0 -209 1000 989
92 -14 67 115 -212 1000 989
93 -25 51 126 -188 1000 989
94 -18 74 0 -146 1000 989
95 73 -3 0 -94 1000 989
96 -99 -32 420 -245 1000 989
97 11 42 0 -249 1000 989
98 91 56 490 -249 1000 989
99 -88 -56 0 -123 1000 989
100 -22 33 0 -110 1000 989
