1 -31 67 432 -207 1000 949
2 -32 68 0 -87 1000 949
3 -27 60 0 -13 1000 949
4 -32 69 294 -35 1000 949
5 -31 65 0 -97 1000 949
6 -34 64 104 -149 1000 949
7 -29 77 0 -131 1000 949
8 -34 66 0 -89 1000 949
9 -29 64 354 -125 1000 949
10 -32 60 282 -23 1000 949
11 -61 -84 0 -207 1000 949
12 -61 -82 135 -225 1000 949
13 -62 -83 52 -233 1000 949
14 -61 -84 359 -93 1000 949
15 -61 -84 0 -54 1000 949
16 -60 -86 0 -82 1000 949
17 -67 -87 0 -90 1000 949
18 51 65 353 -119 1000 949
19 47 64 0 -260 1000 949
20 39 58 292 -125 1000 949
21 40 63 153 -32 1000 949
22 41 63 460 -44 1000 949
23 46 55 0 -119 1000 949
24 44 55 11 -6 1000 949
25 52 61 0 -212 1000 949
26 -72 88 426 -149 1000 949
27 -72 92 0 -88 1000 949
28 -73 88 265 -22 1000 949
29 -71 96 210 -22 1000 949
30 -69 89 74 -148 1000 949
31 -68 95 369 -23 1000 949
32 -70 93 0 -30 1000 949
33 -74 103 0 -66 1000 949
34 -65 90 205 -27 1000 949
35 -79 91 271 -126 1000 949
36 -72 92 0 -278 1000 949
37 28 82 0 -43 1000 949
38 17 81 134 -72 1000 949
39 21 78 0 -40 1000 949
40 20 83 0 -114 1000 949
41 20 77 91 -47 1000 949
42 21 77 148 -7 1000 949
43 24 76 438 -83 1000 949
44 24 73 152 -288 1000 949
45 19 76 74 -1 1000 949
46 25 76 0 -108 1000 949
47 25 79 380 -40 1000 949
48 31 76 0 -5 1000 949
49 24 77 0 -46 1000 949
50 -89 76 107 -109 1000 949
51 -92 70 461 -259 1000 949
52 -99 70 0 -65 1000 949
53 -94 76 0 -15 1000 949
54 -97 72 0 -72 1000 949
55 -93 81 0 -46 1000 949
56 -94 74 0 -375 1000 949
57 -94 73 0 -50 1000 949
58 52 97 0 -100 1000 949
59 47 94 0 -57 1000 949
60 46 97 0 -310 1000 949
61 46 96 131 -1 1000 949
62 41 91 161 -42 1000 949
63 45 102 0 -13 1000 949
64 41 91 0 -21 1000 949
65 50 95 153 -194 1000 949
66 47 93 0 -42 1000 949
67 44 97 0 -150 1000 949
68 42 94 114 -8 1000 949
69 34 -10 0 -169 1000 949
70 34 -7 0 -63 1000 949
71 29 -7 0 -108 1000 949
72 30 -13 359 -43 1000 949
73 38 1 438 -11 1000 949
74 30 -5 186 -6 1000 949
75 33 -8 439 -46 1000 949
76 32 -11 107 -102 1000 949
77 29 -14 0 -189 1000 949
78 32 -8 149 -164 1000 949
79 37 -6 222 -58 1000 949
80 82 -38 0 -95 1000 949
81 84 -36 0 -78 1000 949
82 81 -37 426 -1 1000 949
83 85 -43 375 -13 1000 949
84 90 -38 288 -30 1000 949
85 81 -39 332 -121 1000 949
86 81 -40 0 -9 1000 949
87 83 -36 418 -11 1000 949
88 87 -37 0 -37 1000 949
89 83 -35 288 -11 1000 949
90 82 -38 57 -111 1000 949
91 83 -42 0 -432 1000 949
92 -79 -79 418 -56 1000 949
93 -76 -78 463 -381 1000 949
94 -79 -83 0 -187 1000 949
95 -77 -74 294 -102 1000 949
96 -72 -79 0 -149 1000 949
97 -90 6 0 -137 1000 949
98 -97 12 0 -60 1000 949
99 -89 -4 0 -40 1000 949
100 -92 3 333 -138 1000 949
