1 -14 -44 0 -5 1000 969
2 -35 5 0 -23 1000 969
3 28 -72 0 -51 1000 969
4 -54 -35 468 -455 1000 969
5 62 -62 373 -1 1000 969
6 -13 80 0 -327 1000 969
7 93 11 0 -1 1000 969
8 7 58 312 -2 1000 969
9 50 100 122 -135 1000 969
10 64 -87 0 -140 1000 969
11 -84 53 0 -202 1000 969
12 48 -19 0 -116 1000 969
13 -16 24 0 -297 1000 969
14 -35 -75 0 -35 1000 969
15 -93 -77 89 -1 1000 969
16 51 -34 0 -1 1000 969
17 62 -59 0 -694 1000 969
18 -15 82 0 -3 1000 969
19 -86 7 0 -57 1000 969
20 5 59 0 -147 1000 969
21 -17 -6 370 -159 1000 969
22 65 41 453 -207 1000 969
23 21 58 0 -46 1000 969
24 8 56 295 -12 1000 969
25 6 20 0 -1 1000 969
26 -37 -71 0 -916 1000 969
27 -82 -38 417 -57 1000 969
28 57 -28 330 -1 1000 969
29 65 -61 90 -2 1000 969
30 -9 -15 315 -39 1000 969
31 82 10 0 -39 1000 969
32 6 60 0 -242 1000 969
33 -62 96 422 -146 1000 969
34 62 45 132 -84 1000 969
35 -52 59 266 -372 1000 969
36 -53 35 0 -2 1000 969
37 -15 22 0 -1 1000 969
38 -34 -77 338 -220 1000 969
39 -79 -74 94 -5 1000 969
40 54 26 182 -111 1000 969
41 60 -89 251 -34 1000 969
42 -16 -31 0 -97 1000 969
43 81 -83 121 -1 1000 969
44 8 61 0 -9 1000 969
45 53 96 313 -59 1000 969
46 62 42 49 -313 1000 969
47 -58 55 209 -134 1000 969
48 4 56 0 -21 1000 969
49 -11 22 431 -513 1000 969
50 -31 -68 0 -99 1000 969
51 -61 -35 21 -17 1000 969
52 51 -37 334 -18 1000 969
53 -69 -62 0 -170 1000 969
54 26 -64 0 -187 1000 969
55 79 -36 0 -8 1000 969
56 6 58 0 -69 1000 969
57 52 102 0 -1 1000 969
58 63 48 93 -1 1000 969
59 -57 1 366 -829 1000 969
60 0 55 271 -35 1000 969
61 -16 22 116 -29 1000 969
62 50 -68 0 -10 1000 969
63 -77 -74 0 -126 1000 969
64 52 -37 476 -1 1000 969
65 60 -63 3 -123 1000 969
66 -15 85 0 -3 1000 969
67 80 11 0 -4 1000 969
68 8 56 0 -1 1000 969
69 54 -54 282 -69 1000 969
70 62 -60 0 -81 1000 969
71 -60 53 370 -57 1000 969
72 6 54 0 -274 1000 969
73 -50 23 331 -32 1000 969
74 -36 -70 306 -5 1000 969
75 -89 -73 0 -232 1000 969
76 50 -35 0 -33 1000 969
77 67 -57 0 -276 1000 969
78 -49 85 0 -277 1000 969
79 83 27 380 -3 1000 969
80 -3 -97 336 -8 1000 969
81 35 99 0 -225 1000 969
82 65 45 284 -3 1000 969
83 -59 59 0 -7 1000 969
84 9 52 445 -301 1000 969
85 -13 24 0 -57 1000 969
86 -30 -67 450 -304 1000 969
87 -88 -35 259 -20 1000 969
88 -15 -35 72 -242 1000 969
89 65 -60 437 -19 1000 969
90 -10 66 0 -3 1000 969
91 82 13 385 -3 1000 969
92 54 55 0 -1 1000 969
93 51 65 0 -81 1000 969
94 66 44 0 -9 1000 969
95 -59 54 0 -427 1000 969
96 4 -61 0 -22 1000 969
97 14 20 360 -45 1000 969
98 76 38 0 -26 1000 969
99 -86 -71 156 -29 1000 969
100 55 -36 181 -238 1000 969
