1 7 -57 40 -61 1000 949
2 -88 12 0 -218 1000 949
3 33 58 71 -88 1000 949
4 60 -4 0 -52 1000 949
5 -46 -30 0 -29 1000 949
6 -19 -59 0 -85 1000 949
7 -59 -95 0 -33 1000 949
8 -72 -94 290 -209 1000 949
9 80 20 0 -84 1000 949
10 -52 -42 0 -137 1000 949
11 4 -52 0 -41 1000 949
12 -90 16 0 -96 1000 949
13 40 59 0 -9 1000 949
14 53 -3 0 -199 1000 949
15 -45 -23 0 -43 1000 949
16 -18 -63 0 -14 1000 949
17 -56 -90 0 -114 1000 949
18 -68 -92 0 -35 1000 949
19 82 22 181 -6 1000 949
20 -61 -45 0 -120 1000 949
21 10 -48 224 -302 1000 949
22 -83 15 0 -167 1000 949
23 41 66 408 -165 1000 949
24 52 -9 0 -116 1000 949
25 -50 -26 0 -63 1000 949
26 -16 -64 255 -253 1000 949
27 -54 -98 27 -134 1000 949
28 -71 -92 91 -4 1000 949
29 79 24 0 -89 1000 949
30 -55 -42 322 -69 1000 949
31 2 -48 439 -98 1000 949
32 -84 17 0 -45 1000 949
33 42 65 0 -208 1000 949
34 51 -6 0 -16 1000 949
35 -44 -23 0 -107 1000 949
36 -15 -62 252 -77 1000 949
37 -55 -92 42 -66 1000 949
38 -78 -95 423 -39 1000 949
39 78 22 0 -147 1000 949
40 -62 -40 171 -67 1000 949
41 3 -58 0 -125 1000 949
42 -89 24 0 -311 1000 949
43 41 59 0 -39 1000 949
44 56 -1 0 -157 1000 949
45 -48 -21 0 -170 1000 949
46 -21 -67 0 -94 1000 949
47 -61 -97 0 -209 1000 949
48 -69 -92 0 -141 1000 949
49 84 19 429 -233 1000 949
50 -65 -37 0 -121 1000 949
51 2 -59 123 -15 1000 949
52 -83 17 336 -25 1000 949
53 35 59 0 -12 1000 949
54 52 -1 0 -98 1000 949
55 -50 -24 0 -93 1000 949
56 -14 -67 0 -7 1000 949
57 -61 -98 441 -131 1000 949
58 -78 -97 0 -144 1000 949
59 79 25 0 -21 1000 949
60 -66 -39 0 -79 1000 949
61 1 -56 148 -19 1000 949
62 -91 14 0 -374 1000 949
63 35 62 369 -79 1000 949
64 52 -1 0 -83 1000 949
65 -42 -31 0 -101 1000 949
66 -17 -66 174 -125 1000 949
67 -61 -98 459 -40 1000 949
68 -74 -90 57 -154 1000 949
69 91 16 0 -15 1000 949
70 -64 -43 0 -167 1000 949
71 5 -56 0 -36 1000 949
72 -87 24 0 -86 1000 949
73 45 67 230 -37 1000 949
74 54 -10 0 -25 1000 949
75 -45 -35 11 -151 1000 949
76 -15 -59 280 -69 1000 949
77 -52 -97 0 -123 1000 949
78 -74 -98 0 -254 1000 949
79 84 21 309 -115 1000 949
80 -64 -42 0 -131 1000 949
81 4 -56 273 -71 1000 949
82 -92 25 0 -21 1000 949
83 37 62 0 -44 1000 949
84 61 -6 0 -15 1000 949
85 -48 -21 0 -33 1000 949
86 -6 -64 73 -18 1000 949
87 -55 -98 213 -94 1000 949
88 -73 -92 0 -344 1000 949
89 76 24 454 -37 1000 949
90 -57 -44 0 -27 1000 949
91 0 -54 299 -10 1000 949
92 -84 18 145 -30 1000 949
93 46 65 170 -78 1000 949
94 51 -8 0 -19 1000 949
95 -48 -23 245 -66 1000 949
96 -12 -59 360 -41 1000 949
97 -53 -93 0 -194 1000 949
98 -74 -93 0 -18 1000 949
99 82 24 0 -133 1000 949
100 -55 -43 0 -123 1000 949
