1 38 39 0 -44 1000 949
2 39 41 47 -109 1000 949
3 36 40 452 -16 1000 949
4 33 35 9 -14 1000 949
5 39 36 393 -175 1000 949
6 34 32 0 -83 1000 949
7 34 43 93 -18 1000 949
8 38 35 0 -38 1000 949
9 38 38 272 -77 1000 949
10 35 44 266 -30 1000 949
11 29 38 253 -38 1000 949
12 36 43 72 -45 1000 949
13 38 37 387 -15 1000 949
14 41 41 0 -142 1000 949
15 34 36 11 -118 1000 949
16 32 36 139 -8 1000 949
17 32 41 132 -7 1000 949
18 31 36 0 -17 1000 949
19 92 -9 41 -18 1000 949
20 87 -12 191 -24 1000 949
21 97 -13 0 -66 1000 949
22 87 -9 0 -75 1000 949
23 89 -13 0 -101 1000 949
24 93 -12 182 -356 1000 949
25 90 -13 0 -60 1000 949
26 89 -9 0 -40 1000 949
27 94 -8 141 -75 1000 949
28 91 -13 294 -60 1000 949
29 -97 79 0 -138 1000 949
30 -93 84 0 -64 1000 949
31 -95 80 463 -149 1000 949
32 -99 88 233 -218 1000 949
33 -88 79 0 -60 1000 949
34 -79 84 0 -76 1000 949
35 -91 82 0 -38 1000 949
36 -88 89 325 -38 1000 949
37 -91 80 190 -104 1000 949
38 -96 87 0 -65 1000 949
39 -94 82 91 -28 1000 949
40 -12 43 430 -23 1000 949
41 -9 41 0 -25 1000 949
42 -9 48 0 -32 1000 949
43 -15 46 310 -14 1000 949
44 -12 48 0 -164 1000 949
45 -21 43 267 -200 1000 949
46 -17 45 263 -427 1000 949
47 35 -49 304 -247 1000 949
48 30 -52 0 -234 1000 949
49 27 -45 435 -23 1000 949
50 33 -48 216 -186 1000 949
51 -4 90 354 -480 1000 949
52 1 80 153 -107 1000 949
53 0 93 0 -23 1000 949
54 2 93 0 -89 1000 949
55 -3 93 276 -27 1000 949
56 -2 87 0 -82 1000 949
57 1 88 0 -114 1000 949
58 3 78 5 -21 1000 949
59 0 87 324 -6 1000 949
60 -4 85 155 -16 1000 949
61 4 -4 145 -163 1000 949
62 3 -1 0 -110 1000 949
63 5 -12 0 -113 1000 949
64 3 -4 0 -25 1000 949
65 7 -5 0 -109 1000 949
66 1 -10 374 -11 1000 949
67 2 -8 0 -220 1000 949
68 2 -4 0 -57 1000 949
69 3 -3 62 -39 1000 949
70 2 -9 0 -36 1000 949
71 56 7 0 -392 1000 949
72 59 6 0 -34 1000 949
73 60 7 0 -34 1000 949
74 57 4 300 -241 1000 949
75 60 -5 0 -8 1000 949
76 50 4 0 -4 1000 949
77 60 5 0 -39 1000 949
78 58 9 363 -1 1000 949
79 47 9 0 -43 1000 949
80 52 0 0 -81 1000 949
81 -10 45 0 -171 1000 949
82 -13 47 138 -169 1000 949
83 -4 39 338 -1 1000 949
84 -9 41 0 -13 1000 949
85 -9 41 0 -40 1000 949
86 -11 40 0 -102 1000 949
87 -11 47 326 -205 1000 949
88 -8 50 309 -196 1000 949
89 -90 33 0 -151 1000 949
90 -88 46 0 -7 1000 949
91 -90 39 0 -130 1000 949
92 -89 40 453 -117 1000 949
93 -92 42 28 -17 1000 949
94 -85 40 339 -62 1000 949
95 -92 40 17 -131 1000 949
96 -88 37 37 -57 1000 949
97 -88 39 161 -6 1000 949
98 -90 37 0 -122 1000 949
99 -96 45 0 -53 1000 949
100 -88 34 0 -127 1000 949
