1 -18 -100 351 -137 1000 979
2 -70 91 0 -81 1000 979
3 100 82 0 -157 1000 979
4 -30 37 0 -113 1000 979
5 -38 86 0 -126 1000 979
6 28 -72 260 -120 1000 979
7 62 -3 63 -145 1000 979
8 7 87 0 -101 1000 979
9 88 -59 0 -118 1000 979
10 -70 -25 0 -120 1000 979
11 -92 -87 43 -126 1000 979
12 -56 24 0 -135 1000 979
13 -93 -30 0 -98 1000 979
14 -25 -99 103 -142 1000 979
15 -70 96 0 -151 1000 979
16 98 80 0 -132 1000 979
17 -27 44 330 -152 1000 979
18 -41 88 223 -155 1000 979
19 29 -73 363 -164 1000 979
20 64 -7 0 -107 1000 979
21 7 87 19 -71 1000 979
22 88 -62 0 -114 1000 979
23 -69 -28 0 -152 1000 979
24 -95 -90 0 -108 1000 979
25 -59 29 0 -110 1000 979
26 -95 -30 0 -103 1000 979
27 -30 -104 126 -181 1000 979
28 -70 93 295 -112 1000 979
29 99 81 199 -89 1000 979
30 -28 38 91 -144 1000 979
31 -39 89 142 -174 1000 979
32 27 -69 218 -158 1000 979
33 63 -3 80 -166 1000 979
34 9 91 0 -89 1000 979
35 90 -62 0 -111 1000 979
36 -68 -25 0 -161 1000 979
37 -91 -86 0 -124 1000 979
38 -55 24 0 -138 1000 979
39 -95 -28 248 -103 1000 979
40 -25 -102 0 -114 1000 979
41 -72 90 43 -133 1000 979
42 99 78 0 -122 1000 979
43 -25 39 238 -123 1000 979
44 -39 82 16 -104 1000 979
45 31 -72 0 -155 1000 979
46 66 -3 61 -103 1000 979
47 6 86 138 -153 1000 979
48 94 -60 388 -137 1000 979
49 -70 -32 0 -87 1000 979
50 -89 -88 0 -132 1000 979
51 -56 26 0 -103 1000 979
52 -91 -26 0 -139 1000 979
53 -25 -97 295 -155 1000 979
54 -68 88 227 -89 1000 979
55 97 82 0 -123 1000 979
56 -24 42 198 -132 1000 979
57 -43 86 0 -169 1000 979
58 29 -69 216 -150 1000 979
59 64 -3 79 -139 1000 979
60 7 87 74 -105 1000 979
61 87 -63 0 -90 1000 979
62 -73 -30 0 -131 1000 979
63 -90 -85 0 -116 1000 979
64 -55 24 0 -144 1000 979
65 -91 -29 407 -99 1000 979
66 -24 -99 242 -144 1000 979
67 -69 86 0 -145 1000 979
68 98 78 308 -140 1000 979
69 -27 47 379 -83 1000 979
70 -40 87 0 -117 1000 979
71 31 -74 0 -156 1000 979
72 65 -5 0 -118 1000 979
73 7 88 475 -79 1000 979
74 92 -60 274 -191 1000 979
75 -66 -28 378 -106 1000 979
76 -94 -85 0 -97 1000 979
77 -51 21 0 -137 1000 979
78 -95 -29 0 -112 1000 979
79 -27 -104 0 -127 1000 979
80 -71 91 0 -121 1000 979
81 94 82 0 -150 1000 979
82 -25 43 373 -126 1000 979
83 -37 88 0 -106 1000 979
84 25 -68 0 -123 1000 979
85 67 -3 0 -94 1000 979
86 6 89 45 -107 1000 979
87 91 -58 413 -155 1000 979
88 -69 -26 0 -151 1000 979
89 -92 -90 0 -96 1000 979
90 -54 28 0 -155 1000 979
91 -94 -32 0 -126 1000 979
92 -27 -98 0 -140 1000 979
93 -74 95 0 -119 1000 979
94 94 78 463 -140 1000 979
95 -27 39 263 -139 1000 979
96 -44 88 379 -136 1000 979
97 30 -68 0 -115 1000 979
98 63 -3 473 -96 1000 979
99 6 88 0 -133 1000 979
100 87 -61 460 -126 1000 979
