1 -59 79 201 -115 1000 979
2 -55 78 0 -131 1000 979
3 -60 81 194 -162 1000 979
4 -53 79 193 -89 1000 979
5 -59 75 260 -140 1000 979
6 -56 76 0 -80 1000 979
7 -55 78 238 -156 1000 979
8 -12 29 0 -176 1000 979
9 -7 28 0 -131 1000 979
10 -10 28 205 -140 1000 979
11 -11 28 391 -142 1000 979
12 -7 29 0 -152 1000 979
13 -11 27 88 -120 1000 979
14 -12 30 142 -118 1000 979
15 -3 20 0 -180 1000 979
16 -9 19 0 -110 1000 979
17 -13 22 126 -115 1000 979
18 -8 20 0 -121 1000 979
19 -6 22 132 -90 1000 979
20 -6 21 421 -154 1000 979
21 0 23 0 -114 1000 979
22 -4 15 0 -123 1000 979
23 -9 20 233 -100 1000 979
24 -9 20 0 -136 1000 979
25 -6 17 0 -185 1000 979
26 -10 17 0 -97 1000 979
27 -8 18 39 -102 1000 979
28 -12 14 410 -134 1000 979
29 50 90 333 -153 1000 979
30 47 91 346 -136 1000 979
31 54 88 165 -182 1000 979
32 50 87 238 -139 1000 979
33 52 90 0 -125 1000 979
34 49 91 0 -153 1000 979
35 49 87 92 -112 1000 979
36 -25 2 273 -182 1000 979
37 -16 -1 0 -154 1000 979
38 -13 3 167 -89 1000 979
39 -16 3 0 -156 1000 979
40 -14 4 427 -103 1000 979
41 -15 -1 315 -122 1000 979
42 -14 2 0 -103 1000 979
43 -57 -56 0 -126 1000 979
44 -55 -62 0 -109 1000 979
45 -52 -57 172 -127 1000 979
46 -54 -61 40 -122 1000 979
47 -56 -59 0 -124 1000 979
48 -58 -56 0 -160 1000 979
49 -55 -58 175 -98 1000 979
50 -55 -59 262 -69 1000 979
51 20 77 0 -105 1000 979
52 20 79 0 -154 1000 979
53 16 77 0 -109 1000 979
54 21 78 0 -94 1000 979
55 21 76 211 -154 1000 979
56 18 80 187 -142 1000 979
57 21 81 0 -118 1000 979
58 20 79 0 -118 1000 979
59 -14 -57 0 -124 1000 979
60 -12 -54 460 -153 1000 979
61 -12 -54 0 -86 1000 979
62 -10 -54 165 -115 1000 979
63 -15 -57 326 -74 1000 979
64 -7 -57 289 -109 1000 979
65 -10 -49 137 -86 1000 979
66 -12 -61 0 -138 1000 979
67 -17 26 130 -132 1000 979
68 -13 26 0 -131 1000 979
69 -11 28 0 -130 1000 979
70 -9 28 295 -151 1000 979
71 -10 27 0 -160 1000 979
72 -13 25 465 -120 1000 979
73 -13 29 0 -97 1000 979
74 12 -8 0 -162 1000 979
75 8 -10 54 -141 1000 979
76 16 -9 0 -174 1000 979
77 5 -5 0 -101 1000 979
78 8 -10 0 -125 1000 979
79 9 -11 145 -98 1000 979
80 8 -9 0 -152 1000 979
81 -88 12 185 -106 1000 979
82 -82 12 0 -133 1000 979
83 -87 8 412 -150 1000 979
84 -89 10 124 -157 1000 979
85 -84 11 0 -104 1000 979
86 -86 13 419 -127 1000 979
87 -88 14 0 -111 1000 979
88 -88 -66 0 -123 1000 979
89 -91 -64 0 -117 1000 979
90 -92 -65 285 -145 1000 979
91 -91 -73 0 -124 1000 979
92 -95 -68 251 -144 1000 979
93 -85 -68 85 -124 1000 979
94 -90 -68 0 -132 1000 979
95 -11 -65 0 -157 1000 979
96 -7 -69 0 -128 1000 979
97 -10 -68 0 -122 1000 979
98 -9 -68 0 -115 1000 979
99 -9 -66 85 -128 1000 979
100 -7 -71 0 -99 1000 979
