1 83 16 0 -24 1000 979
2 41 -59 381 -20 1000 979
3 -85 15 0 -18 1000 979
4 1 64 0 -55 1000 979
5 -72 61 370 -96 1000 979
6 28 20 0 -89 1000 979
7 -70 56 0 -94 1000 979
8 44 -94 0 -179 1000 979
9 23 54 308 -177 1000 979
10 -35 -54 0 -127 1000 979
11 60 69 462 -229 1000 979
12 64 11 0 -35 1000 979
13 57 -32 131 -134 1000 979
14 87 19 308 -142 1000 979
15 42 -62 259 -240 1000 979
16 -88 16 0 -229 1000 979
17 1 65 0 -141 1000 979
18 -75 64 472 -204 1000 979
19 25 19 467 -214 1000 979
20 -70 56 0 -136 1000 979
21 49 -87 135 -226 1000 979
22 23 57 0 -70 1000 979
23 -37 -54 252 -1 1000 979
24 58 70 0 -214 1000 979
25 66 9 23 -112 1000 979
26 57 -33 0 -57 1000 979
27 82 13 422 -166 1000 979
28 38 -62 0 -123 1000 979
29 -88 16 0 -136 1000 979
30 -2 62 416 -28 1000 979
31 -76 59 81 -159 1000 979
32 30 22 0 -152 1000 979
33 -69 58 0 -27 1000 979
34 43 -91 69 -141 1000 979
35 25 59 0 -242 1000 979
36 -35 -52 0 -87 1000 979
37 60 71 88 -72 1000 979
38 66 6 39 -51 1000 979
39 61 -33 0 -16 1000 979
40 86 18 0 -18 1000 979
41 41 -60 0 -61 1000 979
42 -85 16 241 -48 1000 979
43 1 65 364 -73 1000 979
44 -72 60 0 -202 1000 979
45 28 21 231 -163 1000 979
46 -65 50 402 -76 1000 979
47 43 -89 345 -53 1000 979
48 21 60 457 -118 1000 979
49 -35 -52 0 -95 1000 979
50 58 68 0 -63 1000 979
51 64 7 0 -201 1000 979
52 59 -32 0 -74 1000 979
53 87 16 0 -89 1000 979
54 43 -58 141 -193 1000 979
55 -88 19 342 -125 1000 979
56 2 60 387 -190 1000 979
57 -71 59 0 -240 1000 979
58 29 25 0 -176 1000 979
59 -68 54 353 -55 1000 979
60 46 -91 0 -106 1000 979
61 22 59 0 -106 1000 979
62 -37 -50 0 -203 1000 979
63 54 71 0 -163 1000 979
64 66 7 0 -195 1000 979
65 58 -32 0 -105 1000 979
66 85 17 109 -133 1000 979
67 45 -63 479 -163 1000 979
68 -87 15 316 -198 1000 979
69 -1 65 348 -120 1000 979
70 -75 58 0 -8 1000 979
71 29 22 45 -210 1000 979
72 -67 53 0 -2 1000 979
73 41 -90 17 -64 1000 979
74 21 58 0 -208 1000 979
75 -36 -49 343 -88 1000 979
76 59 70 0 -225 1000 979
77 67 10 0 -146 1000 979
78 58 -34 484 -74 1000 979
79 85 18 0 -247 1000 979
80 42 -62 0 -38 1000 979
81 -88 16 314 -115 1000 979
82 -5 65 0 -210 1000 979
83 -74 61 0 -121 1000 979
84 26 23 0 -107 1000 979
85 -73 58 0 -228 1000 979
86 46 -95 0 -104 1000 979
87 30 57 0 -24 1000 979
88 -38 -51 0 -112 1000 979
89 56 71 0 -40 1000 979
90 64 9 297 -20 1000 979
91 62 -35 177 -95 1000 979
92 84 18 479 -209 1000 979
93 42 -60 45 -125 1000 979
94 -85 14 257 -79 1000 979
95 -4 66 121 -189 1000 979
96 -75 62 360 -96 1000 979
97 30 25 381 -194 1000 979
98 -71 54 136 -22 1000 979
99 46 -89 0 -249 1000 979
100 25 59 0 -205 1000 979
