1 35 -56 1 -50 1842 799
2 72 -58 19 -50 1842 799
3 70 -66 19 -170 1842 799
4 45 -40 50 -297 1842 799
5 39 -40 63 -9 1842 799
6 60 -50 79 -630 1842 799
7 42 -59 80 -179 1842 799
8 31 -46 82 -179 1842 799
9 44 -58 83 -216 1842 799
10 45 -67 89 -4 1842 799
11 69 -46 94 -9 1842 799
12 24 0 98 -154 1842 799
13 12 -4 98 -117 1842 799
14 1 -21 98 -63 1842 799
15 3 29 110 -436 1842 799
16 19 -13 111 -905 1842 799
17 13 -14 114 -14 1842 799
18 25 11 126 -3 1842 799
19 24 23 135 -10 1842 799
20 3 7 138 -166 1842 799
21 23 19 139 -211 1842 799
22 2 -7 151 -8 1842 799
23 5 23 180 -25 1842 799
24 32 5 185 -139 1842 799
25 14 25 186 -213 1842 799
26 -16 -4 194 -758 1842 799
27 24 17 204 -429 1842 799
28 0 -7 210 -5 1842 799
29 -74 -22 216 -136 1842 799
30 -64 -24 220 -501 1842 799
31 -71 -19 222 -93 1842 799
32 -91 -15 228 -21 1842 799
33 -65 -14 238 -169 1842 799
34 -91 -26 245 -22 1842 799
35 -76 -7 261 -3 1842 799
36 -66 -4 266 -271 1842 799
37 -87 -10 267 -433 1842 799
38 -73 -8 267 -3 1842 799
39 -81 -1 282 -1079 1842 799
40 -82 -24 282 -233 1842 799
41 -87 -25 286 -11 1842 799
42 -76 -25 304 -10 1842 799
43 -75 -6 304 -78 1842 799
44 -70 -3 313 -63 1842 799
45 -64 -22 314 -4 1842 799
46 -66 -5 314 -59 1842 799
47 -72 -10 319 -8 1842 799
48 -89 -3 319 -34 1842 799
49 -86 -3 333 -234 1842 799
50 -57 -9 336 -30 1842 799
51 -22 -36 338 -40 1842 799
52 -44 19 351 -123 1842 799
53 -21 6 361 -7 1842 799
54 -49 -4 376 -33 1842 799
55 -68 -7 389 -369 1842 799
56 -42 11 398 -11 1842 799
57 -69 3 0 -23 1842 799
58 -49 9 0 -208 1842 799
59 -68 -19 0 -4 1842 799
60 -57 -7 0 -8 1842 799
61 -61 -34 0 -36 1842 799
62 -36 16 0 -504 1842 799
63 -56 2 0 -16 1842 799
64 -67 0 0 -574 1842 799
65 -17 -14 0 -19 1842 799
66 -17 -20 0 -235 1842 799
67 -28 -26 0 -445 1842 799
68 -70 -21 0 -6 1842 799
69 -46 -14 0 -43 1842 799
70 -52 36 0 -210 1842 799
71 -33 62 0 -268 1842 799
72 -53 49 0 -410 1842 799
73 -39 59 0 -124 1842 799
74 33 73 0 -11 1842 799
75 38 88 0 -1085 1842 799
76 43 77 0 -5 1842 799
77 -60 19 0 -529 1842 799
78 -61 27 0 -107 1842 799
79 -66 23 0 -274 1842 799
80 -61 20 0 -23 1842 799
81 -55 19 0 -156 1842 799
82 -5 -38 0 -32 1842 799
83 -9 -41 0 -177 1842 799
84 -12 -31 0 -16 1842 799
85 -9 -45 0 -8 1842 799
86 -6 -33 0 -19 1842 799
87 -1 -49 0 -52 1842 799
88 -14 -44 0 -47 1842 799
89 85 -1 0 -4 1842 799
90 67 -1 0 -372 1842 799
91 60 30 0 -525 1842 799
92 78 12 0 -101 1842 799
93 57 31 0 -898 1842 799
94 63 -1 0 -40 1842 799
95 88 -3 0 -32 1842 799
96 85 -13 0 -1017 1842 799
97 78 17 0 -103 1842 799
98 56 4 0 -109 1842 799
99 99 -14 0 -76 1842 799
100 53 16 0 -1025 1842 799
