1 -2 -5 8 -1066 1679 905
2 3 -1 39 -841 1679 905
3 -2 7 59 -74 1679 905
4 3 0 61 -687 1679 905
5 7 -3 64 -175 1679 905
6 -5 -1 68 -183 1679 905
7 -3 0 71 -124 1679 905
8 0 -3 96 -4 1679 905
9 4 1 98 -81 1679 905
10 4 -5 105 -56 1679 905
11 -2 -4 108 -29 1679 905
12 5 -5 111 -23 1679 905
13 -4 1 123 -4 1679 905
14 -2 3 126 -9 1679 905
15 7 2 153 -7 1679 905
16 -13 80 154 -181 1679 905
17 -6 88 156 -54 1679 905
18 -16 83 164 -884 1679 905
19 -14 77 174 -822 1679 905
20 -26 88 205 -637 1679 905
21 -24 79 218 -59 1679 905
22 -25 78 229 -140 1679 905
23 -11 80 231 -531 1679 905
24 -5 88 231 -58 1679 905
25 -21 90 233 -15 1679 905
26 -5 82 269 -11 1679 905
27 -20 80 278 -185 1679 905
28 -6 91 286 -159 1679 905
29 -25 89 288 -285 1679 905
30 -25 74 298 -4 1679 905
31 -8 88 305 -10 1679 905
32 -21 74 306 -3 1679 905
33 -23 74 313 -4 1679 905
34 -5 87 320 -11 1679 905
35 -8 91 323 -45 1679 905
36 -3 -8 356 -4 1679 905
37 -30 15 374 -225 1679 905
38 -14 24 411 -286 1679 905
39 -12 11 415 -262 1679 905
40 -1 7 418 -4 1679 905
41 2 14 441 -391 1679 905
42 -26 15 448 -54 1679 905
43 -36 2 0 -518 1679 905
44 -29 7 0 -815 1679 905
45 -1 28 0 -25 1679 905
46 -7 17 0 -29 1679 905
47 -10 31 0 -18 1679 905
48 -20 -2 0 -588 1679 905
49 -33 20 0 -68 1679 905
50 -26 0 0 -480 1679 905
51 -13 9 0 -5 1679 905
52 -8 12 0 -16 1679 905
53 -35 -8 0 -34 1679 905
54 -33 23 0 -5 1679 905
55 10 -70 0 -9 1679 905
56 8 -95 0 -22 1679 905
57 -12 -101 0 -120 1679 905
58 6 -113 0 -152 1679 905
59 -17 -76 0 -21 1679 905
60 -23 -102 0 -44 1679 905
61 11 -104 0 -676 1679 905
62 -19 -96 0 -17 1679 905
63 -13 -79 0 -764 1679 905
64 -53 -32 0 -13 1679 905
65 -78 -2 0 -6 1679 905
66 -87 -61 0 -718 1679 905
67 -60 -32 0 -52 1679 905
68 -6 -12 0 -11 1679 905
69 10 -16 0 -93 1679 905
70 -7 -11 0 -398 1679 905
71 0 3 0 -48 1679 905
72 10 2 0 -37 1679 905
73 -1 -15 0 -3 1679 905
74 1 -3 0 -8 1679 905
75 15 -2 0 -406 1679 905
