%!PS-Adobe-3.0 EPSF-3.0
%%Creator: cairo 1.11.2 (http://cairographics.org)
%%CreationDate: Thu May 04 15:05:01 2017
%%Pages: 1
%%DocumentData: Clean7Bit
%%LanguageLevel: 2
%%BoundingBox: 0 0 576 576
%%EndComments
%%BeginProlog
/cairo_eps_state save def
/dict_count countdictstack def
/op_count count 1 sub def
userdict begin
/q { gsave } bind def
/Q { grestore } bind def
/cm { 6 array astore concat } bind def
/w { setlinewidth } bind def
/J { setlinecap } bind def
/j { setlinejoin } bind def
/M { setmiterlimit } bind def
/d { setdash } bind def
/m { moveto } bind def
/l { lineto } bind def
/c { curveto } bind def
/h { closepath } bind def
/re { exch dup neg 3 1 roll 5 3 roll moveto 0 rlineto
      0 exch rlineto 0 rlineto closepath } bind def
/S { stroke } bind def
/f { fill } bind def
/f* { eofill } bind def
/n { newpath } bind def
/W { clip } bind def
/W* { eoclip } bind def
/BT { } bind def
/ET { } bind def
/pdfmark where { pop globaldict /?pdfmark /exec load put }
    { globaldict begin /?pdfmark /pop load def /pdfmark
    /cleartomark load def end } ifelse
/BDC { mark 3 1 roll /BDC pdfmark } bind def
/EMC { mark /EMC pdfmark } bind def
/cairo_store_point { /cairo_point_y exch def /cairo_point_x exch def } def
/Tj { show currentpoint cairo_store_point } bind def
/TJ {
  {
    dup
    type /stringtype eq
    { show } { -0.001 mul 0 cairo_font_matrix dtransform rmoveto } ifelse
  } forall
  currentpoint cairo_store_point
} bind def
/cairo_selectfont { cairo_font_matrix aload pop pop pop 0 0 6 array astore
    cairo_font exch selectfont cairo_point_x cairo_point_y moveto } bind def
/Tf { pop /cairo_font exch def /cairo_font_matrix where
      { pop cairo_selectfont } if } bind def
/Td { matrix translate cairo_font_matrix matrix concatmatrix dup
      /cairo_font_matrix exch def dup 4 get exch 5 get cairo_store_point
      /cairo_font where { pop cairo_selectfont } if } bind def
/Tm { 2 copy 8 2 roll 6 array astore /cairo_font_matrix exch def
      cairo_store_point /cairo_font where { pop cairo_selectfont } if } bind def
/g { setgray } bind def
/rg { setrgbcolor } bind def
/d1 { setcachedevice } bind def
%%EndProlog
%%Page: 1 1
%%BeginPageSetup
%%PageBoundingBox: 0 0 576 576
%%EndPageSetup
q 0 0 576 576 rectclip q
1 g
0 0 576 576 rectfill
0 g
0.75 w
1 J
1 j
[] 0.0 d
10 M 143.449 73.441 m 497.492 73.441 l S
143.449 73.441 m 143.449 66.238 l S
231.961 73.441 m 231.961 66.238 l S
320.473 73.441 m 320.473 66.238 l S
408.98 73.441 m 408.98 66.238 l S
497.492 73.441 m 497.492 66.238 l S
142.605 48.871 m 142.605 47.52 l 135.035 47.52 l 135.023 47.855 135.078
 48.18 135.199 48.496 c 135.391 49.008 135.699 49.516 136.125 50.02 c 136.547
 50.516 137.16 51.094 137.965 51.754 c 139.207 52.773 140.047 53.582 140.488
 54.18 c 140.922 54.773 141.141 55.336 141.145 55.871 c 141.141 56.426 140.941
 56.898 140.547 57.281 c 140.145 57.664 139.625 57.855 138.988 57.855 c 
138.309 57.855 137.77 57.652 137.363 57.246 c 136.957 56.84 136.75 56.277
 136.746 55.559 c 135.301 55.707 l 135.398 56.781 135.77 57.605 136.418 
58.172 c 137.063 58.734 137.93 59.016 139.02 59.02 c 140.117 59.016 140.988
 58.711 141.629 58.105 c 142.27 57.492 142.59 56.738 142.59 55.84 c 142.59
 55.379 142.496 54.926 142.309 54.488 c 142.121 54.043 141.809 53.578 141.375
 53.09 c 140.938 52.598 140.215 51.926 139.207 51.074 c 138.359 50.363 137.816
 49.883 137.582 49.633 c 137.34 49.379 137.145 49.125 136.988 48.871 c h
f
144.109 53.168 m 144.105 54.52 144.246 55.609 144.527 56.438 c 144.805 
57.262 145.219 57.898 145.77 58.348 c 146.316 58.793 147.008 59.016 147.844
 59.02 c 148.457 59.016 148.996 58.891 149.461 58.648 c 149.922 58.398 150.305
 58.043 150.609 57.578 c 150.91 57.109 151.148 56.543 151.32 55.875 c 151.492
 55.203 151.578 54.301 151.578 53.168 c 151.578 51.824 151.438 50.738 151.164
 49.914 c 150.883 49.086 150.473 48.449 149.926 48 c 149.375 47.551 148.68
 47.328 147.844 47.324 c 146.738 47.328 145.871 47.719 145.242 48.512 c 
144.484 49.461 144.105 51.016 144.109 53.168 c h
145.555 53.168 m 145.555 51.285 145.773 50.031 146.215 49.414 c 146.652
 48.789 147.195 48.48 147.844 48.48 c 148.488 48.48 149.031 48.793 149.473
 49.418 c 149.91 50.043 150.129 51.293 150.133 53.168 c 150.129 55.051 149.91
 56.301 149.473 56.926 c 149.031 57.543 148.484 57.855 147.828 57.855 c 
147.18 57.855 146.664 57.582 146.281 57.035 c 145.797 56.336 145.555 55.047
 145.555 53.168 c h
f
228.234 47.52 m 228.234 50.262 l 223.266 50.262 l 223.266 51.551 l 228.492
 58.973 l 229.641 58.973 l 229.641 51.551 l 231.188 51.551 l 231.188 50.262
 l 229.641 50.262 l 229.641 47.52 l h
228.234 51.551 m 228.234 56.715 l 224.648 51.551 l h
f
232.621 53.168 m 232.617 54.52 232.758 55.609 233.039 56.438 c 233.316 
57.262 233.73 57.898 234.281 58.348 c 234.828 58.793 235.52 59.016 236.355
 59.02 c 236.969 59.016 237.508 58.891 237.973 58.648 c 238.434 58.398 238.816
 58.043 239.121 57.578 c 239.422 57.109 239.66 56.543 239.832 55.875 c 240.004
 55.203 240.09 54.301 240.09 53.168 c 240.09 51.824 239.949 50.738 239.676
 49.914 c 239.395 49.086 238.984 48.449 238.438 48 c 237.887 47.551 237.191
 47.328 236.355 47.324 c 235.25 47.328 234.383 47.719 233.754 48.512 c 232.996
 49.461 232.617 51.016 232.621 53.168 c h
234.066 53.168 m 234.066 51.285 234.285 50.031 234.727 49.414 c 235.164
 48.789 235.707 48.48 236.355 48.48 c 237 48.48 237.543 48.793 237.984 49.418
 c 238.422 50.043 238.641 51.293 238.645 53.168 c 238.641 55.051 238.422
 56.301 237.984 56.926 c 237.543 57.543 236.996 57.855 236.34 57.855 c 235.691
 57.855 235.176 57.582 234.793 57.035 c 234.309 56.336 234.066 55.047 234.066
 53.168 c h
f
319.52 56.168 m 318.121 56.059 l 317.996 56.605 317.816 57.008 317.59 57.262
 c 317.207 57.66 316.738 57.859 316.184 57.863 c 315.73 57.859 315.34 57.734
 315.004 57.488 c 314.559 57.16 314.207 56.691 313.957 56.074 c 313.699 
55.453 313.566 54.57 313.559 53.426 c 313.895 53.941 314.309 54.324 314.801
 54.574 c 315.285 54.824 315.801 54.949 316.34 54.949 c 317.277 54.949 318.074
 54.602 318.734 53.914 c 319.391 53.219 319.719 52.328 319.723 51.238 c 
319.719 50.516 319.566 49.848 319.258 49.234 c 318.945 48.613 318.52 48.141
 317.98 47.816 c 317.438 47.488 316.82 47.328 316.137 47.324 c 314.961 47.328
 314.008 47.754 313.27 48.617 c 312.527 49.477 312.156 50.898 312.16 52.879
 c 312.156 55.09 312.566 56.699 313.387 57.707 c 314.098 58.578 315.059 
59.016 316.27 59.02 c 317.168 59.016 317.906 58.762 318.484 58.262 c 319.059
 57.754 319.402 57.059 319.52 56.168 c h
313.777 51.23 m 313.773 50.742 313.875 50.281 314.086 49.84 c 314.289 49.395
 314.578 49.055 314.949 48.828 c 315.316 48.594 315.703 48.48 316.113 48.48
 c 316.703 48.48 317.215 48.719 317.645 49.199 c 318.07 49.676 318.285 50.328
 318.285 51.152 c 318.285 51.941 318.074 52.563 317.652 53.023 c 317.23 
53.477 316.699 53.707 316.059 53.707 c 315.422 53.707 314.883 53.477 314.441
 53.023 c 313.996 52.563 313.773 51.965 313.777 51.23 c h
f
321.117 53.168 m 321.113 54.52 321.254 55.609 321.535 56.438 c 321.813 
57.262 322.227 57.898 322.777 58.348 c 323.324 58.793 324.016 59.016 324.852
 59.02 c 325.465 59.016 326.004 58.891 326.469 58.648 c 326.93 58.398 327.313
 58.043 327.617 57.578 c 327.918 57.109 328.156 56.543 328.328 55.875 c 
328.5 55.203 328.586 54.301 328.586 53.168 c 328.586 51.824 328.445 50.738
 328.172 49.914 c 327.891 49.086 327.48 48.449 326.934 48 c 326.383 47.551
 325.688 47.328 324.852 47.324 c 323.746 47.328 322.879 47.719 322.25 48.512
 c 321.492 49.461 321.113 51.016 321.117 53.168 c h
322.563 53.168 m 322.563 51.285 322.781 50.031 323.223 49.414 c 323.66 
48.789 324.203 48.48 324.852 48.48 c 325.496 48.48 326.039 48.793 326.48
 49.418 c 326.918 50.043 327.137 51.293 327.141 53.168 c 327.137 55.051 
326.918 56.301 326.48 56.926 c 326.039 57.543 325.492 57.855 324.836 57.855
 c 324.188 57.855 323.672 57.582 323.289 57.035 c 322.805 56.336 322.563
 55.047 322.563 53.168 c h
f
402.91 53.73 m 402.324 53.941 401.891 54.246 401.613 54.645 c 401.328 55.039
 401.188 55.512 401.191 56.066 c 401.188 56.898 401.488 57.598 402.09 58.168
 c 402.688 58.73 403.484 59.016 404.48 59.02 c 405.477 59.016 406.281 58.727
 406.895 58.148 c 407.5 57.566 407.805 56.859 407.809 56.027 c 407.805 55.496
 407.664 55.031 407.391 54.641 c 407.109 54.242 406.688 53.941 406.121 53.73
 c 406.82 53.5 407.355 53.129 407.727 52.621 c 408.09 52.109 408.273 51.5
 408.277 50.793 c 408.273 49.813 407.926 48.988 407.238 48.324 c 406.543
 47.656 405.633 47.328 404.504 47.324 c 403.371 47.328 402.461 47.66 401.77
 48.328 c 401.074 48.996 400.727 49.828 400.73 50.832 c 400.727 51.574 400.914
 52.199 401.297 52.703 c 401.672 53.203 402.211 53.547 402.91 53.73 c h
402.629 56.113 m 402.625 55.57 402.801 55.129 403.152 54.785 c 403.5 54.441
 403.953 54.27 404.512 54.27 c 405.051 54.27 405.492 54.438 405.844 54.781
 c 406.188 55.117 406.363 55.535 406.363 56.035 c 406.363 56.547 406.184
 56.98 405.828 57.336 c 405.469 57.684 405.023 57.859 404.496 57.863 c 403.957
 57.859 403.512 57.688 403.16 57.348 c 402.801 57 402.625 56.59 402.629 
56.113 c h
402.176 50.824 m 402.172 50.422 402.27 50.031 402.461 49.66 c 402.648 49.281
 402.93 48.992 403.309 48.789 c 403.68 48.582 404.082 48.48 404.52 48.48
 c 405.188 48.48 405.742 48.695 406.184 49.129 c 406.617 49.559 406.836 
50.109 406.84 50.777 c 406.836 51.453 406.613 52.012 406.164 52.457 c 405.711
 52.898 405.145 53.121 404.473 53.121 c 403.809 53.121 403.262 52.902 402.828
 52.465 c 402.391 52.027 402.172 51.48 402.176 50.824 c h
f
409.641 53.168 m 409.637 54.52 409.777 55.609 410.059 56.438 c 410.336 
57.262 410.75 57.898 411.301 58.348 c 411.848 58.793 412.539 59.016 413.375
 59.02 c 413.988 59.016 414.527 58.891 414.992 58.648 c 415.453 58.398 415.836
 58.043 416.141 57.578 c 416.441 57.109 416.68 56.543 416.852 55.875 c 417.023
 55.203 417.109 54.301 417.109 53.168 c 417.109 51.824 416.969 50.738 416.695
 49.914 c 416.414 49.086 416.004 48.449 415.457 48 c 414.906 47.551 414.211
 47.328 413.375 47.324 c 412.27 47.328 411.402 47.719 410.773 48.512 c 410.016
 49.461 409.637 51.016 409.641 53.168 c h
411.086 53.168 m 411.086 51.285 411.305 50.031 411.746 49.414 c 412.184
 48.789 412.727 48.48 413.375 48.48 c 414.02 48.48 414.563 48.793 415.004
 49.418 c 415.441 50.043 415.66 51.293 415.664 53.168 c 415.66 55.051 415.441
 56.301 415.004 56.926 c 414.563 57.543 414.016 57.855 413.359 57.855 c 
412.711 57.855 412.195 57.582 411.813 57.035 c 411.328 56.336 411.086 55.047
 411.086 53.168 c h
f
490.105 47.52 m 488.699 47.52 l 488.699 56.48 l 488.355 56.152 487.914 
55.832 487.367 55.512 c 486.816 55.188 486.32 54.945 485.887 54.785 c 485.887
 56.145 l 486.668 56.512 487.355 56.957 487.949 57.488 c 488.535 58.012 
488.953 58.523 489.199 59.02 c 490.105 59.02 l h
f
493.707 53.168 m 493.703 54.52 493.844 55.609 494.125 56.438 c 494.402 
57.262 494.816 57.898 495.367 58.348 c 495.914 58.793 496.605 59.016 497.441
 59.02 c 498.055 59.016 498.594 58.891 499.059 58.648 c 499.52 58.398 499.902
 58.043 500.207 57.578 c 500.508 57.109 500.746 56.543 500.918 55.875 c 
501.09 55.203 501.176 54.301 501.176 53.168 c 501.176 51.824 501.035 50.738
 500.762 49.914 c 500.48 49.086 500.07 48.449 499.523 48 c 498.973 47.551
 498.277 47.328 497.441 47.324 c 496.336 47.328 495.469 47.719 494.84 48.512
 c 494.082 49.461 493.703 51.016 493.707 53.168 c h
495.152 53.168 m 495.152 51.285 495.371 50.031 495.813 49.414 c 496.25 
48.789 496.793 48.48 497.441 48.48 c 498.086 48.48 498.629 48.793 499.07
 49.418 c 499.508 50.043 499.727 51.293 499.73 53.168 c 499.727 55.051 499.508
 56.301 499.07 56.926 c 498.629 57.543 498.082 57.855 497.426 57.855 c 496.777
 57.855 496.262 57.582 495.879 57.035 c 495.395 56.336 495.152 55.047 495.152
 53.168 c h
f
502.602 53.168 m 502.598 54.52 502.738 55.609 503.02 56.438 c 503.297 57.262
 503.711 57.898 504.262 58.348 c 504.809 58.793 505.5 59.016 506.336 59.02
 c 506.949 59.016 507.488 58.891 507.953 58.648 c 508.414 58.398 508.797
 58.043 509.102 57.578 c 509.402 57.109 509.641 56.543 509.813 55.875 c 
509.984 55.203 510.07 54.301 510.07 53.168 c 510.07 51.824 509.93 50.738
 509.656 49.914 c 509.375 49.086 508.965 48.449 508.418 48 c 507.867 47.551
 507.172 47.328 506.336 47.324 c 505.23 47.328 504.363 47.719 503.734 48.512
 c 502.977 49.461 502.598 51.016 502.602 53.168 c h
504.047 53.168 m 504.047 51.285 504.266 50.031 504.707 49.414 c 505.145
 48.789 505.688 48.48 506.336 48.48 c 506.98 48.48 507.523 48.793 507.965
 49.418 c 508.402 50.043 508.621 51.293 508.625 53.168 c 508.621 55.051 
508.402 56.301 507.965 56.926 c 507.523 57.543 506.977 57.855 506.32 57.855
 c 505.672 57.855 505.156 57.582 504.773 57.035 c 504.289 56.336 504.047
 55.047 504.047 53.168 c h
f
59.039 85.254 m 59.039 454.391 l S
59.039 85.254 m 51.84 85.254 l S
59.039 177.535 m 51.84 177.535 l S
59.039 269.82 m 51.84 269.82 l S
59.039 362.105 m 51.84 362.105 l S
59.039 454.391 m 51.84 454.391 l S
36.113 81.469 m 34.762 81.465 33.672 81.605 32.844 81.887 c 32.02 82.164
 31.383 82.578 30.934 83.129 c 30.488 83.676 30.266 84.367 30.262 85.203
 c 30.266 85.816 30.391 86.355 30.633 86.82 c 30.883 87.281 31.238 87.664
 31.703 87.969 c 32.172 88.27 32.738 88.508 33.406 88.68 c 34.078 88.852
 34.98 88.938 36.113 88.938 c 37.457 88.938 38.543 88.797 39.367 88.523 
c 40.195 88.242 40.832 87.832 41.281 87.285 c 41.73 86.734 41.953 86.039
 41.957 85.203 c 41.953 84.098 41.563 83.23 40.77 82.602 c 39.82 81.844 
38.266 81.465 36.113 81.469 c h
36.113 82.914 m 37.996 82.914 39.25 83.133 39.867 83.574 c 40.492 84.012
 40.801 84.555 40.801 85.203 c 40.801 85.848 40.488 86.391 39.863 86.832
 c 39.238 87.27 37.988 87.488 36.113 87.492 c 34.23 87.488 32.98 87.27 32.355
 86.832 c 31.738 86.391 31.426 85.844 31.426 85.188 c 31.426 84.539 31.699
 84.023 32.246 83.641 c 32.945 83.156 34.234 82.914 36.113 82.914 c h
f
40.41 176.684 m 41.762 176.684 l 41.762 169.113 l 41.426 169.102 41.102
 169.156 40.785 169.277 c 40.273 169.469 39.766 169.777 39.262 170.203 c
 38.766 170.625 38.188 171.238 37.527 172.043 c 36.508 173.285 35.699 174.125
 35.102 174.566 c 34.508 175 33.945 175.219 33.41 175.223 c 32.855 175.219
 32.383 175.02 32 174.625 c 31.617 174.223 31.426 173.703 31.426 173.066
 c 31.426 172.387 31.629 171.848 32.035 171.441 c 32.441 171.035 33.004 
170.828 33.723 170.824 c 33.574 169.379 l 32.5 169.477 31.676 169.848 31.109
 170.496 c 30.547 171.141 30.266 172.008 30.262 173.098 c 30.266 174.195
 30.57 175.066 31.176 175.707 c 31.789 176.348 32.543 176.668 33.441 176.668
 c 33.902 176.668 34.355 176.574 34.793 176.387 c 35.238 176.199 35.703 
175.887 36.191 175.453 c 36.684 175.016 37.355 174.293 38.207 173.285 c 
38.918 172.438 39.398 171.895 39.648 171.66 c 39.902 171.418 40.156 171.223
 40.41 171.066 c h
f
36.113 178.188 m 34.762 178.184 33.672 178.324 32.844 178.605 c 32.02 178.883
 31.383 179.297 30.934 179.848 c 30.488 180.395 30.266 181.086 30.262 181.922
 c 30.266 182.535 30.391 183.074 30.633 183.539 c 30.883 184 31.238 184.383
 31.703 184.688 c 32.172 184.988 32.738 185.227 33.406 185.398 c 34.078 
185.57 34.98 185.656 36.113 185.656 c 37.457 185.656 38.543 185.516 39.367
 185.242 c 40.195 184.961 40.832 184.551 41.281 184.004 c 41.73 183.453 
41.953 182.758 41.957 181.922 c 41.953 180.816 41.563 179.949 40.77 179.32
 c 39.82 178.563 38.266 178.184 36.113 178.188 c h
36.113 179.633 m 37.996 179.633 39.25 179.852 39.867 180.293 c 40.492 180.73
 40.801 181.273 40.801 181.922 c 40.801 182.566 40.488 183.109 39.863 183.551
 c 39.238 183.988 37.988 184.207 36.113 184.211 c 34.23 184.207 32.98 183.988
 32.355 183.551 c 31.738 183.109 31.426 182.563 31.426 181.906 c 31.426 
181.258 31.699 180.742 32.246 180.359 c 32.945 179.875 34.234 179.633 36.113
 179.633 c h
f
41.762 266.09 m 39.02 266.09 l 39.02 261.121 l 37.73 261.121 l 30.309 266.348
 l 30.309 267.496 l 37.73 267.496 l 37.73 269.043 l 39.02 269.043 l 39.02
 267.496 l 41.762 267.496 l h
37.73 266.09 m 32.566 266.09 l 37.73 262.504 l h
f
36.113 270.477 m 34.762 270.473 33.672 270.613 32.844 270.895 c 32.02 271.172
 31.383 271.586 30.934 272.137 c 30.488 272.684 30.266 273.375 30.262 274.211
 c 30.266 274.824 30.391 275.363 30.633 275.828 c 30.883 276.289 31.238 
276.672 31.703 276.977 c 32.172 277.277 32.738 277.516 33.406 277.688 c 
34.078 277.859 34.98 277.945 36.113 277.945 c 37.457 277.945 38.543 277.805
 39.367 277.531 c 40.195 277.25 40.832 276.84 41.281 276.293 c 41.73 275.742
 41.953 275.047 41.957 274.211 c 41.953 273.105 41.563 272.238 40.77 271.609
 c 39.82 270.852 38.266 270.473 36.113 270.477 c h
36.113 271.922 m 37.996 271.922 39.25 272.141 39.867 272.582 c 40.492 273.02
 40.801 273.563 40.801 274.211 c 40.801 274.855 40.488 275.398 39.863 275.84
 c 39.238 276.277 37.988 276.496 36.113 276.5 c 34.23 276.496 32.98 276.277
 32.355 275.84 c 31.738 275.398 31.426 274.852 31.426 274.195 c 31.426 273.547
 31.699 273.031 32.246 272.648 c 32.945 272.164 34.234 271.922 36.113 271.922
 c h
f
33.113 361.168 m 33.223 359.77 l 32.676 359.645 32.273 359.465 32.02 359.238
 c 31.621 358.855 31.422 358.387 31.418 357.832 c 31.422 357.379 31.547 
356.988 31.793 356.652 c 32.121 356.207 32.59 355.855 33.207 355.605 c 33.828
 355.348 34.711 355.215 35.855 355.207 c 35.34 355.543 34.957 355.957 34.707
 356.449 c 34.457 356.934 34.332 357.449 34.332 357.988 c 34.332 358.926
 34.68 359.723 35.367 360.383 c 36.063 361.039 36.953 361.367 38.043 361.371
 c 38.766 361.367 39.434 361.215 40.047 360.906 c 40.668 360.594 41.141 
360.168 41.465 359.629 c 41.793 359.086 41.953 358.469 41.957 357.785 c 
41.953 356.609 41.527 355.656 40.664 354.918 c 39.805 354.176 38.383 353.805
 36.402 353.809 c 34.191 353.805 32.582 354.215 31.574 355.035 c 30.703 
355.746 30.266 356.707 30.262 357.918 c 30.266 358.816 30.52 359.555 31.02
 360.133 c 31.527 360.707 32.223 361.051 33.113 361.168 c h
38.051 355.426 m 38.539 355.422 39 355.523 39.441 355.734 c 39.887 355.938
 40.227 356.227 40.453 356.598 c 40.688 356.965 40.801 357.352 40.801 357.762
 c 40.801 358.352 40.563 358.863 40.082 359.293 c 39.605 359.719 38.953 
359.934 38.129 359.934 c 37.34 359.934 36.719 359.723 36.258 359.301 c 35.805
 358.879 35.574 358.348 35.574 357.707 c 35.574 357.07 35.805 356.531 36.258
 356.09 c 36.719 355.645 37.316 355.422 38.051 355.426 c h
f
36.113 362.766 m 34.762 362.762 33.672 362.902 32.844 363.184 c 32.02 363.461
 31.383 363.875 30.934 364.426 c 30.488 364.973 30.266 365.664 30.262 366.5
 c 30.266 367.113 30.391 367.652 30.633 368.117 c 30.883 368.578 31.238 
368.961 31.703 369.266 c 32.172 369.566 32.738 369.805 33.406 369.977 c 
34.078 370.148 34.98 370.234 36.113 370.234 c 37.457 370.234 38.543 370.094
 39.367 369.82 c 40.195 369.539 40.832 369.129 41.281 368.582 c 41.73 368.031
 41.953 367.336 41.957 366.5 c 41.953 365.395 41.563 364.527 40.77 363.898
 c 39.82 363.141 38.266 362.762 36.113 362.766 c h
36.113 364.211 m 37.996 364.211 39.25 364.43 39.867 364.871 c 40.492 365.309
 40.801 365.852 40.801 366.5 c 40.801 367.145 40.488 367.688 39.863 368.129
 c 39.238 368.566 37.988 368.785 36.113 368.789 c 34.23 368.785 32.98 368.566
 32.355 368.129 c 31.738 367.688 31.426 367.141 31.426 366.484 c 31.426 
365.836 31.699 365.32 32.246 364.938 c 32.945 364.453 34.234 364.211 36.113
 364.211 c h
f
35.551 448.324 m 35.34 447.738 35.035 447.305 34.637 447.027 c 34.242 446.742
 33.77 446.602 33.215 446.605 c 32.383 446.602 31.684 446.902 31.113 447.504
 c 30.551 448.102 30.266 448.898 30.262 449.895 c 30.266 450.891 30.555 
451.695 31.133 452.309 c 31.715 452.914 32.422 453.219 33.254 453.223 c 
33.785 453.219 34.25 453.078 34.641 452.805 c 35.039 452.523 35.34 452.102
 35.551 451.535 c 35.781 452.234 36.152 452.77 36.66 453.141 c 37.172 453.504
 37.781 453.688 38.488 453.691 c 39.469 453.688 40.293 453.34 40.957 452.652
 c 41.625 451.957 41.953 451.047 41.957 449.918 c 41.953 448.785 41.621 
447.875 40.953 447.184 c 40.285 446.488 39.453 446.141 38.449 446.145 c 
37.707 446.141 37.082 446.328 36.578 446.711 c 36.078 447.086 35.734 447.625
 35.551 448.324 c h
33.168 448.043 m 33.711 448.039 34.152 448.215 34.496 448.566 c 34.84 448.914
 35.012 449.367 35.012 449.926 c 35.012 450.465 34.844 450.906 34.5 451.258
 c 34.164 451.602 33.746 451.777 33.246 451.777 c 32.734 451.777 32.301 
451.598 31.945 451.242 c 31.598 450.883 31.422 450.438 31.418 449.91 c 31.422
 449.371 31.594 448.926 31.934 448.574 c 32.281 448.215 32.691 448.039 33.168
 448.043 c h
38.457 447.59 m 38.859 447.586 39.25 447.684 39.621 447.875 c 40 448.063
 40.289 448.344 40.492 448.723 c 40.699 449.094 40.801 449.496 40.801 449.934
 c 40.801 450.602 40.586 451.156 40.152 451.598 c 39.723 452.031 39.172 
452.25 38.504 452.254 c 37.828 452.25 37.27 452.027 36.824 451.578 c 36.383
 451.125 36.16 450.559 36.16 449.887 c 36.16 449.223 36.379 448.676 36.816
 448.242 c 37.254 447.805 37.801 447.586 38.457 447.59 c h
f
36.113 455.055 m 34.762 455.051 33.672 455.191 32.844 455.473 c 32.02 455.75
 31.383 456.164 30.934 456.715 c 30.488 457.262 30.266 457.953 30.262 458.789
 c 30.266 459.402 30.391 459.941 30.633 460.406 c 30.883 460.867 31.238 
461.25 31.703 461.555 c 32.172 461.855 32.738 462.094 33.406 462.266 c 34.078
 462.438 34.98 462.523 36.113 462.523 c 37.457 462.523 38.543 462.383 39.367
 462.109 c 40.195 461.828 40.832 461.418 41.281 460.871 c 41.73 460.32 41.953
 459.625 41.957 458.789 c 41.953 457.684 41.563 456.816 40.77 456.188 c 
39.82 455.43 38.266 455.051 36.113 455.055 c h
36.113 456.5 m 37.996 456.5 39.25 456.719 39.867 457.16 c 40.492 457.598
 40.801 458.141 40.801 458.789 c 40.801 459.434 40.488 459.977 39.863 460.418
 c 39.238 460.855 37.988 461.074 36.113 461.078 c 34.23 461.074 32.98 460.855
 32.355 460.418 c 31.738 459.977 31.426 459.43 31.426 458.773 c 31.426 458.125
 31.699 457.609 32.246 457.227 c 32.945 456.742 34.234 456.5 36.113 456.5
 c h
f
59.039 516.961 486.723 -443.52 re S
288.805 543.258 m 290.465 543.039 l 290.281 541.891 289.816 540.996 289.07
 540.352 c 288.324 539.707 287.406 539.387 286.32 539.383 c 284.957 539.387
 283.863 539.828 283.035 540.719 c 282.207 541.605 281.793 542.883 281.793
 544.551 c 281.793 545.621 281.969 546.563 282.328 547.371 c 282.68 548.176
 283.223 548.781 283.953 549.184 c 284.68 549.586 285.473 549.785 286.332
 549.789 c 287.41 549.785 288.293 549.512 288.984 548.969 c 289.668 548.418
 290.109 547.645 290.305 546.641 c 288.664 546.387 l 288.504 547.055 288.227
 547.559 287.832 547.895 c 287.434 548.23 286.953 548.398 286.395 548.402
 c 285.543 548.398 284.855 548.094 284.324 547.488 c 283.793 546.875 283.527
 545.91 283.527 544.598 c 283.527 543.254 283.781 542.281 284.297 541.68
 c 284.805 541.07 285.473 540.77 286.301 540.773 c 286.961 540.77 287.516
 540.973 287.961 541.383 c 288.402 541.785 288.684 542.41 288.805 543.258
 c h
f
298.871 539.609 m 297.184 539.609 l 297.184 550.363 l 296.773 549.973 296.242
 549.586 295.586 549.199 c 294.926 548.809 294.332 548.52 293.809 548.328
 c 293.809 549.961 l 294.75 550.402 295.574 550.938 296.285 551.57 c 296.988
 552.199 297.488 552.813 297.785 553.41 c 298.871 553.41 l h
f
312.059 541.23 m 312.059 539.609 l 302.977 539.609 l 302.961 540.016 303.027
 540.406 303.172 540.781 c 303.402 541.398 303.773 542.008 304.281 542.609
 c 304.789 543.207 305.523 543.898 306.492 544.691 c 307.98 545.91 308.992
 546.883 309.52 547.602 c 310.043 548.316 310.305 548.992 310.309 549.633
 c 310.305 550.297 310.066 550.859 309.59 551.32 c 309.109 551.777 308.484
 552.008 307.719 552.012 c 306.902 552.008 306.254 551.766 305.77 551.281
 c 305.281 550.793 305.031 550.117 305.027 549.258 c 303.293 549.434 l 303.41
 550.727 303.859 551.711 304.633 552.391 c 305.406 553.066 306.445 553.406
 307.758 553.41 c 309.07 553.406 310.113 553.043 310.887 552.313 c 311.652
 551.578 312.039 550.672 312.043 549.594 c 312.039 549.043 311.926 548.5
 311.703 547.973 c 311.477 547.438 311.102 546.879 310.582 546.293 c 310.059
 545.703 309.191 544.898 307.98 543.875 c 306.965 543.023 306.316 542.445
 306.031 542.145 c 305.742 541.84 305.504 541.535 305.32 541.23 c h
f
313.867 546.387 m 313.867 548.008 314.031 549.316 314.367 550.309 c 314.699
 551.301 315.199 552.063 315.859 552.602 c 316.516 553.137 317.344 553.406
 318.348 553.41 c 319.082 553.406 319.73 553.258 320.289 552.965 c 320.844
 552.664 321.301 552.238 321.668 551.68 c 322.027 551.117 322.313 550.434
 322.52 549.633 c 322.723 548.828 322.824 547.746 322.828 546.387 c 322.824
 544.773 322.66 543.473 322.332 542.48 c 322 541.488 321.504 540.723 320.848
 540.184 c 320.184 539.645 319.352 539.375 318.348 539.375 c 317.02 539.375
 315.98 539.848 315.227 540.801 c 314.32 541.941 313.867 543.805 313.867
 546.387 c h
315.602 546.387 m 315.602 544.129 315.863 542.629 316.395 541.883 c 316.918
 541.133 317.57 540.758 318.348 540.762 c 319.121 540.758 319.773 541.133
 320.301 541.887 c 320.828 542.633 321.09 544.133 321.094 546.387 c 321.09
 548.648 320.828 550.152 320.301 550.895 c 319.773 551.637 319.113 552.008
 318.328 552.012 c 317.551 552.008 316.934 551.68 316.473 551.027 c 315.891
 550.188 315.602 548.641 315.602 546.387 c h
f
297.133 18.719 m 301.563 24.688 l 297.656 30.172 l 299.461 30.172 l 301.539
 27.234 l 301.969 26.621 302.273 26.152 302.461 25.828 c 302.711 26.242 
303.016 26.68 303.367 27.133 c 305.672 30.172 l 307.32 30.172 l 303.297 
24.773 l 307.633 18.719 l 305.758 18.719 l 302.875 22.805 l 302.711 23.035
 302.543 23.293 302.375 23.57 c 302.117 23.152 301.934 22.863 301.828 22.711
 c 298.953 18.719 l h
f
12.961 294.324 m 8.109 294.324 l 1.508 289.91 l 1.508 291.754 l 4.961 294.012
 l 5.609 294.426 6.254 294.813 6.898 295.176 c 6.301 295.516 5.625 295.934
 4.875 296.426 c 1.508 298.645 l 1.508 300.41 l 8.109 295.84 l 12.961 295.84
 l h
f
Q q
59.039 516.961 487.719 -444.52 re W n
q
59 517 488 -445 re W n
  q
Q q
0.65098 0.196078 0.196078 rg
1.5 w
1 J
1 j
[] 0.0 d
10 M 99.195 292.895 m 258.512 126.781 l S
101.895 292.895 m 101.895 289.293 96.496 289.293 96.496 292.895 c 96.496
 296.492 101.895 296.492 101.895 292.895 c f
258.512 126.781 m 262.938 112.938 l S
261.215 126.781 m 261.215 123.18 255.813 123.18 255.813 126.781 c 255.813
 130.379 261.215 130.379 261.215 126.781 c f
262.938 112.938 m 231.961 108.324 l S
265.641 112.938 m 265.641 109.336 260.238 109.336 260.238 112.938 c 260.238
 116.539 265.641 116.539 265.641 112.938 c f
231.961 108.324 m 227.535 99.094 l S
234.66 108.324 m 234.66 104.723 229.262 104.723 229.262 108.324 c 229.262
 111.922 234.66 111.922 234.66 108.324 c f
227.535 99.094 m 214.258 99.094 l S
230.234 99.094 m 230.234 95.496 224.836 95.496 224.836 99.094 c 224.836
 102.695 230.234 102.695 230.234 99.094 c f
214.258 99.094 m 209.832 108.324 l S
216.957 99.094 m 216.957 95.496 211.559 95.496 211.559 99.094 c 211.559
 102.695 216.957 102.695 216.957 99.094 c f
209.832 108.324 m 205.406 112.938 l S
212.531 108.324 m 212.531 104.723 207.133 104.723 207.133 108.324 c 207.133
 111.922 212.531 111.922 212.531 108.324 c f
205.406 112.938 m 209.832 117.551 l S
208.105 112.938 m 208.105 109.336 202.707 109.336 202.707 112.938 c 202.707
 116.539 208.105 116.539 208.105 112.938 c f
209.832 117.551 m 205.406 126.781 l S
212.531 117.551 m 212.531 113.953 207.133 113.953 207.133 117.551 c 207.133
 121.152 212.531 121.152 212.531 117.551 c f
205.406 126.781 m 196.555 126.781 l S
208.105 126.781 m 208.105 123.18 202.707 123.18 202.707 126.781 c 202.707
 130.379 208.105 130.379 208.105 126.781 c f
196.555 126.781 m 192.129 117.551 l S
199.258 126.781 m 199.258 123.18 193.855 123.18 193.855 126.781 c 193.855
 130.379 199.258 130.379 199.258 126.781 c f
192.129 117.551 m 196.555 108.324 l S
194.832 117.551 m 194.832 113.953 189.43 113.953 189.43 117.551 c 189.43
 121.152 194.832 121.152 194.832 117.551 c f
196.555 108.324 m 192.129 108.324 l S
199.258 108.324 m 199.258 104.723 193.855 104.723 193.855 108.324 c 193.855
 111.922 199.258 111.922 199.258 108.324 c f
192.129 108.324 m 165.578 89.867 l S
194.832 108.324 m 194.832 104.723 189.43 104.723 189.43 108.324 c 189.43
 111.922 194.832 111.922 194.832 108.324 c f
165.578 89.867 m 165.578 99.094 l S
168.277 89.867 m 168.277 86.266 162.879 86.266 162.879 89.867 c 162.879
 93.465 168.277 93.465 168.277 89.867 c f
165.578 99.094 m 103.621 279.051 l S
168.277 99.094 m 168.277 95.496 162.879 95.496 162.879 99.094 c 162.879
 102.695 168.277 102.695 168.277 99.094 c f
99.195 292.895 m 103.621 279.051 l S
0.65098 0.584314 0.196078 rg
99.195 292.895 m 77.066 269.82 l S
101.895 292.895 m 101.895 289.293 96.496 289.293 96.496 292.895 c 96.496
 296.492 101.895 296.492 101.895 292.895 c f
77.066 269.82 m 99.195 269.82 l S
79.766 269.82 m 79.766 266.223 74.367 266.223 74.367 269.82 c 74.367 273.422
 79.766 273.422 79.766 269.82 c f
99.195 269.82 m 99.195 246.75 l S
101.895 269.82 m 101.895 266.223 96.496 266.223 96.496 269.82 c 96.496 
273.422 101.895 273.422 101.895 269.82 c f
99.195 246.75 m 121.32 251.363 l S
101.895 246.75 m 101.895 243.152 96.496 243.152 96.496 246.75 c 96.496 
250.352 101.895 250.352 101.895 246.75 c f
121.32 251.363 m 130.172 246.75 l S
124.023 251.363 m 124.023 247.766 118.621 247.766 118.621 251.363 c 118.621
 254.965 124.023 254.965 124.023 251.363 c f
130.172 246.75 m 125.746 237.523 l S
132.875 246.75 m 132.875 243.152 127.473 243.152 127.473 246.75 c 127.473
 250.352 132.875 250.352 132.875 246.75 c f
125.746 237.523 m 134.598 228.293 l S
128.449 237.523 m 128.449 233.922 123.047 233.922 123.047 237.523 c 123.047
 241.121 128.449 241.121 128.449 237.523 c f
134.598 228.293 m 134.598 223.68 l S
137.297 228.293 m 137.297 224.695 131.898 224.695 131.898 228.293 c 131.898
 231.895 137.297 231.895 137.297 228.293 c f
134.598 223.68 m 178.855 237.523 l S
137.297 223.68 m 137.297 220.078 131.898 220.078 131.898 223.68 c 131.898
 227.281 137.297 227.281 137.297 223.68 c f
178.855 237.523 m 165.578 246.75 l S
181.555 237.523 m 181.555 233.922 176.152 233.922 176.152 237.523 c 176.152
 241.121 181.555 241.121 181.555 237.523 c f
165.578 246.75 m 161.152 251.363 l S
168.277 246.75 m 168.277 243.152 162.879 243.152 162.879 246.75 c 162.879
 250.352 168.277 250.352 168.277 246.75 c f
161.152 251.363 m 165.578 255.98 l S
163.852 251.363 m 163.852 247.766 158.453 247.766 158.453 251.363 c 158.453
 254.965 163.852 254.965 163.852 251.363 c f
165.578 255.98 m 147.875 265.207 l S
168.277 255.98 m 168.277 252.379 162.879 252.379 162.879 255.98 c 162.879
 259.578 168.277 259.578 168.277 255.98 c f
147.875 265.207 m 143.449 269.82 l S
150.574 265.207 m 150.574 261.609 145.176 261.609 145.176 265.207 c 145.176
 268.809 150.574 268.809 150.574 265.207 c f
143.449 269.82 m 134.598 274.438 l S
146.148 269.82 m 146.148 266.223 140.75 266.223 140.75 269.82 c 140.75 
273.422 146.148 273.422 146.148 269.82 c f
134.598 274.438 m 134.598 269.82 l S
137.297 274.438 m 137.297 270.836 131.898 270.836 131.898 274.438 c 131.898
 278.035 137.297 278.035 137.297 274.438 c f
134.598 269.82 m 125.746 260.594 l S
137.297 269.82 m 137.297 266.223 131.898 266.223 131.898 269.82 c 131.898
 273.422 137.297 273.422 137.297 269.82 c f
125.746 260.594 m 116.895 269.82 l S
128.449 260.594 m 128.449 256.992 123.047 256.992 123.047 260.594 c 123.047
 264.191 128.449 264.191 128.449 260.594 c f
99.195 292.895 m 116.895 269.82 l S
0.32549 0.65098 0.196078 rg
99.195 292.895 m 378.004 122.168 l S
101.895 292.895 m 101.895 289.293 96.496 289.293 96.496 292.895 c 96.496
 296.492 101.895 296.492 101.895 292.895 c f
378.004 122.168 m 378.004 112.938 l S
380.703 122.168 m 380.703 118.566 375.305 118.566 375.305 122.168 c 375.305
 125.766 380.703 125.766 380.703 122.168 c f
378.004 112.938 m 391.281 131.395 l S
380.703 112.938 m 380.703 109.336 375.305 109.336 375.305 112.938 c 375.305
 116.539 380.703 116.539 380.703 112.938 c f
391.281 131.395 m 400.129 126.781 l S
393.98 131.395 m 393.98 127.793 388.578 127.793 388.578 131.395 c 388.578
 134.996 393.98 134.996 393.98 131.395 c f
400.129 126.781 m 391.281 112.938 l S
402.832 126.781 m 402.832 123.18 397.43 123.18 397.43 126.781 c 397.43 
130.379 402.832 130.379 402.832 126.781 c f
391.281 112.938 m 404.555 108.324 l S
393.98 112.938 m 393.98 109.336 388.578 109.336 388.578 112.938 c 388.578
 116.539 393.98 116.539 393.98 112.938 c f
404.555 108.324 m 400.129 99.094 l S
407.258 108.324 m 407.258 104.723 401.855 104.723 401.855 108.324 c 401.855
 111.922 407.258 111.922 407.258 108.324 c f
400.129 99.094 m 404.555 99.094 l S
402.832 99.094 m 402.832 95.496 397.43 95.496 397.43 99.094 c 397.43 102.695
 402.832 102.695 402.832 99.094 c f
404.555 99.094 m 417.832 99.094 l S
407.258 99.094 m 407.258 95.496 401.855 95.496 401.855 99.094 c 401.855
 102.695 407.258 102.695 407.258 99.094 c f
417.832 99.094 m 431.109 89.867 l S
420.531 99.094 m 420.531 95.496 415.133 95.496 415.133 99.094 c 415.133
 102.695 420.531 102.695 420.531 99.094 c f
431.109 89.867 m 426.684 99.094 l S
433.809 89.867 m 433.809 86.266 428.41 86.266 428.41 89.867 c 428.41 93.465
 433.809 93.465 433.809 89.867 c f
426.684 99.094 m 426.684 108.324 l S
429.383 99.094 m 429.383 95.496 423.984 95.496 423.984 99.094 c 423.984
 102.695 429.383 102.695 429.383 99.094 c f
426.684 108.324 m 439.961 108.324 l S
429.383 108.324 m 429.383 104.723 423.984 104.723 423.984 108.324 c 423.984
 111.922 429.383 111.922 429.383 108.324 c f
439.961 108.324 m 439.961 117.551 l S
442.66 108.324 m 442.66 104.723 437.262 104.723 437.262 108.324 c 437.262
 111.922 442.66 111.922 442.66 108.324 c f
439.961 117.551 m 453.238 154.465 l S
442.66 117.551 m 442.66 113.953 437.262 113.953 437.262 117.551 c 437.262
 121.152 442.66 121.152 442.66 117.551 c f
453.238 154.465 m 431.109 122.168 l S
455.938 154.465 m 455.938 150.867 450.535 150.867 450.535 154.465 c 450.535
 158.066 455.938 158.066 455.938 154.465 c f
431.109 122.168 m 426.684 126.781 l S
433.809 122.168 m 433.809 118.566 428.41 118.566 428.41 122.168 c 428.41
 125.766 433.809 125.766 433.809 122.168 c f
426.684 126.781 m 417.832 117.551 l S
429.383 126.781 m 429.383 123.18 423.984 123.18 423.984 126.781 c 423.984
 130.379 429.383 130.379 429.383 126.781 c f
417.832 117.551 m 404.555 136.008 l S
420.531 117.551 m 420.531 113.953 415.133 113.953 415.133 117.551 c 415.133
 121.152 420.531 121.152 420.531 117.551 c f
404.555 136.008 m 391.281 145.238 l S
407.258 136.008 m 407.258 132.41 401.855 132.41 401.855 136.008 c 401.855
 139.609 407.258 139.609 407.258 136.008 c f
391.281 145.238 m 200.98 260.594 l S
393.98 145.238 m 393.98 141.637 388.578 141.637 388.578 145.238 c 388.578
 148.836 393.98 148.836 393.98 145.238 c f
99.195 292.895 m 200.98 260.594 l S
0.196078 0.65098 0.454902 rg
99.195 292.895 m 77.066 315.965 l S
101.895 292.895 m 101.895 289.293 96.496 289.293 96.496 292.895 c 96.496
 296.492 101.895 296.492 101.895 292.895 c f
77.066 315.965 m 116.895 315.965 l S
79.766 315.965 m 79.766 312.363 74.367 312.363 74.367 315.965 c 74.367 
319.563 79.766 319.563 79.766 315.965 c f
116.895 315.965 m 125.746 306.734 l S
119.598 315.965 m 119.598 312.363 114.195 312.363 114.195 315.965 c 114.195
 319.563 119.598 319.563 119.598 315.965 c f
125.746 306.734 m 134.598 311.352 l S
128.449 306.734 m 128.449 303.137 123.047 303.137 123.047 306.734 c 123.047
 310.336 128.449 310.336 128.449 306.734 c f
134.598 311.352 m 121.32 320.578 l S
137.297 311.352 m 137.297 307.75 131.898 307.75 131.898 311.352 c 131.898
 314.949 137.297 314.949 137.297 311.352 c f
121.32 320.578 m 125.746 334.422 l S
124.023 320.578 m 124.023 316.977 118.621 316.977 118.621 320.578 c 118.621
 324.18 124.023 324.18 124.023 320.578 c f
125.746 334.422 m 134.598 329.809 l S
128.449 334.422 m 128.449 330.82 123.047 330.82 123.047 334.422 c 123.047
 338.02 128.449 338.02 128.449 334.422 c f
134.598 329.809 m 143.449 339.035 l S
137.297 329.809 m 137.297 326.207 131.898 326.207 131.898 329.809 c 131.898
 333.406 137.297 333.406 137.297 329.809 c f
143.449 339.035 m 143.449 315.965 l S
146.148 339.035 m 146.148 335.434 140.75 335.434 140.75 339.035 c 140.75
 342.637 146.148 342.637 146.148 339.035 c f
143.449 315.965 m 152.301 320.578 l S
146.148 315.965 m 146.148 312.363 140.75 312.363 140.75 315.965 c 140.75
 319.563 146.148 319.563 146.148 315.965 c f
152.301 320.578 m 165.578 325.191 l S
155 320.578 m 155 316.977 149.602 316.977 149.602 320.578 c 149.602 324.18
 155 324.18 155 320.578 c f
165.578 325.191 m 187.703 297.508 l S
168.277 325.191 m 168.277 321.594 162.879 321.594 162.879 325.191 c 162.879
 328.793 168.277 328.793 168.277 325.191 c f
187.703 297.508 m 165.578 292.895 l S
190.406 297.508 m 190.406 293.906 185.004 293.906 185.004 297.508 c 185.004
 301.105 190.406 301.105 190.406 297.508 c f
165.578 292.895 m 152.301 288.277 l S
168.277 292.895 m 168.277 289.293 162.879 289.293 162.879 292.895 c 162.879
 296.492 168.277 296.492 168.277 292.895 c f
152.301 288.277 m 143.449 288.277 l S
155 288.277 m 155 284.68 149.602 284.68 149.602 288.277 c 149.602 291.879
 155 291.879 155 288.277 c f
143.449 288.277 m 143.449 292.895 l S
146.148 288.277 m 146.148 284.68 140.75 284.68 140.75 288.277 c 140.75 
291.879 146.148 291.879 146.148 288.277 c f
143.449 292.895 m 125.746 292.895 l S
146.148 292.895 m 146.148 289.293 140.75 289.293 140.75 292.895 c 140.75
 296.492 146.148 296.492 146.148 292.895 c f
125.746 292.895 m 121.32 279.051 l S
128.449 292.895 m 128.449 289.293 123.047 289.293 123.047 292.895 c 123.047
 296.492 128.449 296.492 128.449 292.895 c f
121.32 279.051 m 112.473 269.82 l S
124.023 279.051 m 124.023 275.449 118.621 275.449 118.621 279.051 c 118.621
 282.648 124.023 282.648 124.023 279.051 c f
99.195 292.895 m 112.473 269.82 l S
0.196078 0.454902 0.65098 rg
99.195 292.895 m 187.703 339.035 l S
101.895 292.895 m 101.895 289.293 96.496 289.293 96.496 292.895 c 96.496
 296.492 101.895 296.492 101.895 292.895 c f
187.703 339.035 m 276.215 454.391 l S
190.406 339.035 m 190.406 335.434 185.004 335.434 185.004 339.035 c 185.004
 342.637 190.406 342.637 190.406 339.035 c f
276.215 454.391 m 258.512 468.234 l S
278.914 454.391 m 278.914 450.789 273.516 450.789 273.516 454.391 c 273.516
 457.992 278.914 457.992 278.914 454.391 c f
258.512 468.234 m 267.363 468.234 l S
261.215 468.234 m 261.215 464.633 255.813 464.633 255.813 468.234 c 255.813
 471.832 261.215 471.832 261.215 468.234 c f
267.363 468.234 m 276.215 477.461 l S
270.066 468.234 m 270.066 464.633 264.664 464.633 264.664 468.234 c 264.664
 471.832 270.066 471.832 270.066 468.234 c f
276.215 477.461 m 293.918 482.078 l S
278.914 477.461 m 278.914 473.863 273.516 473.863 273.516 477.461 c 273.516
 481.063 278.914 481.063 278.914 477.461 c f
293.918 482.078 m 293.918 500.535 l S
296.617 482.078 m 296.617 478.477 291.219 478.477 291.219 482.078 c 291.219
 485.676 296.617 485.676 296.617 482.078 c f
293.918 500.535 m 276.215 491.305 l S
296.617 500.535 m 296.617 496.934 291.219 496.934 291.219 500.535 c 291.219
 504.133 296.617 504.133 296.617 500.535 c f
276.215 491.305 m 258.512 495.918 l S
278.914 491.305 m 278.914 487.703 273.516 487.703 273.516 491.305 c 273.516
 494.906 278.914 494.906 278.914 491.305 c f
258.512 495.918 m 258.512 495.918 l S
261.215 495.918 m 261.215 492.32 255.813 492.32 255.813 495.918 c 255.813
 499.52 261.215 499.52 261.215 495.918 c f
258.512 495.918 m 258.512 486.691 l S
261.215 495.918 m 261.215 492.32 255.813 492.32 255.813 495.918 c 255.813
 499.52 261.215 499.52 261.215 495.918 c f
258.512 486.691 m 249.664 482.078 l S
261.215 486.691 m 261.215 483.09 255.813 483.09 255.813 486.691 c 255.813
 490.289 261.215 490.289 261.215 486.691 c f
249.664 482.078 m 209.832 486.691 l S
252.363 482.078 m 252.363 478.477 246.961 478.477 246.961 482.078 c 246.961
 485.676 252.363 485.676 252.363 482.078 c f
209.832 486.691 m 209.832 477.461 l S
212.531 486.691 m 212.531 483.09 207.133 483.09 207.133 486.691 c 207.133
 490.289 212.531 490.289 212.531 486.691 c f
209.832 477.461 m 218.684 468.234 l S
212.531 477.461 m 212.531 473.863 207.133 473.863 207.133 477.461 c 207.133
 481.063 212.531 481.063 212.531 477.461 c f
99.195 292.895 m 218.684 468.234 l S
0.32549 0.196078 0.65098 rg
99.195 292.895 m 422.258 454.391 l S
101.895 292.895 m 101.895 289.293 96.496 289.293 96.496 292.895 c 96.496
 296.492 101.895 296.492 101.895 292.895 c f
422.258 454.391 m 431.109 459.004 l S
424.957 454.391 m 424.957 450.789 419.559 450.789 419.559 454.391 c 419.559
 457.992 424.957 457.992 424.957 454.391 c f
431.109 459.004 m 439.961 454.391 l S
433.809 459.004 m 433.809 455.406 428.41 455.406 428.41 459.004 c 428.41
 462.605 433.809 462.605 433.809 459.004 c f
439.961 454.391 m 453.238 440.547 l S
442.66 454.391 m 442.66 450.789 437.262 450.789 437.262 454.391 c 437.262
 457.992 442.66 457.992 442.66 454.391 c f
453.238 440.547 m 475.363 454.391 l S
455.938 440.547 m 455.938 436.949 450.535 436.949 450.535 440.547 c 450.535
 444.148 455.938 444.148 455.938 440.547 c f
475.363 454.391 m 466.512 463.621 l S
478.066 454.391 m 478.066 450.789 472.664 450.789 472.664 454.391 c 472.664
 457.992 478.066 457.992 478.066 454.391 c f
466.512 463.621 m 466.512 472.848 l S
469.215 463.621 m 469.215 460.02 463.813 460.02 463.813 463.621 c 463.813
 467.219 469.215 467.219 469.215 463.621 c f
466.512 472.848 m 470.938 482.078 l S
469.215 472.848 m 469.215 469.246 463.813 469.246 463.813 472.848 c 463.813
 476.449 469.215 476.449 469.215 472.848 c f
470.938 482.078 m 493.066 495.918 l S
473.641 482.078 m 473.641 478.477 468.238 478.477 468.238 482.078 c 468.238
 485.676 473.641 485.676 473.641 482.078 c f
493.066 495.918 m 466.512 495.918 l S
495.766 495.918 m 495.766 492.32 490.367 492.32 490.367 495.918 c 490.367
 499.52 495.766 499.52 495.766 495.918 c f
466.512 495.918 m 453.238 491.305 l S
469.215 495.918 m 469.215 492.32 463.813 492.32 463.813 495.918 c 463.813
 499.52 469.215 499.52 469.215 495.918 c f
453.238 491.305 m 431.109 495.918 l S
455.938 491.305 m 455.938 487.703 450.535 487.703 450.535 491.305 c 450.535
 494.906 455.938 494.906 455.938 491.305 c f
431.109 495.918 m 439.961 482.078 l S
433.809 495.918 m 433.809 492.32 428.41 492.32 428.41 495.918 c 428.41 
499.52 433.809 499.52 433.809 495.918 c f
439.961 482.078 m 431.109 477.461 l S
442.66 482.078 m 442.66 478.477 437.262 478.477 437.262 482.078 c 437.262
 485.676 442.66 485.676 442.66 482.078 c f
431.109 477.461 m 422.258 468.234 l S
433.809 477.461 m 433.809 473.863 428.41 473.863 428.41 477.461 c 428.41
 481.063 433.809 481.063 433.809 477.461 c f
99.195 292.895 m 422.258 468.234 l S
0.65098 0.196078 0.584314 rg
99.195 292.895 m 187.703 315.965 l S
101.895 292.895 m 101.895 289.293 96.496 289.293 96.496 292.895 c 96.496
 296.492 101.895 296.492 101.895 292.895 c f
187.703 315.965 m 431.109 339.035 l S
190.406 315.965 m 190.406 312.363 185.004 312.363 185.004 315.965 c 185.004
 319.563 190.406 319.563 190.406 315.965 c f
431.109 339.035 m 448.813 325.191 l S
433.809 339.035 m 433.809 335.434 428.41 335.434 428.41 339.035 c 428.41
 342.637 433.809 342.637 433.809 339.035 c f
448.813 325.191 m 462.09 325.191 l S
451.512 325.191 m 451.512 321.594 446.113 321.594 446.113 325.191 c 446.113
 328.793 451.512 328.793 451.512 325.191 c f
462.09 325.191 m 470.938 306.734 l S
464.789 325.191 m 464.789 321.594 459.387 321.594 459.387 325.191 c 459.387
 328.793 464.789 328.793 464.789 325.191 c f
470.938 306.734 m 493.066 315.965 l S
473.641 306.734 m 473.641 303.137 468.238 303.137 468.238 306.734 c 468.238
 310.336 473.641 310.336 473.641 306.734 c f
493.066 315.965 m 493.066 297.508 l S
495.766 315.965 m 495.766 312.363 490.367 312.363 490.367 315.965 c 490.367
 319.563 495.766 319.563 495.766 315.965 c f
493.066 297.508 m 479.789 279.051 l S
495.766 297.508 m 495.766 293.906 490.367 293.906 490.367 297.508 c 490.367
 301.105 495.766 301.105 495.766 297.508 c f
479.789 279.051 m 470.938 288.277 l S
482.488 279.051 m 482.488 275.449 477.09 275.449 477.09 279.051 c 477.09
 282.648 482.488 282.648 482.488 279.051 c f
470.938 288.277 m 470.938 279.051 l S
473.641 288.277 m 473.641 284.68 468.238 284.68 468.238 288.277 c 468.238
 291.879 473.641 291.879 473.641 288.277 c f
470.938 279.051 m 462.09 279.051 l S
473.641 279.051 m 473.641 275.449 468.238 275.449 468.238 279.051 c 468.238
 282.648 473.641 282.648 473.641 279.051 c f
462.09 279.051 m 448.813 283.664 l S
464.789 279.051 m 464.789 275.449 459.387 275.449 459.387 279.051 c 459.387
 282.648 464.789 282.648 464.789 279.051 c f
448.813 283.664 m 448.813 297.508 l S
451.512 283.664 m 451.512 280.063 446.113 280.063 446.113 283.664 c 446.113
 287.266 451.512 287.266 451.512 283.664 c f
448.813 297.508 m 435.535 297.508 l S
451.512 297.508 m 451.512 293.906 446.113 293.906 446.113 297.508 c 446.113
 301.105 451.512 301.105 451.512 297.508 c f
435.535 297.508 m 435.535 288.277 l S
438.234 297.508 m 438.234 293.906 432.836 293.906 432.836 297.508 c 432.836
 301.105 438.234 301.105 438.234 297.508 c f
435.535 288.277 m 435.535 274.438 l S
438.234 288.277 m 438.234 284.68 432.836 284.68 432.836 288.277 c 432.836
 291.879 438.234 291.879 438.234 288.277 c f
99.195 292.895 m 435.535 274.438 l S
  Q
Q
Q Q
showpage
%%Trailer
count op_count sub {pop} repeat
countdictstack dict_count sub {end} repeat
cairo_eps_state restore
%%EOF
