%!PS-Adobe-3.0 EPSF-3.0
%%Creator: cairo 1.11.2 (http://cairographics.org)
%%CreationDate: Thu May 04 15:04:49 2017
%%Pages: 1
%%DocumentData: Clean7Bit
%%LanguageLevel: 2
%%BoundingBox: 0 0 576 576
%%EndComments
%%BeginProlog
/cairo_eps_state save def
/dict_count countdictstack def
/op_count count 1 sub def
userdict begin
/q { gsave } bind def
/Q { grestore } bind def
/cm { 6 array astore concat } bind def
/w { setlinewidth } bind def
/J { setlinecap } bind def
/j { setlinejoin } bind def
/M { setmiterlimit } bind def
/d { setdash } bind def
/m { moveto } bind def
/l { lineto } bind def
/c { curveto } bind def
/h { closepath } bind def
/re { exch dup neg 3 1 roll 5 3 roll moveto 0 rlineto
      0 exch rlineto 0 rlineto closepath } bind def
/S { stroke } bind def
/f { fill } bind def
/f* { eofill } bind def
/n { newpath } bind def
/W { clip } bind def
/W* { eoclip } bind def
/BT { } bind def
/ET { } bind def
/pdfmark where { pop globaldict /?pdfmark /exec load put }
    { globaldict begin /?pdfmark /pop load def /pdfmark
    /cleartomark load def end } ifelse
/BDC { mark 3 1 roll /BDC pdfmark } bind def
/EMC { mark /EMC pdfmark } bind def
/cairo_store_point { /cairo_point_y exch def /cairo_point_x exch def } def
/Tj { show currentpoint cairo_store_point } bind def
/TJ {
  {
    dup
    type /stringtype eq
    { show } { -0.001 mul 0 cairo_font_matrix dtransform rmoveto } ifelse
  } forall
  currentpoint cairo_store_point
} bind def
/cairo_selectfont { cairo_font_matrix aload pop pop pop 0 0 6 array astore
    cairo_font exch selectfont cairo_point_x cairo_point_y moveto } bind def
/Tf { pop /cairo_font exch def /cairo_font_matrix where
      { pop cairo_selectfont } if } bind def
/Td { matrix translate cairo_font_matrix matrix concatmatrix dup
      /cairo_font_matrix exch def dup 4 get exch 5 get cairo_store_point
      /cairo_font where { pop cairo_selectfont } if } bind def
/Tm { 2 copy 8 2 roll 6 array astore /cairo_font_matrix exch def
      cairo_store_point /cairo_font where { pop cairo_selectfont } if } bind def
/g { setgray } bind def
/rg { setrgbcolor } bind def
/d1 { setcachedevice } bind def
%%EndProlog
%%Page: 1 1
%%BeginPageSetup
%%PageBoundingBox: 0 0 576 576
%%EndPageSetup
q 0 0 576 576 rectclip q
1 g
0 0 576 576 rectfill
0 g
0.75 w
1 J
1 j
[] 0.0 d
10 M 112.93 73.441 m 543.273 73.441 l S
112.93 73.441 m 112.93 66.238 l S
184.652 73.441 m 184.652 66.238 l S
256.379 73.441 m 256.379 66.238 l S
328.102 73.441 m 328.102 66.238 l S
399.824 73.441 m 399.824 66.238 l S
471.551 73.441 m 471.551 66.238 l S
543.273 73.441 m 543.273 66.238 l S
109.992 47.52 m 108.586 47.52 l 108.586 56.48 l 108.242 56.152 107.801 
55.832 107.254 55.512 c 106.703 55.188 106.207 54.945 105.773 54.785 c 105.773
 56.145 l 106.555 56.512 107.242 56.957 107.836 57.488 c 108.422 58.012 
108.84 58.523 109.086 59.02 c 109.992 59.02 l h
f
113.59 53.168 m 113.586 54.52 113.727 55.609 114.008 56.438 c 114.285 57.262
 114.699 57.898 115.25 58.348 c 115.797 58.793 116.488 59.016 117.324 59.02
 c 117.938 59.016 118.477 58.891 118.941 58.648 c 119.402 58.398 119.785
 58.043 120.09 57.578 c 120.391 57.109 120.629 56.543 120.801 55.875 c 120.973
 55.203 121.059 54.301 121.059 53.168 c 121.059 51.824 120.918 50.738 120.645
 49.914 c 120.363 49.086 119.953 48.449 119.406 48 c 118.855 47.551 118.16
 47.328 117.324 47.324 c 116.219 47.328 115.352 47.719 114.723 48.512 c 
113.965 49.461 113.586 51.016 113.59 53.168 c h
115.035 53.168 m 115.035 51.285 115.254 50.031 115.695 49.414 c 116.133
 48.789 116.676 48.48 117.324 48.48 c 117.969 48.48 118.512 48.793 118.953
 49.418 c 119.391 50.043 119.609 51.293 119.613 53.168 c 119.609 55.051 
119.391 56.301 118.953 56.926 c 118.512 57.543 117.965 57.855 117.309 57.855
 c 116.66 57.855 116.145 57.582 115.762 57.035 c 115.277 56.336 115.035 
55.047 115.035 53.168 c h
f
183.797 48.871 m 183.797 47.52 l 176.227 47.52 l 176.215 47.855 176.27 
48.18 176.391 48.496 c 176.582 49.008 176.891 49.516 177.316 50.02 c 177.738
 50.516 178.352 51.094 179.156 51.754 c 180.398 52.773 181.238 53.582 181.68
 54.18 c 182.113 54.773 182.332 55.336 182.336 55.871 c 182.332 56.426 182.133
 56.898 181.738 57.281 c 181.336 57.664 180.816 57.855 180.18 57.855 c 179.5
 57.855 178.961 57.652 178.555 57.246 c 178.148 56.84 177.941 56.277 177.938
 55.559 c 176.492 55.707 l 176.59 56.781 176.961 57.605 177.609 58.172 c
 178.254 58.734 179.121 59.016 180.211 59.02 c 181.309 59.016 182.18 58.711
 182.82 58.105 c 183.461 57.492 183.781 56.738 183.781 55.84 c 183.781 55.379
 183.688 54.926 183.5 54.488 c 183.313 54.043 183 53.578 182.566 53.09 c
 182.129 52.598 181.406 51.926 180.398 51.074 c 179.551 50.363 179.008 49.883
 178.773 49.633 c 178.531 49.379 178.336 49.125 178.18 48.871 c h
f
185.305 53.168 m 185.301 54.52 185.441 55.609 185.723 56.438 c 186 57.262
 186.414 57.898 186.965 58.348 c 187.512 58.793 188.203 59.016 189.039 59.02
 c 189.652 59.016 190.191 58.891 190.656 58.648 c 191.117 58.398 191.5 58.043
 191.805 57.578 c 192.105 57.109 192.344 56.543 192.516 55.875 c 192.688
 55.203 192.773 54.301 192.773 53.168 c 192.773 51.824 192.633 50.738 192.359
 49.914 c 192.078 49.086 191.668 48.449 191.121 48 c 190.57 47.551 189.875
 47.328 189.039 47.324 c 187.934 47.328 187.066 47.719 186.438 48.512 c 
185.68 49.461 185.301 51.016 185.305 53.168 c h
186.75 53.168 m 186.75 51.285 186.969 50.031 187.41 49.414 c 187.848 48.789
 188.391 48.48 189.039 48.48 c 189.684 48.48 190.227 48.793 190.668 49.418
 c 191.105 50.043 191.324 51.293 191.328 53.168 c 191.324 55.051 191.105
 56.301 190.668 56.926 c 190.227 57.543 189.68 57.855 189.023 57.855 c 188.375
 57.855 187.859 57.582 187.477 57.035 c 186.992 56.336 186.75 55.047 186.75
 53.168 c h
f
248.145 50.543 m 249.551 50.73 l 249.711 49.934 249.984 49.359 250.375 
49.008 c 250.758 48.656 251.23 48.48 251.793 48.48 c 252.449 48.48 253.008
 48.707 253.469 49.168 c 253.922 49.621 254.152 50.191 254.152 50.871 c 
254.152 51.516 253.941 52.047 253.52 52.469 c 253.098 52.887 252.559 53.098
 251.91 53.098 c 251.641 53.098 251.313 53.043 250.918 52.941 c 251.074 
54.176 l 251.164 54.164 251.238 54.156 251.301 54.16 c 251.895 54.156 252.434
 54.313 252.918 54.629 c 253.395 54.938 253.637 55.422 253.637 56.074 c 
253.637 56.59 253.461 57.016 253.113 57.355 c 252.762 57.691 252.313 57.859
 251.762 57.863 c 251.215 57.859 250.758 57.688 250.395 57.348 c 250.027
 57 249.793 56.484 249.691 55.801 c 248.285 56.051 l 248.453 56.992 248.844
 57.723 249.457 58.242 c 250.063 58.758 250.82 59.016 251.73 59.02 c 252.352
 59.016 252.926 58.883 253.457 58.617 c 253.98 58.348 254.383 57.98 254.664
 57.52 c 254.938 57.055 255.078 56.563 255.082 56.043 c 255.078 55.547 254.945
 55.098 254.684 54.691 c 254.414 54.285 254.02 53.961 253.504 53.723 c 254.176
 53.563 254.703 53.238 255.082 52.75 c 255.453 52.254 255.641 51.637 255.645
 50.902 c 255.641 49.898 255.277 49.051 254.551 48.359 c 253.82 47.664 252.898
 47.32 251.785 47.316 c 250.777 47.32 249.941 47.617 249.281 48.215 c 248.613
 48.813 248.234 49.59 248.145 50.543 c h
f
257.031 53.168 m 257.027 54.52 257.168 55.609 257.449 56.438 c 257.727 
57.262 258.141 57.898 258.691 58.348 c 259.238 58.793 259.93 59.016 260.766
 59.02 c 261.379 59.016 261.918 58.891 262.383 58.648 c 262.844 58.398 263.227
 58.043 263.531 57.578 c 263.832 57.109 264.07 56.543 264.242 55.875 c 264.414
 55.203 264.5 54.301 264.5 53.168 c 264.5 51.824 264.359 50.738 264.086 
49.914 c 263.805 49.086 263.395 48.449 262.848 48 c 262.297 47.551 261.602
 47.328 260.766 47.324 c 259.66 47.328 258.793 47.719 258.164 48.512 c 257.406
 49.461 257.027 51.016 257.031 53.168 c h
258.477 53.168 m 258.477 51.285 258.695 50.031 259.137 49.414 c 259.574
 48.789 260.117 48.48 260.766 48.48 c 261.41 48.48 261.953 48.793 262.395
 49.418 c 262.832 50.043 263.051 51.293 263.055 53.168 c 263.051 55.051 
262.832 56.301 262.395 56.926 c 261.953 57.543 261.406 57.855 260.75 57.855
 c 260.102 57.855 259.586 57.582 259.203 57.035 c 258.719 56.336 258.477
 55.047 258.477 53.168 c h
f
324.375 47.52 m 324.375 50.262 l 319.406 50.262 l 319.406 51.551 l 324.633
 58.973 l 325.781 58.973 l 325.781 51.551 l 327.328 51.551 l 327.328 50.262
 l 325.781 50.262 l 325.781 47.52 l h
324.375 51.551 m 324.375 56.715 l 320.789 51.551 l h
f
328.762 53.168 m 328.758 54.52 328.898 55.609 329.18 56.438 c 329.457 57.262
 329.871 57.898 330.422 58.348 c 330.969 58.793 331.66 59.016 332.496 59.02
 c 333.109 59.016 333.648 58.891 334.113 58.648 c 334.574 58.398 334.957
 58.043 335.262 57.578 c 335.563 57.109 335.801 56.543 335.973 55.875 c 
336.145 55.203 336.23 54.301 336.23 53.168 c 336.23 51.824 336.09 50.738
 335.816 49.914 c 335.535 49.086 335.125 48.449 334.578 48 c 334.027 47.551
 333.332 47.328 332.496 47.324 c 331.391 47.328 330.523 47.719 329.895 48.512
 c 329.137 49.461 328.758 51.016 328.762 53.168 c h
330.207 53.168 m 330.207 51.285 330.426 50.031 330.867 49.414 c 331.305
 48.789 331.848 48.48 332.496 48.48 c 333.141 48.48 333.684 48.793 334.125
 49.418 c 334.563 50.043 334.781 51.293 334.785 53.168 c 334.781 55.051 
334.563 56.301 334.125 56.926 c 333.684 57.543 333.137 57.855 332.48 57.855
 c 331.832 57.855 331.316 57.582 330.934 57.035 c 330.449 56.336 330.207
 55.047 330.207 53.168 c h
f
391.578 50.52 m 393.055 50.645 l 393.16 49.922 393.414 49.383 393.816 49.023
 c 394.211 48.66 394.691 48.48 395.258 48.48 c 395.93 48.48 396.504 48.734
 396.977 49.246 c 397.441 49.754 397.676 50.43 397.68 51.277 c 397.676 52.074
 397.449 52.707 397.004 53.176 c 396.551 53.637 395.961 53.871 395.234 53.871
 c 394.777 53.871 394.371 53.766 394.008 53.563 c 393.641 53.352 393.352
 53.086 393.148 52.762 c 391.828 52.934 l 392.938 58.816 l 398.633 58.816
 l 398.633 57.473 l 394.063 57.473 l 393.445 54.395 l 394.133 54.871 394.852
 55.113 395.609 55.113 c 396.605 55.113 397.449 54.766 398.141 54.074 c 
398.824 53.379 399.168 52.488 399.172 51.402 c 399.168 50.363 398.867 49.469
 398.266 48.715 c 397.527 47.789 396.523 47.328 395.258 47.324 c 394.211
 47.328 393.363 47.617 392.707 48.199 c 392.047 48.781 391.668 49.555 391.578
 50.52 c h
f
400.477 53.168 m 400.473 54.52 400.613 55.609 400.895 56.438 c 401.172 
57.262 401.586 57.898 402.137 58.348 c 402.684 58.793 403.375 59.016 404.211
 59.02 c 404.824 59.016 405.363 58.891 405.828 58.648 c 406.289 58.398 406.672
 58.043 406.977 57.578 c 407.277 57.109 407.516 56.543 407.688 55.875 c 
407.859 55.203 407.945 54.301 407.945 53.168 c 407.945 51.824 407.805 50.738
 407.531 49.914 c 407.25 49.086 406.84 48.449 406.293 48 c 405.742 47.551
 405.047 47.328 404.211 47.324 c 403.105 47.328 402.238 47.719 401.609 48.512
 c 400.852 49.461 400.473 51.016 400.477 53.168 c h
401.922 53.168 m 401.922 51.285 402.141 50.031 402.582 49.414 c 403.02 
48.789 403.563 48.48 404.211 48.48 c 404.855 48.48 405.398 48.793 405.84
 49.418 c 406.277 50.043 406.496 51.293 406.5 53.168 c 406.496 55.051 406.277
 56.301 405.84 56.926 c 405.398 57.543 404.852 57.855 404.195 57.855 c 403.547
 57.855 403.031 57.582 402.648 57.035 c 402.164 56.336 401.922 55.047 401.922
 53.168 c h
f
470.605 56.168 m 469.207 56.059 l 469.082 56.605 468.902 57.008 468.676
 57.262 c 468.293 57.66 467.824 57.859 467.27 57.863 c 466.816 57.859 466.426
 57.734 466.09 57.488 c 465.645 57.16 465.293 56.691 465.043 56.074 c 464.785
 55.453 464.652 54.57 464.645 53.426 c 464.98 53.941 465.395 54.324 465.887
 54.574 c 466.371 54.824 466.887 54.949 467.426 54.949 c 468.363 54.949 
469.16 54.602 469.82 53.914 c 470.477 53.219 470.805 52.328 470.809 51.238
 c 470.805 50.516 470.652 49.848 470.344 49.234 c 470.031 48.613 469.605
 48.141 469.066 47.816 c 468.523 47.488 467.906 47.328 467.223 47.324 c 
466.047 47.328 465.094 47.754 464.355 48.617 c 463.613 49.477 463.242 50.898
 463.246 52.879 c 463.242 55.09 463.652 56.699 464.473 57.707 c 465.184 
58.578 466.145 59.016 467.355 59.02 c 468.254 59.016 468.992 58.762 469.57
 58.262 c 470.145 57.754 470.488 57.059 470.605 56.168 c h
464.863 51.23 m 464.859 50.742 464.961 50.281 465.172 49.84 c 465.375 49.395
 465.664 49.055 466.035 48.828 c 466.402 48.594 466.789 48.48 467.199 48.48
 c 467.789 48.48 468.301 48.719 468.73 49.199 c 469.156 49.676 469.371 50.328
 469.371 51.152 c 469.371 51.941 469.16 52.563 468.738 53.023 c 468.316 
53.477 467.785 53.707 467.145 53.707 c 466.508 53.707 465.969 53.477 465.527
 53.023 c 465.082 52.563 464.859 51.965 464.863 51.23 c h
f
472.203 53.168 m 472.199 54.52 472.34 55.609 472.621 56.438 c 472.898 57.262
 473.313 57.898 473.863 58.348 c 474.41 58.793 475.102 59.016 475.938 59.02
 c 476.551 59.016 477.09 58.891 477.555 58.648 c 478.016 58.398 478.398 
58.043 478.703 57.578 c 479.004 57.109 479.242 56.543 479.414 55.875 c 479.586
 55.203 479.672 54.301 479.672 53.168 c 479.672 51.824 479.531 50.738 479.258
 49.914 c 478.977 49.086 478.566 48.449 478.02 48 c 477.469 47.551 476.773
 47.328 475.938 47.324 c 474.832 47.328 473.965 47.719 473.336 48.512 c 
472.578 49.461 472.199 51.016 472.203 53.168 c h
473.648 53.168 m 473.648 51.285 473.867 50.031 474.309 49.414 c 474.746
 48.789 475.289 48.48 475.938 48.48 c 476.582 48.48 477.125 48.793 477.566
 49.418 c 478.004 50.043 478.223 51.293 478.227 53.168 c 478.223 55.051 
478.004 56.301 477.566 56.926 c 477.125 57.543 476.578 57.855 475.922 57.855
 c 475.273 57.855 474.758 57.582 474.375 57.035 c 473.891 56.336 473.648
 55.047 473.648 53.168 c h
f
535.133 57.473 m 535.133 58.824 l 542.547 58.824 l 542.547 57.73 l 541.816
 56.953 541.094 55.922 540.379 54.637 c 539.66 53.348 539.105 52.023 538.719
 50.668 c 538.434 49.707 538.254 48.66 538.18 47.52 c 536.734 47.52 l 536.746
 48.418 536.922 49.504 537.266 50.785 c 537.602 52.059 538.09 53.289 538.723
 54.477 c 539.355 55.656 540.027 56.656 540.742 57.473 c h
f
543.934 53.168 m 543.93 54.52 544.07 55.609 544.352 56.438 c 544.629 57.262
 545.043 57.898 545.594 58.348 c 546.141 58.793 546.832 59.016 547.668 59.02
 c 548.281 59.016 548.82 58.891 549.285 58.648 c 549.746 58.398 550.129 
58.043 550.434 57.578 c 550.734 57.109 550.973 56.543 551.145 55.875 c 551.316
 55.203 551.402 54.301 551.402 53.168 c 551.402 51.824 551.262 50.738 550.988
 49.914 c 550.707 49.086 550.297 48.449 549.75 48 c 549.199 47.551 548.504
 47.328 547.668 47.324 c 546.563 47.328 545.695 47.719 545.066 48.512 c 
544.309 49.461 543.93 51.016 543.934 53.168 c h
545.379 53.168 m 545.379 51.285 545.598 50.031 546.039 49.414 c 546.477
 48.789 547.02 48.48 547.668 48.48 c 548.313 48.48 548.855 48.793 549.297
 49.418 c 549.734 50.043 549.953 51.293 549.957 53.168 c 549.953 55.051 
549.734 56.301 549.297 56.926 c 548.855 57.543 548.309 57.855 547.652 57.855
 c 547.004 57.855 546.488 57.582 546.105 57.035 c 545.621 56.336 545.379
 55.047 545.379 53.168 c h
f
59.039 115.941 m 59.039 507.051 l S
59.039 115.941 m 51.84 115.941 l S
59.039 181.125 m 51.84 181.125 l S
59.039 246.313 m 51.84 246.313 l S
59.039 311.496 m 51.84 311.496 l S
59.039 376.68 m 51.84 376.68 l S
59.039 441.867 m 51.84 441.867 l S
59.039 507.051 m 51.84 507.051 l S
41.762 113.004 m 41.762 111.598 l 32.801 111.598 l 33.129 111.254 33.449
 110.813 33.77 110.266 c 34.094 109.715 34.336 109.219 34.496 108.785 c 
33.137 108.785 l 32.77 109.566 32.324 110.254 31.793 110.848 c 31.27 111.434
 30.758 111.852 30.262 112.098 c 30.262 113.004 l h
f
36.113 116.602 m 34.762 116.598 33.672 116.738 32.844 117.02 c 32.02 117.297
 31.383 117.711 30.934 118.262 c 30.488 118.809 30.266 119.5 30.262 120.336
 c 30.266 120.949 30.391 121.488 30.633 121.953 c 30.883 122.414 31.238 
122.797 31.703 123.102 c 32.172 123.402 32.738 123.641 33.406 123.813 c 
34.078 123.984 34.98 124.07 36.113 124.07 c 37.457 124.07 38.543 123.93 
39.367 123.656 c 40.195 123.375 40.832 122.965 41.281 122.418 c 41.73 121.867
 41.953 121.172 41.957 120.336 c 41.953 119.23 41.563 118.363 40.77 117.734
 c 39.82 116.977 38.266 116.598 36.113 116.602 c h
36.113 118.047 m 37.996 118.047 39.25 118.266 39.867 118.707 c 40.492 119.145
 40.801 119.688 40.801 120.336 c 40.801 120.98 40.488 121.523 39.863 121.965
 c 39.238 122.402 37.988 122.621 36.113 122.625 c 34.23 122.621 32.98 122.402
 32.355 121.965 c 31.738 121.523 31.426 120.977 31.426 120.32 c 31.426 119.672
 31.699 119.156 32.246 118.773 c 32.945 118.289 34.234 118.047 36.113 118.047
 c h
f
40.41 180.281 m 41.762 180.281 l 41.762 172.711 l 41.426 172.699 41.102
 172.754 40.785 172.875 c 40.273 173.066 39.766 173.375 39.262 173.801 c
 38.766 174.223 38.188 174.836 37.527 175.641 c 36.508 176.883 35.699 177.723
 35.102 178.164 c 34.508 178.598 33.945 178.816 33.41 178.82 c 32.855 178.816
 32.383 178.617 32 178.223 c 31.617 177.82 31.426 177.301 31.426 176.664
 c 31.426 175.984 31.629 175.445 32.035 175.039 c 32.441 174.633 33.004 
174.426 33.723 174.422 c 33.574 172.977 l 32.5 173.074 31.676 173.445 31.109
 174.094 c 30.547 174.738 30.266 175.605 30.262 176.695 c 30.266 177.793
 30.57 178.664 31.176 179.305 c 31.789 179.945 32.543 180.266 33.441 180.266
 c 33.902 180.266 34.355 180.172 34.793 179.984 c 35.238 179.797 35.703 
179.484 36.191 179.051 c 36.684 178.613 37.355 177.891 38.207 176.883 c 
38.918 176.035 39.398 175.492 39.648 175.258 c 39.902 175.016 40.156 174.82
 40.41 174.664 c h
f
36.113 181.785 m 34.762 181.781 33.672 181.922 32.844 182.203 c 32.02 182.48
 31.383 182.895 30.934 183.445 c 30.488 183.992 30.266 184.684 30.262 185.52
 c 30.266 186.133 30.391 186.672 30.633 187.137 c 30.883 187.598 31.238 
187.98 31.703 188.285 c 32.172 188.586 32.738 188.824 33.406 188.996 c 34.078
 189.168 34.98 189.254 36.113 189.254 c 37.457 189.254 38.543 189.113 39.367
 188.84 c 40.195 188.559 40.832 188.148 41.281 187.602 c 41.73 187.051 41.953
 186.355 41.957 185.52 c 41.953 184.414 41.563 183.547 40.77 182.918 c 39.82
 182.16 38.266 181.781 36.113 181.785 c h
36.113 183.23 m 37.996 183.23 39.25 183.449 39.867 183.891 c 40.492 184.328
 40.801 184.871 40.801 185.52 c 40.801 186.164 40.488 186.707 39.863 187.148
 c 39.238 187.586 37.988 187.805 36.113 187.809 c 34.23 187.805 32.98 187.586
 32.355 187.148 c 31.738 186.707 31.426 186.16 31.426 185.504 c 31.426 184.855
 31.699 184.34 32.246 183.957 c 32.945 183.473 34.234 183.23 36.113 183.23
 c h
f
38.738 238.082 m 38.551 239.488 l 39.348 239.648 39.922 239.922 40.273 
240.313 c 40.625 240.695 40.801 241.168 40.801 241.73 c 40.801 242.387 40.574
 242.945 40.113 243.406 c 39.66 243.859 39.09 244.09 38.41 244.09 c 37.766
 244.09 37.234 243.879 36.813 243.457 c 36.395 243.035 36.184 242.496 36.184
 241.848 c 36.184 241.578 36.238 241.25 36.34 240.855 c 35.105 241.012 l
 35.117 241.102 35.125 241.176 35.121 241.238 c 35.125 241.832 34.969 242.371
 34.652 242.855 c 34.344 243.332 33.859 243.574 33.207 243.574 c 32.691 
243.574 32.266 243.398 31.926 243.051 c 31.59 242.699 31.422 242.25 31.418
 241.699 c 31.422 241.152 31.594 240.695 31.934 240.332 c 32.281 239.965
 32.797 239.73 33.48 239.629 c 33.23 238.223 l 32.289 238.391 31.559 238.781
 31.039 239.395 c 30.523 240 30.266 240.758 30.262 241.668 c 30.266 242.289
 30.398 242.863 30.664 243.395 c 30.934 243.918 31.301 244.32 31.762 244.602
 c 32.227 244.875 32.719 245.016 33.238 245.02 c 33.734 245.016 34.184 244.883
 34.59 244.621 c 34.996 244.352 35.32 243.957 35.559 243.441 c 35.719 244.113
 36.043 244.641 36.531 245.02 c 37.027 245.391 37.645 245.578 38.379 245.582
 c 39.383 245.578 40.23 245.215 40.922 244.488 c 41.617 243.758 41.961 242.836
 41.965 241.723 c 41.961 240.715 41.664 239.879 41.066 239.219 c 40.469 
238.551 39.691 238.172 38.738 238.082 c h
f
36.113 246.973 m 34.762 246.969 33.672 247.109 32.844 247.391 c 32.02 247.668
 31.383 248.082 30.934 248.633 c 30.488 249.18 30.266 249.871 30.262 250.707
 c 30.266 251.32 30.391 251.859 30.633 252.324 c 30.883 252.785 31.238 253.168
 31.703 253.473 c 32.172 253.773 32.738 254.012 33.406 254.184 c 34.078 
254.355 34.98 254.441 36.113 254.441 c 37.457 254.441 38.543 254.301 39.367
 254.027 c 40.195 253.746 40.832 253.336 41.281 252.789 c 41.73 252.238 
41.953 251.543 41.957 250.707 c 41.953 249.602 41.563 248.734 40.77 248.105
 c 39.82 247.348 38.266 246.969 36.113 246.973 c h
36.113 248.418 m 37.996 248.418 39.25 248.637 39.867 249.078 c 40.492 249.516
 40.801 250.059 40.801 250.707 c 40.801 251.352 40.488 251.895 39.863 252.336
 c 39.238 252.773 37.988 252.992 36.113 252.996 c 34.23 252.992 32.98 252.773
 32.355 252.336 c 31.738 251.895 31.426 251.348 31.426 250.691 c 31.426 
250.043 31.699 249.527 32.246 249.145 c 32.945 248.66 34.234 248.418 36.113
 248.418 c h
f
41.762 307.75 m 39.02 307.75 l 39.02 302.781 l 37.73 302.781 l 30.309 308.008
 l 30.309 309.156 l 37.73 309.156 l 37.73 310.703 l 39.02 310.703 l 39.02
 309.156 l 41.762 309.156 l h
37.73 307.75 m 32.566 307.75 l 37.73 304.164 l h
f
36.113 312.141 m 34.762 312.137 33.672 312.277 32.844 312.559 c 32.02 312.836
 31.383 313.25 30.934 313.801 c 30.488 314.348 30.266 315.039 30.262 315.875
 c 30.266 316.488 30.391 317.027 30.633 317.492 c 30.883 317.953 31.238 
318.336 31.703 318.641 c 32.172 318.941 32.738 319.18 33.406 319.352 c 34.078
 319.523 34.98 319.609 36.113 319.609 c 37.457 319.609 38.543 319.469 39.367
 319.195 c 40.195 318.914 40.832 318.504 41.281 317.957 c 41.73 317.406 
41.953 316.711 41.957 315.875 c 41.953 314.77 41.563 313.902 40.77 313.273
 c 39.82 312.516 38.266 312.137 36.113 312.141 c h
36.113 313.586 m 37.996 313.586 39.25 313.805 39.867 314.246 c 40.492 314.684
 40.801 315.227 40.801 315.875 c 40.801 316.52 40.488 317.063 39.863 317.504
 c 39.238 317.941 37.988 318.16 36.113 318.164 c 34.23 318.16 32.98 317.941
 32.355 317.504 c 31.738 317.063 31.426 316.516 31.426 315.859 c 31.426 
315.211 31.699 314.695 32.246 314.313 c 32.945 313.828 34.234 313.586 36.113
 313.586 c h
f
38.762 368.445 m 38.637 369.922 l 39.359 370.027 39.898 370.281 40.258 
370.684 c 40.621 371.078 40.801 371.559 40.801 372.125 c 40.801 372.797 
40.547 373.371 40.035 373.844 c 39.527 374.309 38.852 374.543 38.004 374.547
 c 37.207 374.543 36.574 374.316 36.105 373.871 c 35.645 373.418 35.41 372.828
 35.41 372.102 c 35.41 371.645 35.516 371.238 35.719 370.875 c 35.93 370.508
 36.195 370.219 36.52 370.016 c 36.348 368.695 l 30.465 369.805 l 30.465
 375.5 l 31.809 375.5 l 31.809 370.93 l 34.887 370.313 l 34.41 371 34.168
 371.719 34.168 372.477 c 34.168 373.473 34.516 374.316 35.207 375.008 c
 35.902 375.691 36.793 376.035 37.879 376.039 c 38.918 376.035 39.813 375.734
 40.566 375.133 c 41.492 374.395 41.953 373.391 41.957 372.125 c 41.953 
371.078 41.664 370.23 41.082 369.574 c 40.5 368.914 39.727 368.535 38.762
 368.445 c h
f
36.113 377.34 m 34.762 377.336 33.672 377.477 32.844 377.758 c 32.02 378.035
 31.383 378.449 30.934 379 c 30.488 379.547 30.266 380.238 30.262 381.074
 c 30.266 381.688 30.391 382.227 30.633 382.691 c 30.883 383.152 31.238 
383.535 31.703 383.84 c 32.172 384.141 32.738 384.379 33.406 384.551 c 34.078
 384.723 34.98 384.809 36.113 384.809 c 37.457 384.809 38.543 384.668 39.367
 384.395 c 40.195 384.113 40.832 383.703 41.281 383.156 c 41.73 382.605 
41.953 381.91 41.957 381.074 c 41.953 379.969 41.563 379.102 40.77 378.473
 c 39.82 377.715 38.266 377.336 36.113 377.34 c h
36.113 378.785 m 37.996 378.785 39.25 379.004 39.867 379.445 c 40.492 379.883
 40.801 380.426 40.801 381.074 c 40.801 381.719 40.488 382.262 39.863 382.703
 c 39.238 383.141 37.988 383.359 36.113 383.363 c 34.23 383.359 32.98 383.141
 32.355 382.703 c 31.738 382.262 31.426 381.715 31.426 381.059 c 31.426 
380.41 31.699 379.895 32.246 379.512 c 32.945 379.027 34.234 378.785 36.113
 378.785 c h
f
33.113 440.926 m 33.223 439.527 l 32.676 439.402 32.273 439.223 32.02 438.996
 c 31.621 438.613 31.422 438.145 31.418 437.59 c 31.422 437.137 31.547 436.746
 31.793 436.41 c 32.121 435.965 32.59 435.613 33.207 435.363 c 33.828 435.105
 34.711 434.973 35.855 434.965 c 35.34 435.301 34.957 435.715 34.707 436.207
 c 34.457 436.691 34.332 437.207 34.332 437.746 c 34.332 438.684 34.68 439.48
 35.367 440.141 c 36.063 440.797 36.953 441.125 38.043 441.129 c 38.766 
441.125 39.434 440.973 40.047 440.664 c 40.668 440.352 41.141 439.926 41.465
 439.387 c 41.793 438.844 41.953 438.227 41.957 437.543 c 41.953 436.367
 41.527 435.414 40.664 434.676 c 39.805 433.934 38.383 433.563 36.402 433.566
 c 34.191 433.563 32.582 433.973 31.574 434.793 c 30.703 435.504 30.266 
436.465 30.262 437.676 c 30.266 438.574 30.52 439.313 31.02 439.891 c 31.527
 440.465 32.223 440.809 33.113 440.926 c h
38.051 435.184 m 38.539 435.18 39 435.281 39.441 435.492 c 39.887 435.695
 40.227 435.984 40.453 436.355 c 40.688 436.723 40.801 437.109 40.801 437.52
 c 40.801 438.109 40.563 438.621 40.082 439.051 c 39.605 439.477 38.953 
439.691 38.129 439.691 c 37.34 439.691 36.719 439.48 36.258 439.059 c 35.805
 438.637 35.574 438.105 35.574 437.465 c 35.574 436.828 35.805 436.289 36.258
 435.848 c 36.719 435.402 37.316 435.18 38.051 435.184 c h
f
36.113 442.523 m 34.762 442.52 33.672 442.66 32.844 442.941 c 32.02 443.219
 31.383 443.633 30.934 444.184 c 30.488 444.73 30.266 445.422 30.262 446.258
 c 30.266 446.871 30.391 447.41 30.633 447.875 c 30.883 448.336 31.238 448.719
 31.703 449.023 c 32.172 449.324 32.738 449.563 33.406 449.734 c 34.078 
449.906 34.98 449.992 36.113 449.992 c 37.457 449.992 38.543 449.852 39.367
 449.578 c 40.195 449.297 40.832 448.887 41.281 448.34 c 41.73 447.789 41.953
 447.094 41.957 446.258 c 41.953 445.152 41.563 444.285 40.77 443.656 c 
39.82 442.898 38.266 442.52 36.113 442.523 c h
36.113 443.969 m 37.996 443.969 39.25 444.188 39.867 444.629 c 40.492 445.066
 40.801 445.609 40.801 446.258 c 40.801 446.902 40.488 447.445 39.863 447.887
 c 39.238 448.324 37.988 448.543 36.113 448.547 c 34.23 448.543 32.98 448.324
 32.355 447.887 c 31.738 447.445 31.426 446.898 31.426 446.242 c 31.426 
445.594 31.699 445.078 32.246 444.695 c 32.945 444.211 34.234 443.969 36.113
 443.969 c h
f
31.809 498.906 m 30.457 498.906 l 30.457 506.32 l 31.551 506.32 l 32.328
 505.59 33.359 504.867 34.645 504.152 c 35.934 503.434 37.258 502.879 38.613
 502.492 c 39.574 502.207 40.621 502.027 41.762 501.953 c 41.762 500.508
 l 40.863 500.52 39.777 500.695 38.496 501.039 c 37.223 501.375 35.992 501.863
 34.805 502.496 c 33.625 503.129 32.625 503.801 31.809 504.516 c h
f
36.113 507.711 m 34.762 507.707 33.672 507.848 32.844 508.129 c 32.02 508.406
 31.383 508.82 30.934 509.371 c 30.488 509.918 30.266 510.609 30.262 511.445
 c 30.266 512.059 30.391 512.598 30.633 513.063 c 30.883 513.523 31.238 
513.906 31.703 514.211 c 32.172 514.512 32.738 514.75 33.406 514.922 c 34.078
 515.094 34.98 515.18 36.113 515.18 c 37.457 515.18 38.543 515.039 39.367
 514.766 c 40.195 514.484 40.832 514.074 41.281 513.527 c 41.73 512.977 
41.953 512.281 41.957 511.445 c 41.953 510.34 41.563 509.473 40.77 508.844
 c 39.82 508.086 38.266 507.707 36.113 507.711 c h
36.113 509.156 m 37.996 509.156 39.25 509.375 39.867 509.816 c 40.492 510.254
 40.801 510.797 40.801 511.445 c 40.801 512.09 40.488 512.633 39.863 513.074
 c 39.238 513.512 37.988 513.73 36.113 513.734 c 34.23 513.73 32.98 513.512
 32.355 513.074 c 31.738 512.633 31.426 512.086 31.426 511.43 c 31.426 510.781
 31.699 510.266 32.246 509.883 c 32.945 509.398 34.234 509.156 36.113 509.156
 c h
f
59.039 516.961 486.723 -443.52 re S
294.145 543.258 m 295.805 543.039 l 295.621 541.891 295.156 540.996 294.41
 540.352 c 293.664 539.707 292.746 539.387 291.66 539.383 c 290.297 539.387
 289.203 539.828 288.375 540.719 c 287.547 541.605 287.133 542.883 287.133
 544.551 c 287.133 545.621 287.309 546.563 287.668 547.371 c 288.02 548.176
 288.563 548.781 289.293 549.184 c 290.02 549.586 290.813 549.785 291.672
 549.789 c 292.75 549.785 293.633 549.512 294.324 548.969 c 295.008 548.418
 295.449 547.645 295.645 546.641 c 294.004 546.387 l 293.844 547.055 293.566
 547.559 293.172 547.895 c 292.773 548.23 292.293 548.398 291.734 548.402
 c 290.883 548.398 290.195 548.094 289.664 547.488 c 289.133 546.875 288.867
 545.91 288.867 544.598 c 288.867 543.254 289.121 542.281 289.637 541.68
 c 290.145 541.07 290.813 540.77 291.641 540.773 c 292.301 540.77 292.855
 540.973 293.301 541.383 c 293.742 541.785 294.023 542.41 294.145 543.258
 c h
f
297.855 543.211 m 299.629 543.359 l 299.758 542.496 300.063 541.848 300.539
 541.414 c 301.016 540.977 301.59 540.758 302.27 540.762 c 303.078 540.758
 303.766 541.063 304.332 541.68 c 304.891 542.289 305.172 543.102 305.176
 544.117 c 305.172 545.078 304.902 545.84 304.363 546.395 c 303.82 546.949
 303.113 547.227 302.242 547.23 c 301.695 547.227 301.203 547.102 300.77
 546.859 c 300.328 546.609 299.984 546.289 299.738 545.898 c 298.156 546.105
 l 299.488 553.164 l 306.32 553.164 l 306.32 551.555 l 300.836 551.555 l
 300.098 547.859 l 300.918 548.434 301.781 548.719 302.691 548.723 c 303.887
 548.719 304.902 548.305 305.73 547.473 c 306.555 546.641 306.965 545.57
 306.969 544.27 c 306.965 543.02 306.602 541.945 305.879 541.043 c 304.996
 539.93 303.793 539.375 302.27 539.375 c 301.016 539.375 299.996 539.723
 299.207 540.426 c 298.414 541.121 297.965 542.051 297.855 543.211 c h
f
308.531 546.387 m 308.531 548.008 308.695 549.316 309.031 550.309 c 309.363
 551.301 309.863 552.063 310.523 552.602 c 311.18 553.137 312.008 553.406
 313.012 553.41 c 313.746 553.406 314.395 553.258 314.953 552.965 c 315.508
 552.664 315.965 552.238 316.332 551.68 c 316.691 551.117 316.977 550.434
 317.184 549.633 c 317.387 548.828 317.488 547.746 317.492 546.387 c 317.488
 544.773 317.324 543.473 316.996 542.48 c 316.664 541.488 316.168 540.723
 315.512 540.184 c 314.848 539.645 314.016 539.375 313.012 539.375 c 311.684
 539.375 310.645 539.848 309.891 540.801 c 308.984 541.941 308.531 543.805
 308.531 546.387 c h
310.266 546.387 m 310.266 544.129 310.527 542.629 311.059 541.883 c 311.582
 541.133 312.234 540.758 313.012 540.762 c 313.785 540.758 314.438 541.133
 314.965 541.887 c 315.492 542.633 315.754 544.133 315.758 546.387 c 315.754
 548.648 315.492 550.152 314.965 550.895 c 314.438 551.637 313.777 552.008
 312.992 552.012 c 312.215 552.008 311.598 551.68 311.137 551.027 c 310.555
 550.188 310.266 548.641 310.266 546.387 c h
f
297.133 18.719 m 301.563 24.688 l 297.656 30.172 l 299.461 30.172 l 301.539
 27.234 l 301.969 26.621 302.273 26.152 302.461 25.828 c 302.711 26.242 
303.016 26.68 303.367 27.133 c 305.672 30.172 l 307.32 30.172 l 303.297 
24.773 l 307.633 18.719 l 305.758 18.719 l 302.875 22.805 l 302.711 23.035
 302.543 23.293 302.375 23.57 c 302.117 23.152 301.934 22.863 301.828 22.711
 c 298.953 18.719 l h
f
12.961 294.324 m 8.109 294.324 l 1.508 289.91 l 1.508 291.754 l 4.961 294.012
 l 5.609 294.426 6.254 294.813 6.898 295.176 c 6.301 295.516 5.625 295.934
 4.875 296.426 c 1.508 298.645 l 1.508 300.41 l 8.109 295.84 l 12.961 295.84
 l h
f
Q q
59.039 516.961 487.719 -444.52 re W n
q
59 517 488 -445 re W n
  q
Q q
0.65098 0.196078 0.196078 rg
1.5 w
1 J
1 j
[] 0.0 d
10 M 256.379 311.496 m 363.965 278.902 l S
259.078 311.496 m 259.078 307.895 253.676 307.895 253.676 311.496 c 253.676
 315.098 259.078 315.098 259.078 311.496 c f
363.965 278.902 m 442.859 291.941 l S
366.664 278.902 m 366.664 275.305 361.262 275.305 361.262 278.902 c 361.262
 282.504 366.664 282.504 366.664 278.902 c f
442.859 291.941 m 478.723 265.867 l S
445.559 291.941 m 445.559 288.34 440.16 288.34 440.16 291.941 c 440.16 
295.539 445.559 295.539 445.559 291.941 c f
478.723 265.867 m 457.203 226.754 l S
481.422 265.867 m 481.422 262.266 476.023 262.266 476.023 265.867 c 476.023
 269.465 481.422 269.465 481.422 265.867 c f
457.203 226.754 m 414.172 265.867 l S
459.906 226.754 m 459.906 223.156 454.504 223.156 454.504 226.754 c 454.504
 230.355 459.906 230.355 459.906 226.754 c f
414.172 265.867 m 414.172 318.016 l S
416.871 265.867 m 416.871 262.266 411.469 262.266 411.469 265.867 c 411.469
 269.465 416.871 269.465 416.871 265.867 c f
414.172 318.016 m 485.895 324.535 l S
416.871 318.016 m 416.871 314.414 411.469 314.414 411.469 318.016 c 411.469
 321.613 416.871 321.613 416.871 318.016 c f
485.895 324.535 m 457.203 363.645 l S
488.594 324.535 m 488.594 320.934 483.195 320.934 483.195 324.535 c 483.195
 328.133 488.594 328.133 488.594 324.535 c f
457.203 363.645 m 392.652 370.164 l S
459.906 363.645 m 459.906 360.043 454.504 360.043 454.504 363.645 c 454.504
 367.246 459.906 367.246 459.906 363.645 c f
392.652 370.164 m 342.445 318.016 l S
395.352 370.164 m 395.352 366.563 389.953 366.563 389.953 370.164 c 389.953
 373.762 395.352 373.762 395.352 370.164 c f
256.379 311.496 m 342.445 318.016 l S
0.560784 0.65098 0.196078 rg
256.379 311.496 m 220.516 259.348 l S
259.078 311.496 m 259.078 307.895 253.676 307.895 253.676 311.496 c 253.676
 315.098 259.078 315.098 259.078 311.496 c f
220.516 259.348 m 184.652 220.238 l S
223.215 259.348 m 223.215 255.75 217.816 255.75 217.816 259.348 c 217.816
 262.949 223.215 262.949 223.215 259.348 c f
184.652 220.238 m 234.859 200.68 l S
187.352 220.238 m 187.352 216.637 181.953 216.637 181.953 220.238 c 181.953
 223.836 187.352 223.836 187.352 220.238 c f
234.859 200.68 m 191.824 115.941 l S
237.559 200.68 m 237.559 197.082 232.16 197.082 232.16 200.68 c 232.16 
204.281 237.559 204.281 237.559 200.68 c f
191.824 115.941 m 134.445 135.496 l S
194.523 115.941 m 194.523 112.34 189.125 112.34 189.125 115.941 c 189.125
 119.539 194.523 119.539 194.523 115.941 c f
134.445 135.496 m 77.066 89.867 l S
137.145 135.496 m 137.145 131.895 131.746 131.895 131.746 135.496 c 131.746
 139.098 137.145 139.098 137.145 135.496 c f
77.066 89.867 m 112.93 161.57 l S
79.766 89.867 m 79.766 86.266 74.367 86.266 74.367 89.867 c 74.367 93.465
 79.766 93.465 79.766 89.867 c f
112.93 161.57 m 77.066 213.719 l S
115.629 161.57 m 115.629 157.969 110.23 157.969 110.23 161.57 c 110.23 
165.172 115.629 165.172 115.629 161.57 c f
77.066 213.719 m 163.137 265.867 l S
79.766 213.719 m 79.766 210.117 74.367 210.117 74.367 213.719 c 74.367 
217.32 79.766 217.32 79.766 213.719 c f
256.379 311.496 m 163.137 265.867 l S
0.196078 0.65098 0.376471 rg
256.379 311.496 m 313.758 350.605 l S
259.078 311.496 m 259.078 307.895 253.676 307.895 253.676 311.496 c 253.676
 315.098 259.078 315.098 259.078 311.496 c f
313.758 350.605 m 306.582 389.719 l S
316.457 350.605 m 316.457 347.008 311.055 347.008 311.055 350.605 c 311.055
 354.207 316.457 354.207 316.457 350.605 c f
306.582 389.719 m 263.551 454.902 l S
309.285 389.719 m 309.285 386.117 303.883 386.117 303.883 389.719 c 303.883
 393.32 309.285 393.32 309.285 389.719 c f
263.551 454.902 m 234.859 494.016 l S
266.25 454.902 m 266.25 451.305 260.848 451.305 260.848 454.902 c 260.848
 458.504 266.25 458.504 266.25 454.902 c f
234.859 494.016 m 306.582 500.535 l S
237.559 494.016 m 237.559 490.414 232.16 490.414 232.16 494.016 c 232.16
 497.613 237.559 497.613 237.559 494.016 c f
306.582 500.535 m 349.617 487.496 l S
309.285 500.535 m 309.285 496.934 303.883 496.934 303.883 500.535 c 303.883
 504.133 309.285 504.133 309.285 500.535 c f
349.617 487.496 m 414.172 467.941 l S
352.32 487.496 m 352.32 483.895 346.918 483.895 346.918 487.496 c 346.918
 491.098 352.32 491.098 352.32 487.496 c f
414.172 467.941 m 493.066 500.535 l S
416.871 467.941 m 416.871 464.34 411.469 464.34 411.469 467.941 c 411.469
 471.539 416.871 471.539 416.871 467.941 c f
493.066 500.535 m 485.895 461.422 l S
495.766 500.535 m 495.766 496.934 490.367 496.934 490.367 500.535 c 490.367
 504.133 495.766 504.133 495.766 500.535 c f
485.895 461.422 m 450.031 428.828 l S
488.594 461.422 m 488.594 457.82 483.195 457.82 483.195 461.422 c 483.195
 465.023 488.594 465.023 488.594 461.422 c f
450.031 428.828 m 342.445 422.313 l S
452.73 428.828 m 452.73 425.23 447.332 425.23 447.332 428.828 c 447.332
 432.43 452.73 432.43 452.73 428.828 c f
342.445 422.313 m 270.723 304.977 l S
345.145 422.313 m 345.145 418.711 339.746 418.711 339.746 422.313 c 339.746
 425.91 345.145 425.91 345.145 422.313 c f
256.379 311.496 m 270.723 304.977 l S
0.196078 0.376471 0.65098 rg
256.379 311.496 m 191.824 357.125 l S
259.078 311.496 m 259.078 307.895 253.676 307.895 253.676 311.496 c 253.676
 315.098 259.078 315.098 259.078 311.496 c f
191.824 357.125 m 127.273 324.535 l S
194.523 357.125 m 194.523 353.527 189.125 353.527 189.125 357.125 c 189.125
 360.727 194.523 360.727 194.523 357.125 c f
127.273 324.535 m 91.41 298.461 l S
129.973 324.535 m 129.973 320.934 124.574 320.934 124.574 324.535 c 124.574
 328.133 129.973 328.133 129.973 324.535 c f
91.41 298.461 m 98.582 389.719 l S
94.113 298.461 m 94.113 294.859 88.711 294.859 88.711 298.461 c 88.711 
302.059 94.113 302.059 94.113 298.461 c f
98.582 389.719 m 77.066 467.941 l S
101.285 389.719 m 101.285 386.117 95.883 386.117 95.883 389.719 c 95.883
 393.32 101.285 393.32 101.285 389.719 c f
77.066 467.941 m 163.137 461.422 l S
79.766 467.941 m 79.766 464.34 74.367 464.34 74.367 467.941 c 74.367 471.539
 79.766 471.539 79.766 467.941 c f
163.137 461.422 m 155.965 422.313 l S
165.836 461.422 m 165.836 457.82 160.438 457.82 160.438 461.422 c 160.438
 465.023 165.836 465.023 165.836 461.422 c f
155.965 422.313 m 220.516 409.273 l S
158.664 422.313 m 158.664 418.711 153.262 418.711 153.262 422.313 c 153.262
 425.91 158.664 425.91 158.664 422.313 c f
220.516 409.273 m 256.379 363.645 l S
223.215 409.273 m 223.215 405.676 217.816 405.676 217.816 409.273 c 217.816
 412.875 223.215 412.875 223.215 409.273 c f
256.379 311.496 m 256.379 363.645 l S
0.560784 0.196078 0.65098 rg
256.379 311.496 m 263.551 259.348 l S
259.078 311.496 m 259.078 307.895 253.676 307.895 253.676 311.496 c 253.676
 315.098 259.078 315.098 259.078 311.496 c f
263.551 259.348 m 270.723 194.164 l S
266.25 259.348 m 266.25 255.75 260.848 255.75 260.848 259.348 c 260.848
 262.949 266.25 262.949 266.25 259.348 c f
270.723 194.164 m 256.379 148.535 l S
273.422 194.164 m 273.422 190.563 268.023 190.563 268.023 194.164 c 268.023
 197.762 273.422 197.762 273.422 194.164 c f
256.379 148.535 m 299.41 155.051 l S
259.078 148.535 m 259.078 144.934 253.676 144.934 253.676 148.535 c 253.676
 152.133 259.078 152.133 259.078 148.535 c f
299.41 155.051 m 320.93 115.941 l S
302.113 155.051 m 302.113 151.453 296.711 151.453 296.711 155.051 c 296.711
 158.652 302.113 158.652 302.113 155.051 c f
320.93 115.941 m 371.137 115.941 l S
323.629 115.941 m 323.629 112.34 318.23 112.34 318.23 115.941 c 318.23 
119.539 323.629 119.539 323.629 115.941 c f
371.137 115.941 m 464.379 148.535 l S
373.836 115.941 m 373.836 112.34 368.438 112.34 368.438 115.941 c 368.438
 119.539 373.836 119.539 373.836 115.941 c f
464.379 148.535 m 406.996 187.645 l S
467.078 148.535 m 467.078 144.934 461.676 144.934 461.676 148.535 c 461.676
 152.133 467.078 152.133 467.078 148.535 c f
406.996 187.645 m 385.48 233.273 l S
409.699 187.645 m 409.699 184.043 404.297 184.043 404.297 187.645 c 404.297
 191.246 409.699 191.246 409.699 187.645 c f
385.48 233.273 m 328.102 246.313 l S
388.18 233.273 m 388.18 229.676 382.781 229.676 382.781 233.273 c 382.781
 236.875 388.18 236.875 388.18 233.273 c f
256.379 311.496 m 328.102 246.313 l S
  Q
Q
Q Q
showpage
%%Trailer
count op_count sub {pop} repeat
countdictstack dict_count sub {end} repeat
cairo_eps_state restore
%%EOF
