%!PS-Adobe-3.0 EPSF-3.0
%%Creator: cairo 1.11.2 (http://cairographics.org)
%%CreationDate: Thu May 04 15:05:13 2017
%%Pages: 1
%%DocumentData: Clean7Bit
%%LanguageLevel: 2
%%BoundingBox: 0 0 576 576
%%EndComments
%%BeginProlog
/cairo_eps_state save def
/dict_count countdictstack def
/op_count count 1 sub def
userdict begin
/q { gsave } bind def
/Q { grestore } bind def
/cm { 6 array astore concat } bind def
/w { setlinewidth } bind def
/J { setlinecap } bind def
/j { setlinejoin } bind def
/M { setmiterlimit } bind def
/d { setdash } bind def
/m { moveto } bind def
/l { lineto } bind def
/c { curveto } bind def
/h { closepath } bind def
/re { exch dup neg 3 1 roll 5 3 roll moveto 0 rlineto
      0 exch rlineto 0 rlineto closepath } bind def
/S { stroke } bind def
/f { fill } bind def
/f* { eofill } bind def
/n { newpath } bind def
/W { clip } bind def
/W* { eoclip } bind def
/BT { } bind def
/ET { } bind def
/pdfmark where { pop globaldict /?pdfmark /exec load put }
    { globaldict begin /?pdfmark /pop load def /pdfmark
    /cleartomark load def end } ifelse
/BDC { mark 3 1 roll /BDC pdfmark } bind def
/EMC { mark /EMC pdfmark } bind def
/cairo_store_point { /cairo_point_y exch def /cairo_point_x exch def } def
/Tj { show currentpoint cairo_store_point } bind def
/TJ {
  {
    dup
    type /stringtype eq
    { show } { -0.001 mul 0 cairo_font_matrix dtransform rmoveto } ifelse
  } forall
  currentpoint cairo_store_point
} bind def
/cairo_selectfont { cairo_font_matrix aload pop pop pop 0 0 6 array astore
    cairo_font exch selectfont cairo_point_x cairo_point_y moveto } bind def
/Tf { pop /cairo_font exch def /cairo_font_matrix where
      { pop cairo_selectfont } if } bind def
/Td { matrix translate cairo_font_matrix matrix concatmatrix dup
      /cairo_font_matrix exch def dup 4 get exch 5 get cairo_store_point
      /cairo_font where { pop cairo_selectfont } if } bind def
/Tm { 2 copy 8 2 roll 6 array astore /cairo_font_matrix exch def
      cairo_store_point /cairo_font where { pop cairo_selectfont } if } bind def
/g { setgray } bind def
/rg { setrgbcolor } bind def
/d1 { setcachedevice } bind def
%%EndProlog
%%Page: 1 1
%%BeginPageSetup
%%PageBoundingBox: 0 0 576 576
%%EndPageSetup
q 0 0 576 576 rectclip q
1 g
0 0 576 576 rectfill
0 g
0.75 w
1 J
1 j
[] 0.0 d
10 M 81.551 73.441 m 530.07 73.441 l S
81.551 73.441 m 81.551 66.238 l S
193.68 73.441 m 193.68 66.238 l S
305.813 73.441 m 305.813 66.238 l S
417.941 73.441 m 417.941 66.238 l S
530.07 73.441 m 530.07 66.238 l S
61.598 50.957 m 61.598 52.371 l 65.918 52.371 l 65.918 50.957 l h
f
72.379 47.52 m 70.973 47.52 l 70.973 56.48 l 70.629 56.152 70.188 55.832
 69.641 55.512 c 69.09 55.188 68.594 54.945 68.16 54.785 c 68.16 56.145 
l 68.941 56.512 69.629 56.957 70.223 57.488 c 70.809 58.012 71.227 58.523
 71.473 59.02 c 72.379 59.02 l h
f
75.977 50.52 m 77.453 50.645 l 77.559 49.922 77.813 49.383 78.215 49.023
 c 78.609 48.66 79.09 48.48 79.656 48.48 c 80.328 48.48 80.902 48.734 81.375
 49.246 c 81.84 49.754 82.074 50.43 82.078 51.277 c 82.074 52.074 81.848
 52.707 81.402 53.176 c 80.949 53.637 80.359 53.871 79.633 53.871 c 79.176
 53.871 78.77 53.766 78.406 53.563 c 78.039 53.352 77.75 53.086 77.547 52.762
 c 76.227 52.934 l 77.336 58.816 l 83.031 58.816 l 83.031 57.473 l 78.461
 57.473 l 77.844 54.395 l 78.531 54.871 79.25 55.113 80.008 55.113 c 81.004
 55.113 81.848 54.766 82.539 54.074 c 83.223 53.379 83.566 52.488 83.57 
51.402 c 83.566 50.363 83.266 49.469 82.664 48.715 c 81.926 47.789 80.922
 47.328 79.656 47.324 c 78.609 47.328 77.762 47.617 77.105 48.199 c 76.445
 48.781 76.066 49.555 75.977 50.52 c h
f
84.875 53.168 m 84.871 54.52 85.012 55.609 85.293 56.438 c 85.57 57.262
 85.984 57.898 86.535 58.348 c 87.082 58.793 87.773 59.016 88.609 59.02 
c 89.223 59.016 89.762 58.891 90.227 58.648 c 90.688 58.398 91.07 58.043
 91.375 57.578 c 91.676 57.109 91.914 56.543 92.086 55.875 c 92.258 55.203
 92.344 54.301 92.344 53.168 c 92.344 51.824 92.203 50.738 91.93 49.914 
c 91.648 49.086 91.238 48.449 90.691 48 c 90.141 47.551 89.445 47.328 88.609
 47.324 c 87.504 47.328 86.637 47.719 86.008 48.512 c 85.25 49.461 84.871
 51.016 84.875 53.168 c h
86.32 53.168 m 86.32 51.285 86.539 50.031 86.98 49.414 c 87.418 48.789 
87.961 48.48 88.609 48.48 c 89.254 48.48 89.797 48.793 90.238 49.418 c 90.676
 50.043 90.895 51.293 90.898 53.168 c 90.895 55.051 90.676 56.301 90.238
 56.926 c 89.797 57.543 89.25 57.855 88.594 57.855 c 87.945 57.855 87.43
 57.582 87.047 57.035 c 86.563 56.336 86.32 55.047 86.32 53.168 c h
f
93.77 53.168 m 93.766 54.52 93.906 55.609 94.188 56.438 c 94.465 57.262
 94.879 57.898 95.43 58.348 c 95.977 58.793 96.668 59.016 97.504 59.02 c
 98.117 59.016 98.656 58.891 99.121 58.648 c 99.582 58.398 99.965 58.043
 100.27 57.578 c 100.57 57.109 100.809 56.543 100.98 55.875 c 101.152 55.203
 101.238 54.301 101.238 53.168 c 101.238 51.824 101.098 50.738 100.824 49.914
 c 100.543 49.086 100.133 48.449 99.586 48 c 99.035 47.551 98.34 47.328 
97.504 47.324 c 96.398 47.328 95.531 47.719 94.902 48.512 c 94.145 49.461
 93.766 51.016 93.77 53.168 c h
95.215 53.168 m 95.215 51.285 95.434 50.031 95.875 49.414 c 96.313 48.789
 96.855 48.48 97.504 48.48 c 98.148 48.48 98.691 48.793 99.133 49.418 c 
99.57 50.043 99.789 51.293 99.793 53.168 c 99.789 55.051 99.57 56.301 99.133
 56.926 c 98.691 57.543 98.145 57.855 97.488 57.855 c 96.84 57.855 96.324
 57.582 95.941 57.035 c 95.457 56.336 95.215 55.047 95.215 53.168 c h
f
173.711 50.957 m 173.711 52.371 l 178.031 52.371 l 178.031 50.957 l h
f
184.492 47.52 m 183.086 47.52 l 183.086 56.48 l 182.742 56.152 182.301 
55.832 181.754 55.512 c 181.203 55.188 180.707 54.945 180.273 54.785 c 180.273
 56.145 l 181.055 56.512 181.742 56.957 182.336 57.488 c 182.922 58.012 
183.34 58.523 183.586 59.02 c 184.492 59.02 l h
f
188.09 53.168 m 188.086 54.52 188.227 55.609 188.508 56.438 c 188.785 57.262
 189.199 57.898 189.75 58.348 c 190.297 58.793 190.988 59.016 191.824 59.02
 c 192.438 59.016 192.977 58.891 193.441 58.648 c 193.902 58.398 194.285
 58.043 194.59 57.578 c 194.891 57.109 195.129 56.543 195.301 55.875 c 195.473
 55.203 195.559 54.301 195.559 53.168 c 195.559 51.824 195.418 50.738 195.145
 49.914 c 194.863 49.086 194.453 48.449 193.906 48 c 193.355 47.551 192.66
 47.328 191.824 47.324 c 190.719 47.328 189.852 47.719 189.223 48.512 c 
188.465 49.461 188.086 51.016 188.09 53.168 c h
189.535 53.168 m 189.535 51.285 189.754 50.031 190.195 49.414 c 190.633
 48.789 191.176 48.48 191.824 48.48 c 192.469 48.48 193.012 48.793 193.453
 49.418 c 193.891 50.043 194.109 51.293 194.113 53.168 c 194.109 55.051 
193.891 56.301 193.453 56.926 c 193.012 57.543 192.465 57.855 191.809 57.855
 c 191.16 57.855 190.645 57.582 190.262 57.035 c 189.777 56.336 189.535 
55.047 189.535 53.168 c h
f
196.984 53.168 m 196.98 54.52 197.121 55.609 197.402 56.438 c 197.68 57.262
 198.094 57.898 198.645 58.348 c 199.191 58.793 199.883 59.016 200.719 59.02
 c 201.332 59.016 201.871 58.891 202.336 58.648 c 202.797 58.398 203.18 
58.043 203.484 57.578 c 203.785 57.109 204.023 56.543 204.195 55.875 c 204.367
 55.203 204.453 54.301 204.453 53.168 c 204.453 51.824 204.313 50.738 204.039
 49.914 c 203.758 49.086 203.348 48.449 202.801 48 c 202.25 47.551 201.555
 47.328 200.719 47.324 c 199.613 47.328 198.746 47.719 198.117 48.512 c 
197.359 49.461 196.98 51.016 196.984 53.168 c h
198.43 53.168 m 198.43 51.285 198.648 50.031 199.09 49.414 c 199.527 48.789
 200.07 48.48 200.719 48.48 c 201.363 48.48 201.906 48.793 202.348 49.418
 c 202.785 50.043 203.004 51.293 203.008 53.168 c 203.004 55.051 202.785
 56.301 202.348 56.926 c 201.906 57.543 201.359 57.855 200.703 57.855 c 
200.055 57.855 199.539 57.582 199.156 57.035 c 198.672 56.336 198.43 55.047
 198.43 53.168 c h
f
205.883 53.168 m 205.879 54.52 206.02 55.609 206.301 56.438 c 206.578 57.262
 206.992 57.898 207.543 58.348 c 208.09 58.793 208.781 59.016 209.617 59.02
 c 210.23 59.016 210.77 58.891 211.234 58.648 c 211.695 58.398 212.078 58.043
 212.383 57.578 c 212.684 57.109 212.922 56.543 213.094 55.875 c 213.266
 55.203 213.352 54.301 213.352 53.168 c 213.352 51.824 213.211 50.738 212.938
 49.914 c 212.656 49.086 212.246 48.449 211.699 48 c 211.148 47.551 210.453
 47.328 209.617 47.324 c 208.512 47.328 207.645 47.719 207.016 48.512 c 
206.258 49.461 205.879 51.016 205.883 53.168 c h
207.328 53.168 m 207.328 51.285 207.547 50.031 207.988 49.414 c 208.426
 48.789 208.969 48.48 209.617 48.48 c 210.262 48.48 210.805 48.793 211.246
 49.418 c 211.684 50.043 211.902 51.293 211.906 53.168 c 211.902 55.051 
211.684 56.301 211.246 56.926 c 210.805 57.543 210.258 57.855 209.602 57.855
 c 208.953 57.855 208.438 57.582 208.055 57.035 c 207.57 56.336 207.328 
55.047 207.328 53.168 c h
f
290.285 50.957 m 290.285 52.371 l 294.605 52.371 l 294.605 50.957 l h
f
295.77 50.52 m 297.246 50.645 l 297.352 49.922 297.605 49.383 298.008 49.023
 c 298.402 48.66 298.883 48.48 299.449 48.48 c 300.121 48.48 300.695 48.734
 301.168 49.246 c 301.633 49.754 301.867 50.43 301.871 51.277 c 301.867 
52.074 301.641 52.707 301.195 53.176 c 300.742 53.637 300.152 53.871 299.426
 53.871 c 298.969 53.871 298.563 53.766 298.199 53.563 c 297.832 53.352 
297.543 53.086 297.34 52.762 c 296.02 52.934 l 297.129 58.816 l 302.824 
58.816 l 302.824 57.473 l 298.254 57.473 l 297.637 54.395 l 298.324 54.871
 299.043 55.113 299.801 55.113 c 300.797 55.113 301.641 54.766 302.332 54.074
 c 303.016 53.379 303.359 52.488 303.363 51.402 c 303.359 50.363 303.059
 49.469 302.457 48.715 c 301.719 47.789 300.715 47.328 299.449 47.324 c 
298.402 47.328 297.555 47.617 296.898 48.199 c 296.238 48.781 295.859 49.555
 295.77 50.52 c h
f
304.664 53.168 m 304.66 54.52 304.801 55.609 305.082 56.438 c 305.359 57.262
 305.773 57.898 306.324 58.348 c 306.871 58.793 307.563 59.016 308.398 59.02
 c 309.012 59.016 309.551 58.891 310.016 58.648 c 310.477 58.398 310.859
 58.043 311.164 57.578 c 311.465 57.109 311.703 56.543 311.875 55.875 c 
312.047 55.203 312.133 54.301 312.133 53.168 c 312.133 51.824 311.992 50.738
 311.719 49.914 c 311.438 49.086 311.027 48.449 310.48 48 c 309.93 47.551
 309.234 47.328 308.398 47.324 c 307.293 47.328 306.426 47.719 305.797 48.512
 c 305.039 49.461 304.66 51.016 304.664 53.168 c h
306.109 53.168 m 306.109 51.285 306.328 50.031 306.77 49.414 c 307.207 
48.789 307.75 48.48 308.398 48.48 c 309.043 48.48 309.586 48.793 310.027
 49.418 c 310.465 50.043 310.684 51.293 310.688 53.168 c 310.684 55.051 
310.465 56.301 310.027 56.926 c 309.586 57.543 309.039 57.855 308.383 57.855
 c 307.734 57.855 307.219 57.582 306.836 57.035 c 306.352 56.336 306.109
 55.047 306.109 53.168 c h
f
313.563 53.168 m 313.559 54.52 313.699 55.609 313.98 56.438 c 314.258 57.262
 314.672 57.898 315.223 58.348 c 315.77 58.793 316.461 59.016 317.297 59.02
 c 317.91 59.016 318.449 58.891 318.914 58.648 c 319.375 58.398 319.758 
58.043 320.063 57.578 c 320.363 57.109 320.602 56.543 320.773 55.875 c 320.945
 55.203 321.031 54.301 321.031 53.168 c 321.031 51.824 320.891 50.738 320.617
 49.914 c 320.336 49.086 319.926 48.449 319.379 48 c 318.828 47.551 318.133
 47.328 317.297 47.324 c 316.191 47.328 315.324 47.719 314.695 48.512 c 
313.938 49.461 313.559 51.016 313.563 53.168 c h
315.008 53.168 m 315.008 51.285 315.227 50.031 315.668 49.414 c 316.105
 48.789 316.648 48.48 317.297 48.48 c 317.941 48.48 318.484 48.793 318.926
 49.418 c 319.363 50.043 319.582 51.293 319.586 53.168 c 319.582 55.051 
319.363 56.301 318.926 56.926 c 318.484 57.543 317.938 57.855 317.281 57.855
 c 316.633 57.855 316.117 57.582 315.734 57.035 c 315.25 56.336 315.008 
55.047 315.008 53.168 c h
f
414.156 53.168 m 414.152 54.52 414.293 55.609 414.574 56.438 c 414.852 
57.262 415.266 57.898 415.816 58.348 c 416.363 58.793 417.055 59.016 417.891
 59.02 c 418.504 59.016 419.043 58.891 419.508 58.648 c 419.969 58.398 420.352
 58.043 420.656 57.578 c 420.957 57.109 421.195 56.543 421.367 55.875 c 
421.539 55.203 421.625 54.301 421.625 53.168 c 421.625 51.824 421.484 50.738
 421.211 49.914 c 420.93 49.086 420.52 48.449 419.973 48 c 419.422 47.551
 418.727 47.328 417.891 47.324 c 416.785 47.328 415.918 47.719 415.289 48.512
 c 414.531 49.461 414.152 51.016 414.156 53.168 c h
415.602 53.168 m 415.602 51.285 415.82 50.031 416.262 49.414 c 416.699 
48.789 417.242 48.48 417.891 48.48 c 418.535 48.48 419.078 48.793 419.52
 49.418 c 419.957 50.043 420.176 51.293 420.18 53.168 c 420.176 55.051 419.957
 56.301 419.52 56.926 c 419.078 57.543 418.531 57.855 417.875 57.855 c 417.227
 57.855 416.711 57.582 416.328 57.035 c 415.844 56.336 415.602 55.047 415.602
 53.168 c h
f
517.387 50.52 m 518.863 50.645 l 518.969 49.922 519.223 49.383 519.625 
49.023 c 520.02 48.66 520.5 48.48 521.066 48.48 c 521.738 48.48 522.313 
48.734 522.785 49.246 c 523.25 49.754 523.484 50.43 523.488 51.277 c 523.484
 52.074 523.258 52.707 522.813 53.176 c 522.359 53.637 521.77 53.871 521.043
 53.871 c 520.586 53.871 520.18 53.766 519.816 53.563 c 519.449 53.352 519.16
 53.086 518.957 52.762 c 517.637 52.934 l 518.746 58.816 l 524.441 58.816
 l 524.441 57.473 l 519.871 57.473 l 519.254 54.395 l 519.941 54.871 520.66
 55.113 521.418 55.113 c 522.414 55.113 523.258 54.766 523.949 54.074 c 
524.633 53.379 524.977 52.488 524.98 51.402 c 524.977 50.363 524.676 49.469
 524.074 48.715 c 523.336 47.789 522.332 47.328 521.066 47.324 c 520.02 
47.328 519.172 47.617 518.516 48.199 c 517.855 48.781 517.477 49.555 517.387
 50.52 c h
f
526.285 53.168 m 526.281 54.52 526.422 55.609 526.703 56.438 c 526.98 57.262
 527.395 57.898 527.945 58.348 c 528.492 58.793 529.184 59.016 530.02 59.02
 c 530.633 59.016 531.172 58.891 531.637 58.648 c 532.098 58.398 532.48 
58.043 532.785 57.578 c 533.086 57.109 533.324 56.543 533.496 55.875 c 533.668
 55.203 533.754 54.301 533.754 53.168 c 533.754 51.824 533.613 50.738 533.34
 49.914 c 533.059 49.086 532.648 48.449 532.102 48 c 531.551 47.551 530.855
 47.328 530.02 47.324 c 528.914 47.328 528.047 47.719 527.418 48.512 c 526.66
 49.461 526.281 51.016 526.285 53.168 c h
527.73 53.168 m 527.73 51.285 527.949 50.031 528.391 49.414 c 528.828 48.789
 529.371 48.48 530.02 48.48 c 530.664 48.48 531.207 48.793 531.648 49.418
 c 532.086 50.043 532.305 51.293 532.309 53.168 c 532.305 55.051 532.086
 56.301 531.648 56.926 c 531.207 57.543 530.66 57.855 530.004 57.855 c 529.355
 57.855 528.84 57.582 528.457 57.035 c 527.973 56.336 527.73 55.047 527.73
 53.168 c h
f
535.18 53.168 m 535.176 54.52 535.316 55.609 535.598 56.438 c 535.875 57.262
 536.289 57.898 536.84 58.348 c 537.387 58.793 538.078 59.016 538.914 59.02
 c 539.527 59.016 540.066 58.891 540.531 58.648 c 540.992 58.398 541.375
 58.043 541.68 57.578 c 541.98 57.109 542.219 56.543 542.391 55.875 c 542.563
 55.203 542.648 54.301 542.648 53.168 c 542.648 51.824 542.508 50.738 542.234
 49.914 c 541.953 49.086 541.543 48.449 540.996 48 c 540.445 47.551 539.75
 47.328 538.914 47.324 c 537.809 47.328 536.941 47.719 536.313 48.512 c 
535.555 49.461 535.176 51.016 535.18 53.168 c h
536.625 53.168 m 536.625 51.285 536.844 50.031 537.285 49.414 c 537.723
 48.789 538.266 48.48 538.914 48.48 c 539.559 48.48 540.102 48.793 540.543
 49.418 c 540.98 50.043 541.199 51.293 541.203 53.168 c 541.199 55.051 540.98
 56.301 540.543 56.926 c 540.102 57.543 539.555 57.855 538.898 57.855 c 
538.25 57.855 537.734 57.582 537.352 57.035 c 536.867 56.336 536.625 55.047
 536.625 53.168 c h
f
59.039 154.707 m 59.039 500.535 l S
59.039 154.707 m 51.84 154.707 l S
59.039 241.164 m 51.84 241.164 l S
59.039 327.621 m 51.84 327.621 l S
59.039 414.078 m 51.84 414.078 l S
59.039 500.535 m 51.84 500.535 l S
36.91 143.523 1.414 -4.32 re f
40.41 152.078 m 41.762 152.078 l 41.762 144.508 l 41.426 144.496 41.102
 144.551 40.785 144.672 c 40.273 144.863 39.766 145.172 39.262 145.598 c
 38.766 146.02 38.188 146.633 37.527 147.438 c 36.508 148.68 35.699 149.52
 35.102 149.961 c 34.508 150.395 33.945 150.613 33.41 150.617 c 32.855 150.613
 32.383 150.414 32 150.02 c 31.617 149.617 31.426 149.098 31.426 148.461
 c 31.426 147.781 31.629 147.242 32.035 146.836 c 32.441 146.43 33.004 146.223
 33.723 146.219 c 33.574 144.773 l 32.5 144.871 31.676 145.242 31.109 145.891
 c 30.547 146.535 30.266 147.402 30.262 148.492 c 30.266 149.59 30.57 150.461
 31.176 151.102 c 31.789 151.742 32.543 152.063 33.441 152.063 c 33.902 
152.063 34.355 151.969 34.793 151.781 c 35.238 151.594 35.703 151.281 36.191
 150.848 c 36.684 150.41 37.355 149.688 38.207 148.68 c 38.918 147.832 39.398
 147.289 39.648 147.055 c 39.902 146.813 40.156 146.617 40.41 146.461 c 
h
f
36.113 153.582 m 34.762 153.578 33.672 153.719 32.844 154 c 32.02 154.277
 31.383 154.691 30.934 155.242 c 30.488 155.789 30.266 156.48 30.262 157.316
 c 30.266 157.93 30.391 158.469 30.633 158.934 c 30.883 159.395 31.238 159.777
 31.703 160.082 c 32.172 160.383 32.738 160.621 33.406 160.793 c 34.078 
160.965 34.98 161.051 36.113 161.051 c 37.457 161.051 38.543 160.91 39.367
 160.637 c 40.195 160.355 40.832 159.945 41.281 159.398 c 41.73 158.848 
41.953 158.152 41.957 157.316 c 41.953 156.211 41.563 155.344 40.77 154.715
 c 39.82 153.957 38.266 153.578 36.113 153.582 c h
36.113 155.027 m 37.996 155.027 39.25 155.246 39.867 155.688 c 40.492 156.125
 40.801 156.668 40.801 157.316 c 40.801 157.961 40.488 158.504 39.863 158.945
 c 39.238 159.383 37.988 159.602 36.113 159.605 c 34.23 159.602 32.98 159.383
 32.355 158.945 c 31.738 158.504 31.426 157.957 31.426 157.301 c 31.426 
156.652 31.699 156.137 32.246 155.754 c 32.945 155.27 34.234 155.027 36.113
 155.027 c h
f
36.113 162.48 m 34.762 162.477 33.672 162.617 32.844 162.898 c 32.02 163.176
 31.383 163.59 30.934 164.141 c 30.488 164.688 30.266 165.379 30.262 166.215
 c 30.266 166.828 30.391 167.367 30.633 167.832 c 30.883 168.293 31.238 
168.676 31.703 168.98 c 32.172 169.281 32.738 169.52 33.406 169.691 c 34.078
 169.863 34.98 169.949 36.113 169.949 c 37.457 169.949 38.543 169.809 39.367
 169.535 c 40.195 169.254 40.832 168.844 41.281 168.297 c 41.73 167.746 
41.953 167.051 41.957 166.215 c 41.953 165.109 41.563 164.242 40.77 163.613
 c 39.82 162.855 38.266 162.477 36.113 162.48 c h
36.113 163.926 m 37.996 163.926 39.25 164.145 39.867 164.586 c 40.492 165.023
 40.801 165.566 40.801 166.215 c 40.801 166.859 40.488 167.402 39.863 167.844
 c 39.238 168.281 37.988 168.5 36.113 168.504 c 34.23 168.5 32.98 168.281
 32.355 167.844 c 31.738 167.402 31.426 166.855 31.426 166.199 c 31.426 
165.551 31.699 165.035 32.246 164.652 c 32.945 164.168 34.234 163.926 36.113
 163.926 c h
f
36.113 237.375 m 34.762 237.371 33.672 237.512 32.844 237.793 c 32.02 238.07
 31.383 238.484 30.934 239.035 c 30.488 239.582 30.266 240.273 30.262 241.109
 c 30.266 241.723 30.391 242.262 30.633 242.727 c 30.883 243.188 31.238 
243.57 31.703 243.875 c 32.172 244.176 32.738 244.414 33.406 244.586 c 34.078
 244.758 34.98 244.844 36.113 244.844 c 37.457 244.844 38.543 244.703 39.367
 244.43 c 40.195 244.148 40.832 243.738 41.281 243.191 c 41.73 242.641 41.953
 241.945 41.957 241.109 c 41.953 240.004 41.563 239.137 40.77 238.508 c 
39.82 237.75 38.266 237.371 36.113 237.375 c h
36.113 238.82 m 37.996 238.82 39.25 239.039 39.867 239.48 c 40.492 239.918
 40.801 240.461 40.801 241.109 c 40.801 241.754 40.488 242.297 39.863 242.738
 c 39.238 243.176 37.988 243.395 36.113 243.398 c 34.23 243.395 32.98 243.176
 32.355 242.738 c 31.738 242.297 31.426 241.75 31.426 241.094 c 31.426 240.445
 31.699 239.93 32.246 239.547 c 32.945 239.063 34.234 238.82 36.113 238.82
 c h
f
40.41 322.316 m 41.762 322.316 l 41.762 314.746 l 41.426 314.734 41.102
 314.789 40.785 314.91 c 40.273 315.102 39.766 315.41 39.262 315.836 c 38.766
 316.258 38.188 316.871 37.527 317.676 c 36.508 318.918 35.699 319.758 35.102
 320.199 c 34.508 320.633 33.945 320.852 33.41 320.855 c 32.855 320.852 
32.383 320.652 32 320.258 c 31.617 319.855 31.426 319.336 31.426 318.699
 c 31.426 318.02 31.629 317.48 32.035 317.074 c 32.441 316.668 33.004 316.461
 33.723 316.457 c 33.574 315.012 l 32.5 315.109 31.676 315.48 31.109 316.129
 c 30.547 316.773 30.266 317.641 30.262 318.73 c 30.266 319.828 30.57 320.699
 31.176 321.34 c 31.789 321.98 32.543 322.301 33.441 322.301 c 33.902 322.301
 34.355 322.207 34.793 322.02 c 35.238 321.832 35.703 321.52 36.191 321.086
 c 36.684 320.648 37.355 319.926 38.207 318.918 c 38.918 318.07 39.398 317.527
 39.648 317.293 c 39.902 317.051 40.156 316.855 40.41 316.699 c h
f
36.113 323.824 m 34.762 323.82 33.672 323.961 32.844 324.242 c 32.02 324.52
 31.383 324.934 30.934 325.484 c 30.488 326.031 30.266 326.723 30.262 327.559
 c 30.266 328.172 30.391 328.711 30.633 329.176 c 30.883 329.637 31.238 
330.02 31.703 330.324 c 32.172 330.625 32.738 330.863 33.406 331.035 c 34.078
 331.207 34.98 331.293 36.113 331.293 c 37.457 331.293 38.543 331.152 39.367
 330.879 c 40.195 330.598 40.832 330.188 41.281 329.641 c 41.73 329.09 41.953
 328.395 41.957 327.559 c 41.953 326.453 41.563 325.586 40.77 324.957 c 
39.82 324.199 38.266 323.82 36.113 323.824 c h
36.113 325.27 m 37.996 325.27 39.25 325.488 39.867 325.93 c 40.492 326.367
 40.801 326.91 40.801 327.559 c 40.801 328.203 40.488 328.746 39.863 329.188
 c 39.238 329.625 37.988 329.844 36.113 329.848 c 34.23 329.844 32.98 329.625
 32.355 329.188 c 31.738 328.746 31.426 328.199 31.426 327.543 c 31.426 
326.895 31.699 326.379 32.246 325.996 c 32.945 325.512 34.234 325.27 36.113
 325.27 c h
f
36.113 332.719 m 34.762 332.715 33.672 332.855 32.844 333.137 c 32.02 333.414
 31.383 333.828 30.934 334.379 c 30.488 334.926 30.266 335.617 30.262 336.453
 c 30.266 337.066 30.391 337.605 30.633 338.07 c 30.883 338.531 31.238 338.914
 31.703 339.219 c 32.172 339.52 32.738 339.758 33.406 339.93 c 34.078 340.102
 34.98 340.188 36.113 340.188 c 37.457 340.188 38.543 340.047 39.367 339.773
 c 40.195 339.492 40.832 339.082 41.281 338.535 c 41.73 337.984 41.953 337.289
 41.957 336.453 c 41.953 335.348 41.563 334.48 40.77 333.852 c 39.82 333.094
 38.266 332.715 36.113 332.719 c h
36.113 334.164 m 37.996 334.164 39.25 334.383 39.867 334.824 c 40.492 335.262
 40.801 335.805 40.801 336.453 c 40.801 337.098 40.488 337.641 39.863 338.082
 c 39.238 338.52 37.988 338.738 36.113 338.742 c 34.23 338.738 32.98 338.52
 32.355 338.082 c 31.738 337.641 31.426 337.094 31.426 336.438 c 31.426 
335.789 31.699 335.273 32.246 334.891 c 32.945 334.406 34.234 334.164 36.113
 334.164 c h
f
41.762 405.902 m 39.02 405.902 l 39.02 400.934 l 37.73 400.934 l 30.309
 406.16 l 30.309 407.309 l 37.73 407.309 l 37.73 408.855 l 39.02 408.855
 l 39.02 407.309 l 41.762 407.309 l h
37.73 405.902 m 32.566 405.902 l 37.73 402.316 l h
f
36.113 410.289 m 34.762 410.285 33.672 410.426 32.844 410.707 c 32.02 410.984
 31.383 411.398 30.934 411.949 c 30.488 412.496 30.266 413.188 30.262 414.023
 c 30.266 414.637 30.391 415.176 30.633 415.641 c 30.883 416.102 31.238 
416.484 31.703 416.789 c 32.172 417.09 32.738 417.328 33.406 417.5 c 34.078
 417.672 34.98 417.758 36.113 417.758 c 37.457 417.758 38.543 417.617 39.367
 417.344 c 40.195 417.063 40.832 416.652 41.281 416.105 c 41.73 415.555 
41.953 414.859 41.957 414.023 c 41.953 412.918 41.563 412.051 40.77 411.422
 c 39.82 410.664 38.266 410.285 36.113 410.289 c h
36.113 411.734 m 37.996 411.734 39.25 411.953 39.867 412.395 c 40.492 412.832
 40.801 413.375 40.801 414.023 c 40.801 414.668 40.488 415.211 39.863 415.652
 c 39.238 416.09 37.988 416.309 36.113 416.313 c 34.23 416.309 32.98 416.09
 32.355 415.652 c 31.738 415.211 31.426 414.664 31.426 414.008 c 31.426 
413.359 31.699 412.844 32.246 412.461 c 32.945 411.977 34.234 411.734 36.113
 411.734 c h
f
36.113 419.188 m 34.762 419.184 33.672 419.324 32.844 419.605 c 32.02 419.883
 31.383 420.297 30.934 420.848 c 30.488 421.395 30.266 422.086 30.262 422.922
 c 30.266 423.535 30.391 424.074 30.633 424.539 c 30.883 425 31.238 425.383
 31.703 425.688 c 32.172 425.988 32.738 426.227 33.406 426.398 c 34.078 
426.57 34.98 426.656 36.113 426.656 c 37.457 426.656 38.543 426.516 39.367
 426.242 c 40.195 425.961 40.832 425.551 41.281 425.004 c 41.73 424.453 
41.953 423.758 41.957 422.922 c 41.953 421.816 41.563 420.949 40.77 420.32
 c 39.82 419.563 38.266 419.184 36.113 419.188 c h
36.113 420.633 m 37.996 420.633 39.25 420.852 39.867 421.293 c 40.492 421.73
 40.801 422.273 40.801 422.922 c 40.801 423.566 40.488 424.109 39.863 424.551
 c 39.238 424.988 37.988 425.207 36.113 425.211 c 34.23 425.207 32.98 424.988
 32.355 424.551 c 31.738 424.109 31.426 423.563 31.426 422.906 c 31.426 
422.258 31.699 421.742 32.246 421.359 c 32.945 420.875 34.234 420.633 36.113
 420.633 c h
f
33.113 495.141 m 33.223 493.742 l 32.676 493.617 32.273 493.438 32.02 493.211
 c 31.621 492.828 31.422 492.359 31.418 491.805 c 31.422 491.352 31.547 
490.961 31.793 490.625 c 32.121 490.18 32.59 489.828 33.207 489.578 c 33.828
 489.32 34.711 489.188 35.855 489.18 c 35.34 489.516 34.957 489.93 34.707
 490.422 c 34.457 490.906 34.332 491.422 34.332 491.961 c 34.332 492.898
 34.68 493.695 35.367 494.355 c 36.063 495.012 36.953 495.34 38.043 495.344
 c 38.766 495.34 39.434 495.188 40.047 494.879 c 40.668 494.566 41.141 494.141
 41.465 493.602 c 41.793 493.059 41.953 492.441 41.957 491.758 c 41.953 
490.582 41.527 489.629 40.664 488.891 c 39.805 488.148 38.383 487.777 36.402
 487.781 c 34.191 487.777 32.582 488.188 31.574 489.008 c 30.703 489.719
 30.266 490.68 30.262 491.891 c 30.266 492.789 30.52 493.527 31.02 494.105
 c 31.527 494.68 32.223 495.023 33.113 495.141 c h
38.051 489.398 m 38.539 489.395 39 489.496 39.441 489.707 c 39.887 489.91
 40.227 490.199 40.453 490.57 c 40.688 490.938 40.801 491.324 40.801 491.734
 c 40.801 492.324 40.563 492.836 40.082 493.266 c 39.605 493.691 38.953 
493.906 38.129 493.906 c 37.34 493.906 36.719 493.695 36.258 493.273 c 35.805
 492.852 35.574 492.32 35.574 491.68 c 35.574 491.043 35.805 490.504 36.258
 490.063 c 36.719 489.617 37.316 489.395 38.051 489.398 c h
f
36.113 496.738 m 34.762 496.734 33.672 496.875 32.844 497.156 c 32.02 497.434
 31.383 497.848 30.934 498.398 c 30.488 498.945 30.266 499.637 30.262 500.473
 c 30.266 501.086 30.391 501.625 30.633 502.09 c 30.883 502.551 31.238 502.934
 31.703 503.238 c 32.172 503.539 32.738 503.777 33.406 503.949 c 34.078 
504.121 34.98 504.207 36.113 504.207 c 37.457 504.207 38.543 504.066 39.367
 503.793 c 40.195 503.512 40.832 503.102 41.281 502.555 c 41.73 502.004 
41.953 501.309 41.957 500.473 c 41.953 499.367 41.563 498.5 40.77 497.871
 c 39.82 497.113 38.266 496.734 36.113 496.738 c h
36.113 498.184 m 37.996 498.184 39.25 498.402 39.867 498.844 c 40.492 499.281
 40.801 499.824 40.801 500.473 c 40.801 501.117 40.488 501.66 39.863 502.102
 c 39.238 502.539 37.988 502.758 36.113 502.762 c 34.23 502.758 32.98 502.539
 32.355 502.102 c 31.738 501.66 31.426 501.113 31.426 500.457 c 31.426 499.809
 31.699 499.293 32.246 498.91 c 32.945 498.426 34.234 498.184 36.113 498.184
 c h
f
36.113 505.633 m 34.762 505.629 33.672 505.77 32.844 506.051 c 32.02 506.328
 31.383 506.742 30.934 507.293 c 30.488 507.84 30.266 508.531 30.262 509.367
 c 30.266 509.98 30.391 510.52 30.633 510.984 c 30.883 511.445 31.238 511.828
 31.703 512.133 c 32.172 512.434 32.738 512.672 33.406 512.844 c 34.078 
513.016 34.98 513.102 36.113 513.102 c 37.457 513.102 38.543 512.961 39.367
 512.688 c 40.195 512.406 40.832 511.996 41.281 511.449 c 41.73 510.898 
41.953 510.203 41.957 509.367 c 41.953 508.262 41.563 507.395 40.77 506.766
 c 39.82 506.008 38.266 505.629 36.113 505.633 c h
36.113 507.078 m 37.996 507.078 39.25 507.297 39.867 507.738 c 40.492 508.176
 40.801 508.719 40.801 509.367 c 40.801 510.012 40.488 510.555 39.863 510.996
 c 39.238 511.434 37.988 511.652 36.113 511.656 c 34.23 511.652 32.98 511.434
 32.355 510.996 c 31.738 510.555 31.426 510.008 31.426 509.352 c 31.426 
508.703 31.699 508.188 32.246 507.805 c 32.945 507.32 34.234 507.078 36.113
 507.078 c h
f
59.039 516.961 486.723 -443.52 re S
284.852 539.609 m 284.852 548.254 l 283.363 548.254 l 283.363 549.566 l
 284.852 549.566 l 284.852 550.625 l 284.848 551.293 284.906 551.789 285.031
 552.117 c 285.188 552.551 285.473 552.906 285.887 553.18 c 286.293 553.449
 286.867 553.582 287.609 553.586 c 288.078 553.582 288.605 553.527 289.184
 553.418 c 288.93 551.945 l 288.578 552.004 288.246 552.035 287.938 552.039
 c 287.422 552.035 287.059 551.926 286.848 551.711 c 286.633 551.488 286.527
 551.082 286.531 550.484 c 286.531 549.566 l 288.473 549.566 l 288.473 548.254
 l 286.531 548.254 l 286.531 539.609 l h
f
296.73 539.609 m 295.043 539.609 l 295.043 550.363 l 294.633 549.973 294.102
 549.586 293.445 549.199 c 292.785 548.809 292.191 548.52 291.668 548.328
 c 291.668 549.961 l 292.609 550.402 293.434 550.938 294.145 551.57 c 294.848
 552.199 295.348 552.813 295.645 553.41 c 296.73 553.41 l h
f
301.059 543.238 m 302.746 543.461 l 302.938 542.5 303.27 541.813 303.734
 541.395 c 304.199 540.969 304.766 540.758 305.438 540.762 c 306.23 540.758
 306.902 541.031 307.449 541.586 c 307.996 542.133 308.27 542.816 308.27
 543.633 c 308.27 544.402 308.016 545.039 307.508 545.547 c 307 546.047 
306.355 546.301 305.578 546.305 c 305.258 546.301 304.859 546.238 304.387
 546.117 c 304.574 547.598 l 304.684 547.582 304.777 547.578 304.848 547.578
 c 305.566 547.578 306.211 547.766 306.789 548.141 c 307.359 548.516 307.648
 549.094 307.652 549.875 c 307.648 550.492 307.438 551.004 307.023 551.414
 c 306.602 551.816 306.063 552.02 305.402 552.023 c 304.742 552.02 304.195
 551.813 303.762 551.402 c 303.32 550.988 303.039 550.371 302.918 549.547
 c 301.23 549.848 l 301.434 550.973 301.902 551.852 302.633 552.477 c 303.363
 553.098 304.273 553.406 305.363 553.41 c 306.113 553.406 306.801 553.246
 307.434 552.926 c 308.063 552.602 308.547 552.164 308.883 551.609 c 309.215
 551.051 309.383 550.457 309.387 549.836 c 309.383 549.238 309.223 548.699
 308.906 548.215 c 308.586 547.727 308.113 547.34 307.492 547.055 c 308.301
 546.863 308.934 546.473 309.383 545.887 c 309.832 545.293 310.055 544.555
 310.059 543.668 c 310.055 542.465 309.617 541.449 308.746 540.617 c 307.867
 539.785 306.762 539.371 305.43 539.367 c 304.219 539.371 303.219 539.727
 302.426 540.445 c 301.625 541.16 301.168 542.09 301.059 543.238 c h
f
317.133 539.609 m 317.133 542.898 l 311.168 542.898 l 311.168 544.445 l
 317.441 553.352 l 318.82 553.352 l 318.82 544.445 l 320.676 544.445 l 320.676
 542.898 l 318.82 542.898 l 318.82 539.609 l h
317.133 544.445 m 317.133 550.645 l 312.828 544.445 l h
f
297.133 18.719 m 301.563 24.688 l 297.656 30.172 l 299.461 30.172 l 301.539
 27.234 l 301.969 26.621 302.273 26.152 302.461 25.828 c 302.711 26.242 
303.016 26.68 303.367 27.133 c 305.672 30.172 l 307.32 30.172 l 303.297 
24.773 l 307.633 18.719 l 305.758 18.719 l 302.875 22.805 l 302.711 23.035
 302.543 23.293 302.375 23.57 c 302.117 23.152 301.934 22.863 301.828 22.711
 c 298.953 18.719 l h
f
12.961 294.324 m 8.109 294.324 l 1.508 289.91 l 1.508 291.754 l 4.961 294.012
 l 5.609 294.426 6.254 294.813 6.898 295.176 c 6.301 295.516 5.625 295.934
 4.875 296.426 c 1.508 298.645 l 1.508 300.41 l 8.109 295.84 l 12.961 295.84
 l h
f
Q q
59.039 516.961 487.719 -444.52 re W n
q
59 517 488 -445 re W n
  q
Q q
0.65098 0.196078 0.196078 rg
1.5 w
1 J
1 j
[] 0.0 d
10 M 404.484 306.008 m 402.242 241.164 l S
407.184 306.008 m 407.184 302.406 401.785 302.406 401.785 306.008 c 401.785
 309.605 407.184 309.605 407.184 306.008 c f
402.242 241.164 m 384.301 223.875 l S
404.941 241.164 m 404.941 237.566 399.543 237.566 399.543 241.164 c 399.543
 244.766 404.941 244.766 404.941 241.164 c f
384.301 223.875 m 361.875 154.707 l S
387 223.875 m 387 220.273 381.602 220.273 381.602 223.875 c 381.602 227.473
 387 227.473 387 223.875 c f
361.875 154.707 m 364.117 89.867 l S
364.574 154.707 m 364.574 151.109 359.176 151.109 359.176 154.707 c 359.176
 158.309 364.574 158.309 364.574 154.707 c f
364.117 89.867 m 361.875 89.867 l S
366.816 89.867 m 366.816 86.266 361.418 86.266 361.418 89.867 c 361.418
 93.465 366.816 93.465 366.816 89.867 c f
361.875 89.867 m 243.02 167.676 l S
364.574 89.867 m 364.574 86.266 359.176 86.266 359.176 89.867 c 359.176
 93.465 364.574 93.465 364.574 89.867 c f
243.02 167.676 m 243.02 165.516 l S
245.719 167.676 m 245.719 164.078 240.316 164.078 240.316 167.676 c 240.316
 171.277 245.719 171.277 245.719 167.676 c f
243.02 165.516 m 243.02 163.355 l S
245.719 165.516 m 245.719 161.914 240.316 161.914 240.316 165.516 c 240.316
 169.117 245.719 169.117 245.719 165.516 c f
243.02 163.355 m 243.02 159.031 l S
245.719 163.355 m 245.719 159.754 240.316 159.754 240.316 163.355 c 240.316
 166.953 245.719 166.953 245.719 163.355 c f
243.02 159.031 m 240.777 159.031 l S
245.719 159.031 m 245.719 155.43 240.316 155.43 240.316 159.031 c 240.316
 162.633 245.719 162.633 245.719 159.031 c f
240.777 159.031 m 240.777 161.191 l S
243.477 159.031 m 243.477 155.43 238.074 155.43 238.074 159.031 c 238.074
 162.633 243.477 162.633 243.477 159.031 c f
240.777 161.191 m 240.777 163.355 l S
243.477 161.191 m 243.477 157.594 238.074 157.594 238.074 161.191 c 238.074
 164.793 243.477 164.793 243.477 161.191 c f
240.777 163.355 m 240.777 167.676 l S
243.477 163.355 m 243.477 159.754 238.074 159.754 238.074 163.355 c 238.074
 166.953 243.477 166.953 243.477 163.355 c f
240.777 167.676 m 238.531 167.676 l S
243.477 167.676 m 243.477 164.078 238.074 164.078 238.074 167.676 c 238.074
 171.277 243.477 171.277 243.477 167.676 c f
238.531 167.676 m 216.105 146.063 l S
241.234 167.676 m 241.234 164.078 235.832 164.078 235.832 167.676 c 235.832
 171.277 241.234 171.277 241.234 167.676 c f
216.105 146.063 m 238.531 172 l S
218.809 146.063 m 218.809 142.465 213.406 142.465 213.406 146.063 c 213.406
 149.664 218.809 149.664 218.809 146.063 c f
238.531 172 m 238.531 176.324 l S
241.234 172 m 241.234 168.398 235.832 168.398 235.832 172 c 235.832 175.602
 241.234 175.602 241.234 172 c f
238.531 176.324 m 238.531 180.645 l S
241.234 176.324 m 241.234 172.723 235.832 172.723 235.832 176.324 c 235.832
 179.922 241.234 179.922 241.234 176.324 c f
238.531 180.645 m 278.898 197.938 l S
241.234 180.645 m 241.234 177.047 235.832 177.047 235.832 180.645 c 235.832
 184.246 241.234 184.246 241.234 180.645 c f
404.484 306.008 m 278.898 197.938 l S
0.65098 0.65098 0.196078 rg
404.484 306.008 m 386.543 310.328 l S
407.184 306.008 m 407.184 302.406 401.785 302.406 401.785 306.008 c 401.785
 309.605 407.184 309.605 407.184 306.008 c f
386.543 310.328 m 384.301 310.328 l S
389.242 310.328 m 389.242 306.73 383.844 306.73 383.844 310.328 c 383.844
 313.93 389.242 313.93 389.242 310.328 c f
384.301 310.328 m 373.09 297.363 l S
387 310.328 m 387 306.73 381.602 306.73 381.602 310.328 c 381.602 313.93
 387 313.93 387 310.328 c f
373.09 297.363 m 370.844 301.684 l S
375.789 297.363 m 375.789 293.762 370.387 293.762 370.387 297.363 c 370.387
 300.961 375.789 300.961 375.789 297.363 c f
370.844 301.684 m 278.898 202.258 l S
373.547 301.684 m 373.547 298.086 368.145 298.086 368.145 301.684 c 368.145
 305.285 373.547 305.285 373.547 301.684 c f
278.898 202.258 m 227.32 301.684 l S
281.598 202.258 m 281.598 198.66 276.199 198.66 276.199 202.258 c 276.199
 205.859 281.598 205.859 281.598 202.258 c f
227.32 301.684 m 227.32 306.008 l S
230.02 301.684 m 230.02 298.086 224.621 298.086 224.621 301.684 c 224.621
 305.285 230.02 305.285 230.02 301.684 c f
227.32 306.008 m 243.02 306.008 l S
230.02 306.008 m 230.02 302.406 224.621 302.406 224.621 306.008 c 224.621
 309.605 230.02 309.605 230.02 306.008 c f
243.02 306.008 m 278.898 379.496 l S
245.719 306.008 m 245.719 302.406 240.316 302.406 240.316 306.008 c 240.316
 309.605 245.719 309.605 245.719 306.008 c f
278.898 379.496 m 310.297 401.109 l S
281.598 379.496 m 281.598 375.895 276.199 375.895 276.199 379.496 c 276.199
 383.094 281.598 383.094 281.598 379.496 c f
310.297 401.109 m 328.238 452.984 l S
312.996 401.109 m 312.996 397.508 307.598 397.508 307.598 401.109 c 307.598
 404.707 312.996 404.707 312.996 401.109 c f
328.238 452.984 m 350.664 370.848 l S
330.938 452.984 m 330.938 449.383 325.535 449.383 325.535 452.984 c 325.535
 456.582 330.938 456.582 330.938 452.984 c f
404.484 306.008 m 350.664 370.848 l S
0.196078 0.65098 0.196078 rg
404.484 306.008 m 400 370.848 l S
407.184 306.008 m 407.184 302.406 401.785 302.406 401.785 306.008 c 401.785
 309.605 407.184 309.605 407.184 306.008 c f
400 370.848 m 406.727 370.848 l S
402.699 370.848 m 402.699 367.25 397.301 367.25 397.301 370.848 c 397.301
 374.449 402.699 374.449 402.699 370.848 c f
406.727 370.848 m 420.184 500.535 l S
409.426 370.848 m 409.426 367.25 404.027 367.25 404.027 370.848 c 404.027
 374.449 409.426 374.449 409.426 370.848 c f
420.184 500.535 m 440.367 465.949 l S
422.883 500.535 m 422.883 496.934 417.484 496.934 417.484 500.535 c 417.484
 504.133 422.883 504.133 422.883 500.535 c f
440.367 465.949 m 440.367 465.949 l S
443.066 465.949 m 443.066 462.352 437.664 462.352 437.664 465.949 c 437.664
 469.551 443.066 469.551 443.066 465.949 c f
440.367 465.949 m 440.367 461.629 l S
443.066 465.949 m 443.066 462.352 437.664 462.352 437.664 465.949 c 437.664
 469.551 443.066 469.551 443.066 465.949 c f
440.367 461.629 m 453.82 366.527 l S
443.066 461.629 m 443.066 458.027 437.664 458.027 437.664 461.629 c 437.664
 465.227 443.066 465.227 443.066 461.629 c f
453.82 366.527 m 453.82 331.945 l S
456.52 366.527 m 456.52 362.926 451.121 362.926 451.121 366.527 c 451.121
 370.125 456.52 370.125 456.52 366.527 c f
453.82 331.945 m 452.699 324.164 l S
456.52 331.945 m 456.52 328.344 451.121 328.344 451.121 331.945 c 451.121
 335.543 456.52 335.543 456.52 331.945 c f
452.699 324.164 m 463.914 323.297 l S
455.398 324.164 m 455.398 320.563 450 320.563 450 324.164 c 450 327.762
 455.398 327.762 455.398 324.164 c f
463.914 323.297 m 470.641 323.297 l S
466.613 323.297 m 466.613 319.699 461.215 319.699 461.215 323.297 c 461.215
 326.898 466.613 326.898 466.613 323.297 c f
470.641 323.297 m 474.004 327.621 l S
473.34 323.297 m 473.34 319.699 467.941 319.699 467.941 323.297 c 467.941
 326.898 473.34 326.898 473.34 323.297 c f
474.004 327.621 m 476.246 331.945 l S
476.703 327.621 m 476.703 324.02 471.305 324.02 471.305 327.621 c 471.305
 331.223 476.703 331.223 476.703 327.621 c f
476.246 331.945 m 476.246 327.621 l S
478.945 331.945 m 478.945 328.344 473.547 328.344 473.547 331.945 c 473.547
 335.543 478.945 335.543 478.945 331.945 c f
476.246 327.621 m 481.406 302.98 l S
478.945 327.621 m 478.945 324.02 473.547 324.02 473.547 327.621 c 473.547
 331.223 478.945 331.223 478.945 327.621 c f
481.406 302.98 m 478.488 302.98 l S
484.105 302.98 m 484.105 299.383 478.707 299.383 478.707 302.98 c 478.707
 306.582 484.105 306.582 484.105 302.98 c f
478.488 302.98 m 477.367 291.742 l S
481.191 302.98 m 481.191 299.383 475.789 299.383 475.789 302.98 c 475.789
 306.582 481.191 306.582 481.191 302.98 c f
477.367 291.742 m 482.977 284.395 l S
480.07 291.742 m 480.07 288.141 474.668 288.141 474.668 291.742 c 474.668
 295.34 480.07 295.34 480.07 291.742 c f
482.977 284.395 m 485.219 286.555 l S
485.676 284.395 m 485.676 280.793 480.273 280.793 480.273 284.395 c 480.273
 287.992 485.676 287.992 485.676 284.395 c f
485.219 286.555 m 493.066 286.555 l S
487.918 286.555 m 487.918 282.953 482.52 282.953 482.52 286.555 c 482.52
 290.156 487.918 290.156 487.918 286.555 c f
493.066 286.555 m 487.461 275.746 l S
495.766 286.555 m 495.766 282.953 490.367 282.953 490.367 286.555 c 490.367
 290.156 495.766 290.156 495.766 286.555 c f
487.461 275.746 m 482.977 275.746 l S
490.16 275.746 m 490.16 272.148 484.762 272.148 484.762 275.746 c 484.762
 279.348 490.16 279.348 490.16 275.746 c f
482.977 275.746 m 480.285 277.043 l S
485.676 275.746 m 485.676 272.148 480.273 272.148 480.273 275.746 c 480.273
 279.348 485.676 279.348 485.676 275.746 c f
480.285 277.043 m 473.109 277.043 l S
482.984 277.043 m 482.984 273.445 477.582 273.445 477.582 277.043 c 477.582
 280.645 482.984 280.645 482.984 277.043 c f
473.109 277.043 m 469.52 258.457 l S
475.809 277.043 m 475.809 273.445 470.406 273.445 470.406 277.043 c 470.406
 280.645 475.809 280.645 475.809 277.043 c f
469.52 258.457 m 469.07 254.566 l S
472.219 258.457 m 472.219 254.855 466.82 254.855 466.82 258.457 c 466.82
 262.055 472.219 262.055 472.219 258.457 c f
469.07 254.566 m 470.191 246.785 l S
471.77 254.566 m 471.77 250.965 466.371 250.965 466.371 254.566 c 466.371
 258.164 471.77 258.164 471.77 254.566 c f
470.191 246.785 m 463.465 250.242 l S
472.891 246.785 m 472.891 243.184 467.492 243.184 467.492 246.785 c 467.492
 250.383 472.891 250.383 472.891 246.785 c f
463.465 250.242 m 464.586 258.457 l S
466.164 250.242 m 466.164 246.645 460.766 246.645 460.766 250.242 c 460.766
 253.844 466.164 253.844 466.164 250.242 c f
464.586 258.457 m 464.586 258.457 l S
467.285 258.457 m 467.285 254.855 461.887 254.855 461.887 258.457 c 461.887
 262.055 467.285 262.055 467.285 258.457 c f
464.586 258.457 m 459.43 268.832 l S
467.285 258.457 m 467.285 254.855 461.887 254.855 461.887 258.457 c 461.887
 262.055 467.285 262.055 467.285 258.457 c f
459.43 268.832 m 455.84 274.449 l S
462.129 268.832 m 462.129 265.23 456.727 265.23 456.727 268.832 c 456.727
 272.43 462.129 272.43 462.129 268.832 c f
455.84 274.449 m 454.941 274.883 l S
458.539 274.449 m 458.539 270.852 453.141 270.852 453.141 274.449 c 453.141
 278.051 458.539 278.051 458.539 274.449 c f
454.941 274.883 m 450.234 290.012 l S
457.645 274.883 m 457.645 271.281 452.242 271.281 452.242 274.883 c 452.242
 278.484 457.645 278.484 457.645 274.883 c f
450.234 290.012 m 456.512 302.98 l S
452.934 290.012 m 452.934 286.414 447.535 286.414 447.535 290.012 c 447.535
 293.613 452.934 293.613 452.934 290.012 c f
456.512 302.98 m 443.504 303.844 l S
459.211 302.98 m 459.211 299.383 453.813 299.383 453.813 302.98 c 453.813
 306.582 459.211 306.582 459.211 302.98 c f
443.504 303.844 m 439.918 312.922 l S
446.207 303.844 m 446.207 300.246 440.805 300.246 440.805 303.844 c 440.805
 307.445 446.207 307.445 446.207 303.844 c f
439.918 312.922 m 433.637 306.008 l S
442.617 312.922 m 442.617 309.324 437.219 309.324 437.219 312.922 c 437.219
 316.523 442.617 316.523 442.617 312.922 c f
433.637 306.008 m 428.703 314.652 l S
436.34 306.008 m 436.34 302.406 430.938 302.406 430.938 306.008 c 430.938
 309.605 436.34 309.605 436.34 306.008 c f
428.703 314.652 m 420.855 318.109 l S
431.406 314.652 m 431.406 311.051 426.004 311.051 426.004 314.652 c 426.004
 318.254 431.406 318.254 431.406 314.652 c f
420.855 318.109 m 417.941 312.492 l S
423.555 318.109 m 423.555 314.512 418.156 314.512 418.156 318.109 c 418.156
 321.711 423.555 321.711 423.555 318.109 c f
404.484 306.008 m 417.941 312.492 l S
0.196078 0.65098 0.65098 rg
404.484 306.008 m 148.828 154.707 l S
407.184 306.008 m 407.184 302.406 401.785 302.406 401.785 306.008 c 401.785
 309.605 407.184 309.605 407.184 306.008 c f
148.828 154.707 m 99.492 107.156 l S
151.531 154.707 m 151.531 151.109 146.129 151.109 146.129 154.707 c 146.129
 158.309 151.531 158.309 151.531 154.707 c f
99.492 107.156 m 77.066 241.164 l S
102.191 107.156 m 102.191 103.559 96.793 103.559 96.793 107.156 c 96.793
 110.758 102.191 110.758 102.191 107.156 c f
77.066 241.164 m 77.066 245.488 l S
79.766 241.164 m 79.766 237.566 74.367 237.566 74.367 241.164 c 74.367 
244.766 79.766 244.766 79.766 241.164 c f
77.066 245.488 m 81.551 275.746 l S
79.766 245.488 m 79.766 241.887 74.367 241.887 74.367 245.488 c 74.367 
249.086 79.766 249.086 79.766 245.488 c f
81.551 275.746 m 153.316 336.266 l S
84.25 275.746 m 84.25 272.148 78.852 272.148 78.852 275.746 c 78.852 279.348
 84.25 279.348 84.25 275.746 c f
153.316 336.266 m 177.984 370.848 l S
156.016 336.266 m 156.016 332.668 150.613 332.668 150.613 336.266 c 150.613
 339.867 156.016 339.867 156.016 336.266 c f
404.484 306.008 m 177.984 370.848 l S
0.196078 0.196078 0.65098 rg
404.484 306.008 m 384.301 284.395 l S
407.184 306.008 m 407.184 302.406 401.785 302.406 401.785 306.008 c 401.785
 309.605 407.184 309.605 407.184 306.008 c f
384.301 284.395 m 377.574 284.395 l S
387 284.395 m 387 280.793 381.602 280.793 381.602 284.395 c 381.602 287.992
 387 287.992 387 284.395 c f
377.574 284.395 m 350.664 197.938 l S
380.273 284.395 m 380.273 280.793 374.875 280.793 374.875 284.395 c 374.875
 287.992 380.273 287.992 380.273 284.395 c f
350.664 197.938 m 350.664 193.613 l S
353.363 197.938 m 353.363 194.336 347.961 194.336 347.961 197.938 c 347.961
 201.535 353.363 201.535 353.363 197.938 c f
350.664 193.613 m 393.273 197.938 l S
353.363 193.613 m 353.363 190.016 347.961 190.016 347.961 193.613 c 347.961
 197.215 353.363 197.215 353.363 193.613 c f
393.273 197.938 m 411.211 215.227 l S
395.973 197.938 m 395.973 194.336 390.57 194.336 390.57 197.938 c 390.57
 201.535 395.973 201.535 395.973 197.938 c f
411.211 215.227 m 408.969 223.875 l S
413.914 215.227 m 413.914 211.629 408.512 211.629 408.512 215.227 c 408.512
 218.828 413.914 218.828 413.914 215.227 c f
408.969 223.875 m 411.211 246.352 l S
411.668 223.875 m 411.668 220.273 406.27 220.273 406.27 223.875 c 406.27
 227.473 411.668 227.473 411.668 223.875 c f
411.211 246.352 m 411.211 249.809 l S
413.914 246.352 m 413.914 242.754 408.512 242.754 408.512 246.352 c 408.512
 249.953 413.914 249.953 413.914 246.352 c f
411.211 249.809 m 414.129 254.133 l S
413.914 249.809 m 413.914 246.211 408.512 246.211 408.512 249.809 c 408.512
 253.41 413.914 253.41 413.914 249.809 c f
414.129 254.133 m 415.699 254.996 l S
416.828 254.133 m 416.828 250.535 411.426 250.535 411.426 254.133 c 411.426
 257.734 416.828 257.734 416.828 254.133 c f
415.699 254.996 m 411.211 262.777 l S
418.398 254.996 m 418.398 251.398 412.996 251.398 412.996 254.996 c 412.996
 258.598 418.398 258.598 418.398 254.996 c f
411.211 262.777 m 408.969 275.746 l S
413.914 262.777 m 413.914 259.18 408.512 259.18 408.512 262.777 c 408.512
 266.379 413.914 266.379 413.914 262.777 c f
404.484 306.008 m 408.969 275.746 l S
0.65098 0.196078 0.65098 rg
404.484 306.008 m 422.648 267.965 l S
407.184 306.008 m 407.184 302.406 401.785 302.406 401.785 306.008 c 401.785
 309.605 407.184 309.605 407.184 306.008 c f
422.648 267.965 m 425.117 263.211 l S
425.348 267.965 m 425.348 264.367 419.949 264.367 419.949 267.965 c 419.949
 271.566 425.348 271.566 425.348 267.965 c f
425.117 263.211 m 434.086 258.457 l S
427.816 263.211 m 427.816 259.609 422.418 259.609 422.418 263.211 c 422.418
 266.813 427.816 266.813 427.816 263.211 c f
434.086 258.457 m 437.449 253.27 l S
436.785 258.457 m 436.785 254.855 431.387 254.855 431.387 258.457 c 431.387
 262.055 436.785 262.055 436.785 258.457 c f
437.449 253.27 m 438.125 255.43 l S
440.152 253.27 m 440.152 249.668 434.75 249.668 434.75 253.27 c 434.75 
256.867 440.152 256.867 440.152 253.27 c f
438.125 255.43 m 443.059 255.43 l S
440.824 255.43 m 440.824 251.832 435.422 251.832 435.422 255.43 c 435.422
 259.031 440.824 259.031 440.824 255.43 c f
443.059 255.43 m 444.402 254.133 l S
445.758 255.43 m 445.758 251.832 440.355 251.832 440.355 255.43 c 440.355
 259.031 445.758 259.031 445.758 255.43 c f
444.402 254.133 m 444.852 258.457 l S
447.102 254.133 m 447.102 250.535 441.703 250.535 441.703 254.133 c 441.703
 257.734 447.102 257.734 447.102 254.133 c f
444.852 258.457 m 446.645 256.727 l S
447.551 258.457 m 447.551 254.855 442.152 254.855 442.152 258.457 c 442.152
 262.055 447.551 262.055 447.551 258.457 c f
446.645 256.727 m 447.094 252.402 l S
449.344 256.727 m 449.344 253.129 443.945 253.129 443.945 256.727 c 443.945
 260.328 449.344 260.328 449.344 256.727 c f
447.094 252.402 m 450.457 245.488 l S
449.793 252.402 m 449.793 248.805 444.395 248.805 444.395 252.402 c 444.395
 256.004 449.793 256.004 449.793 252.402 c f
450.457 245.488 m 451.578 248.945 l S
453.156 245.488 m 453.156 241.887 447.758 241.887 447.758 245.488 c 447.758
 249.086 453.156 249.086 453.156 245.488 c f
451.578 248.945 m 456.512 251.539 l S
454.277 248.945 m 454.277 245.348 448.879 245.348 448.879 248.945 c 448.879
 252.547 454.277 252.547 454.277 248.945 c f
456.512 251.539 m 458.305 249.809 l S
459.211 251.539 m 459.211 247.941 453.813 247.941 453.813 251.539 c 453.813
 255.141 459.211 255.141 459.211 251.539 c f
458.305 249.809 m 458.754 260.184 l S
461.008 249.809 m 461.008 246.211 455.605 246.211 455.605 249.809 c 455.605
 253.41 461.008 253.41 461.008 249.809 c f
458.754 260.184 m 456.512 259.32 l S
461.453 260.184 m 461.453 256.586 456.055 256.586 456.055 260.184 c 456.055
 263.785 461.453 263.785 461.453 260.184 c f
456.512 259.32 m 454.27 258.457 l S
459.211 259.32 m 459.211 255.719 453.813 255.719 453.813 259.32 c 453.813
 262.922 459.211 262.922 459.211 259.32 c f
454.27 258.457 m 451.578 258.457 l S
456.969 258.457 m 456.969 254.855 451.57 254.855 451.57 258.457 c 451.57
 262.055 456.969 262.055 456.969 258.457 c f
451.578 258.457 m 451.578 254.133 l S
454.277 258.457 m 454.277 254.855 448.879 254.855 448.879 258.457 c 448.879
 262.055 454.277 262.055 454.277 258.457 c f
451.578 254.133 m 451.129 251.539 l S
454.277 254.133 m 454.277 250.535 448.879 250.535 448.879 254.133 c 448.879
 257.734 454.277 257.734 454.277 254.133 c f
451.129 251.539 m 450.457 254.133 l S
453.832 251.539 m 453.832 247.941 448.43 247.941 448.43 251.539 c 448.43
 255.141 453.832 255.141 453.832 251.539 c f
450.457 254.133 m 447.992 264.941 l S
453.156 254.133 m 453.156 250.535 447.758 250.535 447.758 254.133 c 447.758
 257.734 453.156 257.734 453.156 254.133 c f
447.992 264.941 m 445.523 264.941 l S
450.691 264.941 m 450.691 261.34 445.289 261.34 445.289 264.941 c 445.289
 268.539 450.691 268.539 450.691 264.941 c f
445.523 264.941 m 445.523 261.48 l S
448.223 264.941 m 448.223 261.34 442.824 261.34 442.824 264.941 c 442.824
 268.539 448.223 268.539 448.223 264.941 c f
445.523 261.48 m 443.73 261.051 l S
448.223 261.48 m 448.223 257.883 442.824 257.883 442.824 261.48 c 442.824
 265.082 448.223 265.082 448.223 261.48 c f
443.73 261.051 m 442.16 261.48 l S
446.43 261.051 m 446.43 257.449 441.031 257.449 441.031 261.051 c 441.031
 264.648 446.43 264.648 446.43 261.051 c f
442.16 261.48 m 434.086 267.102 l S
444.859 261.48 m 444.859 257.883 439.461 257.883 439.461 261.48 c 439.461
 265.082 444.859 265.082 444.859 261.48 c f
434.086 267.102 m 430.945 277.91 l S
436.785 267.102 m 436.785 263.5 431.387 263.5 431.387 267.102 c 431.387
 270.703 436.785 270.703 436.785 267.102 c f
430.945 277.91 m 432.516 283.098 l S
433.648 277.91 m 433.648 274.309 428.246 274.309 428.246 277.91 c 428.246
 281.508 433.648 281.508 433.648 277.91 c f
432.516 283.098 m 421.977 297.793 l S
435.219 283.098 m 435.219 279.496 429.816 279.496 429.816 283.098 c 429.816
 286.695 435.219 286.695 435.219 283.098 c f
421.977 297.793 m 404.484 306.008 l S
424.676 297.793 m 424.676 294.195 419.277 294.195 419.277 297.793 c 419.277
 301.395 424.676 301.395 424.676 297.793 c f
404.484 306.008 m 421.977 300.82 l S
407.184 306.008 m 407.184 302.406 401.785 302.406 401.785 306.008 c 401.785
 309.605 407.184 309.605 407.184 306.008 c f
421.977 300.82 m 422.426 299.957 l S
424.676 300.82 m 424.676 297.219 419.277 297.219 419.277 300.82 c 419.277
 304.418 424.676 304.418 424.676 300.82 c f
422.426 299.957 m 438.797 287.418 l S
425.125 299.957 m 425.125 296.355 419.727 296.355 419.727 299.957 c 419.727
 303.555 425.125 303.555 425.125 299.957 c f
438.797 287.418 m 442.609 293.039 l S
441.496 287.418 m 441.496 283.82 436.098 283.82 436.098 287.418 c 436.098
 291.02 441.496 291.02 441.496 287.418 c f
442.609 293.039 m 443.059 270.992 l S
445.309 293.039 m 445.309 289.438 439.91 289.438 439.91 293.039 c 439.91
 296.637 445.309 296.637 445.309 293.039 c f
443.059 270.992 m 438.125 256.293 l S
445.758 270.992 m 445.758 267.391 440.355 267.391 440.355 270.992 c 440.355
 274.594 445.758 274.594 445.758 270.992 c f
438.125 256.293 m 430.5 248.945 l S
440.824 256.293 m 440.824 252.695 435.422 252.695 435.422 256.293 c 435.422
 259.895 440.824 259.895 440.824 256.293 c f
430.5 248.945 m 425.117 253.27 l S
433.199 248.945 m 433.199 245.348 427.797 245.348 427.797 248.945 c 427.797
 252.547 433.199 252.547 433.199 248.945 c f
425.117 253.27 m 422.426 241.164 l S
427.816 253.27 m 427.816 249.668 422.418 249.668 422.418 253.27 c 422.418
 256.867 427.816 256.867 427.816 253.27 c f
422.426 241.164 m 419.285 253.27 l S
425.125 241.164 m 425.125 237.566 419.727 237.566 419.727 241.164 c 419.727
 244.766 425.125 244.766 425.125 241.164 c f
419.285 253.27 m 416.82 270.992 l S
421.984 253.27 m 421.984 249.668 416.586 249.668 416.586 253.27 c 416.586
 256.867 421.984 256.867 421.984 253.27 c f
416.82 270.992 m 413.453 284.395 l S
419.52 270.992 m 419.52 267.391 414.117 267.391 414.117 270.992 c 414.117
 274.594 419.52 274.594 419.52 270.992 c f
404.484 306.008 m 413.453 284.395 l S
  Q
Q
Q Q
showpage
%%Trailer
count op_count sub {pop} repeat
countdictstack dict_count sub {end} repeat
cairo_eps_state restore
%%EOF
