%!PS-Adobe-3.0 EPSF-3.0
%%Creator: cairo 1.11.2 (http://cairographics.org)
%%CreationDate: Thu May 04 15:04:39 2017
%%Pages: 1
%%DocumentData: Clean7Bit
%%LanguageLevel: 2
%%BoundingBox: 0 0 576 576
%%EndComments
%%BeginProlog
/cairo_eps_state save def
/dict_count countdictstack def
/op_count count 1 sub def
userdict begin
/q { gsave } bind def
/Q { grestore } bind def
/cm { 6 array astore concat } bind def
/w { setlinewidth } bind def
/J { setlinecap } bind def
/j { setlinejoin } bind def
/M { setmiterlimit } bind def
/d { setdash } bind def
/m { moveto } bind def
/l { lineto } bind def
/c { curveto } bind def
/h { closepath } bind def
/re { exch dup neg 3 1 roll 5 3 roll moveto 0 rlineto
      0 exch rlineto 0 rlineto closepath } bind def
/S { stroke } bind def
/f { fill } bind def
/f* { eofill } bind def
/n { newpath } bind def
/W { clip } bind def
/W* { eoclip } bind def
/BT { } bind def
/ET { } bind def
/pdfmark where { pop globaldict /?pdfmark /exec load put }
    { globaldict begin /?pdfmark /pop load def /pdfmark
    /cleartomark load def end } ifelse
/BDC { mark 3 1 roll /BDC pdfmark } bind def
/EMC { mark /EMC pdfmark } bind def
/cairo_store_point { /cairo_point_y exch def /cairo_point_x exch def } def
/Tj { show currentpoint cairo_store_point } bind def
/TJ {
  {
    dup
    type /stringtype eq
    { show } { -0.001 mul 0 cairo_font_matrix dtransform rmoveto } ifelse
  } forall
  currentpoint cairo_store_point
} bind def
/cairo_selectfont { cairo_font_matrix aload pop pop pop 0 0 6 array astore
    cairo_font exch selectfont cairo_point_x cairo_point_y moveto } bind def
/Tf { pop /cairo_font exch def /cairo_font_matrix where
      { pop cairo_selectfont } if } bind def
/Td { matrix translate cairo_font_matrix matrix concatmatrix dup
      /cairo_font_matrix exch def dup 4 get exch 5 get cairo_store_point
      /cairo_font where { pop cairo_selectfont } if } bind def
/Tm { 2 copy 8 2 roll 6 array astore /cairo_font_matrix exch def
      cairo_store_point /cairo_font where { pop cairo_selectfont } if } bind def
/g { setgray } bind def
/rg { setrgbcolor } bind def
/d1 { setcachedevice } bind def
%%EndProlog
%%Page: 1 1
%%BeginPageSetup
%%PageBoundingBox: 0 0 576 576
%%EndPageSetup
q 0 0 576 576 rectclip q
1 g
0 0 576 576 rectfill
0 g
0.75 w
1 J
1 j
[] 0.0 d
10 M 99.156 73.441 m 467.297 73.441 l S
99.156 73.441 m 99.156 66.238 l S
191.191 73.441 m 191.191 66.238 l S
283.227 73.441 m 283.227 66.238 l S
375.262 73.441 m 375.262 66.238 l S
467.297 73.441 m 467.297 66.238 l S
83.652 50.957 m 83.652 52.371 l 87.973 52.371 l 87.973 50.957 l h
f
94.434 47.52 m 93.027 47.52 l 93.027 56.48 l 92.684 56.152 92.242 55.832
 91.695 55.512 c 91.145 55.188 90.648 54.945 90.215 54.785 c 90.215 56.145
 l 90.996 56.512 91.684 56.957 92.277 57.488 c 92.863 58.012 93.281 58.523
 93.527 59.02 c 94.434 59.02 l h
f
98.031 53.168 m 98.027 54.52 98.168 55.609 98.449 56.438 c 98.727 57.262
 99.141 57.898 99.691 58.348 c 100.238 58.793 100.93 59.016 101.766 59.02
 c 102.379 59.016 102.918 58.891 103.383 58.648 c 103.844 58.398 104.227
 58.043 104.531 57.578 c 104.832 57.109 105.07 56.543 105.242 55.875 c 105.414
 55.203 105.5 54.301 105.5 53.168 c 105.5 51.824 105.359 50.738 105.086 
49.914 c 104.805 49.086 104.395 48.449 103.848 48 c 103.297 47.551 102.602
 47.328 101.766 47.324 c 100.66 47.328 99.793 47.719 99.164 48.512 c 98.406
 49.461 98.027 51.016 98.031 53.168 c h
99.477 53.168 m 99.477 51.285 99.695 50.031 100.137 49.414 c 100.574 48.789
 101.117 48.48 101.766 48.48 c 102.41 48.48 102.953 48.793 103.395 49.418
 c 103.832 50.043 104.051 51.293 104.055 53.168 c 104.051 55.051 103.832
 56.301 103.395 56.926 c 102.953 57.543 102.406 57.855 101.75 57.855 c 101.102
 57.855 100.586 57.582 100.203 57.035 c 99.719 56.336 99.477 55.047 99.477
 53.168 c h
f
106.93 53.168 m 106.926 54.52 107.066 55.609 107.348 56.438 c 107.625 57.262
 108.039 57.898 108.59 58.348 c 109.137 58.793 109.828 59.016 110.664 59.02
 c 111.277 59.016 111.816 58.891 112.281 58.648 c 112.742 58.398 113.125
 58.043 113.43 57.578 c 113.73 57.109 113.969 56.543 114.141 55.875 c 114.313
 55.203 114.398 54.301 114.398 53.168 c 114.398 51.824 114.258 50.738 113.984
 49.914 c 113.703 49.086 113.293 48.449 112.746 48 c 112.195 47.551 111.5
 47.328 110.664 47.324 c 109.559 47.328 108.691 47.719 108.063 48.512 c 
107.305 49.461 106.926 51.016 106.93 53.168 c h
108.375 53.168 m 108.375 51.285 108.594 50.031 109.035 49.414 c 109.473
 48.789 110.016 48.48 110.664 48.48 c 111.309 48.48 111.852 48.793 112.293
 49.418 c 112.73 50.043 112.949 51.293 112.953 53.168 c 112.949 55.051 112.73
 56.301 112.293 56.926 c 111.852 57.543 111.305 57.855 110.648 57.855 c 
110 57.855 109.484 57.582 109.102 57.035 c 108.617 56.336 108.375 55.047
 108.375 53.168 c h
f
180.133 50.957 m 180.133 52.371 l 184.453 52.371 l 184.453 50.957 l h
f
185.617 50.52 m 187.094 50.645 l 187.199 49.922 187.453 49.383 187.855 
49.023 c 188.25 48.66 188.73 48.48 189.297 48.48 c 189.969 48.48 190.543
 48.734 191.016 49.246 c 191.48 49.754 191.715 50.43 191.719 51.277 c 191.715
 52.074 191.488 52.707 191.043 53.176 c 190.59 53.637 190 53.871 189.273
 53.871 c 188.816 53.871 188.41 53.766 188.047 53.563 c 187.68 53.352 187.391
 53.086 187.188 52.762 c 185.867 52.934 l 186.977 58.816 l 192.672 58.816
 l 192.672 57.473 l 188.102 57.473 l 187.484 54.395 l 188.172 54.871 188.891
 55.113 189.648 55.113 c 190.645 55.113 191.488 54.766 192.18 54.074 c 192.863
 53.379 193.207 52.488 193.211 51.402 c 193.207 50.363 192.906 49.469 192.305
 48.715 c 191.566 47.789 190.563 47.328 189.297 47.324 c 188.25 47.328 187.402
 47.617 186.746 48.199 c 186.086 48.781 185.707 49.555 185.617 50.52 c h
f
194.512 53.168 m 194.508 54.52 194.648 55.609 194.93 56.438 c 195.207 57.262
 195.621 57.898 196.172 58.348 c 196.719 58.793 197.41 59.016 198.246 59.02
 c 198.859 59.016 199.398 58.891 199.863 58.648 c 200.324 58.398 200.707
 58.043 201.012 57.578 c 201.313 57.109 201.551 56.543 201.723 55.875 c 
201.895 55.203 201.98 54.301 201.98 53.168 c 201.98 51.824 201.84 50.738
 201.566 49.914 c 201.285 49.086 200.875 48.449 200.328 48 c 199.777 47.551
 199.082 47.328 198.246 47.324 c 197.141 47.328 196.273 47.719 195.645 48.512
 c 194.887 49.461 194.508 51.016 194.512 53.168 c h
195.957 53.168 m 195.957 51.285 196.176 50.031 196.617 49.414 c 197.055
 48.789 197.598 48.48 198.246 48.48 c 198.891 48.48 199.434 48.793 199.875
 49.418 c 200.313 50.043 200.531 51.293 200.535 53.168 c 200.531 55.051 
200.313 56.301 199.875 56.926 c 199.434 57.543 198.887 57.855 198.23 57.855
 c 197.582 57.855 197.066 57.582 196.684 57.035 c 196.199 56.336 195.957
 55.047 195.957 53.168 c h
f
279.426 53.168 m 279.422 54.52 279.563 55.609 279.844 56.438 c 280.121 
57.262 280.535 57.898 281.086 58.348 c 281.633 58.793 282.324 59.016 283.16
 59.02 c 283.773 59.016 284.313 58.891 284.777 58.648 c 285.238 58.398 285.621
 58.043 285.926 57.578 c 286.227 57.109 286.465 56.543 286.637 55.875 c 
286.809 55.203 286.895 54.301 286.895 53.168 c 286.895 51.824 286.754 50.738
 286.48 49.914 c 286.199 49.086 285.789 48.449 285.242 48 c 284.691 47.551
 283.996 47.328 283.16 47.324 c 282.055 47.328 281.188 47.719 280.559 48.512
 c 279.801 49.461 279.422 51.016 279.426 53.168 c h
280.871 53.168 m 280.871 51.285 281.09 50.031 281.531 49.414 c 281.969 
48.789 282.512 48.48 283.16 48.48 c 283.805 48.48 284.348 48.793 284.789
 49.418 c 285.227 50.043 285.445 51.293 285.449 53.168 c 285.445 55.051 
285.227 56.301 284.789 56.926 c 284.348 57.543 283.801 57.855 283.145 57.855
 c 282.496 57.855 281.98 57.582 281.598 57.035 c 281.113 56.336 280.871 
55.047 280.871 53.168 c h
f
367.027 50.52 m 368.504 50.645 l 368.609 49.922 368.863 49.383 369.266 
49.023 c 369.66 48.66 370.141 48.48 370.707 48.48 c 371.379 48.48 371.953
 48.734 372.426 49.246 c 372.891 49.754 373.125 50.43 373.129 51.277 c 373.125
 52.074 372.898 52.707 372.453 53.176 c 372 53.637 371.41 53.871 370.684
 53.871 c 370.227 53.871 369.82 53.766 369.457 53.563 c 369.09 53.352 368.801
 53.086 368.598 52.762 c 367.277 52.934 l 368.387 58.816 l 374.082 58.816
 l 374.082 57.473 l 369.512 57.473 l 368.895 54.395 l 369.582 54.871 370.301
 55.113 371.059 55.113 c 372.055 55.113 372.898 54.766 373.59 54.074 c 374.273
 53.379 374.617 52.488 374.621 51.402 c 374.617 50.363 374.316 49.469 373.715
 48.715 c 372.977 47.789 371.973 47.328 370.707 47.324 c 369.66 47.328 368.813
 47.617 368.156 48.199 c 367.496 48.781 367.117 49.555 367.027 50.52 c h
f
375.922 53.168 m 375.918 54.52 376.059 55.609 376.34 56.438 c 376.617 57.262
 377.031 57.898 377.582 58.348 c 378.129 58.793 378.82 59.016 379.656 59.02
 c 380.27 59.016 380.809 58.891 381.273 58.648 c 381.734 58.398 382.117 
58.043 382.422 57.578 c 382.723 57.109 382.961 56.543 383.133 55.875 c 383.305
 55.203 383.391 54.301 383.391 53.168 c 383.391 51.824 383.25 50.738 382.977
 49.914 c 382.695 49.086 382.285 48.449 381.738 48 c 381.188 47.551 380.492
 47.328 379.656 47.324 c 378.551 47.328 377.684 47.719 377.055 48.512 c 
376.297 49.461 375.918 51.016 375.922 53.168 c h
377.367 53.168 m 377.367 51.285 377.586 50.031 378.027 49.414 c 378.465
 48.789 379.008 48.48 379.656 48.48 c 380.301 48.48 380.844 48.793 381.285
 49.418 c 381.723 50.043 381.941 51.293 381.945 53.168 c 381.941 55.051 
381.723 56.301 381.285 56.926 c 380.844 57.543 380.297 57.855 379.641 57.855
 c 378.992 57.855 378.477 57.582 378.094 57.035 c 377.609 56.336 377.367
 55.047 377.367 53.168 c h
f
459.91 47.52 m 458.504 47.52 l 458.504 56.48 l 458.16 56.152 457.719 55.832
 457.172 55.512 c 456.621 55.188 456.125 54.945 455.691 54.785 c 455.691
 56.145 l 456.473 56.512 457.16 56.957 457.754 57.488 c 458.34 58.012 458.758
 58.523 459.004 59.02 c 459.91 59.02 l h
f
463.508 53.168 m 463.504 54.52 463.645 55.609 463.926 56.438 c 464.203 
57.262 464.617 57.898 465.168 58.348 c 465.715 58.793 466.406 59.016 467.242
 59.02 c 467.855 59.016 468.395 58.891 468.859 58.648 c 469.32 58.398 469.703
 58.043 470.008 57.578 c 470.309 57.109 470.547 56.543 470.719 55.875 c 
470.891 55.203 470.977 54.301 470.977 53.168 c 470.977 51.824 470.836 50.738
 470.563 49.914 c 470.281 49.086 469.871 48.449 469.324 48 c 468.773 47.551
 468.078 47.328 467.242 47.324 c 466.137 47.328 465.27 47.719 464.641 48.512
 c 463.883 49.461 463.504 51.016 463.508 53.168 c h
464.953 53.168 m 464.953 51.285 465.172 50.031 465.613 49.414 c 466.051
 48.789 466.594 48.48 467.242 48.48 c 467.887 48.48 468.43 48.793 468.871
 49.418 c 469.309 50.043 469.527 51.293 469.531 53.168 c 469.527 55.051 
469.309 56.301 468.871 56.926 c 468.43 57.543 467.883 57.855 467.227 57.855
 c 466.578 57.855 466.063 57.582 465.68 57.035 c 465.195 56.336 464.953 
55.047 464.953 53.168 c h
f
472.402 53.168 m 472.398 54.52 472.539 55.609 472.82 56.438 c 473.098 57.262
 473.512 57.898 474.063 58.348 c 474.609 58.793 475.301 59.016 476.137 59.02
 c 476.75 59.016 477.289 58.891 477.754 58.648 c 478.215 58.398 478.598 
58.043 478.902 57.578 c 479.203 57.109 479.441 56.543 479.613 55.875 c 479.785
 55.203 479.871 54.301 479.871 53.168 c 479.871 51.824 479.73 50.738 479.457
 49.914 c 479.176 49.086 478.766 48.449 478.219 48 c 477.668 47.551 476.973
 47.328 476.137 47.324 c 475.031 47.328 474.164 47.719 473.535 48.512 c 
472.777 49.461 472.398 51.016 472.402 53.168 c h
473.848 53.168 m 473.848 51.285 474.066 50.031 474.508 49.414 c 474.945
 48.789 475.488 48.48 476.137 48.48 c 476.781 48.48 477.324 48.793 477.766
 49.418 c 478.203 50.043 478.422 51.293 478.426 53.168 c 478.422 55.051 
478.203 56.301 477.766 56.926 c 477.324 57.543 476.777 57.855 476.121 57.855
 c 475.473 57.855 474.957 57.582 474.574 57.035 c 474.09 56.336 473.848 
55.047 473.848 53.168 c h
f
59.039 155.488 m 59.039 473.016 l S
59.039 155.488 m 51.84 155.488 l S
59.039 261.332 m 51.84 261.332 l S
59.039 367.172 m 51.84 367.172 l S
59.039 473.016 m 51.84 473.016 l S
36.91 148.754 1.414 -4.32 re f
38.762 149.918 m 38.637 151.395 l 39.359 151.5 39.898 151.754 40.258 152.156
 c 40.621 152.551 40.801 153.031 40.801 153.598 c 40.801 154.27 40.547 154.844
 40.035 155.316 c 39.527 155.781 38.852 156.016 38.004 156.02 c 37.207 156.016
 36.574 155.789 36.105 155.344 c 35.645 154.891 35.41 154.301 35.41 153.574
 c 35.41 153.117 35.516 152.711 35.719 152.348 c 35.93 151.98 36.195 151.691
 36.52 151.488 c 36.348 150.168 l 30.465 151.277 l 30.465 156.973 l 31.809
 156.973 l 31.809 152.402 l 34.887 151.785 l 34.41 152.473 34.168 153.191
 34.168 153.949 c 34.168 154.945 34.516 155.789 35.207 156.48 c 35.902 157.164
 36.793 157.508 37.879 157.512 c 38.918 157.508 39.813 157.207 40.566 156.605
 c 41.492 155.867 41.953 154.863 41.957 153.598 c 41.953 152.551 41.664 
151.703 41.082 151.047 c 40.5 150.387 39.727 150.008 38.762 149.918 c h
f
36.113 158.813 m 34.762 158.809 33.672 158.949 32.844 159.23 c 32.02 159.508
 31.383 159.922 30.934 160.473 c 30.488 161.02 30.266 161.711 30.262 162.547
 c 30.266 163.16 30.391 163.699 30.633 164.164 c 30.883 164.625 31.238 165.008
 31.703 165.313 c 32.172 165.613 32.738 165.852 33.406 166.023 c 34.078 
166.195 34.98 166.281 36.113 166.281 c 37.457 166.281 38.543 166.141 39.367
 165.867 c 40.195 165.586 40.832 165.176 41.281 164.629 c 41.73 164.078 
41.953 163.383 41.957 162.547 c 41.953 161.441 41.563 160.574 40.77 159.945
 c 39.82 159.188 38.266 158.809 36.113 158.813 c h
36.113 160.258 m 37.996 160.258 39.25 160.477 39.867 160.918 c 40.492 161.355
 40.801 161.898 40.801 162.547 c 40.801 163.191 40.488 163.734 39.863 164.176
 c 39.238 164.613 37.988 164.832 36.113 164.836 c 34.23 164.832 32.98 164.613
 32.355 164.176 c 31.738 163.734 31.426 163.188 31.426 162.531 c 31.426 
161.883 31.699 161.367 32.246 160.984 c 32.945 160.5 34.234 160.258 36.113
 160.258 c h
f
36.113 257.551 m 34.762 257.547 33.672 257.688 32.844 257.969 c 32.02 258.246
 31.383 258.66 30.934 259.211 c 30.488 259.758 30.266 260.449 30.262 261.285
 c 30.266 261.898 30.391 262.438 30.633 262.902 c 30.883 263.363 31.238 
263.746 31.703 264.051 c 32.172 264.352 32.738 264.59 33.406 264.762 c 34.078
 264.934 34.98 265.02 36.113 265.02 c 37.457 265.02 38.543 264.879 39.367
 264.605 c 40.195 264.324 40.832 263.914 41.281 263.367 c 41.73 262.816 
41.953 262.121 41.957 261.285 c 41.953 260.18 41.563 259.313 40.77 258.684
 c 39.82 257.926 38.266 257.547 36.113 257.551 c h
36.113 258.996 m 37.996 258.996 39.25 259.215 39.867 259.656 c 40.492 260.094
 40.801 260.637 40.801 261.285 c 40.801 261.93 40.488 262.473 39.863 262.914
 c 39.238 263.352 37.988 263.57 36.113 263.574 c 34.23 263.57 32.98 263.352
 32.355 262.914 c 31.738 262.473 31.426 261.926 31.426 261.27 c 31.426 260.621
 31.699 260.105 32.246 259.723 c 32.945 259.238 34.234 258.996 36.113 258.996
 c h
f
38.762 358.938 m 38.637 360.414 l 39.359 360.52 39.898 360.773 40.258 361.176
 c 40.621 361.57 40.801 362.051 40.801 362.617 c 40.801 363.289 40.547 363.863
 40.035 364.336 c 39.527 364.801 38.852 365.035 38.004 365.039 c 37.207 
365.035 36.574 364.809 36.105 364.363 c 35.645 363.91 35.41 363.32 35.41
 362.594 c 35.41 362.137 35.516 361.73 35.719 361.367 c 35.93 361 36.195
 360.711 36.52 360.508 c 36.348 359.188 l 30.465 360.297 l 30.465 365.992
 l 31.809 365.992 l 31.809 361.422 l 34.887 360.805 l 34.41 361.492 34.168
 362.211 34.168 362.969 c 34.168 363.965 34.516 364.809 35.207 365.5 c 35.902
 366.184 36.793 366.527 37.879 366.531 c 38.918 366.527 39.813 366.227 40.566
 365.625 c 41.492 364.887 41.953 363.883 41.957 362.617 c 41.953 361.57 
41.664 360.723 41.082 360.066 c 40.5 359.406 39.727 359.027 38.762 358.938
 c h
f
36.113 367.832 m 34.762 367.828 33.672 367.969 32.844 368.25 c 32.02 368.527
 31.383 368.941 30.934 369.492 c 30.488 370.039 30.266 370.73 30.262 371.566
 c 30.266 372.18 30.391 372.719 30.633 373.184 c 30.883 373.645 31.238 374.027
 31.703 374.332 c 32.172 374.633 32.738 374.871 33.406 375.043 c 34.078 
375.215 34.98 375.301 36.113 375.301 c 37.457 375.301 38.543 375.16 39.367
 374.887 c 40.195 374.605 40.832 374.195 41.281 373.648 c 41.73 373.098 
41.953 372.402 41.957 371.566 c 41.953 370.461 41.563 369.594 40.77 368.965
 c 39.82 368.207 38.266 367.828 36.113 367.832 c h
36.113 369.277 m 37.996 369.277 39.25 369.496 39.867 369.938 c 40.492 370.375
 40.801 370.918 40.801 371.566 c 40.801 372.211 40.488 372.754 39.863 373.195
 c 39.238 373.633 37.988 373.852 36.113 373.855 c 34.23 373.852 32.98 373.633
 32.355 373.195 c 31.738 372.754 31.426 372.207 31.426 371.551 c 31.426 
370.902 31.699 370.387 32.246 370.004 c 32.945 369.52 34.234 369.277 36.113
 369.277 c h
f
41.762 465.625 m 41.762 464.219 l 32.801 464.219 l 33.129 463.875 33.449
 463.434 33.77 462.887 c 34.094 462.336 34.336 461.84 34.496 461.406 c 33.137
 461.406 l 32.77 462.188 32.324 462.875 31.793 463.469 c 31.27 464.055 30.758
 464.473 30.262 464.719 c 30.262 465.625 l h
f
36.113 469.227 m 34.762 469.223 33.672 469.363 32.844 469.645 c 32.02 469.922
 31.383 470.336 30.934 470.887 c 30.488 471.434 30.266 472.125 30.262 472.961
 c 30.266 473.574 30.391 474.113 30.633 474.578 c 30.883 475.039 31.238 
475.422 31.703 475.727 c 32.172 476.027 32.738 476.266 33.406 476.438 c 
34.078 476.609 34.98 476.695 36.113 476.695 c 37.457 476.695 38.543 476.555
 39.367 476.281 c 40.195 476 40.832 475.59 41.281 475.043 c 41.73 474.492
 41.953 473.797 41.957 472.961 c 41.953 471.855 41.563 470.988 40.77 470.359
 c 39.82 469.602 38.266 469.223 36.113 469.227 c h
36.113 470.672 m 37.996 470.672 39.25 470.891 39.867 471.332 c 40.492 471.77
 40.801 472.313 40.801 472.961 c 40.801 473.605 40.488 474.148 39.863 474.59
 c 39.238 475.027 37.988 475.246 36.113 475.25 c 34.23 475.246 32.98 475.027
 32.355 474.59 c 31.738 474.148 31.426 473.602 31.426 472.945 c 31.426 472.297
 31.699 471.781 32.246 471.398 c 32.945 470.914 34.234 470.672 36.113 470.672
 c h
f
36.113 478.121 m 34.762 478.117 33.672 478.258 32.844 478.539 c 32.02 478.816
 31.383 479.23 30.934 479.781 c 30.488 480.328 30.266 481.02 30.262 481.855
 c 30.266 482.469 30.391 483.008 30.633 483.473 c 30.883 483.934 31.238 
484.316 31.703 484.621 c 32.172 484.922 32.738 485.16 33.406 485.332 c 34.078
 485.504 34.98 485.59 36.113 485.59 c 37.457 485.59 38.543 485.449 39.367
 485.176 c 40.195 484.895 40.832 484.484 41.281 483.938 c 41.73 483.387 
41.953 482.691 41.957 481.855 c 41.953 480.75 41.563 479.883 40.77 479.254
 c 39.82 478.496 38.266 478.117 36.113 478.121 c h
36.113 479.566 m 37.996 479.566 39.25 479.785 39.867 480.227 c 40.492 480.664
 40.801 481.207 40.801 481.855 c 40.801 482.5 40.488 483.043 39.863 483.484
 c 39.238 483.922 37.988 484.141 36.113 484.145 c 34.23 484.141 32.98 483.922
 32.355 483.484 c 31.738 483.043 31.426 482.496 31.426 481.84 c 31.426 481.191
 31.699 480.676 32.246 480.293 c 32.945 479.809 34.234 479.566 36.113 479.566
 c h
f
59.039 516.961 486.723 -443.52 re S
274.262 541.117 m 274.508 539.629 l 274.027 539.527 273.602 539.48 273.23
 539.477 c 272.617 539.48 272.141 539.574 271.805 539.766 c 271.465 539.957
 271.23 540.211 271.094 540.531 c 270.953 540.844 270.883 541.508 270.887
 542.523 c 270.887 548.254 l 269.648 548.254 l 269.648 549.566 l 270.887
 549.566 l 270.887 552.031 l 272.566 553.043 l 272.566 549.566 l 274.262
 549.566 l 274.262 548.254 l 272.566 548.254 l 272.566 542.43 l 272.563 
541.945 272.594 541.637 272.652 541.504 c 272.711 541.363 272.809 541.254
 272.945 541.176 c 273.078 541.09 273.27 541.051 273.523 541.055 c 273.707
 541.051 273.953 541.07 274.262 541.117 c h
f
283.469 540.836 m 282.84 540.301 282.238 539.926 281.664 539.711 c 281.082
 539.492 280.461 539.387 279.805 539.383 c 278.707 539.387 277.867 539.652
 277.281 540.184 c 276.691 540.719 276.398 541.402 276.402 542.234 c 276.398
 542.719 276.508 543.164 276.734 543.57 c 276.953 543.973 277.246 544.293
 277.605 544.539 c 277.965 544.781 278.367 544.969 278.82 545.094 c 279.148
 545.18 279.648 545.262 280.32 545.348 c 281.68 545.504 282.684 545.699 
283.328 545.93 c 283.332 546.156 283.336 546.301 283.34 546.367 c 283.336
 547.051 283.176 547.535 282.859 547.82 c 282.426 548.199 281.785 548.391
 280.938 548.395 c 280.141 548.391 279.555 548.254 279.18 547.977 c 278.801
 547.695 278.52 547.203 278.34 546.5 c 276.691 546.727 l 276.84 547.43 277.086
 548 277.434 548.434 c 277.773 548.867 278.27 549.199 278.922 549.438 c 
279.57 549.668 280.324 549.785 281.184 549.789 c 282.031 549.785 282.723
 549.688 283.254 549.488 c 283.785 549.289 284.176 549.035 284.426 548.734
 c 284.676 548.43 284.848 548.047 284.949 547.586 c 285.004 547.297 285.035
 546.781 285.035 546.031 c 285.035 543.781 l 285.035 542.211 285.07 541.219
 285.141 540.805 c 285.211 540.387 285.352 539.988 285.57 539.609 c 283.809
 539.609 l 283.629 539.957 283.516 540.363 283.469 540.836 c h
283.328 544.605 m 282.715 544.352 281.797 544.141 280.574 543.969 c 279.875
 543.867 279.383 543.754 279.098 543.633 c 278.809 543.504 278.586 543.32
 278.434 543.082 c 278.273 542.84 278.195 542.574 278.199 542.281 c 278.195
 541.828 278.367 541.453 278.711 541.156 c 279.051 540.855 279.551 540.703
 280.207 540.707 c 280.855 540.703 281.434 540.848 281.941 541.133 c 282.445
 541.414 282.816 541.801 283.059 542.301 c 283.234 542.676 283.324 543.238
 283.328 543.988 c h
f
287.656 551.414 m 287.656 553.352 l 289.344 553.352 l 289.344 551.414 l
 h
287.656 539.609 m 287.656 549.566 l 289.344 549.566 l 289.344 539.609 l
 h
f
298.852 539.609 m 297.164 539.609 l 297.164 550.363 l 296.754 549.973 296.223
 549.586 295.566 549.199 c 294.906 548.809 294.313 548.52 293.789 548.328
 c 293.789 549.961 l 294.73 550.402 295.555 550.938 296.266 551.57 c 296.969
 552.199 297.469 552.813 297.766 553.41 c 298.852 553.41 l h
f
303.172 543.211 m 304.945 543.359 l 305.074 542.496 305.379 541.848 305.855
 541.414 c 306.332 540.977 306.906 540.758 307.586 540.762 c 308.395 540.758
 309.082 541.063 309.648 541.68 c 310.207 542.289 310.488 543.102 310.492
 544.117 c 310.488 545.078 310.219 545.84 309.68 546.395 c 309.137 546.949
 308.43 547.227 307.559 547.23 c 307.012 547.227 306.52 547.102 306.086 
546.859 c 305.645 546.609 305.301 546.289 305.055 545.898 c 303.473 546.105
 l 304.805 553.164 l 311.637 553.164 l 311.637 551.555 l 306.152 551.555
 l 305.414 547.859 l 306.234 548.434 307.098 548.719 308.008 548.723 c 309.203
 548.719 310.219 548.305 311.047 547.473 c 311.871 546.641 312.281 545.57
 312.285 544.27 c 312.281 543.02 311.918 541.945 311.195 541.043 c 310.313
 539.93 309.109 539.375 307.586 539.375 c 306.332 539.375 305.313 539.723
 304.523 540.426 c 303.73 541.121 303.281 542.051 303.172 543.211 c h
f
313.848 546.387 m 313.848 548.008 314.012 549.316 314.348 550.309 c 314.68
 551.301 315.18 552.063 315.84 552.602 c 316.496 553.137 317.324 553.406
 318.328 553.41 c 319.063 553.406 319.711 553.258 320.27 552.965 c 320.824
 552.664 321.281 552.238 321.648 551.68 c 322.008 551.117 322.293 550.434
 322.5 549.633 c 322.703 548.828 322.805 547.746 322.809 546.387 c 322.805
 544.773 322.641 543.473 322.313 542.48 c 321.98 541.488 321.484 540.723
 320.828 540.184 c 320.164 539.645 319.332 539.375 318.328 539.375 c 317
 539.375 315.961 539.848 315.207 540.801 c 314.301 541.941 313.848 543.805
 313.848 546.387 c h
315.582 546.387 m 315.582 544.129 315.844 542.629 316.375 541.883 c 316.898
 541.133 317.551 540.758 318.328 540.762 c 319.102 540.758 319.754 541.133
 320.281 541.887 c 320.809 542.633 321.07 544.133 321.074 546.387 c 321.07
 548.648 320.809 550.152 320.281 550.895 c 319.754 551.637 319.094 552.008
 318.309 552.012 c 317.531 552.008 316.914 551.68 316.453 551.027 c 315.871
 550.188 315.582 548.641 315.582 546.387 c h
f
326.547 539.609 m 324.984 539.609 l 324.984 553.352 l 326.672 553.352 l
 326.672 548.449 l 327.379 549.34 328.289 549.785 329.398 549.789 c 330.008
 549.785 330.586 549.664 331.137 549.418 c 331.68 549.172 332.129 548.824
 332.484 548.379 c 332.836 547.93 333.113 547.391 333.316 546.762 c 333.516
 546.129 333.617 545.453 333.617 544.738 c 333.617 543.027 333.195 541.711
 332.352 540.781 c 331.508 539.852 330.492 539.387 329.313 539.383 c 328.133
 539.387 327.211 539.875 326.547 540.855 c h
326.531 544.664 m 326.527 543.465 326.688 542.602 327.016 542.074 c 327.543
 541.203 328.262 540.77 329.172 540.773 c 329.906 540.77 330.547 541.09 
331.086 541.734 c 331.621 542.371 331.887 543.324 331.891 544.598 c 331.887
 545.895 331.629 546.855 331.117 547.473 c 330.598 548.09 329.977 548.398
 329.25 548.402 c 328.508 548.398 327.871 548.078 327.336 547.441 c 326.797
 546.797 326.527 545.871 326.531 544.664 c h
f
297.133 18.719 m 301.563 24.688 l 297.656 30.172 l 299.461 30.172 l 301.539
 27.234 l 301.969 26.621 302.273 26.152 302.461 25.828 c 302.711 26.242 
303.016 26.68 303.367 27.133 c 305.672 30.172 l 307.32 30.172 l 303.297 
24.773 l 307.633 18.719 l 305.758 18.719 l 302.875 22.805 l 302.711 23.035
 302.543 23.293 302.375 23.57 c 302.117 23.152 301.934 22.863 301.828 22.711
 c 298.953 18.719 l h
f
12.961 294.324 m 8.109 294.324 l 1.508 289.91 l 1.508 291.754 l 4.961 294.012
 l 5.609 294.426 6.254 294.813 6.898 295.176 c 6.301 295.516 5.625 295.934
 4.875 296.426 c 1.508 298.645 l 1.508 300.41 l 8.109 295.84 l 12.961 295.84
 l h
f
Q q
59.039 516.961 487.719 -444.52 re W n
q
59 517 488 -445 re W n
  q
Q q
0.65098 0.196078 0.196078 rg
1.5 w
1 J
1 j
[] 0.0 d
10 M 283.227 261.332 m 388.145 115.27 l S
285.926 261.332 m 285.926 257.73 280.527 257.73 280.527 261.332 c 280.527
 264.93 285.926 264.93 285.926 261.332 c f
388.145 115.27 m 389.988 102.566 l S
390.848 115.27 m 390.848 111.668 385.445 111.668 385.445 115.27 c 385.445
 118.867 390.848 118.867 390.848 115.27 c f
389.988 102.566 m 399.191 100.449 l S
392.688 102.566 m 392.688 98.969 387.285 98.969 387.285 102.566 c 387.285
 106.168 392.688 106.168 392.688 102.566 c f
399.191 100.449 m 401.031 100.449 l S
401.891 100.449 m 401.891 96.852 396.492 96.852 396.492 100.449 c 396.492
 104.051 401.891 104.051 401.891 100.449 c f
401.031 100.449 m 401.031 89.867 l S
403.73 100.449 m 403.73 96.852 398.332 96.852 398.332 100.449 c 398.332
 104.051 403.73 104.051 403.73 100.449 c f
401.031 89.867 m 428.641 91.984 l S
403.73 89.867 m 403.73 86.266 398.332 86.266 398.332 89.867 c 398.332 93.465
 403.73 93.465 403.73 89.867 c f
428.641 91.984 m 430.484 100.449 l S
431.344 91.984 m 431.344 88.383 425.941 88.383 425.941 91.984 c 425.941
 95.582 431.344 95.582 431.344 91.984 c f
430.484 100.449 m 426.801 115.27 l S
433.184 100.449 m 433.184 96.852 427.781 96.852 427.781 100.449 c 427.781
 104.051 433.184 104.051 433.184 100.449 c f
426.801 115.27 m 417.598 111.035 l S
429.5 115.27 m 429.5 111.668 424.102 111.668 424.102 115.27 c 424.102 118.867
 429.5 118.867 429.5 115.27 c f
417.598 111.035 m 401.031 121.621 l S
420.297 111.035 m 420.297 107.434 414.898 107.434 414.898 111.035 c 414.898
 114.637 420.297 114.637 420.297 111.035 c f
401.031 121.621 m 395.508 123.734 l S
403.73 121.621 m 403.73 118.02 398.332 118.02 398.332 121.621 c 398.332
 125.219 403.73 125.219 403.73 121.621 c f
283.227 261.332 m 395.508 123.734 l S
0.65098 0.403922 0.196078 rg
283.227 261.332 m 277.703 254.98 l S
285.926 261.332 m 285.926 257.73 280.527 257.73 280.527 261.332 c 280.527
 264.93 285.926 264.93 285.926 261.332 c f
277.703 254.98 m 261.137 159.723 l S
280.402 254.98 m 280.402 251.379 275.004 251.379 275.004 254.98 c 275.004
 258.578 280.402 258.578 280.402 254.98 c f
261.137 159.723 m 268.5 157.605 l S
263.836 159.723 m 263.836 156.121 258.438 156.121 258.438 159.723 c 258.438
 163.324 263.836 163.324 263.836 159.723 c f
268.5 157.605 m 268.5 149.137 l S
271.199 157.605 m 271.199 154.004 265.801 154.004 265.801 157.605 c 265.801
 161.207 271.199 161.207 271.199 157.605 c f
268.5 149.137 m 274.023 132.203 l S
271.199 149.137 m 271.199 145.539 265.801 145.539 265.801 149.137 c 265.801
 152.738 271.199 152.738 271.199 149.137 c f
274.023 132.203 m 264.82 140.672 l S
276.723 132.203 m 276.723 128.602 271.324 128.602 271.324 132.203 c 271.324
 135.805 276.723 135.805 276.723 132.203 c f
264.82 140.672 m 257.457 140.672 l S
267.52 140.672 m 267.52 137.07 262.117 137.07 262.117 140.672 c 262.117
 144.27 267.52 144.27 267.52 140.672 c f
257.457 140.672 m 262.977 144.906 l S
260.156 140.672 m 260.156 137.07 254.758 137.07 254.758 140.672 c 254.758
 144.27 260.156 144.27 260.156 140.672 c f
262.977 144.906 m 314.52 250.746 l S
265.68 144.906 m 265.68 141.305 260.277 141.305 260.277 144.906 c 260.277
 148.504 265.68 148.504 265.68 144.906 c f
314.52 250.746 m 310.836 252.863 l S
317.219 250.746 m 317.219 247.145 311.816 247.145 311.816 250.746 c 311.816
 254.348 317.219 254.348 317.219 250.746 c f
310.836 252.863 m 297.953 257.098 l S
313.535 252.863 m 313.535 249.262 308.137 249.262 308.137 252.863 c 308.137
 256.465 313.535 256.465 313.535 252.863 c f
297.953 257.098 m 296.109 257.098 l S
300.652 257.098 m 300.652 253.496 295.25 253.496 295.25 257.098 c 295.25
 260.695 300.652 260.695 300.652 257.098 c f
283.227 261.332 m 296.109 257.098 l S
0.65098 0.615686 0.196078 rg
283.227 261.332 m 308.996 257.098 l S
285.926 261.332 m 285.926 257.73 280.527 257.73 280.527 261.332 c 280.527
 264.93 285.926 264.93 285.926 261.332 c f
308.996 257.098 m 314.52 252.863 l S
311.695 257.098 m 311.695 253.496 306.297 253.496 306.297 257.098 c 306.297
 260.695 311.695 260.695 311.695 257.098 c f
314.52 252.863 m 340.289 240.164 l S
317.219 252.863 m 317.219 249.262 311.816 249.262 311.816 252.863 c 311.816
 256.465 317.219 256.465 317.219 252.863 c f
340.289 240.164 m 443.367 269.797 l S
342.988 240.164 m 342.988 236.563 337.59 236.563 337.59 240.164 c 337.59
 243.762 342.988 243.762 342.988 240.164 c f
443.367 269.797 m 467.297 265.563 l S
446.066 269.797 m 446.066 266.199 440.668 266.199 440.668 269.797 c 440.668
 273.398 446.066 273.398 446.066 269.797 c f
467.297 265.563 m 478.34 259.215 l S
469.996 265.563 m 469.996 261.965 464.598 261.965 464.598 265.563 c 464.598
 269.164 469.996 269.164 469.996 265.563 c f
478.34 259.215 m 491.227 259.215 l S
481.039 259.215 m 481.039 255.613 475.641 255.613 475.641 259.215 c 475.641
 262.813 481.039 262.813 481.039 259.215 c f
491.227 259.215 m 480.184 271.914 l S
493.926 259.215 m 493.926 255.613 488.527 255.613 488.527 259.215 c 488.527
 262.813 493.926 262.813 493.926 259.215 c f
480.184 271.914 m 478.34 274.031 l S
482.883 271.914 m 482.883 268.316 477.48 268.316 477.48 271.914 c 477.48
 275.516 482.883 275.516 482.883 271.914 c f
478.34 274.031 m 493.066 299.434 l S
481.039 274.031 m 481.039 270.43 475.641 270.43 475.641 274.031 c 475.641
 277.633 481.039 277.633 481.039 274.031 c f
493.066 299.434 m 485.703 295.199 l S
495.766 299.434 m 495.766 295.832 490.367 295.832 490.367 299.434 c 490.367
 303.035 495.766 303.035 495.766 299.434 c f
485.703 295.199 m 470.977 295.199 l S
488.402 295.199 m 488.402 291.602 483.004 291.602 483.004 295.199 c 483.004
 298.801 488.402 298.801 488.402 295.199 c f
470.977 295.199 m 470.977 288.848 l S
473.68 295.199 m 473.68 291.602 468.277 291.602 468.277 295.199 c 468.277
 298.801 473.68 298.801 473.68 295.199 c f
470.977 288.848 m 283.227 261.332 l S
473.68 288.848 m 473.68 285.25 468.277 285.25 468.277 288.848 c 468.277
 292.449 473.68 292.449 473.68 288.848 c f
283.227 261.332 m 448.891 312.133 l S
285.926 261.332 m 285.926 257.73 280.527 257.73 280.527 261.332 c 280.527
 264.93 285.926 264.93 285.926 261.332 c f
448.891 312.133 m 470.977 314.25 l S
451.59 312.133 m 451.59 308.535 446.191 308.535 446.191 312.133 c 446.191
 315.734 451.59 315.734 451.59 312.133 c f
470.977 314.25 m 482.023 295.199 l S
473.68 314.25 m 473.68 310.652 468.277 310.652 468.277 314.25 c 468.277
 317.852 473.68 317.852 473.68 314.25 c f
283.227 261.332 m 482.023 295.199 l S
0.47451 0.65098 0.196078 rg
283.227 261.332 m 108.359 221.109 l S
285.926 261.332 m 285.926 257.73 280.527 257.73 280.527 261.332 c 280.527
 264.93 285.926 264.93 285.926 261.332 c f
108.359 221.109 m 99.156 227.461 l S
111.059 221.109 m 111.059 217.512 105.66 217.512 105.66 221.109 c 105.66
 224.711 111.059 224.711 111.059 221.109 c f
99.156 227.461 m 95.473 229.578 l S
101.855 227.461 m 101.855 223.859 96.457 223.859 96.457 227.461 c 96.457
 231.063 101.855 231.063 101.855 227.461 c f
95.473 229.578 m 82.59 235.93 l S
98.172 229.578 m 98.172 225.977 92.773 225.977 92.773 229.578 c 92.773 
233.18 98.172 233.18 98.172 229.578 c f
82.59 235.93 m 78.906 235.93 l S
85.289 235.93 m 85.289 232.328 79.891 232.328 79.891 235.93 c 79.891 239.527
 85.289 239.527 85.289 235.93 c f
78.906 235.93 m 80.75 225.344 l S
81.605 235.93 m 81.605 232.328 76.207 232.328 76.207 235.93 c 76.207 239.527
 81.605 239.527 81.605 235.93 c f
80.75 225.344 m 77.066 218.992 l S
83.449 225.344 m 83.449 221.746 78.047 221.746 78.047 225.344 c 78.047 
228.945 83.449 228.945 83.449 225.344 c f
77.066 218.992 m 77.066 204.176 l S
79.766 218.992 m 79.766 215.395 74.367 215.395 74.367 218.992 c 74.367 
222.594 79.766 222.594 79.766 218.992 c f
77.066 204.176 m 82.59 206.293 l S
79.766 204.176 m 79.766 200.574 74.367 200.574 74.367 204.176 c 74.367 
207.777 79.766 207.777 79.766 204.176 c f
82.59 206.293 m 88.109 206.293 l S
85.289 206.293 m 85.289 202.691 79.891 202.691 79.891 206.293 c 79.891 
209.895 85.289 209.895 85.289 206.293 c f
88.109 206.293 m 95.473 206.293 l S
90.813 206.293 m 90.813 202.691 85.41 202.691 85.41 206.293 c 85.41 209.895
 90.813 209.895 90.813 206.293 c f
95.473 206.293 m 97.316 208.41 l S
98.172 206.293 m 98.172 202.691 92.773 202.691 92.773 206.293 c 92.773 
209.895 98.172 209.895 98.172 206.293 c f
97.316 208.41 m 100.996 214.762 l S
100.016 208.41 m 100.016 204.809 94.613 204.809 94.613 208.41 c 94.613 
212.008 100.016 212.008 100.016 208.41 c f
100.996 214.762 m 110.199 210.527 l S
103.695 214.762 m 103.695 211.16 98.297 211.16 98.297 214.762 c 98.297 
218.359 103.695 218.359 103.695 214.762 c f
110.199 210.527 m 110.199 206.293 l S
112.898 210.527 m 112.898 206.926 107.5 206.926 107.5 210.527 c 107.5 214.125
 112.898 214.125 112.898 210.527 c f
283.227 261.332 m 110.199 206.293 l S
0.266667 0.65098 0.196078 rg
283.227 261.332 m 250.094 269.797 l S
285.926 261.332 m 285.926 257.73 280.527 257.73 280.527 261.332 c 280.527
 264.93 285.926 264.93 285.926 261.332 c f
250.094 269.797 m 174.625 267.68 l S
252.793 269.797 m 252.793 266.199 247.395 266.199 247.395 269.797 c 247.395
 273.398 252.793 273.398 252.793 269.797 c f
174.625 267.68 m 174.625 259.215 l S
177.324 267.68 m 177.324 264.082 171.926 264.082 171.926 267.68 c 171.926
 271.281 177.324 271.281 177.324 267.68 c f
174.625 259.215 m 180.145 263.449 l S
177.324 259.215 m 177.324 255.613 171.926 255.613 171.926 259.215 c 171.926
 262.813 177.324 262.813 177.324 259.215 c f
180.145 263.449 m 143.332 320.602 l S
182.848 263.449 m 182.848 259.848 177.445 259.848 177.445 263.449 c 177.445
 267.047 182.848 267.047 182.848 263.449 c f
143.332 320.602 m 135.969 320.602 l S
146.031 320.602 m 146.031 317.004 140.633 317.004 140.633 320.602 c 140.633
 324.203 146.031 324.203 146.031 320.602 c f
135.969 320.602 m 134.129 322.719 l S
138.668 320.602 m 138.668 317.004 133.27 317.004 133.27 320.602 c 133.27
 324.203 138.668 324.203 138.668 320.602 c f
134.129 322.719 m 126.766 326.953 l S
136.828 322.719 m 136.828 319.117 131.43 319.117 131.43 322.719 c 131.43
 326.32 136.828 326.32 136.828 322.719 c f
126.766 326.953 m 134.129 335.422 l S
129.465 326.953 m 129.465 323.352 124.066 323.352 124.066 326.953 c 124.066
 330.551 129.465 330.551 129.465 326.953 c f
134.129 335.422 m 281.387 263.449 l S
136.828 335.422 m 136.828 331.82 131.43 331.82 131.43 335.422 c 131.43 
339.02 136.828 339.02 136.828 335.422 c f
281.387 263.449 m 283.227 261.332 l S
284.086 263.449 m 284.086 259.848 278.684 259.848 278.684 263.449 c 278.684
 267.047 284.086 267.047 284.086 263.449 c f
283.227 261.332 m 279.543 261.332 l S
285.926 261.332 m 285.926 257.73 280.527 257.73 280.527 261.332 c 280.527
 264.93 285.926 264.93 285.926 261.332 c f
283.227 261.332 m 279.543 261.332 l S
0.196078 0.65098 0.333333 rg
283.227 261.332 m 194.871 204.176 l S
285.926 261.332 m 285.926 257.73 280.527 257.73 280.527 261.332 c 280.527
 264.93 285.926 264.93 285.926 261.332 c f
194.871 204.176 m 156.219 208.41 l S
197.57 204.176 m 197.57 200.574 192.172 200.574 192.172 204.176 c 192.172
 207.777 197.57 207.777 197.57 204.176 c f
156.219 208.41 m 97.316 229.578 l S
158.918 208.41 m 158.918 204.809 153.516 204.809 153.516 208.41 c 153.516
 212.008 158.918 212.008 158.918 208.41 c f
97.316 229.578 m 97.316 231.695 l S
100.016 229.578 m 100.016 225.977 94.613 225.977 94.613 229.578 c 94.613
 233.18 100.016 233.18 100.016 229.578 c f
97.316 231.695 m 89.953 240.164 l S
100.016 231.695 m 100.016 228.094 94.613 228.094 94.613 231.695 c 94.613
 235.293 100.016 235.293 100.016 231.695 c f
89.953 240.164 m 100.996 235.93 l S
92.652 240.164 m 92.652 236.563 87.25 236.563 87.25 240.164 c 87.25 243.762
 92.652 243.762 92.652 240.164 c f
100.996 235.93 m 106.52 233.813 l S
103.695 235.93 m 103.695 232.328 98.297 232.328 98.297 235.93 c 98.297 
239.527 103.695 239.527 103.695 235.93 c f
106.52 233.813 m 106.52 233.813 l S
109.219 233.813 m 109.219 230.211 103.816 230.211 103.816 233.813 c 103.816
 237.41 109.219 237.41 109.219 233.813 c f
106.52 233.813 m 148.855 223.227 l S
109.219 233.813 m 109.219 230.211 103.816 230.211 103.816 233.813 c 103.816
 237.41 109.219 237.41 109.219 233.813 c f
148.855 223.227 m 150.695 225.344 l S
151.555 223.227 m 151.555 219.629 146.152 219.629 146.152 223.227 c 146.152
 226.828 151.555 226.828 151.555 223.227 c f
150.695 225.344 m 200.395 223.227 l S
153.395 225.344 m 153.395 221.746 147.996 221.746 147.996 225.344 c 147.996
 228.945 153.395 228.945 153.395 225.344 c f
283.227 261.332 m 200.395 223.227 l S
0.196078 0.65098 0.545098 rg
283.227 261.332 m 299.793 293.082 l S
285.926 261.332 m 285.926 257.73 280.527 257.73 280.527 261.332 c 280.527
 264.93 285.926 264.93 285.926 261.332 c f
299.793 293.082 m 299.793 299.434 l S
302.492 293.082 m 302.492 289.484 297.094 289.484 297.094 293.082 c 297.094
 296.684 302.492 296.684 302.492 293.082 c f
299.793 299.434 m 308.996 295.199 l S
302.492 299.434 m 302.492 295.832 297.094 295.832 297.094 299.434 c 297.094
 303.035 302.492 303.035 302.492 299.434 c f
308.996 295.199 m 320.039 293.082 l S
311.695 295.199 m 311.695 291.602 306.297 291.602 306.297 295.199 c 306.297
 298.801 311.695 298.801 311.695 295.199 c f
320.039 293.082 m 318.199 286.734 l S
322.738 293.082 m 322.738 289.484 317.34 289.484 317.34 293.082 c 317.34
 296.684 322.738 296.684 322.738 293.082 c f
318.199 286.734 m 320.039 284.617 l S
320.898 286.734 m 320.898 283.133 315.5 283.133 315.5 286.734 c 315.5 290.332
 320.898 290.332 320.898 286.734 c f
320.039 284.617 m 299.793 274.031 l S
322.738 284.617 m 322.738 281.016 317.34 281.016 317.34 284.617 c 317.34
 288.215 322.738 288.215 322.738 284.617 c f
283.227 261.332 m 299.793 274.031 l S
0.196078 0.545098 0.65098 rg
283.227 261.332 m 338.445 246.512 l S
285.926 261.332 m 285.926 257.73 280.527 257.73 280.527 261.332 c 280.527
 264.93 285.926 264.93 285.926 261.332 c f
338.445 246.512 m 465.457 284.617 l S
341.148 246.512 m 341.148 242.914 335.746 242.914 335.746 246.512 c 335.746
 250.113 341.148 250.113 341.148 246.512 c f
465.457 284.617 m 459.934 274.031 l S
468.156 284.617 m 468.156 281.016 462.758 281.016 462.758 284.617 c 462.758
 288.215 468.156 288.215 468.156 284.617 c f
459.934 274.031 m 456.254 274.031 l S
462.633 274.031 m 462.633 270.43 457.234 270.43 457.234 274.031 c 457.234
 277.633 462.633 277.633 462.633 274.031 c f
456.254 274.031 m 448.891 278.266 l S
458.953 274.031 m 458.953 270.43 453.551 270.43 453.551 274.031 c 453.551
 277.633 458.953 277.633 458.953 274.031 c f
448.891 278.266 m 445.207 293.082 l S
451.59 278.266 m 451.59 274.664 446.191 274.664 446.191 278.266 c 446.191
 281.867 451.59 281.867 451.59 278.266 c f
445.207 293.082 m 340.289 278.266 l S
447.91 293.082 m 447.91 289.484 442.508 289.484 442.508 293.082 c 442.508
 296.684 447.91 296.684 447.91 293.082 c f
340.289 278.266 m 327.402 271.914 l S
342.988 278.266 m 342.988 274.664 337.59 274.664 337.59 278.266 c 337.59
 281.867 342.988 281.867 342.988 278.266 c f
327.402 271.914 m 320.039 278.266 l S
330.102 271.914 m 330.102 268.316 324.703 268.316 324.703 271.914 c 324.703
 275.516 330.102 275.516 330.102 271.914 c f
283.227 261.332 m 320.039 278.266 l S
0.196078 0.333333 0.65098 rg
283.227 261.332 m 198.555 229.578 l S
285.926 261.332 m 285.926 257.73 280.527 257.73 280.527 261.332 c 280.527
 264.93 285.926 264.93 285.926 261.332 c f
198.555 229.578 m 189.352 216.879 l S
201.254 229.578 m 201.254 225.977 195.852 225.977 195.852 229.578 c 195.852
 233.18 201.254 233.18 201.254 229.578 c f
189.352 216.879 m 170.941 229.578 l S
192.051 216.879 m 192.051 213.277 186.648 213.277 186.648 216.879 c 186.648
 220.477 192.051 220.477 192.051 216.879 c f
170.941 229.578 m 169.102 240.164 l S
173.645 229.578 m 173.645 225.977 168.242 225.977 168.242 229.578 c 168.242
 233.18 173.645 233.18 173.645 229.578 c f
169.102 240.164 m 161.738 235.93 l S
171.801 240.164 m 171.801 236.563 166.402 236.563 166.402 240.164 c 166.402
 243.762 171.801 243.762 171.801 240.164 c f
161.738 235.93 m 159.898 238.047 l S
164.438 235.93 m 164.438 232.328 159.039 232.328 159.039 235.93 c 159.039
 239.527 164.438 239.527 164.438 235.93 c f
159.898 238.047 m 150.695 238.047 l S
162.598 238.047 m 162.598 234.445 157.199 234.445 157.199 238.047 c 157.199
 241.645 162.598 241.645 162.598 238.047 c f
150.695 238.047 m 150.695 246.512 l S
153.395 238.047 m 153.395 234.445 147.996 234.445 147.996 238.047 c 147.996
 241.645 153.395 241.645 153.395 238.047 c f
150.695 246.512 m 148.855 248.629 l S
153.395 246.512 m 153.395 242.914 147.996 242.914 147.996 246.512 c 147.996
 250.113 153.395 250.113 153.395 246.512 c f
148.855 248.629 m 161.738 248.629 l S
151.555 248.629 m 151.555 245.031 146.152 245.031 146.152 248.629 c 146.152
 252.23 151.555 252.23 151.555 248.629 c f
161.738 248.629 m 169.102 254.98 l S
164.438 248.629 m 164.438 245.031 159.039 245.031 159.039 248.629 c 159.039
 252.23 164.438 252.23 164.438 248.629 c f
169.102 254.98 m 196.711 252.863 l S
171.801 254.98 m 171.801 251.379 166.402 251.379 166.402 254.98 c 166.402
 258.578 171.801 258.578 171.801 254.98 c f
283.227 261.332 m 196.711 252.863 l S
0.266667 0.196078 0.65098 rg
283.227 261.332 m 274.023 288.848 l S
285.926 261.332 m 285.926 257.73 280.527 257.73 280.527 261.332 c 280.527
 264.93 285.926 264.93 285.926 261.332 c f
274.023 288.848 m 285.066 299.434 l S
276.723 288.848 m 276.723 285.25 271.324 285.25 271.324 288.848 c 271.324
 292.449 276.723 292.449 276.723 288.848 c f
285.066 299.434 m 275.863 477.25 l S
287.766 299.434 m 287.766 295.832 282.367 295.832 282.367 299.434 c 282.367
 303.035 287.766 303.035 287.766 299.434 c f
275.863 477.25 m 275.863 489.949 l S
278.563 477.25 m 278.563 473.648 273.164 473.648 273.164 477.25 c 273.164
 480.848 278.563 480.848 278.563 477.25 c f
275.863 489.949 m 270.34 496.301 l S
278.563 489.949 m 278.563 486.348 273.164 486.348 273.164 489.949 c 273.164
 493.551 278.563 493.551 278.563 489.949 c f
270.34 496.301 m 257.457 498.418 l S
273.039 496.301 m 273.039 492.699 267.641 492.699 267.641 496.301 c 267.641
 499.898 273.039 499.898 273.039 496.301 c f
257.457 498.418 m 264.82 489.949 l S
260.156 498.418 m 260.156 494.816 254.758 494.816 254.758 498.418 c 254.758
 502.016 260.156 502.016 260.156 498.418 c f
264.82 489.949 m 268.5 489.949 l S
267.52 489.949 m 267.52 486.348 262.117 486.348 262.117 489.949 c 262.117
 493.551 267.52 493.551 267.52 489.949 c f
268.5 489.949 m 264.82 483.598 l S
271.199 489.949 m 271.199 486.348 265.801 486.348 265.801 489.949 c 265.801
 493.551 271.199 493.551 271.199 489.949 c f
264.82 483.598 m 268.5 481.48 l S
267.52 483.598 m 267.52 480 262.117 480 262.117 483.598 c 262.117 487.199
 267.52 487.199 267.52 483.598 c f
268.5 481.48 m 266.66 477.25 l S
271.199 481.48 m 271.199 477.883 265.801 477.883 265.801 481.48 c 265.801
 485.082 271.199 485.082 271.199 481.48 c f
266.66 477.25 m 261.137 475.133 l S
269.359 477.25 m 269.359 473.648 263.961 473.648 263.961 477.25 c 263.961
 480.848 269.359 480.848 269.359 477.25 c f
261.137 475.133 m 266.66 473.016 l S
263.836 475.133 m 263.836 471.531 258.438 471.531 258.438 475.133 c 258.438
 478.73 263.836 478.73 263.836 475.133 c f
283.227 261.332 m 266.66 473.016 l S
0.47451 0.196078 0.65098 rg
283.227 261.332 m 286.906 257.098 l S
285.926 261.332 m 285.926 257.73 280.527 257.73 280.527 261.332 c 280.527
 264.93 285.926 264.93 285.926 261.332 c f
286.906 257.098 m 292.43 252.863 l S
289.605 257.098 m 289.605 253.496 284.207 253.496 284.207 257.098 c 284.207
 260.695 289.605 260.695 289.605 257.098 c f
292.43 252.863 m 296.109 242.277 l S
295.129 252.863 m 295.129 249.262 289.73 249.262 289.73 252.863 c 289.73
 256.465 295.129 256.465 295.129 252.863 c f
296.109 242.277 m 308.996 248.629 l S
298.813 242.277 m 298.813 238.68 293.41 238.68 293.41 242.277 c 293.41 
245.879 298.813 245.879 298.813 242.277 c f
308.996 248.629 m 320.039 248.629 l S
311.695 248.629 m 311.695 245.031 306.297 245.031 306.297 248.629 c 306.297
 252.23 311.695 252.23 311.695 248.629 c f
320.039 248.629 m 321.879 246.512 l S
322.738 248.629 m 322.738 245.031 317.34 245.031 317.34 248.629 c 317.34
 252.23 322.738 252.23 322.738 248.629 c f
321.879 246.512 m 318.199 244.395 l S
324.582 246.512 m 324.582 242.914 319.18 242.914 319.18 246.512 c 319.18
 250.113 324.582 250.113 324.582 246.512 c f
318.199 244.395 m 318.199 242.277 l S
320.898 244.395 m 320.898 240.797 315.5 240.797 315.5 244.395 c 315.5 247.996
 320.898 247.996 320.898 244.395 c f
318.199 242.277 m 327.402 240.164 l S
320.898 242.277 m 320.898 238.68 315.5 238.68 315.5 242.277 c 315.5 245.879
 320.898 245.879 320.898 242.277 c f
327.402 240.164 m 332.926 250.746 l S
330.102 240.164 m 330.102 236.563 324.703 236.563 324.703 240.164 c 324.703
 243.762 330.102 243.762 330.102 240.164 c f
332.926 250.746 m 334.766 254.98 l S
335.625 250.746 m 335.625 247.145 330.227 247.145 330.227 250.746 c 330.227
 254.348 335.625 254.348 335.625 250.746 c f
334.766 254.98 m 332.926 257.098 l S
337.465 254.98 m 337.465 251.379 332.066 251.379 332.066 254.98 c 332.066
 258.578 337.465 258.578 337.465 254.98 c f
332.926 257.098 m 329.242 267.68 l S
335.625 257.098 m 335.625 253.496 330.227 253.496 330.227 257.098 c 330.227
 260.695 335.625 260.695 335.625 257.098 c f
329.242 267.68 m 325.563 267.68 l S
331.945 267.68 m 331.945 264.082 326.543 264.082 326.543 267.68 c 326.543
 271.281 331.945 271.281 331.945 267.68 c f
325.563 267.68 m 323.723 265.563 l S
328.262 267.68 m 328.262 264.082 322.863 264.082 322.863 267.68 c 322.863
 271.281 328.262 271.281 328.262 267.68 c f
323.723 265.563 m 320.039 265.563 l S
326.422 265.563 m 326.422 261.965 321.023 261.965 321.023 265.563 c 321.023
 269.164 326.422 269.164 326.422 265.563 c f
320.039 265.563 m 310.836 263.449 l S
322.738 265.563 m 322.738 261.965 317.34 261.965 317.34 265.563 c 317.34
 269.164 322.738 269.164 322.738 265.563 c f
310.836 263.449 m 308.996 261.332 l S
313.535 263.449 m 313.535 259.848 308.137 259.848 308.137 263.449 c 308.137
 267.047 313.535 267.047 313.535 263.449 c f
283.227 261.332 m 308.996 261.332 l S
0.65098 0.196078 0.615686 rg
283.227 261.332 m 314.52 276.148 l S
285.926 261.332 m 285.926 257.73 280.527 257.73 280.527 261.332 c 280.527
 264.93 285.926 264.93 285.926 261.332 c f
314.52 276.148 m 331.086 282.5 l S
317.219 276.148 m 317.219 272.547 311.816 272.547 311.816 276.148 c 311.816
 279.75 317.219 279.75 317.219 276.148 c f
331.086 282.5 m 443.367 305.785 l S
333.785 282.5 m 333.785 278.898 328.383 278.898 328.383 282.5 c 328.383
 286.098 333.785 286.098 333.785 282.5 c f
443.367 305.785 m 452.57 310.02 l S
446.066 305.785 m 446.066 302.184 440.668 302.184 440.668 305.785 c 440.668
 309.383 446.066 309.383 446.066 305.785 c f
452.57 310.02 m 382.625 479.363 l S
455.27 310.02 m 455.27 306.418 449.871 306.418 449.871 310.02 c 449.871
 313.617 455.27 313.617 455.27 310.02 c f
382.625 479.363 m 375.262 500.535 l S
385.324 479.363 m 385.324 475.766 379.926 475.766 379.926 479.363 c 379.926
 482.965 385.324 482.965 385.324 479.363 c f
375.262 500.535 m 367.898 475.133 l S
377.961 500.535 m 377.961 496.934 372.563 496.934 372.563 500.535 c 372.563
 504.133 377.961 504.133 377.961 500.535 c f
283.227 261.332 m 367.898 475.133 l S
0.65098 0.196078 0.403922 rg
283.227 261.332 m 266.66 282.5 l S
285.926 261.332 m 285.926 257.73 280.527 257.73 280.527 261.332 c 280.527
 264.93 285.926 264.93 285.926 261.332 c f
266.66 282.5 m 262.977 301.551 l S
269.359 282.5 m 269.359 278.898 263.961 278.898 263.961 282.5 c 263.961
 286.098 269.359 286.098 269.359 282.5 c f
262.977 301.551 m 198.555 417.977 l S
265.68 301.551 m 265.68 297.949 260.277 297.949 260.277 301.551 c 260.277
 305.152 265.68 305.152 265.68 301.551 c f
198.555 417.977 m 193.031 413.742 l S
201.254 417.977 m 201.254 414.375 195.852 414.375 195.852 417.977 c 195.852
 421.578 201.254 421.578 201.254 417.977 c f
193.031 413.742 m 178.305 403.16 l S
195.73 413.742 m 195.73 410.145 190.332 410.145 190.332 413.742 c 190.332
 417.344 195.73 417.344 195.73 413.742 c f
178.305 403.16 m 178.305 388.34 l S
181.004 403.16 m 181.004 399.559 175.605 399.559 175.605 403.16 c 175.605
 406.758 181.004 406.758 181.004 403.16 c f
178.305 388.34 m 244.57 263.449 l S
181.004 388.34 m 181.004 384.742 175.605 384.742 175.605 388.34 c 175.605
 391.941 181.004 391.941 181.004 388.34 c f
244.57 263.449 m 261.137 267.68 l S
247.27 263.449 m 247.27 259.848 241.871 259.848 241.871 263.449 c 241.871
 267.047 247.27 267.047 247.27 263.449 c f
283.227 261.332 m 261.137 267.68 l S
  Q
Q
Q Q
showpage
%%Trailer
count op_count sub {pop} repeat
countdictstack dict_count sub {end} repeat
cairo_eps_state restore
%%EOF
