0,575	0	637,492506144325
0,575	1	637,492506144325
0,575	2	637,492506144325
0,575	3	629,957153795234
0,575	4	629,957153795234
0,575	5	629,957153795234
0,575	6	629,957153795234
0,575	7	629,957153795234
0,575	8	629,957153795234
0,575	9	612,480040618838
0,575	10	612,480040618838
0,575	11	612,480040618838
0,575	12	612,480040618838
0,575	13	612,480040618838
0,575	14	612,480040618838
0,575	15	612,480040618838
0,575	16	612,480040618838
0,575	17	612,480040618838
0,575	18	612,480040618838
0,575	19	612,480040618838
0,575	20	612,480040618838
0,575	21	612,480040618838
0,575	22	612,480040618838
0,575	23	612,480040618838
0,575	24	612,480040618838
0,575	25	612,480040618838
0,575	26	612,480040618838
0,575	27	612,480040618838
0,575	28	612,480040618838
0,575	29	612,480040618838
0,575	30	612,480040618838
0,575	31	612,480040618838
0,575	32	612,480040618838
0,575	33	612,480040618838
0,575	34	612,480040618838
0,575	35	612,480040618838
0,575	36	612,480040618838
0,575	37	612,480040618838
0,575	38	612,480040618838
0,575	39	612,480040618838
0,575	40	612,480040618838
0,575	41	612,480040618838
0,575	42	612,480040618838
0,575	43	612,480040618838
0,575	44	612,480040618838
0,575	45	612,480040618838
0,575	46	612,480040618838
0,575	47	612,480040618838
0,575	48	612,480040618838
0,575	49	612,480040618838
0,575	50	612,480040618838
0,575	51	612,480040618838
0,575	52	612,480040618838
0,575	53	612,480040618838
0,575	54	612,480040618838
0,575	55	612,480040618838
0,575	56	612,480040618838
0,575	57	612,480040618838
0,575	58	612,480040618838
0,575	59	612,480040618838
0,575	60	612,480040618838
0,575	61	612,480040618838
0,575	62	612,480040618838
0,575	63	612,480040618838
0,575	64	612,480040618838
0,575	65	612,480040618838
0,575	66	612,480040618838
0,575	67	612,480040618838
0,575	68	612,480040618838
0,575	69	612,480040618838
0,575	70	612,480040618838
0,575	71	612,480040618838
0,575	72	612,480040618838
0,575	73	612,480040618838
0,575	74	612,480040618838
0,575	75	612,480040618838
0,575	76	612,480040618838
0,575	77	612,480040618838
0,575	78	612,480040618838
0,575	79	612,480040618838
0,575	80	612,480040618838
0,575	81	612,480040618838
0,575	82	612,480040618838
0,575	83	612,480040618838
0,575	84	612,480040618838
0,575	85	612,480040618838
0,575	86	612,480040618838
0,575	87	612,480040618838
0,575	88	612,480040618838
0,575	89	612,480040618838
0,575	90	612,480040618838
0,575	91	612,480040618838
0,575	92	612,480040618838
0,575	93	612,480040618838
0,575	94	612,480040618838
0,575	95	612,480040618838
0,575	96	612,480040618838
0,575	97	612,480040618838
0,575	98	612,480040618838
0,575	99	612,480040618838
0,575	100	612,480040618838
0,575	101	612,480040618838
0,575	102	612,480040618838
0,575	103	612,480040618838
0,575	104	612,480040618838
0,575	105	612,480040618838
0,575	106	612,480040618838
0,575	107	612,480040618838
0,575	108	612,480040618838
0,575	109	612,480040618838
0,575	110	612,480040618838
0,575	111	612,480040618838
0,575	112	612,480040618838
0,575	113	612,480040618838
0,575	114	612,480040618838
0,575	115	612,480040618838
0,575	116	612,480040618838
0,575	117	612,480040618838
0,575	118	612,480040618838
0,575	119	612,480040618838
0,575	120	612,480040618838
0,575	121	612,480040618838
0,575	122	612,480040618838
0,575	123	612,480040618838
0,575	124	612,480040618838
0,575	125	612,480040618838
0,575	126	612,480040618838
0,575	127	612,480040618838
0,575	128	612,480040618838
0,575	129	612,480040618838
0,575	130	612,480040618838
0,575	131	612,480040618838
0,575	132	612,480040618838
0,575	133	612,480040618838
0,575	134	612,480040618838
0,575	135	612,480040618838
0,575	136	612,480040618838
0,575	137	612,480040618838
0,575	138	612,480040618838
0,575	139	612,480040618838
