0,200	0	569,793432184519
0,200	1	569,793432184519
0,200	2	560,079208025811
0,200	3	533,31857320475
0,200	4	533,31857320475
0,200	5	513,986297573377
0,200	6	513,986297573377
0,200	7	513,986297573377
0,200	8	513,986297573377
0,200	9	513,986297573377
0,200	10	513,986297573377
0,200	11	513,986297573377
0,200	12	511,033995635036
0,200	13	511,033995635036
0,200	14	511,033995635036
0,200	15	511,033995635036
0,200	16	511,033995635036
0,200	17	511,033995635036
0,200	18	511,033995635036
0,200	19	511,033995635036
0,200	20	511,033995635036
0,200	21	511,033995635036
0,200	22	511,033995635036
0,200	23	511,033995635036
0,200	24	511,033995635036
0,200	25	511,033995635036
0,200	26	511,033995635036
0,200	27	509,743529774485
0,200	28	509,743529774485
0,200	29	509,743529774485
0,200	30	509,743529774485
0,200	31	509,743529774485
0,200	32	509,743529774485
0,200	33	509,743529774485
0,200	34	509,743529774485
0,200	35	493,451937820576
0,200	36	493,451937820576
0,200	37	493,451937820576
0,200	38	493,451937820576
0,200	39	493,451937820576
0,200	40	493,451937820576
0,200	41	493,451937820576
0,200	42	493,451937820576
0,200	43	493,451937820576
0,200	44	493,451937820576
0,200	45	493,451937820576
0,200	46	493,451937820576
0,200	47	493,451937820576
0,200	48	493,451937820576
0,200	49	493,451937820576
0,200	50	493,451937820576
0,200	51	493,451937820576
0,200	52	493,451937820576
0,200	53	493,451937820576
0,200	54	493,451937820576
0,200	55	493,451937820576
0,200	56	493,451937820576
0,200	57	493,451937820576
0,200	58	493,451937820576
0,200	59	493,451937820576
0,200	60	493,451937820576
0,200	61	493,451937820576
0,200	62	493,451937820576
0,200	63	493,451937820576
0,200	64	493,451937820576
0,200	65	493,451937820576
0,200	66	493,451937820576
0,200	67	493,451937820576
0,200	68	493,451937820576
0,200	69	493,451937820576
0,200	70	493,451937820576
0,200	71	493,451937820576
0,200	72	493,451937820576
0,200	73	493,451937820576
0,200	74	493,451937820576
0,200	75	493,451937820576
0,200	76	493,451937820576
0,200	77	493,451937820576
0,200	78	493,451937820576
0,200	79	493,451937820576
0,200	80	493,451937820576
0,200	81	493,451937820576
0,200	82	493,451937820576
0,200	83	493,451937820576
0,200	84	493,451937820576
0,200	85	493,451937820576
0,200	86	493,451937820576
0,200	87	493,451937820576
0,200	88	493,451937820576
0,200	89	493,451937820576
0,200	90	493,451937820576
0,200	91	493,451937820576
0,200	92	493,451937820576
0,200	93	493,451937820576
0,200	94	493,451937820576
0,200	95	493,451937820576
0,200	96	493,451937820576
0,200	97	493,451937820576
0,200	98	493,451937820576
0,200	99	493,451937820576
0,200	100	493,451937820576
0,200	101	493,451937820576
0,200	102	493,451937820576
0,200	103	493,451937820576
0,200	104	493,451937820576
0,200	105	493,451937820576
0,200	106	493,451937820576
0,200	107	493,451937820576
0,200	108	493,451937820576
0,200	109	493,451937820576
0,200	110	493,451937820576
0,200	111	493,451937820576
0,200	112	493,451937820576
0,200	113	493,451937820576
0,200	114	493,451937820576
0,200	115	493,451937820576
0,200	116	493,451937820576
0,200	117	493,451937820576
0,200	118	493,451937820576
0,200	119	493,451937820576
0,200	120	493,451937820576
0,200	121	493,451937820576
0,200	122	493,451937820576
0,200	123	493,451937820576
0,200	124	493,451937820576
0,200	125	493,451937820576
0,200	126	493,451937820576
0,200	127	493,451937820576
0,200	128	493,451937820576
0,200	129	493,451937820576
0,200	130	493,451937820576
0,200	131	493,451937820576
0,200	132	493,451937820576
0,200	133	493,451937820576
0,200	134	493,451937820576
0,200	135	493,451937820576
0,200	136	493,451937820576
0,200	137	493,451937820576
0,200	138	493,451937820576
0,200	139	493,451937820576
