0,500	0	1046,56368600814
0,500	1	963,835267609333
0,500	2	963,835267609333
0,500	3	782,206886572537
0,500	4	782,206886572537
0,500	5	734,056292268789
0,500	6	734,056292268789
0,500	7	734,056292268789
0,500	8	734,056292268789
0,500	9	659,243840511974
0,500	10	659,243840511974
0,500	11	659,243840511974
0,500	12	656,321048689953
0,500	13	656,321048689953
0,500	14	656,321048689953
0,500	15	656,321048689953
0,500	16	656,321048689953
0,500	17	656,321048689953
0,500	18	656,321048689953
0,500	19	656,321048689953
0,500	20	656,321048689953
0,500	21	656,321048689953
0,500	22	656,321048689953
0,500	23	656,321048689953
0,500	24	656,321048689953
0,500	25	656,321048689953
0,500	26	656,321048689953
0,500	27	656,321048689953
0,500	28	656,321048689953
0,500	29	656,321048689953
0,500	30	656,321048689953
0,500	31	656,321048689953
0,500	32	656,321048689953
0,500	33	656,321048689953
0,500	34	656,321048689953
0,500	35	656,321048689953
0,500	36	656,321048689953
0,500	37	656,321048689953
0,500	38	656,321048689953
0,500	39	656,321048689953
0,500	40	656,321048689953
0,500	41	656,321048689953
0,500	42	656,321048689953
0,500	43	656,321048689953
0,500	44	656,321048689953
0,500	45	656,321048689953
0,500	46	656,321048689953
0,500	47	656,321048689953
0,500	48	656,321048689953
0,500	49	656,321048689953
0,500	50	656,321048689953
0,500	51	656,321048689953
0,500	52	656,321048689953
0,500	53	656,321048689953
0,500	54	656,321048689953
0,500	55	656,321048689953
0,500	56	656,321048689953
0,500	57	656,321048689953
0,500	58	656,321048689953
0,500	59	656,321048689953
0,500	60	656,321048689953
0,500	61	656,321048689953
0,500	62	656,321048689953
0,500	63	656,321048689953
0,500	64	656,321048689953
0,500	65	656,321048689953
0,500	66	656,321048689953
0,500	67	652,056610011413
0,500	68	649,934841180885
0,500	69	642,597526315429
0,500	70	642,597526315429
0,500	71	642,597526315429
0,500	72	642,597526315429
0,500	73	642,597526315429
0,500	74	642,597526315429
0,500	75	642,597526315429
0,500	76	642,597526315429
0,500	77	642,597526315429
0,500	78	642,597526315429
0,500	79	642,597526315429
0,500	80	642,597526315429
0,500	81	642,597526315429
0,500	82	642,597526315429
0,500	83	642,597526315429
0,500	84	642,597526315429
0,500	85	642,597526315429
0,500	86	642,597526315429
0,500	87	642,597526315429
0,500	88	642,597526315429
0,500	89	642,597526315429
0,500	90	642,597526315429
0,500	91	642,597526315429
0,500	92	642,597526315429
0,500	93	642,597526315429
0,500	94	642,597526315429
0,500	95	642,597526315429
0,500	96	642,597526315429
0,500	97	642,597526315429
0,500	98	642,597526315429
0,500	99	642,597526315429
0,500	100	642,597526315429
0,500	101	642,597526315429
0,500	102	642,597526315429
0,500	103	642,597526315429
0,500	104	642,597526315429
0,500	105	642,597526315429
0,500	106	642,597526315429
0,500	107	642,597526315429
0,500	108	642,597526315429
0,500	109	642,597526315429
0,500	110	642,597526315429
0,500	111	642,597526315429
0,500	112	642,597526315429
0,500	113	642,597526315429
0,500	114	642,597526315429
0,500	115	642,597526315429
0,500	116	642,597526315429
0,500	117	642,597526315429
0,500	118	617,368395442247
0,500	119	617,368395442247
0,500	120	617,368395442247
0,500	121	617,368395442247
0,500	122	617,368395442247
0,500	123	617,368395442247
0,500	124	617,368395442247
0,500	125	617,368395442247
0,500	126	617,368395442247
0,500	127	617,368395442247
0,500	128	617,368395442247
0,500	129	617,368395442247
0,500	130	617,368395442247
0,500	131	617,368395442247
0,500	132	617,368395442247
0,500	133	617,368395442247
0,500	134	617,368395442247
0,500	135	617,368395442247
0,500	136	617,368395442247
0,500	137	617,368395442247
0,500	138	617,368395442247
0,500	139	617,368395442247
