0,050	0	502,181671887204
0,050	1	502,181671887204
0,050	2	502,181671887204
0,050	3	502,181671887204
0,050	4	502,181671887204
0,050	5	493,739982506669
0,050	6	493,739982506669
0,050	7	475,862163190113
0,050	8	475,862163190113
0,050	9	475,862163190113
0,050	10	475,862163190113
0,050	11	475,862163190113
0,050	12	475,862163190113
0,050	13	475,862163190113
0,050	14	475,862163190113
0,050	15	475,862163190113
0,050	16	475,862163190113
0,050	17	475,481999904678
0,050	18	457,876419888046
0,050	19	457,876419888046
0,050	20	457,876419888046
0,050	21	457,876419888046
0,050	22	457,876419888046
0,050	23	457,876419888046
0,050	24	457,876419888046
0,050	25	457,876419888046
0,050	26	457,876419888046
0,050	27	457,876419888046
0,050	28	457,876419888046
0,050	29	457,876419888046
0,050	30	457,876419888046
0,050	31	457,876419888046
0,050	32	457,876419888046
0,050	33	457,876419888046
0,050	34	457,876419888046
0,050	35	457,876419888046
0,050	36	457,876419888046
0,050	37	457,876419888046
0,050	38	457,876419888046
0,050	39	457,84669498548
0,050	40	457,84669498548
0,050	41	441,04358750773
0,050	42	441,04358750773
0,050	43	441,04358750773
0,050	44	441,04358750773
0,050	45	441,04358750773
0,050	46	441,04358750773
0,050	47	441,04358750773
0,050	48	441,04358750773
0,050	49	441,04358750773
0,050	50	441,04358750773
0,050	51	441,04358750773
0,050	52	441,04358750773
0,050	53	441,04358750773
0,050	54	441,04358750773
0,050	55	441,04358750773
0,050	56	441,04358750773
0,050	57	441,04358750773
0,050	58	441,04358750773
0,050	59	441,04358750773
0,050	60	441,04358750773
0,050	61	441,04358750773
0,050	62	441,04358750773
0,050	63	441,04358750773
0,050	64	438,461504178454
0,050	65	438,461504178454
0,050	66	438,461504178454
0,050	67	438,461504178454
0,050	68	438,461504178454
0,050	69	438,461504178454
0,050	70	438,461504178454
0,050	71	438,461504178454
0,050	72	438,461504178454
0,050	73	438,461504178454
0,050	74	438,461504178454
0,050	75	438,461504178454
0,050	76	438,461504178454
0,050	77	438,461504178454
0,050	78	438,461504178454
0,050	79	438,461504178454
0,050	80	438,461504178454
0,050	81	438,461504178454
0,050	82	438,461504178454
0,050	83	438,461504178454
0,050	84	438,461504178454
0,050	85	438,461504178454
0,050	86	438,461504178454
0,050	87	438,461504178454
0,050	88	438,461504178454
0,050	89	438,461504178454
0,050	90	438,461504178454
0,050	91	438,461504178454
0,050	92	438,461504178454
0,050	93	438,461504178454
0,050	94	438,461504178454
0,050	95	438,03127240409
0,050	96	438,03127240409
0,050	97	438,03127240409
0,050	98	438,03127240409
0,050	99	438,03127240409
0,050	100	438,03127240409
0,050	101	438,03127240409
0,050	102	438,03127240409
0,050	103	438,03127240409
0,050	104	438,03127240409
0,050	105	438,03127240409
0,050	106	438,03127240409
0,050	107	438,03127240409
0,050	108	438,03127240409
0,050	109	438,03127240409
0,050	110	438,03127240409
0,050	111	438,03127240409
0,050	112	438,03127240409
0,050	113	438,03127240409
0,050	114	438,03127240409
0,050	115	438,03127240409
0,050	116	438,03127240409
0,050	117	438,03127240409
0,050	118	438,03127240409
0,050	119	438,03127240409
0,050	120	438,03127240409
0,050	121	438,03127240409
0,050	122	438,03127240409
0,050	123	438,03127240409
0,050	124	438,03127240409
0,050	125	438,03127240409
0,050	126	438,03127240409
0,050	127	438,03127240409
0,050	128	438,03127240409
0,050	129	438,03127240409
0,050	130	438,03127240409
0,050	131	438,03127240409
0,050	132	438,03127240409
0,050	133	438,03127240409
0,050	134	438,03127240409
0,050	135	438,03127240409
0,050	136	438,03127240409
0,050	137	438,03127240409
0,050	138	438,03127240409
0,050	139	438,03127240409
