0,450	0	1280,19923287556
0,450	1	1280,19923287556
0,450	2	1090,58012239307
0,450	3	1090,58012239307
0,450	4	1090,58012239307
0,450	5	1090,58012239307
0,450	6	1090,58012239307
0,450	7	1071,62135177947
0,450	8	1044,49490165543
0,450	9	966,706513685131
0,450	10	966,706513685131
0,450	11	966,706513685131
0,450	12	966,706513685131
0,450	13	966,706513685131
0,450	14	865,653886022923
0,450	15	865,653886022923
0,450	16	792,054103947116
0,450	17	703,618903428818
0,450	18	703,618903428818
0,450	19	703,618903428818
0,450	20	703,618903428818
0,450	21	703,618903428818
0,450	22	703,618903428818
0,450	23	703,618903428818
0,450	24	703,618903428818
0,450	25	703,618903428818
0,450	26	703,618903428818
0,450	27	703,618903428818
0,450	28	703,618903428818
0,450	29	703,618903428818
0,450	30	703,618903428818
0,450	31	703,618903428818
0,450	32	703,618903428818
0,450	33	703,618903428818
0,450	34	703,618903428818
0,450	35	703,618903428818
0,450	36	703,618903428818
0,450	37	703,618903428818
0,450	38	703,618903428818
0,450	39	703,618903428818
0,450	40	703,618903428818
0,450	41	703,618903428818
0,450	42	703,618903428818
0,450	43	690,356261638663
0,450	44	690,356261638663
0,450	45	690,356261638663
0,450	46	690,356261638663
0,450	47	690,356261638663
0,450	48	690,356261638663
0,450	49	690,356261638663
0,450	50	690,356261638663
0,450	51	690,356261638663
0,450	52	690,356261638663
0,450	53	665,843488296481
0,450	54	665,843488296481
0,450	55	665,843488296481
0,450	56	665,843488296481
0,450	57	665,843488296481
0,450	58	665,843488296481
0,450	59	665,843488296481
0,450	60	665,843488296481
0,450	61	665,843488296481
0,450	62	665,843488296481
0,450	63	665,843488296481
0,450	64	665,843488296481
0,450	65	665,843488296481
0,450	66	665,843488296481
0,450	67	665,843488296481
0,450	68	665,843488296481
0,450	69	665,657097719008
0,450	70	665,657097719008
0,450	71	665,657097719008
0,450	72	665,657097719008
0,450	73	665,657097719008
0,450	74	663,422411434626
0,450	75	663,422411434626
0,450	76	663,422411434626
0,450	77	663,422411434626
0,450	78	663,422411434626
0,450	79	663,422411434626
0,450	80	663,422411434626
0,450	81	663,422411434626
0,450	82	663,422411434626
0,450	83	663,422411434626
0,450	84	663,422411434626
0,450	85	663,422411434626
0,450	86	663,422411434626
0,450	87	663,422411434626
0,450	88	663,422411434626
0,450	89	663,422411434626
0,450	90	663,422411434626
0,450	91	663,422411434626
0,450	92	663,422411434626
0,450	93	663,422411434626
0,450	94	663,422411434626
0,450	95	663,422411434626
0,450	96	663,422411434626
0,450	97	663,422411434626
0,450	98	663,422411434626
0,450	99	663,422411434626
0,450	100	663,422411434626
0,450	101	663,422411434626
0,450	102	663,422411434626
0,450	103	663,422411434626
0,450	104	663,422411434626
0,450	105	663,422411434626
0,450	106	663,422411434626
0,450	107	663,422411434626
0,450	108	663,422411434626
0,450	109	663,422411434626
0,450	110	663,422411434626
0,450	111	663,422411434626
0,450	112	663,422411434626
0,450	113	663,422411434626
0,450	114	663,422411434626
0,450	115	663,422411434626
0,450	116	663,422411434626
0,450	117	663,422411434626
0,450	118	663,422411434626
0,450	119	663,422411434626
0,450	120	663,422411434626
0,450	121	640,990485266943
0,450	122	640,990485266943
0,450	123	640,990485266943
0,450	124	640,990485266943
0,450	125	640,990485266943
0,450	126	640,990485266943
0,450	127	640,990485266943
0,450	128	640,990485266943
0,450	129	640,990485266943
0,450	130	640,990485266943
0,450	131	640,990485266943
0,450	132	640,990485266943
0,450	133	640,990485266943
0,450	134	640,990485266943
0,450	135	640,990485266943
0,450	136	640,990485266943
0,450	137	640,990485266943
0,450	138	640,990485266943
0,450	139	640,990485266943
