0,125	0	522,864027647993
0,125	1	522,864027647993
0,125	2	519,676901744033
0,125	3	519,676901744033
0,125	4	519,676901744033
0,125	5	519,676901744033
0,125	6	519,676901744033
0,125	7	519,676901744033
0,125	8	519,676901744033
0,125	9	517,484764905894
0,125	10	505,023096674676
0,125	11	505,023096674676
0,125	12	505,023096674676
0,125	13	505,023096674676
0,125	14	503,551350428101
0,125	15	501,822109067583
0,125	16	501,822109067583
0,125	17	501,822109067583
0,125	18	501,822109067583
0,125	19	501,822109067583
0,125	20	501,822109067583
0,125	21	488,951662897111
0,125	22	488,951662897111
0,125	23	488,951662897111
0,125	24	488,951662897111
0,125	25	488,951662897111
0,125	26	488,951662897111
0,125	27	488,951662897111
0,125	28	488,951662897111
0,125	29	488,951662897111
0,125	30	488,951662897111
0,125	31	488,951662897111
0,125	32	488,951662897111
0,125	33	488,951662897111
0,125	34	488,951662897111
0,125	35	488,951662897111
0,125	36	488,951662897111
0,125	37	488,951662897111
0,125	38	488,951662897111
0,125	39	488,951662897111
0,125	40	488,951662897111
0,125	41	488,951662897111
0,125	42	488,951662897111
0,125	43	488,951662897111
0,125	44	488,951662897111
0,125	45	485,465861442427
0,125	46	485,465861442427
0,125	47	485,465861442427
0,125	48	485,465861442427
0,125	49	485,465861442427
0,125	50	485,465861442427
0,125	51	485,465861442427
0,125	52	485,465861442427
0,125	53	485,465861442427
0,125	54	485,465861442427
0,125	55	485,465861442427
0,125	56	485,465861442427
0,125	57	485,465861442427
0,125	58	473,912548696055
0,125	59	473,912548696055
0,125	60	470,449421433658
0,125	61	470,449421433658
0,125	62	470,449421433658
0,125	63	470,449421433658
0,125	64	470,449421433658
0,125	65	470,449421433658
0,125	66	470,449421433658
0,125	67	470,449421433658
0,125	68	470,449421433658
0,125	69	470,449421433658
0,125	70	470,449421433658
0,125	71	470,449421433658
0,125	72	470,449421433658
0,125	73	470,449421433658
0,125	74	470,449421433658
0,125	75	470,449421433658
0,125	76	470,449421433658
0,125	77	470,449421433658
0,125	78	470,449421433658
0,125	79	470,449421433658
0,125	80	470,449421433658
0,125	81	470,449421433658
0,125	82	470,449421433658
0,125	83	470,449421433658
0,125	84	470,449421433658
0,125	85	470,449421433658
0,125	86	470,449421433658
0,125	87	470,449421433658
0,125	88	470,449421433658
0,125	89	470,449421433658
0,125	90	470,449421433658
0,125	91	466,003435664052
0,125	92	466,003435664052
0,125	93	466,003435664052
0,125	94	466,003435664052
0,125	95	466,003435664052
0,125	96	466,003435664052
0,125	97	466,003435664052
0,125	98	466,003435664052
0,125	99	466,003435664052
0,125	100	466,003435664052
0,125	101	466,003435664052
0,125	102	466,003435664052
0,125	103	466,003435664052
0,125	104	466,003435664052
0,125	105	466,003435664052
0,125	106	466,003435664052
0,125	107	466,003435664052
0,125	108	466,003435664052
0,125	109	466,003435664052
0,125	110	466,003435664052
0,125	111	466,003435664052
0,125	112	466,003435664052
0,125	113	466,003435664052
0,125	114	466,003435664052
0,125	115	466,003435664052
0,125	116	466,003435664052
0,125	117	466,003435664052
0,125	118	466,003435664052
0,125	119	466,003435664052
0,125	120	466,003435664052
0,125	121	466,003435664052
0,125	122	466,003435664052
0,125	123	466,003435664052
0,125	124	466,003435664052
0,125	125	466,003435664052
0,125	126	466,003435664052
0,125	127	466,003435664052
0,125	128	466,003435664052
0,125	129	466,003435664052
0,125	130	466,003435664052
0,125	131	466,003435664052
0,125	132	466,003435664052
0,125	133	466,003435664052
0,125	134	466,003435664052
0,125	135	466,003435664052
0,125	136	466,003435664052
0,125	137	466,003435664052
0,125	138	466,003435664052
0,125	139	466,003435664052
