0,775	0	612,480040618838
0,775	1	612,480040618838
0,775	2	612,480040618838
0,775	3	612,480040618838
0,775	4	612,480040618838
0,775	5	612,480040618838
0,775	6	612,480040618838
0,775	7	612,480040618838
0,775	8	612,480040618838
0,775	9	612,480040618838
0,775	10	612,480040618838
0,775	11	612,480040618838
0,775	12	612,480040618838
0,775	13	612,480040618838
0,775	14	612,480040618838
0,775	15	612,480040618838
0,775	16	612,480040618838
0,775	17	612,480040618838
0,775	18	612,480040618838
0,775	19	612,480040618838
0,775	20	612,480040618838
0,775	21	612,480040618838
0,775	22	612,480040618838
0,775	23	612,480040618838
0,775	24	612,480040618838
0,775	25	612,480040618838
0,775	26	612,480040618838
0,775	27	612,480040618838
0,775	28	612,480040618838
0,775	29	612,480040618838
0,775	30	612,480040618838
0,775	31	612,480040618838
0,775	32	612,480040618838
0,775	33	612,480040618838
0,775	34	612,480040618838
0,775	35	612,480040618838
0,775	36	612,480040618838
0,775	37	612,480040618838
0,775	38	612,480040618838
0,775	39	612,480040618838
0,775	40	612,480040618838
0,775	41	612,480040618838
0,775	42	612,480040618838
0,775	43	612,480040618838
0,775	44	612,480040618838
0,775	45	612,480040618838
0,775	46	612,480040618838
0,775	47	612,480040618838
0,775	48	612,480040618838
0,775	49	612,480040618838
0,775	50	612,480040618838
0,775	51	612,480040618838
0,775	52	612,480040618838
0,775	53	612,480040618838
0,775	54	612,480040618838
0,775	55	612,480040618838
0,775	56	612,480040618838
0,775	57	612,480040618838
0,775	58	612,480040618838
0,775	59	612,480040618838
0,775	60	612,480040618838
0,775	61	612,480040618838
0,775	62	612,480040618838
0,775	63	612,480040618838
0,775	64	612,480040618838
0,775	65	612,480040618838
0,775	66	612,480040618838
0,775	67	612,480040618838
0,775	68	612,480040618838
0,775	69	612,480040618838
0,775	70	612,480040618838
0,775	71	612,480040618838
0,775	72	612,480040618838
0,775	73	612,480040618838
0,775	74	612,480040618838
0,775	75	612,480040618838
0,775	76	612,480040618838
0,775	77	612,480040618838
0,775	78	612,480040618838
0,775	79	612,480040618838
0,775	80	612,480040618838
0,775	81	612,480040618838
0,775	82	612,480040618838
0,775	83	612,480040618838
0,775	84	612,480040618838
0,775	85	612,480040618838
0,775	86	612,480040618838
0,775	87	612,480040618838
0,775	88	612,480040618838
0,775	89	612,480040618838
0,775	90	612,480040618838
0,775	91	612,480040618838
0,775	92	612,480040618838
0,775	93	612,480040618838
0,775	94	612,480040618838
0,775	95	612,480040618838
0,775	96	612,480040618838
0,775	97	612,480040618838
0,775	98	612,480040618838
0,775	99	612,480040618838
0,775	100	612,480040618838
0,775	101	612,480040618838
0,775	102	612,480040618838
0,775	103	612,480040618838
0,775	104	612,480040618838
0,775	105	612,480040618838
0,775	106	612,480040618838
0,775	107	612,480040618838
0,775	108	612,480040618838
0,775	109	612,480040618838
0,775	110	612,480040618838
0,775	111	612,480040618838
0,775	112	612,480040618838
0,775	113	612,480040618838
0,775	114	612,480040618838
0,775	115	612,480040618838
0,775	116	612,480040618838
0,775	117	612,480040618838
0,775	118	612,480040618838
0,775	119	612,480040618838
0,775	120	612,480040618838
0,775	121	612,480040618838
0,775	122	612,480040618838
0,775	123	612,480040618838
0,775	124	612,480040618838
0,775	125	612,480040618838
0,775	126	612,480040618838
0,775	127	612,480040618838
0,775	128	612,480040618838
0,775	129	612,480040618838
0,775	130	612,480040618838
0,775	131	612,480040618838
0,775	132	612,480040618838
0,775	133	612,480040618838
0,775	134	612,480040618838
0,775	135	612,480040618838
0,775	136	612,480040618838
0,775	137	612,480040618838
0,775	138	612,480040618838
0,775	139	612,480040618838
