0,150	0	830,246872263374
0,150	1	523,719787867565
0,150	2	509,471901755127
0,150	3	509,471901755127
0,150	4	509,471901755127
0,150	5	509,471901755127
0,150	6	499,654159206019
0,150	7	499,654159206019
0,150	8	493,920484748591
0,150	9	493,920484748591
0,150	10	493,920484748591
0,150	11	493,920484748591
0,150	12	493,920484748591
0,150	13	493,920484748591
0,150	14	488,76737632299
0,150	15	488,76737632299
0,150	16	472,16185805256
0,150	17	472,16185805256
0,150	18	472,16185805256
0,150	19	472,16185805256
0,150	20	472,16185805256
0,150	21	472,16185805256
0,150	22	472,16185805256
0,150	23	472,16185805256
0,150	24	472,16185805256
0,150	25	472,16185805256
0,150	26	472,16185805256
0,150	27	472,16185805256
0,150	28	472,16185805256
0,150	29	472,16185805256
0,150	30	472,16185805256
0,150	31	472,16185805256
0,150	32	472,16185805256
0,150	33	472,16185805256
0,150	34	472,16185805256
0,150	35	472,16185805256
0,150	36	472,16185805256
0,150	37	472,16185805256
0,150	38	472,16185805256
0,150	39	472,16185805256
0,150	40	472,16185805256
0,150	41	472,16185805256
0,150	42	472,16185805256
0,150	43	472,16185805256
0,150	44	472,16185805256
0,150	45	472,16185805256
0,150	46	472,16185805256
0,150	47	472,16185805256
0,150	48	472,16185805256
0,150	49	472,16185805256
0,150	50	472,16185805256
0,150	51	472,16185805256
0,150	52	472,16185805256
0,150	53	472,16185805256
0,150	54	472,16185805256
0,150	55	472,16185805256
0,150	56	472,16185805256
0,150	57	472,16185805256
0,150	58	472,16185805256
0,150	59	472,16185805256
0,150	60	472,16185805256
0,150	61	472,16185805256
0,150	62	472,16185805256
0,150	63	472,16185805256
0,150	64	472,16185805256
0,150	65	472,16185805256
0,150	66	472,16185805256
0,150	67	472,16185805256
0,150	68	472,16185805256
0,150	69	472,16185805256
0,150	70	472,16185805256
0,150	71	472,16185805256
0,150	72	472,16185805256
0,150	73	472,16185805256
0,150	74	472,16185805256
0,150	75	472,16185805256
0,150	76	472,16185805256
0,150	77	472,16185805256
0,150	78	472,16185805256
0,150	79	472,16185805256
0,150	80	472,16185805256
0,150	81	472,16185805256
0,150	82	472,16185805256
0,150	83	472,16185805256
0,150	84	472,16185805256
0,150	85	472,16185805256
0,150	86	472,16185805256
0,150	87	472,16185805256
0,150	88	472,16185805256
0,150	89	472,16185805256
0,150	90	472,16185805256
0,150	91	472,16185805256
0,150	92	472,16185805256
0,150	93	472,16185805256
0,150	94	472,16185805256
0,150	95	472,16185805256
0,150	96	472,16185805256
0,150	97	472,16185805256
0,150	98	472,16185805256
0,150	99	472,16185805256
0,150	100	472,16185805256
0,150	101	472,16185805256
0,150	102	472,16185805256
0,150	103	472,16185805256
0,150	104	472,16185805256
0,150	105	472,16185805256
0,150	106	472,16185805256
0,150	107	472,16185805256
0,150	108	472,16185805256
0,150	109	472,16185805256
0,150	110	472,16185805256
0,150	111	472,16185805256
0,150	112	472,16185805256
0,150	113	472,16185805256
0,150	114	472,16185805256
0,150	115	472,16185805256
0,150	116	472,16185805256
0,150	117	472,16185805256
0,150	118	472,16185805256
0,150	119	472,16185805256
0,150	120	472,16185805256
0,150	121	472,16185805256
0,150	122	472,16185805256
0,150	123	472,16185805256
0,150	124	472,16185805256
0,150	125	472,16185805256
0,150	126	472,16185805256
0,150	127	472,16185805256
0,150	128	472,16185805256
0,150	129	472,16185805256
0,150	130	472,16185805256
0,150	131	472,16185805256
0,150	132	472,16185805256
0,150	133	472,16185805256
0,150	134	472,16185805256
0,150	135	472,16185805256
0,150	136	472,16185805256
0,150	137	472,16185805256
0,150	138	472,16185805256
0,150	139	472,16185805256
