0,100	0	536,759007951942
0,100	1	525,484229263753
0,100	2	523,437578364967
0,100	3	513,522853618818
0,100	4	513,522853618818
0,100	5	512,11777317619
0,100	6	495,487519433461
0,100	7	495,487519433461
0,100	8	491,38405884939
0,100	9	491,38405884939
0,100	10	491,38405884939
0,100	11	464,555668873511
0,100	12	464,555668873511
0,100	13	464,555668873511
0,100	14	464,555668873511
0,100	15	464,555668873511
0,100	16	464,555668873511
0,100	17	464,555668873511
0,100	18	464,555668873511
0,100	19	464,555668873511
0,100	20	464,555668873511
0,100	21	461,511699352073
0,100	22	461,511699352073
0,100	23	461,511699352073
0,100	24	461,511699352073
0,100	25	461,511699352073
0,100	26	461,511699352073
0,100	27	461,511699352073
0,100	28	461,511699352073
0,100	29	461,511699352073
0,100	30	461,511699352073
0,100	31	461,511699352073
0,100	32	461,511699352073
0,100	33	461,511699352073
0,100	34	461,511699352073
0,100	35	461,511699352073
0,100	36	461,511699352073
0,100	37	461,511699352073
0,100	38	461,511699352073
0,100	39	461,511699352073
0,100	40	461,511699352073
0,100	41	461,511699352073
0,100	42	461,511699352073
0,100	43	461,511699352073
0,100	44	461,511699352073
0,100	45	461,511699352073
0,100	46	461,511699352073
0,100	47	458,493141746337
0,100	48	458,493141746337
0,100	49	458,493141746337
0,100	50	458,493141746337
0,100	51	458,493141746337
0,100	52	458,493141746337
0,100	53	458,493141746337
0,100	54	458,493141746337
0,100	55	458,493141746337
0,100	56	458,493141746337
0,100	57	458,493141746337
0,100	58	458,493141746337
0,100	59	458,493141746337
0,100	60	458,493141746337
0,100	61	458,493141746337
0,100	62	458,493141746337
0,100	63	458,493141746337
0,100	64	458,493141746337
0,100	65	458,493141746337
0,100	66	458,493141746337
0,100	67	458,493141746337
0,100	68	458,493141746337
0,100	69	458,493141746337
0,100	70	458,493141746337
0,100	71	458,493141746337
0,100	72	458,493141746337
0,100	73	458,493141746337
0,100	74	458,493141746337
0,100	75	458,493141746337
0,100	76	458,493141746337
0,100	77	458,493141746337
0,100	78	458,493141746337
0,100	79	458,493141746337
0,100	80	458,493141746337
0,100	81	458,493141746337
0,100	82	458,493141746337
0,100	83	458,493141746337
0,100	84	458,493141746337
0,100	85	458,493141746337
0,100	86	458,493141746337
0,100	87	458,493141746337
0,100	88	458,493141746337
0,100	89	458,493141746337
0,100	90	458,493141746337
0,100	91	458,493141746337
0,100	92	458,493141746337
0,100	93	458,493141746337
0,100	94	458,493141746337
0,100	95	458,493141746337
0,100	96	458,493141746337
0,100	97	458,493141746337
0,100	98	458,493141746337
0,100	99	458,493141746337
0,100	100	458,493141746337
0,100	101	458,493141746337
0,100	102	458,493141746337
0,100	103	458,493141746337
0,100	104	458,493141746337
0,100	105	458,493141746337
0,100	106	458,493141746337
0,100	107	458,493141746337
0,100	108	458,493141746337
0,100	109	458,493141746337
0,100	110	458,493141746337
0,100	111	458,493141746337
0,100	112	458,493141746337
0,100	113	458,493141746337
0,100	114	458,493141746337
0,100	115	458,493141746337
0,100	116	458,493141746337
0,100	117	458,493141746337
0,100	118	458,493141746337
0,100	119	458,493141746337
0,100	120	458,493141746337
0,100	121	458,493141746337
0,100	122	458,493141746337
0,100	123	458,493141746337
0,100	124	458,493141746337
0,100	125	458,493141746337
0,100	126	458,493141746337
0,100	127	458,493141746337
0,100	128	458,493141746337
0,100	129	458,493141746337
0,100	130	458,493141746337
0,100	131	458,493141746337
0,100	132	458,493141746337
0,100	133	458,493141746337
0,100	134	458,493141746337
0,100	135	458,493141746337
0,100	136	458,493141746337
0,100	137	458,493141746337
0,100	138	458,493141746337
0,100	139	458,493141746337
