0,400	0	741,764505236582
0,400	1	741,764505236582
0,400	2	698,307774776648
0,400	3	698,307774776648
0,400	4	698,307774776648
0,400	5	698,307774776648
0,400	6	698,307774776648
0,400	7	698,307774776648
0,400	8	698,307774776648
0,400	9	698,307774776648
0,400	10	698,307774776648
0,400	11	698,307774776648
0,400	12	698,307774776648
0,400	13	698,307774776648
0,400	14	577,91244086046
0,400	15	577,91244086046
0,400	16	577,91244086046
0,400	17	577,91244086046
0,400	18	577,91244086046
0,400	19	577,91244086046
0,400	20	577,91244086046
0,400	21	577,91244086046
0,400	22	577,91244086046
0,400	23	577,91244086046
0,400	24	573,322964351157
0,400	25	573,322964351157
0,400	26	573,322964351157
0,400	27	573,322964351157
0,400	28	573,322964351157
0,400	29	573,322964351157
0,400	30	573,322964351157
0,400	31	573,322964351157
0,400	32	573,322964351157
0,400	33	573,322964351157
0,400	34	573,322964351157
0,400	35	573,322964351157
0,400	36	573,322964351157
0,400	37	573,322964351157
0,400	38	573,322964351157
0,400	39	573,322964351157
0,400	40	573,322964351157
0,400	41	573,322964351157
0,400	42	573,322964351157
0,400	43	573,322964351157
0,400	44	573,322964351157
0,400	45	573,322964351157
0,400	46	573,322964351157
0,400	47	573,322964351157
0,400	48	573,322964351157
0,400	49	573,322964351157
0,400	50	573,322964351157
0,400	51	573,322964351157
0,400	52	573,322964351157
0,400	53	573,322964351157
0,400	54	573,322964351157
0,400	55	573,322964351157
0,400	56	573,322964351157
0,400	57	573,322964351157
0,400	58	573,322964351157
0,400	59	573,322964351157
0,400	60	573,322964351157
0,400	61	573,322964351157
0,400	62	573,322964351157
0,400	63	573,322964351157
0,400	64	573,322964351157
0,400	65	573,322964351157
0,400	66	573,322964351157
0,400	67	573,322964351157
0,400	68	573,322964351157
0,400	69	573,322964351157
0,400	70	573,322964351157
0,400	71	573,322964351157
0,400	72	573,322964351157
0,400	73	573,322964351157
0,400	74	573,322964351157
0,400	75	573,322964351157
0,400	76	573,322964351157
0,400	77	573,322964351157
0,400	78	573,322964351157
0,400	79	573,322964351157
0,400	80	573,322964351157
0,400	81	573,322964351157
0,400	82	573,322964351157
0,400	83	573,322964351157
0,400	84	573,322964351157
0,400	85	573,322964351157
0,400	86	573,322964351157
0,400	87	573,322964351157
0,400	88	573,322964351157
0,400	89	573,322964351157
0,400	90	573,322964351157
0,400	91	573,322964351157
0,400	92	573,322964351157
0,400	93	573,322964351157
0,400	94	573,322964351157
0,400	95	573,322964351157
0,400	96	573,322964351157
0,400	97	573,322964351157
0,400	98	573,322964351157
0,400	99	573,322964351157
0,400	100	573,322964351157
0,400	101	573,322964351157
0,400	102	573,322964351157
0,400	103	573,322964351157
0,400	104	573,322964351157
0,400	105	573,322964351157
0,400	106	573,322964351157
0,400	107	573,322964351157
0,400	108	573,322964351157
0,400	109	573,322964351157
0,400	110	573,322964351157
0,400	111	573,322964351157
0,400	112	573,322964351157
0,400	113	573,322964351157
0,400	114	573,322964351157
0,400	115	573,322964351157
0,400	116	573,322964351157
0,400	117	573,322964351157
0,400	118	573,322964351157
0,400	119	573,322964351157
0,400	120	573,322964351157
0,400	121	573,322964351157
0,400	122	573,322964351157
0,400	123	573,322964351157
0,400	124	573,322964351157
0,400	125	573,322964351157
0,400	126	573,322964351157
0,400	127	573,322964351157
0,400	128	573,322964351157
0,400	129	573,322964351157
0,400	130	573,322964351157
0,400	131	573,322964351157
0,400	132	573,322964351157
0,400	133	573,322964351157
0,400	134	573,322964351157
0,400	135	573,322964351157
0,400	136	573,322964351157
0,400	137	573,322964351157
0,400	138	573,322964351157
0,400	139	573,322964351157
