0,850	0	612,480040618838
0,850	1	612,480040618838
0,850	2	612,480040618838
0,850	3	612,480040618838
0,850	4	612,480040618838
0,850	5	612,480040618838
0,850	6	612,480040618838
0,850	7	612,480040618838
0,850	8	612,480040618838
0,850	9	612,480040618838
0,850	10	612,480040618838
0,850	11	612,480040618838
0,850	12	612,480040618838
0,850	13	612,480040618838
0,850	14	612,480040618838
0,850	15	612,480040618838
0,850	16	612,480040618838
0,850	17	612,480040618838
0,850	18	612,480040618838
0,850	19	612,480040618838
0,850	20	612,480040618838
0,850	21	612,480040618838
0,850	22	612,480040618838
0,850	23	612,480040618838
0,850	24	612,480040618838
0,850	25	612,480040618838
0,850	26	612,480040618838
0,850	27	612,480040618838
0,850	28	612,480040618838
0,850	29	612,480040618838
0,850	30	612,480040618838
0,850	31	612,480040618838
0,850	32	612,480040618838
0,850	33	612,480040618838
0,850	34	612,480040618838
0,850	35	612,480040618838
0,850	36	612,480040618838
0,850	37	612,480040618838
0,850	38	612,480040618838
0,850	39	612,480040618838
0,850	40	612,480040618838
0,850	41	612,480040618838
0,850	42	612,480040618838
0,850	43	612,480040618838
0,850	44	612,480040618838
0,850	45	612,480040618838
0,850	46	612,480040618838
0,850	47	612,480040618838
0,850	48	612,480040618838
0,850	49	612,480040618838
0,850	50	612,480040618838
0,850	51	612,480040618838
0,850	52	612,480040618838
0,850	53	612,480040618838
0,850	54	612,480040618838
0,850	55	612,480040618838
0,850	56	612,480040618838
0,850	57	612,480040618838
0,850	58	612,480040618838
0,850	59	612,480040618838
0,850	60	612,480040618838
0,850	61	612,480040618838
0,850	62	612,480040618838
0,850	63	612,480040618838
0,850	64	612,480040618838
0,850	65	612,480040618838
0,850	66	612,480040618838
0,850	67	612,480040618838
0,850	68	612,480040618838
0,850	69	612,480040618838
0,850	70	612,480040618838
0,850	71	612,480040618838
0,850	72	612,480040618838
0,850	73	612,480040618838
0,850	74	612,480040618838
0,850	75	612,480040618838
0,850	76	612,480040618838
0,850	77	612,480040618838
0,850	78	612,480040618838
0,850	79	612,480040618838
0,850	80	612,480040618838
0,850	81	612,480040618838
0,850	82	612,480040618838
0,850	83	612,480040618838
0,850	84	612,480040618838
0,850	85	612,480040618838
0,850	86	612,480040618838
0,850	87	612,480040618838
0,850	88	612,480040618838
0,850	89	612,480040618838
0,850	90	612,480040618838
0,850	91	612,480040618838
0,850	92	612,480040618838
0,850	93	612,480040618838
0,850	94	612,480040618838
0,850	95	612,480040618838
0,850	96	612,480040618838
0,850	97	612,480040618838
0,850	98	612,480040618838
0,850	99	612,480040618838
0,850	100	612,480040618838
0,850	101	612,480040618838
0,850	102	612,480040618838
0,850	103	612,480040618838
0,850	104	612,480040618838
0,850	105	612,480040618838
0,850	106	612,480040618838
0,850	107	612,480040618838
0,850	108	612,480040618838
0,850	109	612,480040618838
0,850	110	612,480040618838
0,850	111	612,480040618838
0,850	112	612,480040618838
0,850	113	612,480040618838
0,850	114	612,480040618838
0,850	115	612,480040618838
0,850	116	612,480040618838
0,850	117	612,480040618838
0,850	118	612,480040618838
0,850	119	612,480040618838
0,850	120	612,480040618838
0,850	121	612,480040618838
0,850	122	612,480040618838
0,850	123	612,480040618838
0,850	124	612,480040618838
0,850	125	612,480040618838
0,850	126	612,480040618838
0,850	127	612,480040618838
0,850	128	612,480040618838
0,850	129	612,480040618838
0,850	130	612,480040618838
0,850	131	612,480040618838
0,850	132	612,480040618838
0,850	133	612,480040618838
0,850	134	612,480040618838
0,850	135	612,480040618838
0,850	136	612,480040618838
0,850	137	612,480040618838
0,850	138	612,480040618838
0,850	139	612,480040618838
