0,625	0	832,562630547998
0,625	1	693,823602449986
0,625	2	693,823602449986
0,625	3	693,823602449986
0,625	4	693,823602449986
0,625	5	633,974151810225
0,625	6	633,974151810225
0,625	7	633,974151810225
0,625	8	629,322216404423
0,625	9	629,322216404423
0,625	10	629,322216404423
0,625	11	629,322216404423
0,625	12	629,322216404423
0,625	13	629,322216404423
0,625	14	618,498979377541
0,625	15	618,498979377541
0,625	16	618,498979377541
0,625	17	618,498979377541
0,625	18	618,498979377541
0,625	19	618,498979377541
0,625	20	618,498979377541
0,625	21	618,498979377541
0,625	22	618,498979377541
0,625	23	618,498979377541
0,625	24	618,498979377541
0,625	25	612,480040618838
0,625	26	612,480040618838
0,625	27	612,480040618838
0,625	28	612,480040618838
0,625	29	612,480040618838
0,625	30	612,480040618838
0,625	31	612,480040618838
0,625	32	612,480040618838
0,625	33	612,480040618838
0,625	34	612,480040618838
0,625	35	612,480040618838
0,625	36	612,480040618838
0,625	37	612,480040618838
0,625	38	612,480040618838
0,625	39	612,480040618838
0,625	40	612,480040618838
0,625	41	612,480040618838
0,625	42	612,480040618838
0,625	43	612,480040618838
0,625	44	612,480040618838
0,625	45	612,480040618838
0,625	46	612,480040618838
0,625	47	612,480040618838
0,625	48	612,480040618838
0,625	49	612,480040618838
0,625	50	612,480040618838
0,625	51	612,480040618838
0,625	52	612,480040618838
0,625	53	612,480040618838
0,625	54	612,480040618838
0,625	55	612,480040618838
0,625	56	612,480040618838
0,625	57	612,480040618838
0,625	58	612,480040618838
0,625	59	612,480040618838
0,625	60	612,480040618838
0,625	61	612,480040618838
0,625	62	612,480040618838
0,625	63	612,480040618838
0,625	64	612,480040618838
0,625	65	612,480040618838
0,625	66	612,480040618838
0,625	67	612,480040618838
0,625	68	612,480040618838
0,625	69	612,480040618838
0,625	70	612,480040618838
0,625	71	612,480040618838
0,625	72	612,480040618838
0,625	73	612,480040618838
0,625	74	612,480040618838
0,625	75	612,480040618838
0,625	76	612,480040618838
0,625	77	612,480040618838
0,625	78	612,480040618838
0,625	79	612,480040618838
0,625	80	612,480040618838
0,625	81	612,480040618838
0,625	82	612,480040618838
0,625	83	612,480040618838
0,625	84	612,480040618838
0,625	85	612,480040618838
0,625	86	612,480040618838
0,625	87	612,480040618838
0,625	88	612,480040618838
0,625	89	612,480040618838
0,625	90	612,480040618838
0,625	91	612,480040618838
0,625	92	612,480040618838
0,625	93	612,480040618838
0,625	94	612,480040618838
0,625	95	612,480040618838
0,625	96	612,480040618838
0,625	97	612,480040618838
0,625	98	612,480040618838
0,625	99	612,480040618838
0,625	100	612,480040618838
0,625	101	612,480040618838
0,625	102	612,480040618838
0,625	103	612,480040618838
0,625	104	612,480040618838
0,625	105	612,480040618838
0,625	106	612,480040618838
0,625	107	612,480040618838
0,625	108	612,480040618838
0,625	109	612,480040618838
0,625	110	612,480040618838
0,625	111	612,480040618838
0,625	112	612,480040618838
0,625	113	612,480040618838
0,625	114	612,480040618838
0,625	115	612,480040618838
0,625	116	612,480040618838
0,625	117	612,480040618838
0,625	118	612,480040618838
0,625	119	612,480040618838
0,625	120	612,480040618838
0,625	121	612,480040618838
0,625	122	612,480040618838
0,625	123	612,480040618838
0,625	124	612,480040618838
0,625	125	612,480040618838
0,625	126	612,480040618838
0,625	127	612,480040618838
0,625	128	612,480040618838
0,625	129	612,480040618838
0,625	130	612,480040618838
0,625	131	612,480040618838
0,625	132	612,480040618838
0,625	133	612,480040618838
0,625	134	612,480040618838
0,625	135	612,480040618838
0,625	136	612,480040618838
0,625	137	612,480040618838
0,625	138	612,480040618838
0,625	139	612,480040618838
