0,450	0	1552,42865779479
0,450	1	1552,42865779479
0,450	2	1552,42865779479
0,450	3	1549,91625708529
0,450	4	1549,91625708529
0,450	5	1548,64906102449
0,450	6	1394,94765737577
0,450	7	1394,94765737577
0,450	8	1345,16461057207
0,450	9	1345,16461057207
0,450	10	1344,08264806443
0,450	11	1263,30593145041
0,450	12	1263,30593145041
0,450	13	1263,30593145041
0,450	14	1263,30593145041
0,450	15	1263,30593145041
0,450	16	1263,30593145041
0,450	17	1263,30593145041
0,450	18	1263,30593145041
0,450	19	1155,47039237205
0,450	20	1123,31012103008
0,450	21	1123,31012103008
0,450	22	1100,05517505337
0,450	23	1100,05517505337
0,450	24	1100,05517505337
0,450	25	1022,54559134979
0,450	26	1022,54559134979
0,450	27	1022,54559134979
0,450	28	1022,54559134979
0,450	29	1022,54559134979
0,450	30	1022,54559134979
0,450	31	1022,54559134979
0,450	32	1022,54559134979
0,450	33	1022,54559134979
0,450	34	1003,07746641093
0,450	35	1003,07746641093
0,450	36	921,908618310458
0,450	37	921,908618310458
0,450	38	921,908618310458
0,450	39	916,09333822108
0,450	40	916,09333822108
0,450	41	916,09333822108
0,450	42	872,42587336742
0,450	43	872,42587336742
0,450	44	872,42587336742
0,450	45	872,42587336742
0,450	46	872,42587336742
0,450	47	872,42587336742
0,450	48	872,42587336742
0,450	49	872,42587336742
0,450	50	872,42587336742
0,450	51	872,42587336742
0,450	52	872,42587336742
0,450	53	872,42587336742
0,450	54	872,42587336742
0,450	55	872,42587336742
0,450	56	860,916754194787
0,450	57	860,916754194787
0,450	58	860,916754194787
0,450	59	722,866193603828
0,450	60	722,866193603828
0,450	61	696,178800717774
0,450	62	696,178800717774
0,450	63	696,178800717774
0,450	64	696,178800717774
0,450	65	696,178800717774
0,450	66	696,178800717774
0,450	67	647,652428966516
0,450	68	647,652428966516
0,450	69	647,652428966516
0,450	70	647,652428966516
0,450	71	647,652428966516
0,450	72	640,138067454251
0,450	73	640,138067454251
0,450	74	640,138067454251
0,450	75	640,138067454251
0,450	76	640,138067454251
0,450	77	640,138067454251
0,450	78	640,138067454251
0,450	79	640,138067454251
0,450	80	640,138067454251
0,450	81	640,138067454251
0,450	82	640,138067454251
0,450	83	640,138067454251
0,450	84	640,138067454251
0,450	85	640,138067454251
0,450	86	640,138067454251
0,450	87	629,959472452214
0,450	88	629,959472452214
0,450	89	629,959472452214
0,450	90	629,959472452214
0,450	91	617,368395442247
0,450	92	617,368395442247
0,450	93	617,368395442247
0,450	94	617,368395442247
0,450	95	617,368395442247
0,450	96	617,368395442247
0,450	97	617,368395442247
0,450	98	617,368395442247
0,450	99	617,368395442247
0,450	100	617,368395442247
0,450	101	617,368395442247
0,450	102	617,368395442247
0,450	103	617,368395442247
0,450	104	617,368395442247
0,450	105	617,368395442247
0,450	106	617,368395442247
0,450	107	617,368395442247
0,450	108	617,368395442247
0,450	109	617,368395442247
0,450	110	617,368395442247
0,450	111	617,368395442247
0,450	112	617,368395442247
0,450	113	617,368395442247
0,450	114	617,368395442247
0,450	115	617,368395442247
0,450	116	617,368395442247
0,450	117	617,368395442247
0,450	118	617,368395442247
0,450	119	617,368395442247
0,450	120	617,368395442247
0,450	121	617,368395442247
0,450	122	617,368395442247
0,450	123	617,368395442247
0,450	124	617,368395442247
0,450	125	617,368395442247
0,450	126	617,368395442247
0,450	127	617,368395442247
0,450	128	617,368395442247
0,450	129	617,368395442247
0,450	130	617,368395442247
0,450	131	617,368395442247
0,450	132	617,368395442247
0,450	133	617,368395442247
0,450	134	617,368395442247
0,450	135	617,368395442247
0,450	136	617,368395442247
0,450	137	617,368395442247
0,450	138	617,368395442247
0,450	139	617,368395442247
