0,250	0	686,800319122539
0,250	1	686,800319122539
0,250	2	686,800319122539
0,250	3	609,264478823477
0,250	4	609,264478823477
0,250	5	590,818411130193
0,250	6	588,23492738438
0,250	7	573,968325376842
0,250	8	573,968325376842
0,250	9	569,793319551452
0,250	10	552,78643253137
0,250	11	552,78643253137
0,250	12	552,78643253137
0,250	13	552,78643253137
0,250	14	552,78643253137
0,250	15	552,78643253137
0,250	16	551,934066916196
0,250	17	551,934066916196
0,250	18	551,934066916196
0,250	19	551,934066916196
0,250	20	551,934066916196
0,250	21	551,934066916196
0,250	22	551,934066916196
0,250	23	551,934066916196
0,250	24	551,934066916196
0,250	25	546,883550905859
0,250	26	546,883550905859
0,250	27	546,883550905859
0,250	28	546,883550905859
0,250	29	546,883550905859
0,250	30	546,883550905859
0,250	31	546,883550905859
0,250	32	546,883550905859
0,250	33	546,883550905859
0,250	34	546,883550905859
0,250	35	546,883550905859
0,250	36	546,883550905859
0,250	37	546,883550905859
0,250	38	546,883550905859
0,250	39	546,883550905859
0,250	40	546,031185290685
0,250	41	546,031185290685
0,250	42	546,031185290685
0,250	43	546,031185290685
0,250	44	546,031185290685
0,250	45	546,031185290685
0,250	46	540,99236898232
0,250	47	540,99236898232
0,250	48	540,99236898232
0,250	49	540,99236898232
0,250	50	540,99236898232
0,250	51	540,99236898232
0,250	52	540,99236898232
0,250	53	540,99236898232
0,250	54	540,99236898232
0,250	55	540,99236898232
0,250	56	540,99236898232
0,250	57	540,99236898232
0,250	58	540,99236898232
0,250	59	540,99236898232
0,250	60	540,99236898232
0,250	61	540,99236898232
0,250	62	540,99236898232
0,250	63	540,99236898232
0,250	64	540,99236898232
0,250	65	540,99236898232
0,250	66	540,99236898232
0,250	67	540,99236898232
0,250	68	540,99236898232
0,250	69	540,99236898232
0,250	70	540,99236898232
0,250	71	540,99236898232
0,250	72	540,99236898232
0,250	73	540,99236898232
0,250	74	540,99236898232
0,250	75	540,99236898232
0,250	76	540,99236898232
0,250	77	540,99236898232
0,250	78	540,99236898232
0,250	79	540,99236898232
0,250	80	540,99236898232
0,250	81	540,99236898232
0,250	82	540,99236898232
0,250	83	540,99236898232
0,250	84	540,99236898232
0,250	85	540,99236898232
0,250	86	540,99236898232
0,250	87	540,99236898232
0,250	88	540,99236898232
0,250	89	540,99236898232
0,250	90	540,99236898232
0,250	91	540,99236898232
0,250	92	540,99236898232
0,250	93	540,99236898232
0,250	94	540,99236898232
0,250	95	540,99236898232
0,250	96	540,99236898232
0,250	97	540,99236898232
0,250	98	540,99236898232
0,250	99	540,99236898232
0,250	100	540,99236898232
0,250	101	540,99236898232
0,250	102	540,99236898232
0,250	103	540,99236898232
0,250	104	540,99236898232
0,250	105	540,99236898232
0,250	106	540,99236898232
0,250	107	540,99236898232
0,250	108	540,99236898232
0,250	109	540,99236898232
0,250	110	540,99236898232
0,250	111	540,99236898232
0,250	112	540,99236898232
0,250	113	540,99236898232
0,250	114	540,99236898232
0,250	115	540,99236898232
0,250	116	540,99236898232
0,250	117	540,99236898232
0,250	118	540,99236898232
0,250	119	540,99236898232
0,250	120	540,99236898232
0,250	121	540,99236898232
0,250	122	540,99236898232
0,250	123	540,99236898232
0,250	124	540,99236898232
0,250	125	540,99236898232
0,250	126	540,99236898232
0,250	127	540,99236898232
0,250	128	540,99236898232
0,250	129	540,99236898232
0,250	130	540,99236898232
0,250	131	540,99236898232
0,250	132	540,99236898232
0,250	133	540,99236898232
0,250	134	540,99236898232
0,250	135	540,99236898232
0,250	136	540,99236898232
0,250	137	540,99236898232
0,250	138	540,99236898232
0,250	139	540,99236898232
