0,200	0	572,988081343338
0,200	1	558,610796468752
0,200	2	558,610796468752
0,200	3	558,610796468752
0,200	4	558,610796468752
0,200	5	558,610796468752
0,200	6	556,593406571127
0,200	7	556,593406571127
0,200	8	526,109750802673
0,200	9	513,986297573377
0,200	10	513,986297573377
0,200	11	513,986297573377
0,200	12	513,986297573377
0,200	13	511,033995635036
0,200	14	511,033995635036
0,200	15	511,033995635036
0,200	16	511,033995635036
0,200	17	511,033995635036
0,200	18	511,033995635036
0,200	19	511,033995635036
0,200	20	511,033995635036
0,200	21	511,033995635036
0,200	22	511,033995635036
0,200	23	511,033995635036
0,200	24	511,033995635036
0,200	25	511,033995635036
0,200	26	511,033995635036
0,200	27	511,033995635036
0,200	28	511,033995635036
0,200	29	511,033995635036
0,200	30	511,033995635036
0,200	31	511,033995635036
0,200	32	511,033995635036
0,200	33	511,033995635036
0,200	34	511,033995635036
0,200	35	511,033995635036
0,200	36	511,033995635036
0,200	37	511,033995635036
0,200	38	511,033995635036
0,200	39	511,033995635036
0,200	40	511,033995635036
0,200	41	511,033995635036
0,200	42	511,033995635036
0,200	43	511,033995635036
0,200	44	511,033995635036
0,200	45	511,033995635036
0,200	46	511,033995635036
0,200	47	511,033995635036
0,200	48	511,033995635036
0,200	49	511,033995635036
0,200	50	511,033995635036
0,200	51	511,033995635036
0,200	52	511,033995635036
0,200	53	511,033995635036
0,200	54	511,033995635036
0,200	55	511,033995635036
0,200	56	511,033995635036
0,200	57	511,033995635036
0,200	58	511,033995635036
0,200	59	511,033995635036
0,200	60	511,033995635036
0,200	61	511,033995635036
0,200	62	511,033995635036
0,200	63	511,033995635036
0,200	64	511,033995635036
0,200	65	511,033995635036
0,200	66	511,033995635036
0,200	67	511,033995635036
0,200	68	511,033995635036
0,200	69	511,033995635036
0,200	70	511,033995635036
0,200	71	511,033995635036
0,200	72	511,033995635036
0,200	73	511,033995635036
0,200	74	511,033995635036
0,200	75	511,033995635036
0,200	76	511,033995635036
0,200	77	511,033995635036
0,200	78	511,033995635036
0,200	79	511,033995635036
0,200	80	511,033995635036
0,200	81	511,033995635036
0,200	82	511,033995635036
0,200	83	511,033995635036
0,200	84	511,033995635036
0,200	85	511,033995635036
0,200	86	510,82326124131
0,200	87	510,82326124131
0,200	88	510,82326124131
0,200	89	510,82326124131
0,200	90	510,82326124131
0,200	91	510,82326124131
0,200	92	510,82326124131
0,200	93	510,82326124131
0,200	94	510,82326124131
0,200	95	510,82326124131
0,200	96	510,82326124131
0,200	97	510,82326124131
0,200	98	510,82326124131
0,200	99	510,82326124131
0,200	100	510,82326124131
0,200	101	510,82326124131
0,200	102	510,82326124131
0,200	103	510,82326124131
0,200	104	510,82326124131
0,200	105	510,82326124131
0,200	106	510,82326124131
0,200	107	510,82326124131
0,200	108	510,82326124131
0,200	109	510,82326124131
0,200	110	510,82326124131
0,200	111	510,82326124131
0,200	112	510,82326124131
0,200	113	510,765288628778
0,200	114	510,765288628778
0,200	115	510,765288628778
0,200	116	510,765288628778
0,200	117	510,765288628778
0,200	118	510,765288628778
0,200	119	510,765288628778
0,200	120	510,765288628778
0,200	121	510,765288628778
0,200	122	510,554554235052
0,200	123	510,554554235052
0,200	124	510,554554235052
0,200	125	510,554554235052
0,200	126	510,554554235052
0,200	127	510,554554235052
0,200	128	510,554554235052
0,200	129	510,554554235052
0,200	130	510,554554235052
0,200	131	510,554554235052
0,200	132	510,554554235052
0,200	133	510,554554235052
0,200	134	510,554554235052
0,200	135	510,554554235052
0,200	136	510,554554235052
0,200	137	510,554554235052
0,200	138	510,554554235052
0,200	139	510,554554235052
