0,875	0	612,480040618838
0,875	1	612,480040618838
0,875	2	612,480040618838
0,875	3	612,480040618838
0,875	4	612,480040618838
0,875	5	612,480040618838
0,875	6	612,480040618838
0,875	7	612,480040618838
0,875	8	612,480040618838
0,875	9	612,480040618838
0,875	10	612,480040618838
0,875	11	612,480040618838
0,875	12	612,480040618838
0,875	13	612,480040618838
0,875	14	612,480040618838
0,875	15	612,480040618838
0,875	16	612,480040618838
0,875	17	612,480040618838
0,875	18	612,480040618838
0,875	19	612,480040618838
0,875	20	612,480040618838
0,875	21	612,480040618838
0,875	22	612,480040618838
0,875	23	612,480040618838
0,875	24	612,480040618838
0,875	25	612,480040618838
0,875	26	612,480040618838
0,875	27	612,480040618838
0,875	28	612,480040618838
0,875	29	612,480040618838
0,875	30	612,480040618838
0,875	31	612,480040618838
0,875	32	612,480040618838
0,875	33	612,480040618838
0,875	34	612,480040618838
0,875	35	612,480040618838
0,875	36	612,480040618838
0,875	37	612,480040618838
0,875	38	612,480040618838
0,875	39	612,480040618838
0,875	40	612,480040618838
0,875	41	612,480040618838
0,875	42	612,480040618838
0,875	43	612,480040618838
0,875	44	612,480040618838
0,875	45	612,480040618838
0,875	46	612,480040618838
0,875	47	612,480040618838
0,875	48	612,480040618838
0,875	49	612,480040618838
0,875	50	612,480040618838
0,875	51	612,480040618838
0,875	52	612,480040618838
0,875	53	612,480040618838
0,875	54	612,480040618838
0,875	55	612,480040618838
0,875	56	612,480040618838
0,875	57	612,480040618838
0,875	58	612,480040618838
0,875	59	612,480040618838
0,875	60	612,480040618838
0,875	61	612,480040618838
0,875	62	612,480040618838
0,875	63	612,480040618838
0,875	64	612,480040618838
0,875	65	612,480040618838
0,875	66	612,480040618838
0,875	67	612,480040618838
0,875	68	612,480040618838
0,875	69	612,480040618838
0,875	70	612,480040618838
0,875	71	612,480040618838
0,875	72	612,480040618838
0,875	73	612,480040618838
0,875	74	612,480040618838
0,875	75	612,480040618838
0,875	76	612,480040618838
0,875	77	612,480040618838
0,875	78	612,480040618838
0,875	79	612,480040618838
0,875	80	612,480040618838
0,875	81	612,480040618838
0,875	82	612,480040618838
0,875	83	612,480040618838
0,875	84	612,480040618838
0,875	85	612,480040618838
0,875	86	612,480040618838
0,875	87	612,480040618838
0,875	88	612,480040618838
0,875	89	612,480040618838
0,875	90	612,480040618838
0,875	91	612,480040618838
0,875	92	612,480040618838
0,875	93	612,480040618838
0,875	94	612,480040618838
0,875	95	612,480040618838
0,875	96	612,480040618838
0,875	97	612,480040618838
0,875	98	612,480040618838
0,875	99	612,480040618838
0,875	100	612,480040618838
0,875	101	612,480040618838
0,875	102	612,480040618838
0,875	103	612,480040618838
0,875	104	612,480040618838
0,875	105	612,480040618838
0,875	106	612,480040618838
0,875	107	612,480040618838
0,875	108	612,480040618838
0,875	109	612,480040618838
0,875	110	612,480040618838
0,875	111	612,480040618838
0,875	112	612,480040618838
0,875	113	612,480040618838
0,875	114	612,480040618838
0,875	115	612,480040618838
0,875	116	612,480040618838
0,875	117	612,480040618838
0,875	118	612,480040618838
0,875	119	612,480040618838
0,875	120	612,480040618838
0,875	121	612,480040618838
0,875	122	612,480040618838
0,875	123	612,480040618838
0,875	124	612,480040618838
0,875	125	612,480040618838
0,875	126	612,480040618838
0,875	127	612,480040618838
0,875	128	612,480040618838
0,875	129	612,480040618838
0,875	130	612,480040618838
0,875	131	612,480040618838
0,875	132	612,480040618838
0,875	133	612,480040618838
0,875	134	612,480040618838
0,875	135	612,480040618838
0,875	136	612,480040618838
0,875	137	612,480040618838
0,875	138	612,480040618838
0,875	139	612,480040618838
