0,700	0	612,480040618838
0,700	1	612,480040618838
0,700	2	612,480040618838
0,700	3	612,480040618838
0,700	4	612,480040618838
0,700	5	612,480040618838
0,700	6	612,480040618838
0,700	7	612,480040618838
0,700	8	612,480040618838
0,700	9	612,480040618838
0,700	10	612,480040618838
0,700	11	612,480040618838
0,700	12	612,480040618838
0,700	13	612,480040618838
0,700	14	612,480040618838
0,700	15	612,480040618838
0,700	16	612,480040618838
0,700	17	612,480040618838
0,700	18	612,480040618838
0,700	19	612,480040618838
0,700	20	612,480040618838
0,700	21	612,480040618838
0,700	22	612,480040618838
0,700	23	612,480040618838
0,700	24	612,480040618838
0,700	25	612,480040618838
0,700	26	612,480040618838
0,700	27	612,480040618838
0,700	28	612,480040618838
0,700	29	612,480040618838
0,700	30	612,480040618838
0,700	31	612,480040618838
0,700	32	612,480040618838
0,700	33	612,480040618838
0,700	34	612,480040618838
0,700	35	612,480040618838
0,700	36	612,480040618838
0,700	37	612,480040618838
0,700	38	612,480040618838
0,700	39	612,480040618838
0,700	40	612,480040618838
0,700	41	612,480040618838
0,700	42	612,480040618838
0,700	43	612,480040618838
0,700	44	612,480040618838
0,700	45	612,480040618838
0,700	46	612,480040618838
0,700	47	612,480040618838
0,700	48	612,480040618838
0,700	49	612,480040618838
0,700	50	612,480040618838
0,700	51	612,480040618838
0,700	52	612,480040618838
0,700	53	612,480040618838
0,700	54	612,480040618838
0,700	55	612,480040618838
0,700	56	612,480040618838
0,700	57	612,480040618838
0,700	58	612,480040618838
0,700	59	612,480040618838
0,700	60	612,480040618838
0,700	61	612,480040618838
0,700	62	612,480040618838
0,700	63	612,480040618838
0,700	64	612,480040618838
0,700	65	612,480040618838
0,700	66	612,480040618838
0,700	67	612,480040618838
0,700	68	612,480040618838
0,700	69	612,480040618838
0,700	70	612,480040618838
0,700	71	612,480040618838
0,700	72	612,480040618838
0,700	73	612,480040618838
0,700	74	612,480040618838
0,700	75	612,480040618838
0,700	76	612,480040618838
0,700	77	612,480040618838
0,700	78	612,480040618838
0,700	79	612,480040618838
0,700	80	612,480040618838
0,700	81	612,480040618838
0,700	82	612,480040618838
0,700	83	612,480040618838
0,700	84	612,480040618838
0,700	85	612,480040618838
0,700	86	612,480040618838
0,700	87	612,480040618838
0,700	88	612,480040618838
0,700	89	612,480040618838
0,700	90	612,480040618838
0,700	91	612,480040618838
0,700	92	612,480040618838
0,700	93	612,480040618838
0,700	94	612,480040618838
0,700	95	612,480040618838
0,700	96	612,480040618838
0,700	97	612,480040618838
0,700	98	612,480040618838
0,700	99	612,480040618838
0,700	100	612,480040618838
0,700	101	612,480040618838
0,700	102	612,480040618838
0,700	103	612,480040618838
0,700	104	612,480040618838
0,700	105	612,480040618838
0,700	106	612,480040618838
0,700	107	612,480040618838
0,700	108	612,480040618838
0,700	109	612,480040618838
0,700	110	612,480040618838
0,700	111	612,480040618838
0,700	112	612,480040618838
0,700	113	612,480040618838
0,700	114	612,480040618838
0,700	115	612,480040618838
0,700	116	612,480040618838
0,700	117	612,480040618838
0,700	118	612,480040618838
0,700	119	612,480040618838
0,700	120	612,480040618838
0,700	121	612,480040618838
0,700	122	612,480040618838
0,700	123	612,480040618838
0,700	124	612,480040618838
0,700	125	612,480040618838
0,700	126	612,480040618838
0,700	127	612,480040618838
0,700	128	612,480040618838
0,700	129	612,480040618838
0,700	130	612,480040618838
0,700	131	612,480040618838
0,700	132	612,480040618838
0,700	133	612,480040618838
0,700	134	612,480040618838
0,700	135	612,480040618838
0,700	136	612,480040618838
0,700	137	612,480040618838
0,700	138	612,480040618838
0,700	139	612,480040618838
