0,825	0	612,480040618838
0,825	1	612,480040618838
0,825	2	612,480040618838
0,825	3	612,480040618838
0,825	4	612,480040618838
0,825	5	612,480040618838
0,825	6	612,480040618838
0,825	7	612,480040618838
0,825	8	612,480040618838
0,825	9	612,480040618838
0,825	10	612,480040618838
0,825	11	612,480040618838
0,825	12	612,480040618838
0,825	13	612,480040618838
0,825	14	612,480040618838
0,825	15	612,480040618838
0,825	16	612,480040618838
0,825	17	612,480040618838
0,825	18	612,480040618838
0,825	19	612,480040618838
0,825	20	612,480040618838
0,825	21	612,480040618838
0,825	22	612,480040618838
0,825	23	612,480040618838
0,825	24	612,480040618838
0,825	25	612,480040618838
0,825	26	612,480040618838
0,825	27	612,480040618838
0,825	28	612,480040618838
0,825	29	612,480040618838
0,825	30	612,480040618838
0,825	31	612,480040618838
0,825	32	612,480040618838
0,825	33	612,480040618838
0,825	34	612,480040618838
0,825	35	612,480040618838
0,825	36	612,480040618838
0,825	37	612,480040618838
0,825	38	612,480040618838
0,825	39	612,480040618838
0,825	40	612,480040618838
0,825	41	612,480040618838
0,825	42	612,480040618838
0,825	43	612,480040618838
0,825	44	612,480040618838
0,825	45	612,480040618838
0,825	46	612,480040618838
0,825	47	612,480040618838
0,825	48	612,480040618838
0,825	49	612,480040618838
0,825	50	612,480040618838
0,825	51	612,480040618838
0,825	52	612,480040618838
0,825	53	612,480040618838
0,825	54	612,480040618838
0,825	55	612,480040618838
0,825	56	612,480040618838
0,825	57	612,480040618838
0,825	58	612,480040618838
0,825	59	612,480040618838
0,825	60	612,480040618838
0,825	61	612,480040618838
0,825	62	612,480040618838
0,825	63	612,480040618838
0,825	64	612,480040618838
0,825	65	612,480040618838
0,825	66	612,480040618838
0,825	67	612,480040618838
0,825	68	612,480040618838
0,825	69	612,480040618838
0,825	70	612,480040618838
0,825	71	612,480040618838
0,825	72	612,480040618838
0,825	73	612,480040618838
0,825	74	612,480040618838
0,825	75	612,480040618838
0,825	76	612,480040618838
0,825	77	612,480040618838
0,825	78	612,480040618838
0,825	79	612,480040618838
0,825	80	612,480040618838
0,825	81	612,480040618838
0,825	82	612,480040618838
0,825	83	612,480040618838
0,825	84	612,480040618838
0,825	85	612,480040618838
0,825	86	612,480040618838
0,825	87	612,480040618838
0,825	88	612,480040618838
0,825	89	612,480040618838
0,825	90	612,480040618838
0,825	91	612,480040618838
0,825	92	612,480040618838
0,825	93	612,480040618838
0,825	94	612,480040618838
0,825	95	612,480040618838
0,825	96	612,480040618838
0,825	97	612,480040618838
0,825	98	612,480040618838
0,825	99	612,480040618838
0,825	100	612,480040618838
0,825	101	612,480040618838
0,825	102	612,480040618838
0,825	103	612,480040618838
0,825	104	612,480040618838
0,825	105	612,480040618838
0,825	106	612,480040618838
0,825	107	612,480040618838
0,825	108	612,480040618838
0,825	109	612,480040618838
0,825	110	612,480040618838
0,825	111	612,480040618838
0,825	112	612,480040618838
0,825	113	612,480040618838
0,825	114	612,480040618838
0,825	115	612,480040618838
0,825	116	612,480040618838
0,825	117	612,480040618838
0,825	118	612,480040618838
0,825	119	612,480040618838
0,825	120	612,480040618838
0,825	121	612,480040618838
0,825	122	612,480040618838
0,825	123	612,480040618838
0,825	124	612,480040618838
0,825	125	612,480040618838
0,825	126	612,480040618838
0,825	127	612,480040618838
0,825	128	612,480040618838
0,825	129	612,480040618838
0,825	130	612,480040618838
0,825	131	612,480040618838
0,825	132	612,480040618838
0,825	133	612,480040618838
0,825	134	612,480040618838
0,825	135	612,480040618838
0,825	136	612,480040618838
0,825	137	612,480040618838
0,825	138	612,480040618838
0,825	139	612,480040618838
