0,025	0	533,822744021679
0,025	1	522,537081255856
0,025	2	522,537081255856
0,025	3	522,537081255856
0,025	4	514,718573180719
0,025	5	514,718573180719
0,025	6	514,718573180719
0,025	7	492,893092158728
0,025	8	492,893092158728
0,025	9	492,893092158728
0,025	10	455,331352202369
0,025	11	455,331352202369
0,025	12	455,331352202369
0,025	13	455,331352202369
0,025	14	455,331352202369
0,025	15	455,331352202369
0,025	16	455,331352202369
0,025	17	451,395643100557
0,025	18	451,395643100557
0,025	19	432,69536409584
0,025	20	432,69536409584
0,025	21	432,69536409584
0,025	22	432,69536409584
0,025	23	432,69536409584
0,025	24	432,69536409584
0,025	25	432,69536409584
0,025	26	432,69536409584
0,025	27	432,69536409584
0,025	28	432,69536409584
0,025	29	432,69536409584
0,025	30	432,69536409584
0,025	31	412,961290123204
0,025	32	407,506015838169
0,025	33	407,506015838169
0,025	34	407,506015838169
0,025	35	407,506015838169
0,025	36	404,905397412817
0,025	37	389,696334379018
0,025	38	389,696334379018
0,025	39	389,696334379018
0,025	40	389,696334379018
0,025	41	389,696334379018
0,025	42	389,696334379018
0,025	43	389,696334379018
0,025	44	389,696334379018
0,025	45	389,696334379018
0,025	46	389,696334379018
0,025	47	389,696334379018
0,025	48	389,696334379018
0,025	49	389,696334379018
0,025	50	389,696334379018
0,025	51	389,696334379018
0,025	52	389,696334379018
0,025	53	389,696334379018
0,025	54	389,696334379018
0,025	55	389,696334379018
0,025	56	389,696334379018
0,025	57	389,696334379018
0,025	58	389,696334379018
0,025	59	389,696334379018
0,025	60	389,696334379018
0,025	61	389,696334379018
0,025	62	389,696334379018
0,025	63	389,696334379018
0,025	64	389,696334379018
0,025	65	389,696334379018
0,025	66	389,696334379018
0,025	67	389,696334379018
0,025	68	389,696334379018
0,025	69	389,696334379018
0,025	70	389,696334379018
0,025	71	389,696334379018
0,025	72	389,696334379018
0,025	73	389,696334379018
0,025	74	389,696334379018
0,025	75	389,696334379018
0,025	76	389,696334379018
0,025	77	389,696334379018
0,025	78	389,696334379018
0,025	79	389,696334379018
0,025	80	389,696334379018
0,025	81	389,696334379018
0,025	82	389,696334379018
0,025	83	389,696334379018
0,025	84	389,696334379018
0,025	85	389,696334379018
0,025	86	389,696334379018
0,025	87	389,696334379018
0,025	88	389,696334379018
0,025	89	389,696334379018
0,025	90	389,696334379018
0,025	91	389,696334379018
0,025	92	389,696334379018
0,025	93	389,696334379018
0,025	94	389,696334379018
0,025	95	389,696334379018
0,025	96	389,696334379018
0,025	97	389,696334379018
0,025	98	389,696334379018
0,025	99	389,696334379018
0,025	100	389,696334379018
0,025	101	389,696334379018
0,025	102	389,696334379018
0,025	103	389,696334379018
0,025	104	389,696334379018
0,025	105	389,696334379018
0,025	106	389,696334379018
0,025	107	389,696334379018
0,025	108	389,696334379018
0,025	109	389,696334379018
0,025	110	389,696334379018
0,025	111	389,696334379018
0,025	112	389,696334379018
0,025	113	389,696334379018
0,025	114	389,696334379018
0,025	115	389,696334379018
0,025	116	389,696334379018
0,025	117	389,696334379018
0,025	118	389,696334379018
0,025	119	389,696334379018
0,025	120	389,696334379018
0,025	121	389,696334379018
0,025	122	389,696334379018
0,025	123	389,696334379018
0,025	124	389,696334379018
0,025	125	389,696334379018
0,025	126	389,696334379018
0,025	127	389,696334379018
0,025	128	389,696334379018
0,025	129	389,696334379018
0,025	130	389,696334379018
0,025	131	389,696334379018
0,025	132	389,696334379018
0,025	133	389,696334379018
0,025	134	389,696334379018
0,025	135	389,696334379018
0,025	136	389,696334379018
0,025	137	389,696334379018
0,025	138	389,696334379018
0,025	139	389,696334379018
