1,000	0	612,480040618838
1,000	1	612,480040618838
1,000	2	612,480040618838
1,000	3	612,480040618838
1,000	4	612,480040618838
1,000	5	612,480040618838
1,000	6	612,480040618838
1,000	7	612,480040618838
1,000	8	612,480040618838
1,000	9	612,480040618838
1,000	10	612,480040618838
1,000	11	612,480040618838
1,000	12	612,480040618838
1,000	13	612,480040618838
1,000	14	612,480040618838
1,000	15	612,480040618838
1,000	16	612,480040618838
1,000	17	612,480040618838
1,000	18	612,480040618838
1,000	19	612,480040618838
1,000	20	612,480040618838
1,000	21	612,480040618838
1,000	22	612,480040618838
1,000	23	612,480040618838
1,000	24	612,480040618838
1,000	25	612,480040618838
1,000	26	612,480040618838
1,000	27	612,480040618838
1,000	28	612,480040618838
1,000	29	612,480040618838
1,000	30	612,480040618838
1,000	31	612,480040618838
1,000	32	612,480040618838
1,000	33	612,480040618838
1,000	34	612,480040618838
1,000	35	612,480040618838
1,000	36	612,480040618838
1,000	37	612,480040618838
1,000	38	612,480040618838
1,000	39	612,480040618838
1,000	40	612,480040618838
1,000	41	612,480040618838
1,000	42	612,480040618838
1,000	43	612,480040618838
1,000	44	612,480040618838
1,000	45	612,480040618838
1,000	46	612,480040618838
1,000	47	612,480040618838
1,000	48	612,480040618838
1,000	49	612,480040618838
1,000	50	612,480040618838
1,000	51	612,480040618838
1,000	52	612,480040618838
1,000	53	612,480040618838
1,000	54	612,480040618838
1,000	55	612,480040618838
1,000	56	612,480040618838
1,000	57	612,480040618838
1,000	58	612,480040618838
1,000	59	612,480040618838
1,000	60	612,480040618838
1,000	61	612,480040618838
1,000	62	612,480040618838
1,000	63	612,480040618838
1,000	64	612,480040618838
1,000	65	612,480040618838
1,000	66	612,480040618838
1,000	67	612,480040618838
1,000	68	612,480040618838
1,000	69	612,480040618838
1,000	70	612,480040618838
1,000	71	612,480040618838
1,000	72	612,480040618838
1,000	73	612,480040618838
1,000	74	612,480040618838
1,000	75	612,480040618838
1,000	76	612,480040618838
1,000	77	612,480040618838
1,000	78	612,480040618838
1,000	79	612,480040618838
1,000	80	612,480040618838
1,000	81	612,480040618838
1,000	82	612,480040618838
1,000	83	612,480040618838
1,000	84	612,480040618838
1,000	85	612,480040618838
1,000	86	612,480040618838
1,000	87	612,480040618838
1,000	88	612,480040618838
1,000	89	612,480040618838
1,000	90	612,480040618838
1,000	91	612,480040618838
1,000	92	612,480040618838
1,000	93	612,480040618838
1,000	94	612,480040618838
1,000	95	612,480040618838
1,000	96	612,480040618838
1,000	97	612,480040618838
1,000	98	612,480040618838
1,000	99	612,480040618838
1,000	100	612,480040618838
1,000	101	612,480040618838
1,000	102	612,480040618838
1,000	103	612,480040618838
1,000	104	612,480040618838
1,000	105	612,480040618838
1,000	106	612,480040618838
1,000	107	612,480040618838
1,000	108	612,480040618838
1,000	109	612,480040618838
1,000	110	612,480040618838
1,000	111	612,480040618838
1,000	112	612,480040618838
1,000	113	612,480040618838
1,000	114	612,480040618838
1,000	115	612,480040618838
1,000	116	612,480040618838
1,000	117	612,480040618838
1,000	118	612,480040618838
1,000	119	612,480040618838
1,000	120	612,480040618838
1,000	121	612,480040618838
1,000	122	612,480040618838
1,000	123	612,480040618838
1,000	124	612,480040618838
1,000	125	612,480040618838
1,000	126	612,480040618838
1,000	127	612,480040618838
1,000	128	612,480040618838
1,000	129	612,480040618838
1,000	130	612,480040618838
1,000	131	612,480040618838
1,000	132	612,480040618838
1,000	133	612,480040618838
1,000	134	612,480040618838
1,000	135	612,480040618838
1,000	136	612,480040618838
1,000	137	612,480040618838
1,000	138	612,480040618838
1,000	139	612,480040618838
