0,425	0	1070,96498647089
0,425	1	1070,96498647089
0,425	2	665,468325779991
0,425	3	665,468325779991
0,425	4	665,468325779991
0,425	5	665,468325779991
0,425	6	665,468325779991
0,425	7	665,468325779991
0,425	8	665,468325779991
0,425	9	665,468325779991
0,425	10	665,468325779991
0,425	11	665,468325779991
0,425	12	665,468325779991
0,425	13	665,468325779991
0,425	14	627,235830291096
0,425	15	627,235830291096
0,425	16	627,235830291096
0,425	17	627,235830291096
0,425	18	627,235830291096
0,425	19	627,235830291096
0,425	20	627,235830291096
0,425	21	627,235830291096
0,425	22	627,235830291096
0,425	23	627,235830291096
0,425	24	627,235830291096
0,425	25	627,235830291096
0,425	26	627,235830291096
0,425	27	627,235830291096
0,425	28	592,420234072155
0,425	29	592,420234072155
0,425	30	592,420234072155
0,425	31	592,420234072155
0,425	32	592,420234072155
0,425	33	592,420234072155
0,425	34	592,420234072155
0,425	35	592,420234072155
0,425	36	592,420234072155
0,425	37	592,420234072155
0,425	38	592,420234072155
0,425	39	592,420234072155
0,425	40	592,420234072155
0,425	41	592,420234072155
0,425	42	592,420234072155
0,425	43	592,420234072155
0,425	44	592,420234072155
0,425	45	592,420234072155
0,425	46	592,420234072155
0,425	47	592,420234072155
0,425	48	592,420234072155
0,425	49	592,420234072155
0,425	50	592,420234072155
0,425	51	592,420234072155
0,425	52	592,420234072155
0,425	53	592,420234072155
0,425	54	592,420234072155
0,425	55	592,420234072155
0,425	56	586,502475745073
0,425	57	586,502475745073
0,425	58	586,502475745073
0,425	59	586,502475745073
0,425	60	586,502475745073
0,425	61	586,502475745073
0,425	62	586,502475745073
0,425	63	586,502475745073
0,425	64	586,502475745073
0,425	65	586,502475745073
0,425	66	577,91244086046
0,425	67	577,91244086046
0,425	68	577,91244086046
0,425	69	577,91244086046
0,425	70	577,91244086046
0,425	71	573,322964351157
0,425	72	573,322964351157
0,425	73	573,322964351157
0,425	74	573,322964351157
0,425	75	573,322964351157
0,425	76	573,322964351157
0,425	77	573,322964351157
0,425	78	573,322964351157
0,425	79	573,322964351157
0,425	80	573,322964351157
0,425	81	573,322964351157
0,425	82	573,322964351157
0,425	83	573,322964351157
0,425	84	573,322964351157
0,425	85	573,322964351157
0,425	86	573,322964351157
0,425	87	573,322964351157
0,425	88	573,322964351157
0,425	89	573,322964351157
0,425	90	573,322964351157
0,425	91	573,322964351157
0,425	92	573,322964351157
0,425	93	573,322964351157
0,425	94	573,322964351157
0,425	95	573,322964351157
0,425	96	573,322964351157
0,425	97	573,322964351157
0,425	98	573,322964351157
0,425	99	573,322964351157
0,425	100	573,322964351157
0,425	101	573,322964351157
0,425	102	573,322964351157
0,425	103	573,322964351157
0,425	104	573,322964351157
0,425	105	573,322964351157
0,425	106	573,322964351157
0,425	107	573,322964351157
0,425	108	573,322964351157
0,425	109	573,322964351157
0,425	110	573,322964351157
0,425	111	573,322964351157
0,425	112	573,322964351157
0,425	113	573,322964351157
0,425	114	573,322964351157
0,425	115	573,322964351157
0,425	116	573,322964351157
0,425	117	573,322964351157
0,425	118	573,322964351157
0,425	119	573,322964351157
0,425	120	573,322964351157
0,425	121	573,322964351157
0,425	122	573,322964351157
0,425	123	573,322964351157
0,425	124	573,322964351157
0,425	125	573,322964351157
0,425	126	573,322964351157
0,425	127	573,322964351157
0,425	128	573,322964351157
0,425	129	573,322964351157
0,425	130	573,322964351157
0,425	131	573,322964351157
0,425	132	573,322964351157
0,425	133	573,322964351157
0,425	134	573,322964351157
0,425	135	573,322964351157
0,425	136	573,322964351157
0,425	137	573,322964351157
0,425	138	573,322964351157
0,425	139	573,322964351157
