0,350	0	1068,04618249096
0,350	1	1068,04618249096
0,350	2	1068,04618249096
0,350	3	760,84773458846
0,350	4	760,84773458846
0,350	5	760,84773458846
0,350	6	760,84773458846
0,350	7	606,776941710941
0,350	8	606,776941710941
0,350	9	606,776941710941
0,350	10	606,776941710941
0,350	11	606,776941710941
0,350	12	606,776941710941
0,350	13	606,776941710941
0,350	14	606,776941710941
0,350	15	606,776941710941
0,350	16	606,776941710941
0,350	17	606,776941710941
0,350	18	606,776941710941
0,350	19	598,89639659766
0,350	20	586,849120105974
0,350	21	586,849120105974
0,350	22	586,849120105974
0,350	23	586,849120105974
0,350	24	574,080634903904
0,350	25	574,080634903904
0,350	26	574,080634903904
0,350	27	568,21148926856
0,350	28	568,21148926856
0,350	29	568,21148926856
0,350	30	568,21148926856
0,350	31	568,21148926856
0,350	32	568,21148926856
0,350	33	568,21148926856
0,350	34	568,21148926856
0,350	35	568,21148926856
0,350	36	568,21148926856
0,350	37	568,21148926856
0,350	38	568,21148926856
0,350	39	568,21148926856
0,350	40	568,21148926856
0,350	41	568,21148926856
0,350	42	568,21148926856
0,350	43	568,21148926856
0,350	44	568,21148926856
0,350	45	568,21148926856
0,350	46	568,21148926856
0,350	47	568,21148926856
0,350	48	568,21148926856
0,350	49	568,21148926856
0,350	50	568,21148926856
0,350	51	568,21148926856
0,350	52	568,21148926856
0,350	53	568,21148926856
0,350	54	568,21148926856
0,350	55	568,21148926856
0,350	56	568,21148926856
0,350	57	568,21148926856
0,350	58	568,21148926856
0,350	59	568,21148926856
0,350	60	568,21148926856
0,350	61	568,21148926856
0,350	62	568,21148926856
0,350	63	568,21148926856
0,350	64	568,21148926856
0,350	65	568,21148926856
0,350	66	568,21148926856
0,350	67	568,21148926856
0,350	68	568,21148926856
0,350	69	568,21148926856
0,350	70	568,21148926856
0,350	71	568,21148926856
0,350	72	568,21148926856
0,350	73	568,21148926856
0,350	74	568,21148926856
0,350	75	568,21148926856
0,350	76	568,21148926856
0,350	77	568,21148926856
0,350	78	568,21148926856
0,350	79	568,21148926856
0,350	80	568,21148926856
0,350	81	568,21148926856
0,350	82	568,21148926856
0,350	83	568,21148926856
0,350	84	568,21148926856
0,350	85	568,21148926856
0,350	86	568,21148926856
0,350	87	568,21148926856
0,350	88	568,21148926856
0,350	89	568,21148926856
0,350	90	568,21148926856
0,350	91	568,21148926856
0,350	92	568,21148926856
0,350	93	568,21148926856
0,350	94	568,21148926856
0,350	95	568,21148926856
0,350	96	568,21148926856
0,350	97	568,21148926856
0,350	98	568,21148926856
0,350	99	568,21148926856
0,350	100	568,21148926856
0,350	101	568,21148926856
0,350	102	568,21148926856
0,350	103	568,21148926856
0,350	104	568,21148926856
0,350	105	568,21148926856
0,350	106	568,21148926856
0,350	107	568,21148926856
0,350	108	568,21148926856
0,350	109	568,21148926856
0,350	110	568,21148926856
0,350	111	568,21148926856
0,350	112	568,21148926856
0,350	113	568,21148926856
0,350	114	568,21148926856
0,350	115	568,21148926856
0,350	116	568,21148926856
0,350	117	568,21148926856
0,350	118	568,21148926856
0,350	119	568,21148926856
0,350	120	568,21148926856
0,350	121	568,21148926856
0,350	122	568,21148926856
0,350	123	568,21148926856
0,350	124	568,21148926856
0,350	125	568,21148926856
0,350	126	568,21148926856
0,350	127	568,21148926856
0,350	128	568,21148926856
0,350	129	568,21148926856
0,350	130	568,21148926856
0,350	131	568,21148926856
0,350	132	568,21148926856
0,350	133	568,21148926856
0,350	134	568,21148926856
0,350	135	568,21148926856
0,350	136	568,21148926856
0,350	137	568,21148926856
0,350	138	568,21148926856
0,350	139	568,21148926856
