0,125	0	507,950446130349
0,125	1	507,950446130349
0,125	2	507,950446130349
0,125	3	507,950446130349
0,125	4	507,950446130349
0,125	5	507,950446130349
0,125	6	507,950446130349
0,125	7	502,890341147861
0,125	8	502,890341147861
0,125	9	485,83251333057
0,125	10	485,83251333057
0,125	11	485,83251333057
0,125	12	485,83251333057
0,125	13	485,83251333057
0,125	14	485,83251333057
0,125	15	485,83251333057
0,125	16	485,83251333057
0,125	17	485,83251333057
0,125	18	485,83251333057
0,125	19	485,83251333057
0,125	20	485,83251333057
0,125	21	485,83251333057
0,125	22	485,83251333057
0,125	23	485,83251333057
0,125	24	485,83251333057
0,125	25	485,83251333057
0,125	26	485,83251333057
0,125	27	485,83251333057
0,125	28	485,83251333057
0,125	29	471,039355391626
0,125	30	471,039355391626
0,125	31	471,039355391626
0,125	32	471,039355391626
0,125	33	468,022831871419
0,125	34	468,022831871419
0,125	35	468,022831871419
0,125	36	468,022831871419
0,125	37	468,022831871419
0,125	38	468,022831871419
0,125	39	468,022831871419
0,125	40	468,022831871419
0,125	41	468,022831871419
0,125	42	468,022831871419
0,125	43	468,022831871419
0,125	44	468,022831871419
0,125	45	468,022831871419
0,125	46	468,022831871419
0,125	47	468,022831871419
0,125	48	468,022831871419
0,125	49	468,022831871419
0,125	50	468,022831871419
0,125	51	468,022831871419
0,125	52	468,022831871419
0,125	53	468,022831871419
0,125	54	468,022831871419
0,125	55	468,022831871419
0,125	56	468,022831871419
0,125	57	468,022831871419
0,125	58	468,022831871419
0,125	59	468,022831871419
0,125	60	468,022831871419
0,125	61	468,022831871419
0,125	62	468,022831871419
0,125	63	468,022831871419
0,125	64	468,022831871419
0,125	65	468,022831871419
0,125	66	468,022831871419
0,125	67	468,022831871419
0,125	68	468,022831871419
0,125	69	468,022831871419
0,125	70	468,022831871419
0,125	71	468,022831871419
0,125	72	468,022831871419
0,125	73	468,022831871419
0,125	74	468,022831871419
0,125	75	468,022831871419
0,125	76	468,022831871419
0,125	77	468,022831871419
0,125	78	468,022831871419
0,125	79	468,022831871419
0,125	80	468,022831871419
0,125	81	468,022831871419
0,125	82	468,022831871419
0,125	83	468,022831871419
0,125	84	468,022831871419
0,125	85	468,022831871419
0,125	86	468,022831871419
0,125	87	468,022831871419
0,125	88	468,022831871419
0,125	89	468,022831871419
0,125	90	468,022831871419
0,125	91	468,022831871419
0,125	92	468,022831871419
0,125	93	468,022831871419
0,125	94	468,022831871419
0,125	95	468,022831871419
0,125	96	468,022831871419
0,125	97	468,022831871419
0,125	98	468,022831871419
0,125	99	468,022831871419
0,125	100	468,022831871419
0,125	101	468,022831871419
0,125	102	468,022831871419
0,125	103	468,022831871419
0,125	104	468,022831871419
0,125	105	468,022831871419
0,125	106	468,022831871419
0,125	107	468,022831871419
0,125	108	468,022831871419
0,125	109	468,022831871419
0,125	110	468,022831871419
0,125	111	468,022831871419
0,125	112	468,022831871419
0,125	113	468,022831871419
0,125	114	468,022831871419
0,125	115	468,022831871419
0,125	116	468,022831871419
0,125	117	468,022831871419
0,125	118	468,022831871419
0,125	119	466,834176212441
0,125	120	466,834176212441
0,125	121	466,834176212441
0,125	122	466,834176212441
0,125	123	466,834176212441
0,125	124	466,834176212441
0,125	125	466,834176212441
0,125	126	466,834176212441
0,125	127	466,834176212441
0,125	128	466,834176212441
0,125	129	466,834176212441
0,125	130	466,834176212441
0,125	131	466,834176212441
0,125	132	466,834176212441
0,125	133	466,834176212441
0,125	134	466,834176212441
0,125	135	466,834176212441
0,125	136	466,834176212441
0,125	137	466,834176212441
0,125	138	466,834176212441
0,125	139	466,834176212441
