0,225	0	593,050698030481
0,225	1	593,050698030481
0,225	2	593,050698030481
0,225	3	585,373593010918
0,225	4	517,156507355487
0,225	5	517,156507355487
0,225	6	517,156507355487
0,225	7	517,156507355487
0,225	8	517,156507355487
0,225	9	517,156507355487
0,225	10	517,156507355487
0,225	11	517,156507355487
0,225	12	517,156507355487
0,225	13	517,156507355487
0,225	14	517,156507355487
0,225	15	517,156507355487
0,225	16	517,156507355487
0,225	17	517,156507355487
0,225	18	517,156507355487
0,225	19	517,156507355487
0,225	20	517,156507355487
0,225	21	517,156507355487
0,225	22	517,156507355487
0,225	23	517,156507355487
0,225	24	517,156507355487
0,225	25	513,986297573377
0,225	26	513,986297573377
0,225	27	513,986297573377
0,225	28	513,986297573377
0,225	29	513,986297573377
0,225	30	513,986297573377
0,225	31	513,986297573377
0,225	32	513,986297573377
0,225	33	513,986297573377
0,225	34	513,986297573377
0,225	35	513,986297573377
0,225	36	513,986297573377
0,225	37	513,986297573377
0,225	38	513,986297573377
0,225	39	513,986297573377
0,225	40	513,986297573377
0,225	41	513,986297573377
0,225	42	513,986297573377
0,225	43	513,986297573377
0,225	44	513,986297573377
0,225	45	513,986297573377
0,225	46	513,986297573377
0,225	47	513,986297573377
0,225	48	513,986297573377
0,225	49	513,986297573377
0,225	50	513,986297573377
0,225	51	513,986297573377
0,225	52	513,986297573377
0,225	53	513,986297573377
0,225	54	511,033995635036
0,225	55	511,033995635036
0,225	56	511,033995635036
0,225	57	511,033995635036
0,225	58	511,033995635036
0,225	59	511,033995635036
0,225	60	511,033995635036
0,225	61	511,033995635036
0,225	62	511,033995635036
0,225	63	511,033995635036
0,225	64	511,033995635036
0,225	65	511,033995635036
0,225	66	511,033995635036
0,225	67	511,033995635036
0,225	68	511,033995635036
0,225	69	511,033995635036
0,225	70	511,033995635036
0,225	71	511,033995635036
0,225	72	511,033995635036
0,225	73	511,033995635036
0,225	74	511,033995635036
0,225	75	511,033995635036
0,225	76	511,033995635036
0,225	77	511,033995635036
0,225	78	511,033995635036
0,225	79	511,033995635036
0,225	80	511,033995635036
0,225	81	511,033995635036
0,225	82	511,033995635036
0,225	83	511,033995635036
0,225	84	511,033995635036
0,225	85	511,033995635036
0,225	86	511,033995635036
0,225	87	511,033995635036
0,225	88	511,033995635036
0,225	89	511,033995635036
0,225	90	511,033995635036
0,225	91	511,033995635036
0,225	92	511,033995635036
0,225	93	511,033995635036
0,225	94	511,033995635036
0,225	95	511,033995635036
0,225	96	511,033995635036
0,225	97	511,033995635036
0,225	98	511,033995635036
0,225	99	511,033995635036
0,225	100	511,033995635036
0,225	101	511,033995635036
0,225	102	511,033995635036
0,225	103	511,033995635036
0,225	104	511,033995635036
0,225	105	511,033995635036
0,225	106	511,033995635036
0,225	107	511,033995635036
0,225	108	511,033995635036
0,225	109	511,033995635036
0,225	110	511,033995635036
0,225	111	511,033995635036
0,225	112	511,033995635036
0,225	113	511,033995635036
0,225	114	511,033995635036
0,225	115	511,033995635036
0,225	116	511,033995635036
0,225	117	511,033995635036
0,225	118	511,033995635036
0,225	119	511,033995635036
0,225	120	511,033995635036
0,225	121	511,033995635036
0,225	122	511,033995635036
0,225	123	511,033995635036
0,225	124	511,033995635036
0,225	125	511,033995635036
0,225	126	511,033995635036
0,225	127	511,033995635036
0,225	128	511,033995635036
0,225	129	510,467604650813
0,225	130	510,467604650813
0,225	131	510,467604650813
0,225	132	510,467604650813
0,225	133	510,467604650813
0,225	134	510,467604650813
0,225	135	510,467604650813
0,225	136	510,467604650813
0,225	137	510,467604650813
0,225	138	510,467604650813
0,225	139	510,467604650813
