0,525	0	679,016370872689
0,525	1	679,016370872689
0,525	2	679,016370872689
0,525	3	679,016370872689
0,525	4	679,016370872689
0,525	5	679,016370872689
0,525	6	679,016370872689
0,525	7	679,016370872689
0,525	8	679,016370872689
0,525	9	651,912862439187
0,525	10	651,912862439187
0,525	11	651,912862439187
0,525	12	651,912862439187
0,525	13	651,912862439187
0,525	14	642,593864525938
0,525	15	642,593864525938
0,525	16	642,593864525938
0,525	17	642,593864525938
0,525	18	642,593864525938
0,525	19	642,593864525938
0,525	20	642,593864525938
0,525	21	624,74027994008
0,525	22	624,74027994008
0,525	23	624,74027994008
0,525	24	624,74027994008
0,525	25	616,750432022984
0,525	26	616,750432022984
0,525	27	616,750432022984
0,525	28	616,750432022984
0,525	29	616,750432022984
0,525	30	616,750432022984
0,525	31	616,750432022984
0,525	32	616,750432022984
0,525	33	616,750432022984
0,525	34	616,750432022984
0,525	35	616,750432022984
0,525	36	616,750432022984
0,525	37	616,750432022984
0,525	38	616,228537552049
0,525	39	616,228537552049
0,525	40	616,228537552049
0,525	41	616,228537552049
0,525	42	616,228537552049
0,525	43	616,228537552049
0,525	44	616,228537552049
0,525	45	616,228537552049
0,525	46	616,228537552049
0,525	47	616,228537552049
0,525	48	616,228537552049
0,525	49	616,228537552049
0,525	50	616,228537552049
0,525	51	616,228537552049
0,525	52	616,228537552049
0,525	53	616,228537552049
0,525	54	616,228537552049
0,525	55	616,228537552049
0,525	56	616,228537552049
0,525	57	616,228537552049
0,525	58	616,228537552049
0,525	59	616,228537552049
0,525	60	616,228537552049
0,525	61	616,228537552049
0,525	62	616,228537552049
0,525	63	616,228537552049
0,525	64	616,228537552049
0,525	65	616,228537552049
0,525	66	616,228537552049
0,525	67	616,228537552049
0,525	68	616,228537552049
0,525	69	616,228537552049
0,525	70	616,228537552049
0,525	71	616,228537552049
0,525	72	612,846402859338
0,525	73	612,846402859338
0,525	74	612,846402859338
0,525	75	612,846402859338
0,525	76	612,846402859338
0,525	77	612,846402859338
0,525	78	612,846402859338
0,525	79	612,846402859338
0,525	80	612,846402859338
0,525	81	612,846402859338
0,525	82	612,846402859338
0,525	83	612,846402859338
0,525	84	612,846402859338
0,525	85	612,846402859338
0,525	86	612,846402859338
0,525	87	612,846402859338
0,525	88	612,846402859338
0,525	89	612,846402859338
0,525	90	612,846402859338
0,525	91	612,846402859338
0,525	92	612,846402859338
0,525	93	612,846402859338
0,525	94	612,846402859338
0,525	95	612,846402859338
0,525	96	612,846402859338
0,525	97	612,846402859338
0,525	98	612,846402859338
0,525	99	612,846402859338
0,525	100	612,846402859338
0,525	101	612,846402859338
0,525	102	612,846402859338
0,525	103	612,846402859338
0,525	104	612,846402859338
0,525	105	612,846402859338
0,525	106	612,846402859338
0,525	107	612,846402859338
0,525	108	612,846402859338
0,525	109	612,846402859338
0,525	110	612,846402859338
0,525	111	612,846402859338
0,525	112	612,846402859338
0,525	113	612,846402859338
0,525	114	612,846402859338
0,525	115	612,846402859338
0,525	116	612,846402859338
0,525	117	612,846402859338
0,525	118	612,846402859338
0,525	119	612,846402859338
0,525	120	612,846402859338
0,525	121	612,846402859338
0,525	122	612,846402859338
0,525	123	612,846402859338
0,525	124	612,846402859338
0,525	125	612,846402859338
0,525	126	612,846402859338
0,525	127	612,846402859338
0,525	128	612,846402859338
0,525	129	612,846402859338
0,525	130	612,846402859338
0,525	131	612,846402859338
0,525	132	612,846402859338
0,525	133	612,846402859338
0,525	134	612,846402859338
0,525	135	612,846402859338
0,525	136	612,846402859338
0,525	137	612,846402859338
0,525	138	612,846402859338
0,525	139	612,846402859338
