0,750	0	612,480040618838
0,750	1	612,480040618838
0,750	2	612,480040618838
0,750	3	612,480040618838
0,750	4	612,480040618838
0,750	5	612,480040618838
0,750	6	612,480040618838
0,750	7	612,480040618838
0,750	8	612,480040618838
0,750	9	612,480040618838
0,750	10	612,480040618838
0,750	11	612,480040618838
0,750	12	612,480040618838
0,750	13	612,480040618838
0,750	14	612,480040618838
0,750	15	612,480040618838
0,750	16	612,480040618838
0,750	17	612,480040618838
0,750	18	612,480040618838
0,750	19	612,480040618838
0,750	20	612,480040618838
0,750	21	612,480040618838
0,750	22	612,480040618838
0,750	23	612,480040618838
0,750	24	612,480040618838
0,750	25	612,480040618838
0,750	26	612,480040618838
0,750	27	612,480040618838
0,750	28	612,480040618838
0,750	29	612,480040618838
0,750	30	612,480040618838
0,750	31	612,480040618838
0,750	32	612,480040618838
0,750	33	612,480040618838
0,750	34	612,480040618838
0,750	35	612,480040618838
0,750	36	612,480040618838
0,750	37	612,480040618838
0,750	38	612,480040618838
0,750	39	612,480040618838
0,750	40	612,480040618838
0,750	41	612,480040618838
0,750	42	612,480040618838
0,750	43	612,480040618838
0,750	44	612,480040618838
0,750	45	612,480040618838
0,750	46	612,480040618838
0,750	47	612,480040618838
0,750	48	612,480040618838
0,750	49	612,480040618838
0,750	50	612,480040618838
0,750	51	612,480040618838
0,750	52	612,480040618838
0,750	53	612,480040618838
0,750	54	612,480040618838
0,750	55	612,480040618838
0,750	56	612,480040618838
0,750	57	612,480040618838
0,750	58	612,480040618838
0,750	59	612,480040618838
0,750	60	612,480040618838
0,750	61	612,480040618838
0,750	62	612,480040618838
0,750	63	612,480040618838
0,750	64	612,480040618838
0,750	65	612,480040618838
0,750	66	612,480040618838
0,750	67	612,480040618838
0,750	68	612,480040618838
0,750	69	612,480040618838
0,750	70	612,480040618838
0,750	71	612,480040618838
0,750	72	612,480040618838
0,750	73	612,480040618838
0,750	74	612,480040618838
0,750	75	612,480040618838
0,750	76	612,480040618838
0,750	77	612,480040618838
0,750	78	612,480040618838
0,750	79	612,480040618838
0,750	80	612,480040618838
0,750	81	612,480040618838
0,750	82	612,480040618838
0,750	83	612,480040618838
0,750	84	612,480040618838
0,750	85	612,480040618838
0,750	86	612,480040618838
0,750	87	612,480040618838
0,750	88	612,480040618838
0,750	89	612,480040618838
0,750	90	612,480040618838
0,750	91	612,480040618838
0,750	92	612,480040618838
0,750	93	612,480040618838
0,750	94	612,480040618838
0,750	95	612,480040618838
0,750	96	612,480040618838
0,750	97	612,480040618838
0,750	98	612,480040618838
0,750	99	612,480040618838
0,750	100	612,480040618838
0,750	101	612,480040618838
0,750	102	612,480040618838
0,750	103	612,480040618838
0,750	104	612,480040618838
0,750	105	612,480040618838
0,750	106	612,480040618838
0,750	107	612,480040618838
0,750	108	612,480040618838
0,750	109	612,480040618838
0,750	110	612,480040618838
0,750	111	612,480040618838
0,750	112	612,480040618838
0,750	113	612,480040618838
0,750	114	612,480040618838
0,750	115	612,480040618838
0,750	116	612,480040618838
0,750	117	612,480040618838
0,750	118	612,480040618838
0,750	119	612,480040618838
0,750	120	612,480040618838
0,750	121	612,480040618838
0,750	122	612,480040618838
0,750	123	612,480040618838
0,750	124	612,480040618838
0,750	125	612,480040618838
0,750	126	612,480040618838
0,750	127	612,480040618838
0,750	128	612,480040618838
0,750	129	612,480040618838
0,750	130	612,480040618838
0,750	131	612,480040618838
0,750	132	612,480040618838
0,750	133	612,480040618838
0,750	134	612,480040618838
0,750	135	612,480040618838
0,750	136	612,480040618838
0,750	137	612,480040618838
0,750	138	612,480040618838
0,750	139	612,480040618838
