0,125	0	515,221124793906
0,125	1	515,221124793906
0,125	2	515,188182179838
0,125	3	515,188182179838
0,125	4	510,722878571717
0,125	5	506,046414551797
0,125	6	506,046414551797
0,125	7	503,711972832022
0,125	8	500,793412962107
0,125	9	486,654145014731
0,125	10	486,654145014731
0,125	11	486,654145014731
0,125	12	486,654145014731
0,125	13	486,654145014731
0,125	14	486,654145014731
0,125	15	486,654145014731
0,125	16	486,654145014731
0,125	17	486,654145014731
0,125	18	486,654145014731
0,125	19	486,654145014731
0,125	20	486,654145014731
0,125	21	486,654145014731
0,125	22	486,654145014731
0,125	23	486,654145014731
0,125	24	486,654145014731
0,125	25	486,654145014731
0,125	26	486,654145014731
0,125	27	485,797322498752
0,125	28	485,797322498752
0,125	29	485,797322498752
0,125	30	485,797322498752
0,125	31	485,797322498752
0,125	32	485,797322498752
0,125	33	485,797322498752
0,125	34	485,797322498752
0,125	35	485,797322498752
0,125	36	485,797322498752
0,125	37	485,797322498752
0,125	38	485,797322498752
0,125	39	485,797322498752
0,125	40	485,797322498752
0,125	41	473,912548696055
0,125	42	473,912548696055
0,125	43	473,912548696055
0,125	44	473,912548696055
0,125	45	473,912548696055
0,125	46	473,912548696055
0,125	47	473,912548696055
0,125	48	473,912548696055
0,125	49	473,912548696055
0,125	50	473,912548696055
0,125	51	473,912548696055
0,125	52	470,449421433658
0,125	53	470,449421433658
0,125	54	470,449421433658
0,125	55	470,449421433658
0,125	56	470,449421433658
0,125	57	470,449421433658
0,125	58	470,449421433658
0,125	59	470,449421433658
0,125	60	470,449421433658
0,125	61	470,449421433658
0,125	62	470,449421433658
0,125	63	470,449421433658
0,125	64	470,449421433658
0,125	65	468,808915770962
0,125	66	468,808915770962
0,125	67	468,808915770962
0,125	68	468,808915770962
0,125	69	468,808915770962
0,125	70	468,808915770962
0,125	71	467,102583179883
0,125	72	467,102583179883
0,125	73	467,102583179883
0,125	74	467,102583179883
0,125	75	467,102583179883
0,125	76	467,102583179883
0,125	77	467,102583179883
0,125	78	467,102583179883
0,125	79	467,102583179883
0,125	80	467,102583179883
0,125	81	467,102583179883
0,125	82	467,102583179883
0,125	83	467,102583179883
0,125	84	467,102583179883
0,125	85	467,102583179883
0,125	86	467,102583179883
0,125	87	467,102583179883
0,125	88	467,102583179883
0,125	89	467,102583179883
0,125	90	467,102583179883
0,125	91	467,102583179883
0,125	92	467,102583179883
0,125	93	467,102583179883
0,125	94	467,102583179883
0,125	95	467,102583179883
0,125	96	467,102583179883
0,125	97	467,102583179883
0,125	98	467,102583179883
0,125	99	467,102583179883
0,125	100	467,102583179883
0,125	101	467,102583179883
0,125	102	467,102583179883
0,125	103	467,102583179883
0,125	104	467,102583179883
0,125	105	467,102583179883
0,125	106	467,102583179883
0,125	107	467,102583179883
0,125	108	467,102583179883
0,125	109	467,102583179883
0,125	110	467,102583179883
0,125	111	467,102583179883
0,125	112	467,102583179883
0,125	113	467,102583179883
0,125	114	465,290222848398
0,125	115	465,290222848398
0,125	116	465,290222848398
0,125	117	465,290222848398
0,125	118	465,290222848398
0,125	119	465,290222848398
0,125	120	465,290222848398
0,125	121	465,290222848398
0,125	122	465,290222848398
0,125	123	465,290222848398
0,125	124	465,290222848398
0,125	125	465,290222848398
0,125	126	465,290222848398
0,125	127	465,290222848398
0,125	128	465,290222848398
0,125	129	465,290222848398
0,125	130	465,290222848398
0,125	131	465,290222848398
0,125	132	465,290222848398
0,125	133	465,290222848398
0,125	134	465,290222848398
0,125	135	465,290222848398
0,125	136	465,290222848398
0,125	137	465,290222848398
0,125	138	465,290222848398
0,125	139	465,290222848398
