0,050	0	510,685536410614
0,050	1	510,685536410614
0,050	2	510,685536410614
0,050	3	510,685536410614
0,050	4	510,685536410614
0,050	5	501,400955242678
0,050	6	501,400955242678
0,050	7	490,958732163367
0,050	8	490,958732163367
0,050	9	490,958732163367
0,050	10	490,958732163367
0,050	11	490,958732163367
0,050	12	490,958732163367
0,050	13	489,551457539102
0,050	14	489,551457539102
0,050	15	481,157938826449
0,050	16	481,157938826449
0,050	17	468,101604661957
0,050	18	468,101604661957
0,050	19	468,101604661957
0,050	20	468,101604661957
0,050	21	468,101604661957
0,050	22	468,101604661957
0,050	23	468,101604661957
0,050	24	468,101604661957
0,050	25	468,101604661957
0,050	26	468,101604661957
0,050	27	453,340527595156
0,050	28	453,340527595156
0,050	29	453,340527595156
0,050	30	453,340527595156
0,050	31	453,340527595156
0,050	32	453,340527595156
0,050	33	453,340527595156
0,050	34	453,340527595156
0,050	35	453,340527595156
0,050	36	453,340527595156
0,050	37	453,340527595156
0,050	38	453,340527595156
0,050	39	453,340527595156
0,050	40	453,340527595156
0,050	41	448,103569197656
0,050	42	448,103569197656
0,050	43	448,103569197656
0,050	44	448,103569197656
0,050	45	448,103569197656
0,050	46	448,103569197656
0,050	47	448,103569197656
0,050	48	448,103569197656
0,050	49	448,103569197656
0,050	50	448,103569197656
0,050	51	448,103569197656
0,050	52	448,103569197656
0,050	53	448,103569197656
0,050	54	448,103569197656
0,050	55	448,103569197656
0,050	56	448,103569197656
0,050	57	436,827074073197
0,050	58	436,827074073197
0,050	59	436,827074073197
0,050	60	436,827074073197
0,050	61	436,827074073197
0,050	62	436,827074073197
0,050	63	436,827074073197
0,050	64	436,827074073197
0,050	65	436,827074073197
0,050	66	436,827074073197
0,050	67	436,827074073197
0,050	68	436,827074073197
0,050	69	436,827074073197
0,050	70	436,827074073197
0,050	71	436,827074073197
0,050	72	436,827074073197
0,050	73	436,827074073197
0,050	74	436,827074073197
0,050	75	436,827074073197
0,050	76	436,827074073197
0,050	77	436,827074073197
0,050	78	436,827074073197
0,050	79	436,827074073197
0,050	80	436,827074073197
0,050	81	436,827074073197
0,050	82	436,827074073197
0,050	83	436,827074073197
0,050	84	436,827074073197
0,050	85	436,827074073197
0,050	86	436,827074073197
0,050	87	436,827074073197
0,050	88	425,767849915985
0,050	89	425,767849915985
0,050	90	425,767849915985
0,050	91	425,767849915985
0,050	92	425,767849915985
0,050	93	425,767849915985
0,050	94	425,767849915985
0,050	95	425,767849915985
0,050	96	425,767849915985
0,050	97	425,767849915985
0,050	98	425,767849915985
0,050	99	425,767849915985
0,050	100	425,767849915985
0,050	101	425,767849915985
0,050	102	425,767849915985
0,050	103	425,767849915985
0,050	104	425,767849915985
0,050	105	425,767849915985
0,050	106	425,767849915985
0,050	107	425,767849915985
0,050	108	425,767849915985
0,050	109	425,767849915985
0,050	110	425,767849915985
0,050	111	425,767849915985
0,050	112	425,767849915985
0,050	113	425,767849915985
0,050	114	425,767849915985
0,050	115	425,767849915985
0,050	116	422,299463356195
0,050	117	422,299463356195
0,050	118	422,299463356195
0,050	119	422,299463356195
0,050	120	422,299463356195
0,050	121	422,299463356195
0,050	122	422,299463356195
0,050	123	422,299463356195
0,050	124	422,299463356195
0,050	125	422,299463356195
0,050	126	422,299463356195
0,050	127	422,299463356195
0,050	128	422,299463356195
0,050	129	422,299463356195
0,050	130	422,299463356195
0,050	131	422,299463356195
0,050	132	422,299463356195
0,050	133	422,299463356195
0,050	134	422,299463356195
0,050	135	422,299463356195
0,050	136	422,299463356195
0,050	137	422,299463356195
0,050	138	422,299463356195
0,050	139	422,299463356195
