0,675	0	700,544212902934
0,675	1	612,480040618838
0,675	2	612,480040618838
0,675	3	612,480040618838
0,675	4	612,480040618838
0,675	5	612,480040618838
0,675	6	612,480040618838
0,675	7	612,480040618838
0,675	8	612,480040618838
0,675	9	612,480040618838
0,675	10	612,480040618838
0,675	11	612,480040618838
0,675	12	612,480040618838
0,675	13	612,480040618838
0,675	14	612,480040618838
0,675	15	612,480040618838
0,675	16	612,480040618838
0,675	17	612,480040618838
0,675	18	612,480040618838
0,675	19	612,480040618838
0,675	20	612,480040618838
0,675	21	612,480040618838
0,675	22	612,480040618838
0,675	23	612,480040618838
0,675	24	612,480040618838
0,675	25	612,480040618838
0,675	26	612,480040618838
0,675	27	612,480040618838
0,675	28	612,480040618838
0,675	29	612,480040618838
0,675	30	612,480040618838
0,675	31	612,480040618838
0,675	32	612,480040618838
0,675	33	612,480040618838
0,675	34	612,480040618838
0,675	35	612,480040618838
0,675	36	612,480040618838
0,675	37	612,480040618838
0,675	38	612,480040618838
0,675	39	612,480040618838
0,675	40	612,480040618838
0,675	41	612,480040618838
0,675	42	612,480040618838
0,675	43	612,480040618838
0,675	44	612,480040618838
0,675	45	612,480040618838
0,675	46	612,480040618838
0,675	47	612,480040618838
0,675	48	612,480040618838
0,675	49	612,480040618838
0,675	50	612,480040618838
0,675	51	612,480040618838
0,675	52	612,480040618838
0,675	53	612,480040618838
0,675	54	612,480040618838
0,675	55	612,480040618838
0,675	56	612,480040618838
0,675	57	612,480040618838
0,675	58	612,480040618838
0,675	59	612,480040618838
0,675	60	612,480040618838
0,675	61	612,480040618838
0,675	62	612,480040618838
0,675	63	612,480040618838
0,675	64	612,480040618838
0,675	65	612,480040618838
0,675	66	612,480040618838
0,675	67	612,480040618838
0,675	68	612,480040618838
0,675	69	612,480040618838
0,675	70	612,480040618838
0,675	71	612,480040618838
0,675	72	612,480040618838
0,675	73	612,480040618838
0,675	74	612,480040618838
0,675	75	612,480040618838
0,675	76	612,480040618838
0,675	77	612,480040618838
0,675	78	612,480040618838
0,675	79	612,480040618838
0,675	80	612,480040618838
0,675	81	612,480040618838
0,675	82	612,480040618838
0,675	83	612,480040618838
0,675	84	612,480040618838
0,675	85	612,480040618838
0,675	86	612,480040618838
0,675	87	612,480040618838
0,675	88	612,480040618838
0,675	89	612,480040618838
0,675	90	612,480040618838
0,675	91	612,480040618838
0,675	92	612,480040618838
0,675	93	612,480040618838
0,675	94	612,480040618838
0,675	95	612,480040618838
0,675	96	612,480040618838
0,675	97	612,480040618838
0,675	98	612,480040618838
0,675	99	612,480040618838
0,675	100	612,480040618838
0,675	101	612,480040618838
0,675	102	612,480040618838
0,675	103	612,480040618838
0,675	104	612,480040618838
0,675	105	612,480040618838
0,675	106	612,480040618838
0,675	107	612,480040618838
0,675	108	612,480040618838
0,675	109	612,480040618838
0,675	110	612,480040618838
0,675	111	612,480040618838
0,675	112	612,480040618838
0,675	113	612,480040618838
0,675	114	612,480040618838
0,675	115	612,480040618838
0,675	116	612,480040618838
0,675	117	612,480040618838
0,675	118	612,480040618838
0,675	119	612,480040618838
0,675	120	612,480040618838
0,675	121	612,480040618838
0,675	122	612,480040618838
0,675	123	612,480040618838
0,675	124	612,480040618838
0,675	125	612,480040618838
0,675	126	612,480040618838
0,675	127	612,480040618838
0,675	128	612,480040618838
0,675	129	612,480040618838
0,675	130	612,480040618838
0,675	131	612,480040618838
0,675	132	612,480040618838
0,675	133	612,480040618838
0,675	134	612,480040618838
0,675	135	612,480040618838
0,675	136	612,480040618838
0,675	137	612,480040618838
0,675	138	612,480040618838
0,675	139	612,480040618838
