0,150	0	499,654159206019
0,150	1	499,654159206019
0,150	2	499,229480152031
0,150	3	499,229480152031
0,150	4	495,210950609143
0,150	5	495,210950609143
0,150	6	495,210950609143
0,150	7	490,473708914069
0,150	8	475,680550975124
0,150	9	475,680550975124
0,150	10	475,680550975124
0,150	11	475,680550975124
0,150	12	475,680550975124
0,150	13	475,680550975124
0,150	14	475,680550975124
0,150	15	475,680550975124
0,150	16	475,680550975124
0,150	17	475,680550975124
0,150	18	475,680550975124
0,150	19	475,680550975124
0,150	20	475,680550975124
0,150	21	475,680550975124
0,150	22	475,680550975124
0,150	23	475,680550975124
0,150	24	475,680550975124
0,150	25	475,680550975124
0,150	26	475,680550975124
0,150	27	475,680550975124
0,150	28	475,680550975124
0,150	29	475,680550975124
0,150	30	475,680550975124
0,150	31	475,680550975124
0,150	32	475,680550975124
0,150	33	475,680550975124
0,150	34	475,680550975124
0,150	35	475,680550975124
0,150	36	475,680550975124
0,150	37	475,680550975124
0,150	38	475,680550975124
0,150	39	475,680550975124
0,150	40	475,680550975124
0,150	41	475,680550975124
0,150	42	475,680550975124
0,150	43	475,680550975124
0,150	44	475,680550975124
0,150	45	475,680550975124
0,150	46	475,680550975124
0,150	47	475,680550975124
0,150	48	475,680550975124
0,150	49	475,680550975124
0,150	50	475,680550975124
0,150	51	475,680550975124
0,150	52	475,680550975124
0,150	53	475,680550975124
0,150	54	475,680550975124
0,150	55	475,680550975124
0,150	56	472,33371272135
0,150	57	472,33371272135
0,150	58	472,33371272135
0,150	59	472,33371272135
0,150	60	472,33371272135
0,150	61	472,33371272135
0,150	62	472,33371272135
0,150	63	472,33371272135
0,150	64	472,33371272135
0,150	65	472,33371272135
0,150	66	472,33371272135
0,150	67	472,33371272135
0,150	68	472,33371272135
0,150	69	472,33371272135
0,150	70	472,33371272135
0,150	71	472,33371272135
0,150	72	472,33371272135
0,150	73	472,33371272135
0,150	74	472,33371272135
0,150	75	472,33371272135
0,150	76	472,33371272135
0,150	77	472,33371272135
0,150	78	472,33371272135
0,150	79	472,33371272135
0,150	80	472,33371272135
0,150	81	472,33371272135
0,150	82	472,33371272135
0,150	83	472,33371272135
0,150	84	472,33371272135
0,150	85	472,33371272135
0,150	86	472,33371272135
0,150	87	472,33371272135
0,150	88	472,33371272135
0,150	89	472,33371272135
0,150	90	472,33371272135
0,150	91	472,33371272135
0,150	92	472,33371272135
0,150	93	472,33371272135
0,150	94	472,33371272135
0,150	95	472,33371272135
0,150	96	472,33371272135
0,150	97	472,33371272135
0,150	98	472,33371272135
0,150	99	472,33371272135
0,150	100	472,33371272135
0,150	101	472,33371272135
0,150	102	472,33371272135
0,150	103	472,33371272135
0,150	104	472,33371272135
0,150	105	472,33371272135
0,150	106	472,33371272135
0,150	107	472,33371272135
0,150	108	472,33371272135
0,150	109	472,33371272135
0,150	110	472,33371272135
0,150	111	472,33371272135
0,150	112	472,33371272135
0,150	113	472,33371272135
0,150	114	472,33371272135
0,150	115	472,33371272135
0,150	116	472,33371272135
0,150	117	472,33371272135
0,150	118	472,33371272135
0,150	119	472,33371272135
0,150	120	472,33371272135
0,150	121	472,33371272135
0,150	122	472,33371272135
0,150	123	472,33371272135
0,150	124	472,33371272135
0,150	125	472,33371272135
0,150	126	472,33371272135
0,150	127	472,33371272135
0,150	128	472,33371272135
0,150	129	472,33371272135
0,150	130	472,33371272135
0,150	131	472,33371272135
0,150	132	472,33371272135
0,150	133	472,33371272135
0,150	134	472,33371272135
0,150	135	472,33371272135
0,150	136	472,33371272135
0,150	137	472,33371272135
0,150	138	472,33371272135
0,150	139	472,33371272135
