0,300	0	1404,35757438862
0,300	1	1096,42853075057
0,300	2	1096,42853075057
0,300	3	897,11970107371
0,300	4	897,11970107371
0,300	5	897,11970107371
0,300	6	897,11970107371
0,300	7	897,11970107371
0,300	8	584,979036367929
0,300	9	584,979036367929
0,300	10	584,979036367929
0,300	11	584,979036367929
0,300	12	584,979036367929
0,300	13	584,979036367929
0,300	14	584,979036367929
0,300	15	584,979036367929
0,300	16	584,979036367929
0,300	17	584,979036367929
0,300	18	584,979036367929
0,300	19	584,979036367929
0,300	20	584,979036367929
0,300	21	584,979036367929
0,300	22	584,847494352052
0,300	23	584,847494352052
0,300	24	584,847494352052
0,300	25	584,847494352052
0,300	26	584,847494352052
0,300	27	584,847494352052
0,300	28	582,271388216254
0,300	29	582,271388216254
0,300	30	582,271388216254
0,300	31	582,271388216254
0,300	32	575,332550551329
0,300	33	575,332550551329
0,300	34	575,332550551329
0,300	35	575,332550551329
0,300	36	575,332550551329
0,300	37	575,332550551329
0,300	38	575,332550551329
0,300	39	575,332550551329
0,300	40	575,332550551329
0,300	41	575,332550551329
0,300	42	575,332550551329
0,300	43	575,332550551329
0,300	44	575,332550551329
0,300	45	575,332550551329
0,300	46	575,332550551329
0,300	47	575,332550551329
0,300	48	575,332550551329
0,300	49	575,332550551329
0,300	50	575,332550551329
0,300	51	575,332550551329
0,300	52	575,332550551329
0,300	53	575,332550551329
0,300	54	575,332550551329
0,300	55	575,332550551329
0,300	56	575,332550551329
0,300	57	575,332550551329
0,300	58	575,332550551329
0,300	59	575,332550551329
0,300	60	575,332550551329
0,300	61	575,332550551329
0,300	62	575,332550551329
0,300	63	575,332550551329
0,300	64	575,332550551329
0,300	65	575,332550551329
0,300	66	575,332550551329
0,300	67	575,332550551329
0,300	68	572,37794481606
0,300	69	572,37794481606
0,300	70	572,37794481606
0,300	71	568,637479116402
0,300	72	568,637479116402
0,300	73	562,379970324455
0,300	74	559,20087551579
0,300	75	558,792624754051
0,300	76	558,792624754051
0,300	77	556,79158802579
0,300	78	556,79158802579
0,300	79	556,79158802579
0,300	80	556,79158802579
0,300	81	556,79158802579
0,300	82	556,79158802579
0,300	83	556,79158802579
0,300	84	556,79158802579
0,300	85	556,79158802579
0,300	86	556,79158802579
0,300	87	556,79158802579
0,300	88	556,79158802579
0,300	89	556,79158802579
0,300	90	556,79158802579
0,300	91	556,79158802579
0,300	92	556,79158802579
0,300	93	556,79158802579
0,300	94	556,79158802579
0,300	95	556,79158802579
0,300	96	556,79158802579
0,300	97	556,79158802579
0,300	98	556,79158802579
0,300	99	556,79158802579
0,300	100	556,79158802579
0,300	101	556,79158802579
0,300	102	556,79158802579
0,300	103	556,79158802579
0,300	104	556,79158802579
0,300	105	556,79158802579
0,300	106	556,79158802579
0,300	107	556,79158802579
0,300	108	556,79158802579
0,300	109	556,79158802579
0,300	110	556,79158802579
0,300	111	556,79158802579
0,300	112	556,79158802579
0,300	113	556,79158802579
0,300	114	556,79158802579
0,300	115	556,79158802579
0,300	116	556,79158802579
0,300	117	556,79158802579
0,300	118	556,79158802579
0,300	119	556,79158802579
0,300	120	556,79158802579
0,300	121	556,79158802579
0,300	122	556,79158802579
0,300	123	556,79158802579
0,300	124	556,79158802579
0,300	125	556,79158802579
0,300	126	556,79158802579
0,300	127	556,79158802579
0,300	128	556,79158802579
0,300	129	556,79158802579
0,300	130	556,79158802579
0,300	131	556,79158802579
0,300	132	556,79158802579
0,300	133	556,79158802579
0,300	134	556,79158802579
0,300	135	556,79158802579
0,300	136	556,79158802579
0,300	137	556,79158802579
0,300	138	556,79158802579
0,300	139	556,79158802579
