0,500	0	1046,56368600814
0,500	1	931,815261507938
0,500	2	751,473211046446
0,500	3	751,473211046446
0,500	4	751,473211046446
0,500	5	751,473211046446
0,500	6	751,473211046446
0,500	7	751,473211046446
0,500	8	751,473211046446
0,500	9	751,473211046446
0,500	10	751,473211046446
0,500	11	751,473211046446
0,500	12	738,970357513764
0,500	13	738,970357513764
0,500	14	738,970357513764
0,500	15	738,970357513764
0,500	16	721,47003646999
0,500	17	721,47003646999
0,500	18	721,47003646999
0,500	19	721,47003646999
0,500	20	721,47003646999
0,500	21	721,47003646999
0,500	22	721,47003646999
0,500	23	721,47003646999
0,500	24	721,47003646999
0,500	25	721,47003646999
0,500	26	721,47003646999
0,500	27	721,47003646999
0,500	28	710,941991354266
0,500	29	710,941991354266
0,500	30	710,941991354266
0,500	31	710,941991354266
0,500	32	710,941991354266
0,500	33	710,941991354266
0,500	34	687,610344464334
0,500	35	687,610344464334
0,500	36	687,610344464334
0,500	37	687,610344464334
0,500	38	687,610344464334
0,500	39	687,610344464334
0,500	40	687,610344464334
0,500	41	687,610344464334
0,500	42	687,610344464334
0,500	43	687,610344464334
0,500	44	687,610344464334
0,500	45	687,610344464334
0,500	46	687,610344464334
0,500	47	687,610344464334
0,500	48	687,610344464334
0,500	49	680,892779008619
0,500	50	680,892779008619
0,500	51	680,892779008619
0,500	52	680,892779008619
0,500	53	680,892779008619
0,500	54	680,892779008619
0,500	55	680,892779008619
0,500	56	680,892779008619
0,500	57	678,025789670461
0,500	58	678,025789670461
0,500	59	678,025789670461
0,500	60	662,016010223059
0,500	61	662,016010223059
0,500	62	662,016010223059
0,500	63	662,016010223059
0,500	64	662,016010223059
0,500	65	662,016010223059
0,500	66	662,016010223059
0,500	67	662,016010223059
0,500	68	662,016010223059
0,500	69	662,016010223059
0,500	70	662,016010223059
0,500	71	660,952910214159
0,500	72	660,952910214159
0,500	73	660,952910214159
0,500	74	660,952910214159
0,500	75	660,952910214159
0,500	76	660,952910214159
0,500	77	660,952910214159
0,500	78	660,952910214159
0,500	79	660,952910214159
0,500	80	660,952910214159
0,500	81	660,952910214159
0,500	82	660,952910214159
0,500	83	660,952910214159
0,500	84	660,952910214159
0,500	85	660,952910214159
0,500	86	660,952910214159
0,500	87	660,952910214159
0,500	88	660,952910214159
0,500	89	660,952910214159
0,500	90	660,952910214159
0,500	91	660,952910214159
0,500	92	660,952910214159
0,500	93	660,952910214159
0,500	94	659,706678487522
0,500	95	659,706678487522
0,500	96	659,706678487522
0,500	97	656,7838866655
0,500	98	656,7838866655
0,500	99	656,7838866655
0,500	100	656,7838866655
0,500	101	656,7838866655
0,500	102	656,7838866655
0,500	103	656,7838866655
0,500	104	656,7838866655
0,500	105	656,7838866655
0,500	106	656,7838866655
0,500	107	656,7838866655
0,500	108	656,7838866655
0,500	109	656,7838866655
0,500	110	656,7838866655
0,500	111	656,7838866655
0,500	112	656,7838866655
0,500	113	656,7838866655
0,500	114	656,7838866655
0,500	115	656,7838866655
0,500	116	656,7838866655
0,500	117	656,7838866655
0,500	118	656,7838866655
0,500	119	656,7838866655
0,500	120	656,7838866655
0,500	121	656,7838866655
0,500	122	656,7838866655
0,500	123	656,7838866655
0,500	124	656,7838866655
0,500	125	656,7838866655
0,500	126	656,7838866655
0,500	127	656,7838866655
0,500	128	656,7838866655
0,500	129	656,7838866655
0,500	130	656,7838866655
0,500	131	656,7838866655
0,500	132	656,7838866655
0,500	133	656,7838866655
0,500	134	656,7838866655
0,500	135	656,7838866655
0,500	136	656,7838866655
0,500	137	656,7838866655
0,500	138	656,7838866655
0,500	139	656,7838866655
