0,950	0	612,480040618838
0,950	1	612,480040618838
0,950	2	612,480040618838
0,950	3	612,480040618838
0,950	4	612,480040618838
0,950	5	612,480040618838
0,950	6	612,480040618838
0,950	7	612,480040618838
0,950	8	612,480040618838
0,950	9	612,480040618838
0,950	10	612,480040618838
0,950	11	612,480040618838
0,950	12	612,480040618838
0,950	13	612,480040618838
0,950	14	612,480040618838
0,950	15	612,480040618838
0,950	16	612,480040618838
0,950	17	612,480040618838
0,950	18	612,480040618838
0,950	19	612,480040618838
0,950	20	612,480040618838
0,950	21	612,480040618838
0,950	22	612,480040618838
0,950	23	612,480040618838
0,950	24	612,480040618838
0,950	25	612,480040618838
0,950	26	612,480040618838
0,950	27	612,480040618838
0,950	28	612,480040618838
0,950	29	612,480040618838
0,950	30	612,480040618838
0,950	31	612,480040618838
0,950	32	612,480040618838
0,950	33	612,480040618838
0,950	34	612,480040618838
0,950	35	612,480040618838
0,950	36	612,480040618838
0,950	37	612,480040618838
0,950	38	612,480040618838
0,950	39	612,480040618838
0,950	40	612,480040618838
0,950	41	612,480040618838
0,950	42	612,480040618838
0,950	43	612,480040618838
0,950	44	612,480040618838
0,950	45	612,480040618838
0,950	46	612,480040618838
0,950	47	612,480040618838
0,950	48	612,480040618838
0,950	49	612,480040618838
0,950	50	612,480040618838
0,950	51	612,480040618838
0,950	52	612,480040618838
0,950	53	612,480040618838
0,950	54	612,480040618838
0,950	55	612,480040618838
0,950	56	612,480040618838
0,950	57	612,480040618838
0,950	58	612,480040618838
0,950	59	612,480040618838
0,950	60	612,480040618838
0,950	61	612,480040618838
0,950	62	612,480040618838
0,950	63	612,480040618838
0,950	64	612,480040618838
0,950	65	612,480040618838
0,950	66	612,480040618838
0,950	67	612,480040618838
0,950	68	612,480040618838
0,950	69	612,480040618838
0,950	70	612,480040618838
0,950	71	612,480040618838
0,950	72	612,480040618838
0,950	73	612,480040618838
0,950	74	612,480040618838
0,950	75	612,480040618838
0,950	76	612,480040618838
0,950	77	612,480040618838
0,950	78	612,480040618838
0,950	79	612,480040618838
0,950	80	612,480040618838
0,950	81	612,480040618838
0,950	82	612,480040618838
0,950	83	612,480040618838
0,950	84	612,480040618838
0,950	85	612,480040618838
0,950	86	612,480040618838
0,950	87	612,480040618838
0,950	88	612,480040618838
0,950	89	612,480040618838
0,950	90	612,480040618838
0,950	91	612,480040618838
0,950	92	612,480040618838
0,950	93	612,480040618838
0,950	94	612,480040618838
0,950	95	612,480040618838
0,950	96	612,480040618838
0,950	97	612,480040618838
0,950	98	612,480040618838
0,950	99	612,480040618838
0,950	100	612,480040618838
0,950	101	612,480040618838
0,950	102	612,480040618838
0,950	103	612,480040618838
0,950	104	612,480040618838
0,950	105	612,480040618838
0,950	106	612,480040618838
0,950	107	612,480040618838
0,950	108	612,480040618838
0,950	109	612,480040618838
0,950	110	612,480040618838
0,950	111	612,480040618838
0,950	112	612,480040618838
0,950	113	612,480040618838
0,950	114	612,480040618838
0,950	115	612,480040618838
0,950	116	612,480040618838
0,950	117	612,480040618838
0,950	118	612,480040618838
0,950	119	612,480040618838
0,950	120	612,480040618838
0,950	121	612,480040618838
0,950	122	612,480040618838
0,950	123	612,480040618838
0,950	124	612,480040618838
0,950	125	612,480040618838
0,950	126	612,480040618838
0,950	127	612,480040618838
0,950	128	612,480040618838
0,950	129	612,480040618838
0,950	130	612,480040618838
0,950	131	612,480040618838
0,950	132	612,480040618838
0,950	133	612,480040618838
0,950	134	612,480040618838
0,950	135	612,480040618838
0,950	136	612,480040618838
0,950	137	612,480040618838
0,950	138	612,480040618838
0,950	139	612,480040618838
