%!PS-Adobe-3.0 EPSF-3.0
%%Creator: cairo 1.11.2 (http://cairographics.org)
%%CreationDate: Wed Apr 20 13:18:53 2016
%%Pages: 1
%%DocumentData: Clean7Bit
%%LanguageLevel: 2
%%BoundingBox: 0 -1 809 264
%%EndComments
%%BeginProlog
/cairo_eps_state save def
/dict_count countdictstack def
/op_count count 1 sub def
userdict begin
/q { gsave } bind def
/Q { grestore } bind def
/cm { 6 array astore concat } bind def
/w { setlinewidth } bind def
/J { setlinecap } bind def
/j { setlinejoin } bind def
/M { setmiterlimit } bind def
/d { setdash } bind def
/m { moveto } bind def
/l { lineto } bind def
/c { curveto } bind def
/h { closepath } bind def
/re { exch dup neg 3 1 roll 5 3 roll moveto 0 rlineto
      0 exch rlineto 0 rlineto closepath } bind def
/S { stroke } bind def
/f { fill } bind def
/f* { eofill } bind def
/n { newpath } bind def
/W { clip } bind def
/W* { eoclip } bind def
/BT { } bind def
/ET { } bind def
/pdfmark where { pop globaldict /?pdfmark /exec load put }
    { globaldict begin /?pdfmark /pop load def /pdfmark
    /cleartomark load def end } ifelse
/BDC { mark 3 1 roll /BDC pdfmark } bind def
/EMC { mark /EMC pdfmark } bind def
/cairo_store_point { /cairo_point_y exch def /cairo_point_x exch def } def
/Tj { show currentpoint cairo_store_point } bind def
/TJ {
  {
    dup
    type /stringtype eq
    { show } { -0.001 mul 0 cairo_font_matrix dtransform rmoveto } ifelse
  } forall
  currentpoint cairo_store_point
} bind def
/cairo_selectfont { cairo_font_matrix aload pop pop pop 0 0 6 array astore
    cairo_font exch selectfont cairo_point_x cairo_point_y moveto } bind def
/Tf { pop /cairo_font exch def /cairo_font_matrix where
      { pop cairo_selectfont } if } bind def
/Td { matrix translate cairo_font_matrix matrix concatmatrix dup
      /cairo_font_matrix exch def dup 4 get exch 5 get cairo_store_point
      /cairo_font where { pop cairo_selectfont } if } bind def
/Tm { 2 copy 8 2 roll 6 array astore /cairo_font_matrix exch def
      cairo_store_point /cairo_font where { pop cairo_selectfont } if } bind def
/g { setgray } bind def
/rg { setrgbcolor } bind def
/d1 { setcachedevice } bind def
%%EndProlog
%%Page: 1 1
%%BeginPageSetup
%%PageBoundingBox: 0 -1 809 264
%%EndPageSetup
q 0 -1 809 265 rectclip q
0 263.781 809 -264 re W n
0 g
3 w
1 J
1 j
[] 0.0 d
10 M 648.648 250.941 m 576.391 194.07 l S
580.879 190.582 m 568.789 188.09 l 574.059 199.262 l h
f*
796.051 194.25 m 668.91 247.23 l S
668.059 241.602 m 659.988 250.941 l 672.301 251.793 l h
f*
0.647059 g
739.359 58.191 m 784.602 177.203 l S
778.949 177.871 m 788.031 186.23 l 789.27 173.953 l h
f*
560.781 180.082 m 589.328 78.82 l S
594.27 81.652 m 591.961 69.52 l 583.648 78.652 l h
f*
671.328 12.832 m 723.141 45.063 l S
719.051 49.02 m 731.34 50.172 l 724.879 39.652 l h
f*
599.98 50.172 m 654.539 24.91 l S
655.609 30.5 m 663.309 20.852 l 650.969 20.48 l h
f*
0 g
465.391 58.191 m 510.629 177.203 l S
504.98 177.871 m 514.059 186.23 l 515.301 173.953 l h
f*
286.809 180.082 m 315.371 78.82 l S
320.301 81.652 m 317.988 69.52 l 309.68 78.652 l h
f*
0.647059 g
397.359 12.832 m 449.172 45.063 l S
445.078 49.02 m 457.371 50.172 l 450.91 39.652 l h
f*
294.828 188.09 m 358.98 237.063 l S
354.539 240.609 m 366.66 242.922 l 361.238 231.84 l h
f*
374.68 250.941 m 501.828 197.961 l S
502.68 203.59 m 510.738 194.25 l 498.43 193.402 l h
f*
326.012 50.172 m 380.57 24.91 l S
381.641 30.5 m 389.34 20.852 l 377 20.48 l h
f*
20.855 188.09 m 85.02 237.063 l S
80.57 240.609 m 92.691 242.922 l 87.27 231.84 l h
f*
100.711 250.941 m 227.859 197.961 l S
228.711 203.59 m 236.781 194.25 l 224.461 193.402 l h
f*
0 g
248.109 194.25 m 118.41 109.543 l 117.691 110.641 116.23 110.941 115.141
 110.23 c 114.039 109.52 113.738 108.051 114.449 106.961 c 60.125 71.492
 l S
64.301 67.621 m 52.039 66.203 l 58.266 76.859 l h
f*
191.422 58.191 m 28.891 166.691 l S
26.973 161.34 m 20.855 172.063 l 33.105 170.52 l h
f*
0.647059 g
52.039 50.172 m 106.602 24.91 l S
107.672 30.5 m 115.371 20.852 l 103.031 20.48 l h
f*
123.391 12.832 m 175.199 45.063 l S
171.109 49.02 m 183.398 50.172 l 176.941 39.652 l h
f*
1 g
1.5 180.082 m 1.5 186.34 6.574 191.41 12.84 191.41 c 19.102 191.41 24.176
 186.34 24.176 180.082 c 24.176 173.813 19.102 168.742 12.84 168.742 c 6.574
 168.742 1.5 173.813 1.5 180.082 c h
f*
0 g
1.5 180.082 m 1.5 186.34 6.574 191.41 12.84 191.41 c 19.102 191.41 24.176
 186.34 24.176 180.082 c 24.176 173.813 19.102 168.742 12.84 168.742 c 6.574
 168.742 1.5 173.813 1.5 180.082 c h
S
16.457 175.438 m 16.457 175.262 16.449 175.117 16.434 175.008 c 16.418 
174.891 16.395 174.801 16.367 174.734 c 16.336 174.66 16.301 174.609 16.258
 174.578 c 16.215 174.547 16.164 174.531 16.113 174.531 c 10.402 174.531
 l 10.203 174.531 10.039 174.586 9.91 174.703 c 9.777 174.813 9.711 175 
9.715 175.262 c 9.715 185.176 l 9.711 185.43 9.777 185.617 9.91 185.734 
c 10.039 185.848 10.203 185.902 10.402 185.906 c 16.078 185.906 l 16.125
 185.902 16.172 185.887 16.219 185.859 c 16.258 185.828 16.293 185.777 16.324
 185.707 c 16.348 185.629 16.371 185.535 16.391 185.426 c 16.402 185.309
 16.41 185.164 16.414 184.992 c 16.41 184.82 16.402 184.68 16.391 184.57
 c 16.371 184.453 16.348 184.363 16.324 184.297 c 16.293 184.223 16.258 
184.172 16.219 184.141 c 16.172 184.109 16.125 184.094 16.078 184.094 c 
12.02 184.094 l 12.02 181.316 l 15.453 181.316 l 15.504 181.316 15.551 181.297
 15.598 181.266 c 15.637 181.23 15.676 181.184 15.707 181.117 c 15.738 181.047
 15.758 180.953 15.773 180.844 c 15.785 180.727 15.793 180.59 15.797 180.43
 c 15.793 180.254 15.785 180.113 15.773 180.004 c 15.758 179.895 15.738 
179.805 15.707 179.738 c 15.676 179.668 15.637 179.621 15.598 179.594 c 
15.551 179.563 15.504 179.547 15.453 179.551 c 12.02 179.551 l 12.02 176.344
 l 16.113 176.344 l 16.164 176.34 16.215 176.324 16.258 176.293 c 16.301
 176.258 16.336 176.207 16.367 176.141 c 16.395 176.066 16.418 175.973 16.434
 175.863 c 16.449 175.746 16.457 175.605 16.457 175.438 c h
f
1 g
89.371 250.941 m 89.371 257.203 94.449 262.281 100.711 262.281 c 106.969
 262.281 112.051 257.203 112.051 250.941 c 112.051 244.68 106.969 239.602
 100.711 239.602 c 94.449 239.602 89.371 244.68 89.371 250.941 c h
f*
0 g
89.371 250.941 m 89.371 257.203 94.449 262.281 100.711 262.281 c 106.969
 262.281 112.051 257.203 112.051 250.941 c 112.051 244.68 106.969 239.602
 100.711 239.602 c 94.449 239.602 89.371 244.68 89.371 250.941 c h
S
105.852 251.363 m 105.848 250.316 105.711 249.422 105.441 248.68 c 105.164
 247.934 104.773 247.328 104.266 246.863 c 103.754 246.391 103.133 246.047
 102.402 245.828 c 101.672 245.609 100.801 245.5 99.797 245.5 c 97.074 245.5
 l 96.879 245.5 96.715 245.555 96.586 245.672 c 96.453 245.781 96.391 245.969
 96.391 246.23 c 96.391 256.16 l 96.391 256.414 96.453 256.602 96.586 256.719
 c 96.715 256.832 96.879 256.891 97.074 256.891 c 99.996 256.891 l 101.008
 256.891 101.871 256.77 102.578 256.531 c 103.285 256.293 103.879 255.941
 104.367 255.477 c 104.848 255.008 105.219 254.43 105.473 253.746 c 105.723
 253.059 105.848 252.266 105.852 251.363 c h
103.457 251.281 m 103.457 251.82 103.391 252.324 103.266 252.789 c 103.137
 253.25 102.938 253.648 102.66 253.992 c 102.379 254.328 102.02 254.594 
101.586 254.789 c 101.145 254.977 100.57 255.074 99.867 255.074 c 98.695
 255.074 l 98.695 247.332 l 99.902 247.332 l 100.531 247.328 101.066 247.41
 101.5 247.578 c 101.934 247.738 102.297 247.984 102.59 248.32 c 102.879
 248.648 103.094 249.063 103.242 249.555 c 103.383 250.047 103.457 250.621
 103.457 251.281 c h
f
1 g
236.781 194.25 m 236.781 200.512 241.852 205.59 248.109 205.59 c 254.379
 205.59 259.449 200.512 259.449 194.25 c 259.449 187.992 254.379 182.91 
248.109 182.91 c 241.852 182.91 236.781 187.992 236.781 194.25 c h
f*
0 g
236.781 194.25 m 236.781 200.512 241.852 205.59 248.109 205.59 c 254.379
 205.59 259.449 200.512 259.449 194.25 c 259.449 187.992 254.379 182.91 
248.109 182.91 c 241.852 182.91 236.781 187.992 236.781 194.25 c h
S
252.695 190.457 m 252.695 190.305 252.688 190.18 252.68 190.078 c 252.668
 189.977 252.656 189.887 252.641 189.816 c 252.621 189.738 252.598 189.676
 252.57 189.629 c 252.539 189.574 252.492 189.516 252.43 189.449 c 252.363
 189.379 252.238 189.293 252.059 189.188 c 251.871 189.082 251.645 188.98
 251.379 188.883 c 251.109 188.785 250.805 188.707 250.465 188.645 c 250.117
 188.582 249.746 188.551 249.352 188.547 c 248.566 188.551 247.863 188.668
 247.238 188.906 c 246.609 189.145 246.074 189.504 245.637 189.984 c 245.191
 190.461 244.855 191.055 244.625 191.773 c 244.387 192.484 244.27 193.32
 244.273 194.273 c 244.27 195.242 244.398 196.102 244.66 196.852 c 244.914
 197.602 245.273 198.23 245.742 198.746 c 246.203 199.254 246.762 199.641
 247.41 199.906 c 248.059 200.168 248.773 200.301 249.555 200.305 c 249.871
 200.301 250.176 200.273 250.469 200.223 c 250.762 200.168 251.031 200.102
 251.281 200.016 c 251.527 199.93 251.754 199.832 251.957 199.723 c 252.156
 199.609 252.293 199.512 252.375 199.438 c 252.449 199.355 252.504 199.289
 252.535 199.238 c 252.563 199.184 252.586 199.117 252.605 199.035 c 252.621
 198.953 252.633 198.855 252.645 198.746 c 252.652 198.629 252.66 198.492
 252.66 198.332 c 252.66 198.156 252.652 198.008 252.641 197.883 c 252.629
 197.758 252.609 197.656 252.582 197.582 c 252.551 197.504 252.516 197.449
 252.477 197.414 c 252.434 197.379 252.387 197.359 252.336 197.363 c 252.246
 197.359 252.133 197.41 252 197.516 c 251.859 197.617 251.688 197.734 251.477
 197.859 c 251.262 197.984 251.004 198.098 250.711 198.203 c 250.41 198.305
 250.059 198.355 249.652 198.359 c 249.195 198.355 248.793 198.266 248.441
 198.082 c 248.086 197.895 247.781 197.629 247.535 197.289 c 247.281 196.941
 247.094 196.527 246.965 196.043 c 246.836 195.555 246.77 195.004 246.773
 194.398 c 246.77 193.727 246.84 193.148 246.98 192.66 c 247.117 192.168
 247.313 191.766 247.57 191.449 c 247.82 191.133 248.129 190.895 248.492
 190.742 c 248.852 190.582 249.258 190.504 249.711 190.508 c 250.121 190.504
 250.477 190.555 250.777 190.652 c 251.074 190.746 251.332 190.852 251.547
 190.973 c 251.758 191.09 251.934 191.195 252.074 191.293 c 252.211 191.383
 252.316 191.43 252.398 191.434 c 252.453 191.43 252.5 191.418 252.535 191.398
 c 252.57 191.371 252.602 191.324 252.625 191.258 c 252.648 191.184 252.664
 191.086 252.676 190.961 c 252.688 190.832 252.695 190.664 252.695 190.457
 c h
f
1 g
180.078 58.191 m 180.078 64.453 185.16 69.52 191.422 69.52 c 197.68 69.52
 202.762 64.453 202.762 58.191 c 202.762 51.922 197.68 46.852 191.422 46.852
 c 185.16 46.852 180.078 51.922 180.078 58.191 c h
f*
0 g
180.078 58.191 m 180.078 64.453 185.16 69.52 191.422 69.52 c 197.68 69.52
 202.762 64.453 202.762 58.191 c 202.762 51.922 197.68 46.852 191.422 46.852
 c 185.16 46.852 180.078 51.922 180.078 58.191 c h
S
196.039 55.926 m 196.035 55.52 195.98 55.152 195.871 54.824 c 195.758 54.492
 195.602 54.203 195.406 53.953 c 195.207 53.703 194.973 53.484 194.703 53.305
 c 194.43 53.117 194.129 52.969 193.801 52.855 c 193.469 52.734 193.121 
52.648 192.75 52.594 c 192.375 52.539 191.961 52.512 191.508 52.512 c 188.477
 52.512 l 188.281 52.512 188.117 52.566 187.988 52.684 c 187.855 52.793 
187.793 52.98 187.793 53.242 c 187.793 63.172 l 187.793 63.426 187.855 63.613
 187.988 63.73 c 188.117 63.844 188.281 63.902 188.477 63.902 c 191.34 63.902
 l 192.035 63.902 192.629 63.84 193.113 63.723 c 193.598 63.602 194.004 
63.426 194.336 63.191 c 194.664 62.953 194.918 62.652 195.094 62.289 c 195.27
 61.926 195.355 61.496 195.359 61.004 c 195.355 60.723 195.32 60.465 195.254
 60.223 c 195.18 59.98 195.078 59.758 194.945 59.559 c 194.809 59.359 194.645
 59.184 194.449 59.031 c 194.254 58.879 194.027 58.758 193.777 58.664 c 
194.098 58.602 194.395 58.496 194.668 58.355 c 194.938 58.207 195.176 58.02
 195.383 57.789 c 195.582 57.555 195.742 57.281 195.863 56.973 c 195.977
 56.66 196.035 56.313 196.039 55.926 c h
193.047 60.723 m 193.043 60.949 193.008 61.156 192.941 61.34 c 192.867 
61.52 192.762 61.672 192.625 61.793 c 192.48 61.91 192.301 62 192.09 62.07
 c 191.871 62.133 191.586 62.168 191.234 62.168 c 190.063 62.168 l 190.063
 59.211 l 191.355 59.211 l 191.691 59.207 191.957 59.246 192.156 59.328 
c 192.355 59.402 192.52 59.512 192.652 59.652 c 192.781 59.789 192.883 59.949
 192.949 60.137 c 193.012 60.316 193.043 60.512 193.047 60.723 c h
193.637 55.848 m 193.633 56.105 193.59 56.344 193.504 56.555 c 193.414 
56.762 193.285 56.934 193.113 57.078 c 192.941 57.215 192.723 57.324 192.465
 57.402 c 192.199 57.477 191.855 57.516 191.434 57.52 c 190.063 57.52 l 
190.063 54.281 l 191.734 54.281 l 192.055 54.281 192.324 54.313 192.547 
54.383 c 192.766 54.445 192.957 54.547 193.121 54.68 c 193.277 54.813 193.406
 54.977 193.5 55.172 c 193.59 55.367 193.633 55.59 193.637 55.848 c h
f
1 g
32.68 58.191 m 32.68 64.453 37.758 69.52 44.02 69.52 c 50.281 69.52 55.359
 64.453 55.359 58.191 c 55.359 51.922 50.281 46.852 44.02 46.852 c 37.758
 46.852 32.68 51.922 32.68 58.191 c h
f*
0 g
32.68 58.191 m 32.68 64.453 37.758 69.52 44.02 69.52 c 50.281 69.52 55.359
 64.453 55.359 58.191 c 55.359 51.922 50.281 46.852 44.02 46.852 c 37.758
 46.852 32.68 51.922 32.68 58.191 c h
S
47.578 62.949 m 47.578 62.77 47.57 62.621 47.555 62.504 c 47.539 62.379
 47.516 62.285 47.484 62.219 c 47.453 62.145 47.414 62.09 47.375 62.059 
c 47.332 62.02 47.289 62.004 47.238 62.008 c 43.516 62.008 l 43.516 58.945
 l 47.008 58.945 l 47.059 58.945 47.105 58.93 47.148 58.902 c 47.188 58.871
 47.223 58.82 47.258 58.75 c 47.289 58.676 47.313 58.582 47.328 58.469 c
 47.34 58.348 47.348 58.203 47.352 58.031 c 47.348 57.852 47.34 57.703 47.328
 57.59 c 47.313 57.469 47.289 57.371 47.258 57.297 c 47.223 57.219 47.188
 57.164 47.148 57.137 c 47.105 57.102 47.059 57.086 47.008 57.09 c 43.516
 57.09 l 43.516 52.848 l 43.512 52.777 43.492 52.723 43.461 52.68 c 43.422
 52.629 43.359 52.59 43.27 52.559 c 43.18 52.527 43.063 52.504 42.914 52.484
 c 42.766 52.469 42.578 52.461 42.352 52.457 c 42.125 52.461 41.938 52.469
 41.793 52.484 c 41.641 52.504 41.523 52.527 41.438 52.559 c 41.348 52.59
 41.281 52.629 41.246 52.68 c 41.207 52.723 41.191 52.777 41.191 52.848 
c 41.191 63.172 l 41.191 63.426 41.254 63.613 41.387 63.73 c 41.516 63.844
 41.68 63.902 41.875 63.902 c 47.238 63.902 l 47.289 63.902 47.332 63.883
 47.375 63.852 c 47.414 63.816 47.453 63.766 47.484 63.691 c 47.516 63.617
 47.539 63.52 47.555 63.398 c 47.57 63.273 47.578 63.121 47.578 62.949 c
 h
f
1 g
112.051 12.832 m 112.051 19.09 117.129 24.172 123.391 24.172 c 129.648 
24.172 134.73 19.09 134.73 12.832 c 134.73 6.57 129.648 1.492 123.391 1.492
 c 117.129 1.492 112.051 6.57 112.051 12.832 c h
f*
0 g
112.051 12.832 m 112.051 19.09 117.129 24.172 123.391 24.172 c 129.648 
24.172 134.73 19.09 134.73 12.832 c 134.73 6.57 129.648 1.492 123.391 1.492
 c 117.129 1.492 112.051 6.57 112.051 12.832 c h
S
128.621 7.945 m 128.691 7.73 128.734 7.563 128.754 7.441 c 128.77 7.316
 128.746 7.227 128.684 7.164 c 128.617 7.105 128.504 7.07 128.34 7.051 c
 128.176 7.039 127.949 7.031 127.66 7.027 c 127.363 7.031 127.129 7.035 
126.961 7.043 c 126.793 7.055 126.664 7.07 126.578 7.094 c 126.484 7.121
 126.422 7.156 126.391 7.207 c 126.352 7.25 126.324 7.313 126.305 7.391 
c 125.539 9.68 l 121.262 9.68 l 120.543 7.453 l 120.516 7.367 120.484 7.297
 120.449 7.242 c 120.406 7.184 120.344 7.141 120.262 7.109 c 120.176 7.078
 120.059 7.059 119.902 7.047 c 119.746 7.035 119.543 7.031 119.293 7.027
 c 119.02 7.031 118.805 7.039 118.656 7.055 c 118.5 7.074 118.395 7.113 
118.34 7.184 c 118.277 7.246 118.258 7.344 118.277 7.469 c 118.293 7.59 
118.336 7.754 118.41 7.961 c 121.922 18.066 l 121.957 18.164 122 18.246 
122.047 18.309 c 122.094 18.371 122.168 18.418 122.27 18.449 c 122.371 18.48
 122.512 18.5 122.695 18.508 c 122.875 18.516 123.117 18.52 123.418 18.523
 c 123.762 18.52 124.035 18.516 124.246 18.508 c 124.449 18.5 124.609 18.48
 124.727 18.449 c 124.836 18.418 124.918 18.367 124.973 18.305 c 125.02 
18.234 125.063 18.148 125.102 18.039 c h
123.395 16.297 m 123.383 16.297 l 121.773 11.457 l 125.004 11.457 l h
f
1 g
275.469 180.082 m 275.469 186.34 280.539 191.41 286.809 191.41 c 293.07
 191.41 298.148 186.34 298.148 180.082 c 298.148 173.813 293.07 168.742 
286.809 168.742 c 280.539 168.742 275.469 173.813 275.469 180.082 c h
f*
0 g
275.469 180.082 m 275.469 186.34 280.539 191.41 286.809 191.41 c 293.07
 191.41 298.148 186.34 298.148 180.082 c 298.148 173.813 293.07 168.742 
286.809 168.742 c 280.539 168.742 275.469 173.813 275.469 180.082 c h
S
290.652 175.438 m 290.652 175.262 290.645 175.117 290.629 175.008 c 290.613
 174.891 290.59 174.801 290.563 174.734 c 290.531 174.66 290.496 174.609
 290.453 174.578 c 290.41 174.547 290.359 174.531 290.309 174.531 c 284.598
 174.531 l 284.398 174.531 284.234 174.586 284.105 174.703 c 283.973 174.813
 283.906 175 283.91 175.262 c 283.91 185.176 l 283.906 185.43 283.973 185.617
 284.105 185.734 c 284.234 185.848 284.398 185.902 284.598 185.906 c 290.273
 185.906 l 290.32 185.902 290.367 185.887 290.414 185.859 c 290.453 185.828
 290.488 185.777 290.52 185.707 c 290.543 185.629 290.566 185.535 290.586
 185.426 c 290.598 185.309 290.605 185.164 290.609 184.992 c 290.605 184.82
 290.598 184.68 290.586 184.57 c 290.566 184.453 290.543 184.363 290.52 
184.297 c 290.488 184.223 290.453 184.172 290.414 184.141 c 290.367 184.109
 290.32 184.094 290.273 184.094 c 286.215 184.094 l 286.215 181.316 l 289.648
 181.316 l 289.699 181.316 289.746 181.297 289.793 181.266 c 289.832 181.23
 289.871 181.184 289.902 181.117 c 289.934 181.047 289.953 180.953 289.969
 180.844 c 289.98 180.727 289.988 180.59 289.992 180.43 c 289.988 180.254
 289.98 180.113 289.969 180.004 c 289.953 179.895 289.934 179.805 289.902
 179.738 c 289.871 179.668 289.832 179.621 289.793 179.594 c 289.746 179.563
 289.699 179.547 289.648 179.551 c 286.215 179.551 l 286.215 176.344 l 290.309
 176.344 l 290.359 176.34 290.41 176.324 290.453 176.293 c 290.496 176.258
 290.531 176.207 290.563 176.141 c 290.59 176.066 290.613 175.973 290.629
 175.863 c 290.645 175.746 290.652 175.605 290.652 175.438 c h
f
1 g
363.34 250.941 m 363.34 257.203 368.422 262.281 374.68 262.281 c 380.941
 262.281 386.02 257.203 386.02 250.941 c 386.02 244.68 380.941 239.602 374.68
 239.602 c 368.422 239.602 363.34 244.68 363.34 250.941 c h
f*
0 g
363.34 250.941 m 363.34 257.203 368.422 262.281 374.68 262.281 c 380.941
 262.281 386.02 257.203 386.02 250.941 c 386.02 244.68 380.941 239.602 374.68
 239.602 c 368.422 239.602 363.34 244.68 363.34 250.941 c h
S
380.055 251.363 m 380.051 250.316 379.914 249.422 379.645 248.68 c 379.367
 247.934 378.977 247.328 378.469 246.863 c 377.957 246.391 377.336 246.047
 376.605 245.828 c 375.875 245.609 375.004 245.5 374 245.5 c 371.277 245.5
 l 371.082 245.5 370.918 245.555 370.789 245.672 c 370.656 245.781 370.594
 245.969 370.594 246.23 c 370.594 256.16 l 370.594 256.414 370.656 256.602
 370.789 256.719 c 370.918 256.832 371.082 256.891 371.277 256.891 c 374.199
 256.891 l 375.211 256.891 376.074 256.77 376.781 256.531 c 377.488 256.293
 378.082 255.941 378.57 255.477 c 379.051 255.008 379.422 254.43 379.676
 253.746 c 379.926 253.059 380.051 252.266 380.055 251.363 c h
377.66 251.281 m 377.66 251.82 377.594 252.324 377.469 252.789 c 377.34
 253.25 377.141 253.648 376.863 253.992 c 376.582 254.328 376.223 254.594
 375.789 254.789 c 375.348 254.977 374.773 255.074 374.07 255.074 c 372.898
 255.074 l 372.898 247.332 l 374.105 247.332 l 374.734 247.328 375.27 247.41
 375.703 247.578 c 376.137 247.738 376.5 247.984 376.793 248.32 c 377.082
 248.648 377.297 249.063 377.445 249.555 c 377.586 250.047 377.66 250.621
 377.66 251.281 c h
f
1 g
510.738 194.25 m 510.738 200.512 515.82 205.59 522.078 205.59 c 528.34 
205.59 533.422 200.512 533.422 194.25 c 533.422 187.992 528.34 182.91 522.078
 182.91 c 515.82 182.91 510.738 187.992 510.738 194.25 c h
f*
0 g
510.738 194.25 m 510.738 200.512 515.82 205.59 522.078 205.59 c 528.34 
205.59 533.422 200.512 533.422 194.25 c 533.422 187.992 528.34 182.91 522.078
 182.91 c 515.82 182.91 510.738 187.992 510.738 194.25 c h
S
526.918 190.457 m 526.918 190.305 526.91 190.18 526.902 190.078 c 526.891
 189.977 526.879 189.887 526.863 189.816 c 526.844 189.738 526.82 189.676
 526.793 189.629 c 526.762 189.574 526.715 189.516 526.652 189.449 c 526.586
 189.379 526.461 189.293 526.281 189.188 c 526.094 189.082 525.867 188.98
 525.602 188.883 c 525.332 188.785 525.027 188.707 524.688 188.645 c 524.34
 188.582 523.969 188.551 523.574 188.547 c 522.789 188.551 522.086 188.668
 521.461 188.906 c 520.832 189.145 520.297 189.504 519.859 189.984 c 519.414
 190.461 519.078 191.055 518.848 191.773 c 518.609 192.484 518.492 193.32
 518.496 194.273 c 518.492 195.242 518.621 196.102 518.883 196.852 c 519.137
 197.602 519.496 198.23 519.965 198.746 c 520.426 199.254 520.984 199.641
 521.633 199.906 c 522.281 200.168 522.996 200.301 523.777 200.305 c 524.094
 200.301 524.398 200.273 524.691 200.223 c 524.984 200.168 525.254 200.102
 525.504 200.016 c 525.75 199.93 525.977 199.832 526.18 199.723 c 526.379
 199.609 526.516 199.512 526.598 199.438 c 526.672 199.355 526.727 199.289
 526.758 199.238 c 526.785 199.184 526.809 199.117 526.828 199.035 c 526.844
 198.953 526.855 198.855 526.867 198.746 c 526.875 198.629 526.883 198.492
 526.883 198.332 c 526.883 198.156 526.875 198.008 526.863 197.883 c 526.852
 197.758 526.832 197.656 526.805 197.582 c 526.773 197.504 526.738 197.449
 526.699 197.414 c 526.656 197.379 526.609 197.359 526.559 197.363 c 526.469
 197.359 526.355 197.41 526.223 197.516 c 526.082 197.617 525.91 197.734
 525.699 197.859 c 525.484 197.984 525.227 198.098 524.934 198.203 c 524.633
 198.305 524.281 198.355 523.875 198.359 c 523.418 198.355 523.016 198.266
 522.664 198.082 c 522.309 197.895 522.004 197.629 521.758 197.289 c 521.504
 196.941 521.316 196.527 521.188 196.043 c 521.059 195.555 520.992 195.004
 520.996 194.398 c 520.992 193.727 521.063 193.148 521.203 192.66 c 521.34
 192.168 521.535 191.766 521.793 191.449 c 522.043 191.133 522.352 190.895
 522.715 190.742 c 523.074 190.582 523.48 190.504 523.934 190.508 c 524.344
 190.504 524.699 190.555 525 190.652 c 525.297 190.746 525.555 190.852 525.77
 190.973 c 525.98 191.09 526.156 191.195 526.297 191.293 c 526.434 191.383
 526.539 191.43 526.621 191.434 c 526.676 191.43 526.723 191.418 526.758
 191.398 c 526.793 191.371 526.824 191.324 526.848 191.258 c 526.871 191.184
 526.887 191.086 526.898 190.961 c 526.91 190.832 526.918 190.664 526.918
 190.457 c h
f
1 g
454.051 58.191 m 454.051 64.453 459.129 69.52 465.391 69.52 c 471.648 69.52
 476.73 64.453 476.73 58.191 c 476.73 51.922 471.648 46.852 465.391 46.852
 c 459.129 46.852 454.051 51.922 454.051 58.191 c h
f*
0 g
454.051 58.191 m 454.051 64.453 459.129 69.52 465.391 69.52 c 471.648 69.52
 476.73 64.453 476.73 58.191 c 476.73 51.922 471.648 46.852 465.391 46.852
 c 459.129 46.852 454.051 51.922 454.051 58.191 c h
S
470.258 55.926 m 470.254 55.52 470.199 55.152 470.09 54.824 c 469.977 54.492
 469.82 54.203 469.625 53.953 c 469.426 53.703 469.191 53.484 468.922 53.305
 c 468.648 53.117 468.348 52.969 468.02 52.855 c 467.688 52.734 467.34 52.648
 466.969 52.594 c 466.594 52.539 466.18 52.512 465.727 52.512 c 462.695 
52.512 l 462.5 52.512 462.336 52.566 462.207 52.684 c 462.074 52.793 462.012
 52.98 462.012 53.242 c 462.012 63.172 l 462.012 63.426 462.074 63.613 462.207
 63.73 c 462.336 63.844 462.5 63.902 462.695 63.902 c 465.559 63.902 l 466.254
 63.902 466.848 63.84 467.332 63.723 c 467.816 63.602 468.223 63.426 468.555
 63.191 c 468.883 62.953 469.137 62.652 469.313 62.289 c 469.488 61.926 
469.574 61.496 469.578 61.004 c 469.574 60.723 469.539 60.465 469.473 60.223
 c 469.398 59.98 469.297 59.758 469.164 59.559 c 469.027 59.359 468.863 
59.184 468.668 59.031 c 468.473 58.879 468.246 58.758 467.996 58.664 c 468.316
 58.602 468.613 58.496 468.887 58.355 c 469.156 58.207 469.395 58.02 469.602
 57.789 c 469.801 57.555 469.961 57.281 470.082 56.973 c 470.195 56.66 470.254
 56.313 470.258 55.926 c h
467.266 60.723 m 467.262 60.949 467.227 61.156 467.16 61.34 c 467.086 61.52
 466.98 61.672 466.844 61.793 c 466.699 61.91 466.52 62 466.309 62.07 c 
466.09 62.133 465.805 62.168 465.453 62.168 c 464.281 62.168 l 464.281 59.211
 l 465.574 59.211 l 465.91 59.207 466.176 59.246 466.375 59.328 c 466.574
 59.402 466.738 59.512 466.871 59.652 c 467 59.789 467.102 59.949 467.168
 60.137 c 467.23 60.316 467.262 60.512 467.266 60.723 c h
467.855 55.848 m 467.852 56.105 467.809 56.344 467.723 56.555 c 467.633
 56.762 467.504 56.934 467.332 57.078 c 467.16 57.215 466.941 57.324 466.684
 57.402 c 466.418 57.477 466.074 57.516 465.652 57.52 c 464.281 57.52 l 
464.281 54.281 l 465.953 54.281 l 466.273 54.281 466.543 54.313 466.766 
54.383 c 466.984 54.445 467.176 54.547 467.34 54.68 c 467.496 54.813 467.625
 54.977 467.719 55.172 c 467.809 55.367 467.852 55.59 467.855 55.848 c h
f
1 g
306.648 58.191 m 306.648 64.453 311.73 69.52 317.988 69.52 c 324.25 69.52
 329.328 64.453 329.328 58.191 c 329.328 51.922 324.25 46.852 317.988 46.852
 c 311.73 46.852 306.648 51.922 306.648 58.191 c h
f*
0 g
306.648 58.191 m 306.648 64.453 311.73 69.52 317.988 69.52 c 324.25 69.52
 329.328 64.453 329.328 58.191 c 329.328 51.922 324.25 46.852 317.988 46.852
 c 311.73 46.852 306.648 51.922 306.648 58.191 c h
S
321.777 62.949 m 321.777 62.77 321.77 62.621 321.754 62.504 c 321.738 62.379
 321.715 62.285 321.684 62.219 c 321.652 62.145 321.613 62.09 321.574 62.059
 c 321.531 62.02 321.488 62.004 321.438 62.008 c 317.715 62.008 l 317.715
 58.945 l 321.207 58.945 l 321.258 58.945 321.305 58.93 321.348 58.902 c
 321.387 58.871 321.422 58.82 321.457 58.75 c 321.488 58.676 321.512 58.582
 321.527 58.469 c 321.539 58.348 321.547 58.203 321.551 58.031 c 321.547
 57.852 321.539 57.703 321.527 57.59 c 321.512 57.469 321.488 57.371 321.457
 57.297 c 321.422 57.219 321.387 57.164 321.348 57.137 c 321.305 57.102 
321.258 57.086 321.207 57.09 c 317.715 57.09 l 317.715 52.848 l 317.711 
52.777 317.691 52.723 317.66 52.68 c 317.621 52.629 317.559 52.59 317.469
 52.559 c 317.379 52.527 317.262 52.504 317.113 52.484 c 316.965 52.469 
316.777 52.461 316.551 52.457 c 316.324 52.461 316.137 52.469 315.992 52.484
 c 315.84 52.504 315.723 52.527 315.637 52.559 c 315.547 52.59 315.48 52.629
 315.445 52.68 c 315.406 52.723 315.391 52.777 315.391 52.848 c 315.391 
63.172 l 315.391 63.426 315.453 63.613 315.586 63.73 c 315.715 63.844 315.879
 63.902 316.074 63.902 c 321.438 63.902 l 321.488 63.902 321.531 63.883 
321.574 63.852 c 321.613 63.816 321.652 63.766 321.684 63.691 c 321.715 
63.617 321.738 63.52 321.754 63.398 c 321.77 63.273 321.777 63.121 321.777
 62.949 c h
f
1 g
386.02 12.832 m 386.02 19.09 391.102 24.172 397.359 24.172 c 403.621 24.172
 408.699 19.09 408.699 12.832 c 408.699 6.57 403.621 1.492 397.359 1.492
 c 391.102 1.492 386.02 6.57 386.02 12.832 c h
f*
0 g
386.02 12.832 m 386.02 19.09 391.102 24.172 397.359 24.172 c 403.621 24.172
 408.699 19.09 408.699 12.832 c 408.699 6.57 403.621 1.492 397.359 1.492
 c 391.102 1.492 386.02 6.57 386.02 12.832 c h
S
402.84 7.945 m 402.91 7.73 402.953 7.563 402.973 7.441 c 402.988 7.316 
402.965 7.227 402.902 7.164 c 402.836 7.105 402.723 7.07 402.559 7.051 c
 402.395 7.039 402.168 7.031 401.879 7.027 c 401.582 7.031 401.348 7.035
 401.18 7.043 c 401.012 7.055 400.883 7.07 400.797 7.094 c 400.703 7.121
 400.641 7.156 400.609 7.207 c 400.57 7.25 400.543 7.313 400.523 7.391 c
 399.758 9.68 l 395.48 9.68 l 394.762 7.453 l 394.734 7.367 394.703 7.297
 394.668 7.242 c 394.625 7.184 394.563 7.141 394.48 7.109 c 394.395 7.078
 394.277 7.059 394.121 7.047 c 393.965 7.035 393.762 7.031 393.512 7.027
 c 393.238 7.031 393.023 7.039 392.875 7.055 c 392.719 7.074 392.613 7.113
 392.559 7.184 c 392.496 7.246 392.477 7.344 392.496 7.469 c 392.512 7.59
 392.555 7.754 392.629 7.961 c 396.141 18.066 l 396.176 18.164 396.219 18.246
 396.266 18.309 c 396.313 18.371 396.387 18.418 396.488 18.449 c 396.59 
18.48 396.73 18.5 396.914 18.508 c 397.094 18.516 397.336 18.52 397.637 
18.523 c 397.98 18.52 398.254 18.516 398.465 18.508 c 398.668 18.5 398.828
 18.48 398.945 18.449 c 399.055 18.418 399.137 18.367 399.191 18.305 c 399.238
 18.234 399.281 18.148 399.32 18.039 c h
397.613 16.297 m 397.602 16.297 l 395.992 11.457 l 399.223 11.457 l h
f
1 g
549.441 180.082 m 549.441 186.34 554.512 191.41 560.781 191.41 c 567.039
 191.41 572.109 186.34 572.109 180.082 c 572.109 173.813 567.039 168.742
 560.781 168.742 c 554.512 168.742 549.441 173.813 549.441 180.082 c h
f*
0 g
549.441 180.082 m 549.441 186.34 554.512 191.41 560.781 191.41 c 567.039
 191.41 572.109 186.34 572.109 180.082 c 572.109 173.813 567.039 168.742
 560.781 168.742 c 554.512 168.742 549.441 173.813 549.441 180.082 c h
S
564.879 175.438 m 564.879 175.262 564.871 175.117 564.855 175.008 c 564.84
 174.891 564.816 174.801 564.789 174.734 c 564.758 174.66 564.723 174.609
 564.68 174.578 c 564.637 174.547 564.586 174.531 564.535 174.531 c 558.824
 174.531 l 558.625 174.531 558.461 174.586 558.332 174.703 c 558.199 174.813
 558.133 175 558.137 175.262 c 558.137 185.176 l 558.133 185.43 558.199 
185.617 558.332 185.734 c 558.461 185.848 558.625 185.902 558.824 185.906
 c 564.5 185.906 l 564.547 185.902 564.594 185.887 564.641 185.859 c 564.68
 185.828 564.715 185.777 564.746 185.707 c 564.77 185.629 564.793 185.535
 564.813 185.426 c 564.824 185.309 564.832 185.164 564.836 184.992 c 564.832
 184.82 564.824 184.68 564.813 184.57 c 564.793 184.453 564.77 184.363 564.746
 184.297 c 564.715 184.223 564.68 184.172 564.641 184.141 c 564.594 184.109
 564.547 184.094 564.5 184.094 c 560.441 184.094 l 560.441 181.316 l 563.875
 181.316 l 563.926 181.316 563.973 181.297 564.02 181.266 c 564.059 181.23
 564.098 181.184 564.129 181.117 c 564.16 181.047 564.18 180.953 564.195
 180.844 c 564.207 180.727 564.215 180.59 564.219 180.43 c 564.215 180.254
 564.207 180.113 564.195 180.004 c 564.18 179.895 564.16 179.805 564.129
 179.738 c 564.098 179.668 564.059 179.621 564.02 179.594 c 563.973 179.563
 563.926 179.547 563.875 179.551 c 560.441 179.551 l 560.441 176.344 l 564.535
 176.344 l 564.586 176.34 564.637 176.324 564.68 176.293 c 564.723 176.258
 564.758 176.207 564.789 176.141 c 564.816 176.066 564.84 175.973 564.855
 175.863 c 564.871 175.746 564.879 175.605 564.879 175.438 c h
f
1 g
637.309 250.941 m 637.309 257.203 642.391 262.281 648.648 262.281 c 654.91
 262.281 659.988 257.203 659.988 250.941 c 659.988 244.68 654.91 239.602
 648.648 239.602 c 642.391 239.602 637.309 244.68 637.309 250.941 c h
f*
0 g
637.309 250.941 m 637.309 257.203 642.391 262.281 648.648 262.281 c 654.91
 262.281 659.988 257.203 659.988 250.941 c 659.988 244.68 654.91 239.602
 648.648 239.602 c 642.391 239.602 637.309 244.68 637.309 250.941 c h
S
654.281 251.363 m 654.277 250.316 654.141 249.422 653.871 248.68 c 653.594
 247.934 653.203 247.328 652.695 246.863 c 652.184 246.391 651.563 246.047
 650.832 245.828 c 650.102 245.609 649.23 245.5 648.227 245.5 c 645.504 
245.5 l 645.309 245.5 645.145 245.555 645.016 245.672 c 644.883 245.781 
644.82 245.969 644.82 246.23 c 644.82 256.16 l 644.82 256.414 644.883 256.602
 645.016 256.719 c 645.145 256.832 645.309 256.891 645.504 256.891 c 648.426
 256.891 l 649.438 256.891 650.301 256.77 651.008 256.531 c 651.715 256.293
 652.309 255.941 652.797 255.477 c 653.277 255.008 653.648 254.43 653.902
 253.746 c 654.152 253.059 654.277 252.266 654.281 251.363 c h
651.887 251.281 m 651.887 251.82 651.82 252.324 651.695 252.789 c 651.566
 253.25 651.367 253.648 651.09 253.992 c 650.809 254.328 650.449 254.594
 650.016 254.789 c 649.574 254.977 649 255.074 648.297 255.074 c 647.125
 255.074 l 647.125 247.332 l 648.332 247.332 l 648.961 247.328 649.496 247.41
 649.93 247.578 c 650.363 247.738 650.727 247.984 651.02 248.32 c 651.309
 248.648 651.523 249.063 651.672 249.555 c 651.813 250.047 651.887 250.621
 651.887 251.281 c h
f
1 g
784.711 194.25 m 784.711 200.512 789.789 205.59 796.051 205.59 c 802.309
 205.59 807.391 200.512 807.391 194.25 c 807.391 187.992 802.309 182.91 
796.051 182.91 c 789.789 182.91 784.711 187.992 784.711 194.25 c h
f*
0 g
784.711 194.25 m 784.711 200.512 789.789 205.59 796.051 205.59 c 802.309
 205.59 807.391 200.512 807.391 194.25 c 807.391 187.992 802.309 182.91 
796.051 182.91 c 789.789 182.91 784.711 187.992 784.711 194.25 c h
S
801.117 190.457 m 801.117 190.305 801.109 190.18 801.102 190.078 c 801.09
 189.977 801.078 189.887 801.063 189.816 c 801.043 189.738 801.02 189.676
 800.992 189.629 c 800.961 189.574 800.914 189.516 800.852 189.449 c 800.785
 189.379 800.66 189.293 800.48 189.188 c 800.293 189.082 800.066 188.98 
799.801 188.883 c 799.531 188.785 799.227 188.707 798.887 188.645 c 798.539
 188.582 798.168 188.551 797.773 188.547 c 796.988 188.551 796.285 188.668
 795.66 188.906 c 795.031 189.145 794.496 189.504 794.059 189.984 c 793.613
 190.461 793.277 191.055 793.047 191.773 c 792.809 192.484 792.691 193.32
 792.695 194.273 c 792.691 195.242 792.82 196.102 793.082 196.852 c 793.336
 197.602 793.695 198.23 794.164 198.746 c 794.625 199.254 795.184 199.641
 795.832 199.906 c 796.48 200.168 797.195 200.301 797.977 200.305 c 798.293
 200.301 798.598 200.273 798.891 200.223 c 799.184 200.168 799.453 200.102
 799.703 200.016 c 799.949 199.93 800.176 199.832 800.379 199.723 c 800.578
 199.609 800.715 199.512 800.797 199.438 c 800.871 199.355 800.926 199.289
 800.957 199.238 c 800.984 199.184 801.008 199.117 801.027 199.035 c 801.043
 198.953 801.055 198.855 801.066 198.746 c 801.074 198.629 801.082 198.492
 801.082 198.332 c 801.082 198.156 801.074 198.008 801.063 197.883 c 801.051
 197.758 801.031 197.656 801.004 197.582 c 800.973 197.504 800.938 197.449
 800.898 197.414 c 800.855 197.379 800.809 197.359 800.758 197.363 c 800.668
 197.359 800.555 197.41 800.422 197.516 c 800.281 197.617 800.109 197.734
 799.898 197.859 c 799.684 197.984 799.426 198.098 799.133 198.203 c 798.832
 198.305 798.48 198.355 798.074 198.359 c 797.617 198.355 797.215 198.266
 796.863 198.082 c 796.508 197.895 796.203 197.629 795.957 197.289 c 795.703
 196.941 795.516 196.527 795.387 196.043 c 795.258 195.555 795.191 195.004
 795.195 194.398 c 795.191 193.727 795.262 193.148 795.402 192.66 c 795.539
 192.168 795.734 191.766 795.992 191.449 c 796.242 191.133 796.551 190.895
 796.914 190.742 c 797.273 190.582 797.68 190.504 798.133 190.508 c 798.543
 190.504 798.898 190.555 799.199 190.652 c 799.496 190.746 799.754 190.852
 799.969 190.973 c 800.18 191.09 800.355 191.195 800.496 191.293 c 800.633
 191.383 800.738 191.43 800.82 191.434 c 800.875 191.43 800.922 191.418 
800.957 191.398 c 800.992 191.371 801.023 191.324 801.047 191.258 c 801.07
 191.184 801.086 191.086 801.098 190.961 c 801.109 190.832 801.117 190.664
 801.117 190.457 c h
f
1 g
728.02 58.191 m 728.02 64.453 733.102 69.52 739.359 69.52 c 745.621 69.52
 750.699 64.453 750.699 58.191 c 750.699 51.922 745.621 46.852 739.359 46.852
 c 733.102 46.852 728.02 51.922 728.02 58.191 c h
f*
0 g
728.02 58.191 m 728.02 64.453 733.102 69.52 739.359 69.52 c 745.621 69.52
 750.699 64.453 750.699 58.191 c 750.699 51.922 745.621 46.852 739.359 46.852
 c 733.102 46.852 728.02 51.922 728.02 58.191 c h
S
744.457 55.926 m 744.453 55.52 744.398 55.152 744.289 54.824 c 744.176 
54.492 744.02 54.203 743.824 53.953 c 743.625 53.703 743.391 53.484 743.121
 53.305 c 742.848 53.117 742.547 52.969 742.219 52.855 c 741.887 52.734 
741.539 52.648 741.168 52.594 c 740.793 52.539 740.379 52.512 739.926 52.512
 c 736.895 52.512 l 736.699 52.512 736.535 52.566 736.406 52.684 c 736.273
 52.793 736.211 52.98 736.211 53.242 c 736.211 63.172 l 736.211 63.426 736.273
 63.613 736.406 63.73 c 736.535 63.844 736.699 63.902 736.895 63.902 c 739.758
 63.902 l 740.453 63.902 741.047 63.84 741.531 63.723 c 742.016 63.602 742.422
 63.426 742.754 63.191 c 743.082 62.953 743.336 62.652 743.512 62.289 c 
743.688 61.926 743.773 61.496 743.777 61.004 c 743.773 60.723 743.738 60.465
 743.672 60.223 c 743.598 59.98 743.496 59.758 743.363 59.559 c 743.227 
59.359 743.063 59.184 742.867 59.031 c 742.672 58.879 742.445 58.758 742.195
 58.664 c 742.516 58.602 742.813 58.496 743.086 58.355 c 743.355 58.207 
743.594 58.02 743.801 57.789 c 744 57.555 744.16 57.281 744.281 56.973 c
 744.395 56.66 744.453 56.313 744.457 55.926 c h
741.465 60.723 m 741.461 60.949 741.426 61.156 741.359 61.34 c 741.285 
61.52 741.18 61.672 741.043 61.793 c 740.898 61.91 740.719 62 740.508 62.07
 c 740.289 62.133 740.004 62.168 739.652 62.168 c 738.48 62.168 l 738.48
 59.211 l 739.773 59.211 l 740.109 59.207 740.375 59.246 740.574 59.328 
c 740.773 59.402 740.938 59.512 741.07 59.652 c 741.199 59.789 741.301 59.949
 741.367 60.137 c 741.43 60.316 741.461 60.512 741.465 60.723 c h
742.055 55.848 m 742.051 56.105 742.008 56.344 741.922 56.555 c 741.832
 56.762 741.703 56.934 741.531 57.078 c 741.359 57.215 741.141 57.324 740.883
 57.402 c 740.617 57.477 740.273 57.516 739.852 57.52 c 738.48 57.52 l 738.48
 54.281 l 740.152 54.281 l 740.473 54.281 740.742 54.313 740.965 54.383 
c 741.184 54.445 741.375 54.547 741.539 54.68 c 741.695 54.813 741.824 54.977
 741.918 55.172 c 742.008 55.367 742.051 55.59 742.055 55.848 c h
f
1 g
580.621 58.191 m 580.621 64.453 585.691 69.52 591.961 69.52 c 598.219 69.52
 603.301 64.453 603.301 58.191 c 603.301 51.922 598.219 46.852 591.961 46.852
 c 585.691 46.852 580.621 51.922 580.621 58.191 c h
f*
0 g
580.621 58.191 m 580.621 64.453 585.691 69.52 591.961 69.52 c 598.219 69.52
 603.301 64.453 603.301 58.191 c 603.301 51.922 598.219 46.852 591.961 46.852
 c 585.691 46.852 580.621 51.922 580.621 58.191 c h
S
596.008 62.949 m 596.008 62.77 596 62.621 595.984 62.504 c 595.969 62.379
 595.945 62.285 595.914 62.219 c 595.883 62.145 595.844 62.09 595.805 62.059
 c 595.762 62.02 595.719 62.004 595.668 62.008 c 591.945 62.008 l 591.945
 58.945 l 595.438 58.945 l 595.488 58.945 595.535 58.93 595.578 58.902 c
 595.617 58.871 595.652 58.82 595.688 58.75 c 595.719 58.676 595.742 58.582
 595.758 58.469 c 595.77 58.348 595.777 58.203 595.781 58.031 c 595.777 
57.852 595.77 57.703 595.758 57.59 c 595.742 57.469 595.719 57.371 595.688
 57.297 c 595.652 57.219 595.617 57.164 595.578 57.137 c 595.535 57.102 
595.488 57.086 595.438 57.09 c 591.945 57.09 l 591.945 52.848 l 591.941 
52.777 591.922 52.723 591.891 52.68 c 591.852 52.629 591.789 52.59 591.699
 52.559 c 591.609 52.527 591.492 52.504 591.344 52.484 c 591.195 52.469 
591.008 52.461 590.781 52.457 c 590.555 52.461 590.367 52.469 590.223 52.484
 c 590.07 52.504 589.953 52.527 589.867 52.559 c 589.777 52.59 589.711 52.629
 589.676 52.68 c 589.637 52.723 589.621 52.777 589.621 52.848 c 589.621 
63.172 l 589.621 63.426 589.684 63.613 589.816 63.73 c 589.945 63.844 590.109
 63.902 590.305 63.902 c 595.668 63.902 l 595.719 63.902 595.762 63.883 
595.805 63.852 c 595.844 63.816 595.883 63.766 595.914 63.691 c 595.945 
63.617 595.969 63.52 595.984 63.398 c 596 63.273 596.008 63.121 596.008 
62.949 c h
f
1 g
659.988 12.832 m 659.988 19.09 665.059 24.172 671.328 24.172 c 677.59 24.172
 682.672 19.09 682.672 12.832 c 682.672 6.57 677.59 1.492 671.328 1.492 
c 665.059 1.492 659.988 6.57 659.988 12.832 c h
f*
0 g
659.988 12.832 m 659.988 19.09 665.059 24.172 671.328 24.172 c 677.59 24.172
 682.672 19.09 682.672 12.832 c 682.672 6.57 677.59 1.492 671.328 1.492 
c 665.059 1.492 659.988 6.57 659.988 12.832 c h
S
677.039 7.945 m 677.109 7.73 677.152 7.563 677.172 7.441 c 677.188 7.316
 677.164 7.227 677.102 7.164 c 677.035 7.105 676.922 7.07 676.758 7.051 
c 676.594 7.039 676.367 7.031 676.078 7.027 c 675.781 7.031 675.547 7.035
 675.379 7.043 c 675.211 7.055 675.082 7.07 674.996 7.094 c 674.902 7.121
 674.84 7.156 674.809 7.207 c 674.77 7.25 674.742 7.313 674.723 7.391 c 
673.957 9.68 l 669.68 9.68 l 668.961 7.453 l 668.934 7.367 668.902 7.297
 668.867 7.242 c 668.824 7.184 668.762 7.141 668.68 7.109 c 668.594 7.078
 668.477 7.059 668.32 7.047 c 668.164 7.035 667.961 7.031 667.711 7.027 
c 667.438 7.031 667.223 7.039 667.074 7.055 c 666.918 7.074 666.813 7.113
 666.758 7.184 c 666.695 7.246 666.676 7.344 666.695 7.469 c 666.711 7.59
 666.754 7.754 666.828 7.961 c 670.34 18.066 l 670.375 18.164 670.418 18.246
 670.465 18.309 c 670.512 18.371 670.586 18.418 670.688 18.449 c 670.789
 18.48 670.93 18.5 671.113 18.508 c 671.293 18.516 671.535 18.52 671.836
 18.523 c 672.18 18.52 672.453 18.516 672.664 18.508 c 672.867 18.5 673.027
 18.48 673.145 18.449 c 673.254 18.418 673.336 18.367 673.391 18.305 c 673.438
 18.234 673.48 18.148 673.52 18.039 c h
671.813 16.297 m 671.801 16.297 l 670.191 11.457 l 673.422 11.457 l h
f
Q Q
showpage
%%Trailer
count op_count sub {pop} repeat
countdictstack dict_count sub {end} repeat
cairo_eps_state restore
%%EOF
