%!PS-Adobe-3.0
%%DocumentNeededResources: font Helvetica
%%+ font Helvetica-Bold
%%+ font Helvetica-Oblique
%%+ font Helvetica-BoldOblique
%%+ font Symbol
%%DocumentMedia: a4 595 841 0 () ()
%%Title: R Graphics Output
%%Creator: R Software
%%Pages: (atend)
%%Orientation: Portrait
%%BoundingBox: 18 259 577 583
%%EndComments
%%BeginProlog
/bp  { gs sRGB gs } def
% begin .ps.prolog
/gs  { gsave } bind def
/gr  { grestore } bind def
/ep  { showpage gr gr } bind def
/m   { moveto } bind def
/l  { rlineto } bind def
/np  { newpath } bind def
/cp  { closepath } bind def
/f   { fill } bind def
/o   { stroke } bind def
/c   { newpath 0 360 arc } bind def
/r   { 4 2 roll moveto 1 copy 3 -1 roll exch 0 exch rlineto 0 rlineto -1 mul 0 exch rlineto closepath } bind def
/p1  { stroke } bind def
/p2  { gsave bg fill grestore newpath } bind def
/p3  { gsave bg fill grestore stroke } bind def
/p6  { gsave bg eofill grestore newpath } bind def
/p7  { gsave bg eofill grestore stroke } bind def
/t   { 5 -2 roll moveto gsave rotate
       1 index stringwidth pop
       mul neg 0 rmoveto show grestore } bind def
/ta  { 4 -2 roll moveto gsave rotate show } bind def
/tb  { 2 -1 roll 0 rmoveto show } bind def
/cl  { grestore gsave newpath 3 index 3 index moveto 1 index
       4 -1 roll lineto  exch 1 index lineto lineto
       closepath clip newpath } bind def
/rgb { setrgbcolor } bind def
/s   { scalefont setfont } bind def
% end   .ps.prolog
/sRGB { [ /CIEBasedABC
          << /DecodeLMN
               [ { dup 0.03928 le
                        {12.92321 div}
                        {0.055 add 1.055 div 2.4 exp }
                     ifelse
                 } bind dup dup
               ]
             /MatrixLMN [0.412457 0.212673 0.019334
                         0.357576 0.715152 0.119192
                         0.180437 0.072175 0.950301]
             /WhitePoint [0.9505 1.0 1.0890]
           >>
         ] setcolorspace } bind def
/srgb { setcolor } bind def
% begin encoding
/WinAnsiEncoding [
 /.notdef /.notdef /.notdef /.notdef /.notdef /.notdef /.notdef /.notdef
 /.notdef /.notdef /.notdef /.notdef /.notdef /.notdef /.notdef /.notdef
 /.notdef /.notdef /.notdef /.notdef /.notdef /.notdef /.notdef /.notdef
 /.notdef /.notdef /.notdef /.notdef /.notdef /.notdef /.notdef /.notdef
 /space /exclam /quotedbl /numbersign /dollar /percent /ampersand /quoteright
 /parenleft /parenright /asterisk /plus /comma /minus /period /slash
 /zero /one /two /three /four /five /six /seven
 /eight /nine /colon /semicolon /less /equal /greater /question
 /at /A /B /C /D /E /F /G
 /H /I /J /K /L /M /N /O
 /P /Q /R /S /T /U /V /W
 /X /Y /Z /bracketleft /backslash /bracketright /asciicircum /underscore
 /grave /a /b /c /d /e /f /g
 /h /i /j /k /l /m /n /o
 /p /q /r /s /t /u /v /w
 /x /y /z /braceleft /bar /braceright /asciitilde /.notdef
 /Euro /.notdef /quotesinglbase /florin /quotedblbase /ellipsis /dagger /daggerdbl
 /circumflex /perthousand /Scaron /guilsinglleft /OE /.notdef /Zcaron /.notdef
 /.notdef /quoteleft /quoteright /quotedblleft /quotedblright /bullet /endash /emdash
 /tilde /trademark /scaron /guilsinglright /oe /.notdef /zcaron /Ydieresis
 /space /exclamdown /cent /sterling /currency /yen /brokenbar /section
 /dieresis /copyright /ordfeminine /guillemotleft /logicalnot /hyphen /registered /macron
 /degree /plusminus /twosuperior /threesuperior /acute /mu /paragraph /periodcentered
 /cedilla /onesuperior /ordmasculine /guillemotright /onequarter /onehalf /threequarters /questiondown
 /Agrave /Aacute /Acircumflex /Atilde /Adieresis /Aring /AE /Ccedilla
 /Egrave /Eacute /Ecircumflex /Edieresis /Igrave /Iacute /Icircumflex /Idieresis
 /Eth /Ntilde /Ograve /Oacute /Ocircumflex /Otilde /Odieresis /multiply
 /Oslash /Ugrave /Uacute /Ucircumflex /Udieresis /Yacute /Thorn /germandbls
 /agrave /aacute /acircumflex /atilde /adieresis /aring /ae /ccedilla
 /egrave /eacute /ecircumflex /edieresis /igrave /iacute /icircumflex /idieresis
 /eth /ntilde /ograve /oacute /ocircumflex /otilde /odieresis /divide
 /oslash /ugrave /uacute /ucircumflex /udieresis /yacute /thorn /ydieresis
]
 def
% end encoding
%%IncludeResource: font Helvetica
/Helvetica findfont
dup length dict begin
  {1 index /FID ne {def} {pop pop} ifelse} forall
  /Encoding WinAnsiEncoding def
  currentdict
  end
/Font1 exch definefont pop
%%IncludeResource: font Helvetica-Bold
/Helvetica-Bold findfont
dup length dict begin
  {1 index /FID ne {def} {pop pop} ifelse} forall
  /Encoding WinAnsiEncoding def
  currentdict
  end
/Font2 exch definefont pop
%%IncludeResource: font Helvetica-Oblique
/Helvetica-Oblique findfont
dup length dict begin
  {1 index /FID ne {def} {pop pop} ifelse} forall
  /Encoding WinAnsiEncoding def
  currentdict
  end
/Font3 exch definefont pop
%%IncludeResource: font Helvetica-BoldOblique
/Helvetica-BoldOblique findfont
dup length dict begin
  {1 index /FID ne {def} {pop pop} ifelse} forall
  /Encoding WinAnsiEncoding def
  currentdict
  end
/Font4 exch definefont pop
%%IncludeResource: font Symbol
/Symbol findfont
dup length dict begin
  {1 index /FID ne {def} {pop pop} ifelse} forall
  currentdict
  end
/Font5 exch definefont pop
%%EndProlog
%%Page: 1 1
bp
77.04 332.38 267.40 523.90 cl
0 0 0 srgb
0.75 setlinewidth
[] 0 setdash
1 setlinecap
1 setlinejoin
10.00 setmiterlimit
167.58 479.13 2.70 c p1
167.58 483.56 2.70 c p1
162.01 474.69 2.70 c p1
162.01 479.13 2.70 c p1
162.01 472.48 2.70 c p1
158.30 481.34 2.70 c p1
158.30 474.69 2.70 c p1
154.59 479.13 2.70 c p1
154.59 483.56 2.70 c p1
149.03 474.69 2.70 c p1
149.03 481.34 2.70 c p1
130.47 516.81 2.70 c p1
124.91 494.64 2.70 c p1
124.91 516.81 2.70 c p1
121.20 505.73 2.70 c p1
121.20 516.81 2.70 c p1
117.49 494.64 2.70 c p1
111.92 494.64 2.70 c p1
111.92 505.73 2.70 c p1
139.75 439.23 2.70 c p1
139.75 443.66 2.70 c p1
136.04 443.66 2.70 c p1
136.04 450.31 2.70 c p1
130.47 439.23 2.70 c p1
130.47 443.66 2.70 c p1
130.47 450.31 2.70 c p1
126.76 443.66 2.70 c p1
126.76 450.31 2.70 c p1
121.20 439.23 2.70 c p1
121.20 450.31 2.70 c p1
102.64 405.98 2.70 c p1
102.64 417.06 2.70 c p1
98.93 417.06 2.70 c p1
98.93 428.14 2.70 c p1
93.37 405.98 2.70 c p1
93.37 428.14 2.70 c p1
87.80 417.06 2.70 c p1
84.09 417.06 2.70 c p1
84.09 428.14 2.70 c p1
149.03 394.89 2.70 c p1
149.03 399.33 2.70 c p1
145.32 399.33 2.70 c p1
145.32 405.98 2.70 c p1
143.46 394.89 2.70 c p1
139.75 394.89 2.70 c p1
139.75 399.33 2.70 c p1
139.75 405.98 2.70 c p1
136.04 394.89 2.70 c p1
136.04 405.98 2.70 c p1
132.33 399.33 2.70 c p1
130.47 394.89 2.70 c p1
130.47 405.98 2.70 c p1
165.73 339.48 2.70 c p1
162.01 350.56 2.70 c p1
162.01 361.64 2.70 c p1
158.30 339.48 2.70 c p1
158.30 361.64 2.70 c p1
154.59 339.48 2.70 c p1
154.59 361.64 2.70 c p1
149.03 339.48 2.70 c p1
176.86 394.89 2.70 c p1
176.86 405.98 2.70 c p1
176.86 417.06 2.70 c p1
173.15 394.89 2.70 c p1
173.15 417.06 2.70 c p1
171.29 405.98 2.70 c p1
171.29 417.06 2.70 c p1
167.58 394.89 2.70 c p1
167.58 405.98 2.70 c p1
260.35 394.89 2.70 c p1
260.35 405.98 2.70 c p1
182.42 394.89 2.70 c p1
254.78 394.89 2.70 c p1
182.42 405.98 2.70 c p1
167.58 472.48 2.70 c p1
251.07 405.98 2.70 c p1
247.36 394.89 2.70 c p1
247.36 405.98 2.70 c p1
245.50 394.89 2.70 c p1
241.79 383.81 2.70 c p1
241.79 405.98 2.70 c p1
223.24 450.31 2.70 c p1
217.67 450.31 2.70 c p1
213.96 456.96 2.70 c p1
210.25 461.39 2.70 c p1
206.54 450.31 2.70 c p1
204.69 450.31 2.70 c p1
204.69 461.39 2.70 c p1
200.98 456.96 2.70 c p1
195.41 450.31 2.70 c p1
195.41 461.39 2.70 c p1
208.40 516.81 2.70 c p1
204.69 516.81 2.70 c p1
204.69 510.16 2.70 c p1
199.12 505.73 2.70 c p1
195.41 505.73 2.70 c p1
195.41 516.81 2.70 c p1
191.70 494.64 2.70 c p1
186.13 505.73 2.70 c p1
186.13 516.81 2.70 c p1
18.00 258.94 577.28 582.94 cl
0 0 0 srgb
0.75 setlinewidth
[] 0 setdash
1 setlinecap
1 setlinejoin
10.00 setmiterlimit
np
84.09 332.38 m
148.43 0 l
o
np
84.09 332.38 m
0 -7.20 l
o
np
121.20 332.38 m
0 -7.20 l
o
np
158.30 332.38 m
0 -7.20 l
o
np
195.41 332.38 m
0 -7.20 l
o
np
232.52 332.38 m
0 -7.20 l
o
/Font1 findfont 12 s
84.09 306.46 (0) .5 0 t
121.20 306.46 (20) .5 0 t
158.30 306.46 (40) .5 0 t
195.41 306.46 (60) .5 0 t
232.52 306.46 (80) .5 0 t
np
77.04 372.73 m
0 133.00 l
o
np
77.04 372.73 m
-7.20 0 l
o
np
77.04 417.06 m
-7.20 0 l
o
np
77.04 461.39 m
-7.20 0 l
o
np
77.04 505.73 m
-7.20 0 l
o
59.76 372.73 (20) .5 90 t
59.76 417.06 (40) .5 90 t
59.76 461.39 (60) .5 90 t
59.76 505.73 (80) .5 90 t
np
77.04 332.38 m
190.36 0 l
0 191.52 l
-190.36 0 l
0 -191.52 l
o
18.00 258.94 297.64 582.94 cl
/Font2 findfont 14 s
0 0 0 srgb
172.22 548.40 (c100b) .5 0 t
/Font1 findfont 12 s
172.22 263.26 (Locations plot) .5 0 t
172.22 277.66 (X) .5 0 t
30.96 428.14 (Y) .5 90 t
356.68 332.38 547.04 523.90 cl
356.68 332.38 547.04 523.90 cl
0 0 0 srgb
0.75 setlinewidth
[] 0 setdash
1 setlinecap
1 setlinejoin
10.00 setmiterlimit
np
363.73 516.81 m
3.63 0 l
0 -88.67 l
0 0 l
0 88.67 l
2.82 0 l
0 0 l
0.81 0 l
0 0 l
2.01 0 l
0 -44.33 l
3.23 0 l
0 0 l
3.63 0 l
0 0 l
2.42 0 l
0 44.33 l
3.23 0 l
0 0 l
0 0 l
0 0 l
0.80 0 l
0 -44.33 l
3.63 0 l
0 -44.34 l
0 0 l
0 88.67 l
0.81 0 l
0 -133.00 l
0 0 l
0 0 l
0.40 0 l
0 88.67 l
2.02 0 l
0 0 l
0 0 l
0 44.33 l
4.44 0 l
0 0 l
0.80 0 l
0 -44.33 l
0 0 l
0 0 l
3.63 0 l
0 44.33 l
0 0 l
0 0 l
0.41 0 l
0 -133.00 l
0.80 0 l
0 133.00 l
2.02 0 l
0 0 l
2.02 0 l
0 -44.33 l
0 0 l
0 44.33 l
1.61 0 l
0 0 l
2.42 0 l
0 -44.33 l
1.61 0 l
0 -44.34 l
0 0 l
0 -44.33 l
1.21 0 l
0 88.67 l
1.21 0 l
0 44.33 l
1.62 0 l
0 0 l
2.42 0 l
0 -44.33 l
2.01 0 l
0 -44.34 l
1.21 0 l
0 44.34 l
6.86 0 l
0 44.33 l
2.82 0 l
0 0 l
0.41 0 l
0 -44.33 l
0.40 0 l
0 44.33 l
0 0 l
0 0 l
2.42 0 l
0 0 l
2.82 0 l
0 -88.67 l
0.41 0 l
0 88.67 l
0.40 0 l
0 0 l
0.81 0 l
0 0 l
2.01 0 l
0 0 l
0 0 l
441.97 516.81 lineto
0 0 l
0 0 l
1.21 0 l
0 -44.33 l
0.81 0 l
0 -88.67 l
1.62 0 l
0 133.00 l
0 0 l
0 -88.67 l
0.40 0 l
0 -44.33 l
0.40 0 l
0 44.33 l
4.04 0 l
0 88.67 l
10.48 0 l
0 -44.33 l
4.04 0 l
0 44.33 l
0.40 0 l
0 -44.33 l
0.81 0 l
0 -133.00 l
3.63 0 l
0 177.33 l
0.80 0 l
0 0 l
1.62 0 l
0 0 l
5.64 0 l
0 0 l
3.63 0 l
0 0 l
0.41 0 l
0 0 l
3.63 0 l
0 -88.67 l
0.40 0 l
0 44.34 l
2.02 0 l
0 44.33 l
1.61 0 l
0 0 l
1.21 0 l
0 -177.33 l
2.02 0 l
0 133.00 l
2.01 0 l
0 44.33 l
3.63 0 l
0 0 l
0 0 l
0 -44.33 l
0.41 0 l
0 44.33 l
1.61 0 l
0 0 l
1.61 0 l
0 -88.67 l
0.81 0 l
0 44.34 l
0.81 0 l
0 44.33 l
0.80 0 l
0 -44.33 l
3.63 0 l
0 -44.34 l
1.21 0 l
0 88.67 l
3.23 0 l
0 -44.33 l
1.21 0 l
0 -44.34 l
1.61 0 l
0 88.67 l
1.62 0 l
0 0 l
1.21 0 l
0 0 l
0.40 0 l
0 -44.33 l
9.68 0 l
0 -88.67 l
4.44 0 l
0 133.00 l
0 0 l
0 -88.67 l
0.80 0 l
0 88.67 l
0.41 0 l
0 -88.67 l
4.03 0 l
0 44.34 l
1.61 0 l
0 44.33 l
0.41 0 l
0 -44.33 l
o
18.00 258.94 577.28 582.94 cl
0 0 0 srgb
0.75 setlinewidth
[] 0 setdash
1 setlinecap
1 setlinejoin
10.00 setmiterlimit
np
362.92 332.38 m
161.34 0 l
o
np
362.92 332.38 m
0 -7.20 l
o
np
403.25 332.38 m
0 -7.20 l
o
np
443.59 332.38 m
0 -7.20 l
o
np
483.92 332.38 m
0 -7.20 l
o
np
524.26 332.38 m
0 -7.20 l
o
/Font1 findfont 12 s
362.92 306.46 (0) .5 0 t
403.25 306.46 (100) .5 0 t
443.59 306.46 (200) .5 0 t
483.92 306.46 (300) .5 0 t
524.26 306.46 (400) .5 0 t
np
356.68 339.48 m
0 177.33 l
o
np
356.68 339.48 m
-7.20 0 l
o
np
356.68 383.81 m
-7.20 0 l
o
np
356.68 428.14 m
-7.20 0 l
o
np
356.68 472.48 m
-7.20 0 l
o
np
356.68 516.81 m
-7.20 0 l
o
339.40 339.48 (-50) .5 90 t
339.40 383.81 (-40) .5 90 t
339.40 428.14 (-30) .5 90 t
339.40 472.48 (-20) .5 90 t
339.40 516.81 (-10) .5 90 t
np
356.68 332.38 m
190.36 0 l
0 191.52 l
-190.36 0 l
0 -191.52 l
o
297.64 258.94 577.28 582.94 cl
/Font2 findfont 14 s
0 0 0 srgb
451.86 548.40 (c100bD) .5 0 t
/Font1 findfont 12 s
451.86 263.26 (Requests time) .5 0 t
451.86 277.66 (Time) .5 0 t
310.60 428.14 (Requests) .5 90 t
ep
%%Page: 2 2
bp
77.04 332.38 267.40 523.90 cl
18.00 258.94 297.64 582.94 cl
/Font2 findfont 14 s
0 0 0 srgb
172.22 548.40 (c100b) .5 0 t
/Font1 findfont 12 s
97.86 263.26 (Requests v) 0 ta
-0.300 (olume histogr) tb
-0.120 (am) tb gr
151.88 277.66 (V) 0 ta
-0.960 (olume) tb gr
30.96 387.46 (No) 90 ta
-0.480 (. of requests) tb gr
18.00 258.94 577.28 582.94 cl
0 0 0 srgb
0.75 setlinewidth
[] 0 setdash
1 setlinecap
1 setlinejoin
10.00 setmiterlimit
np
84.09 332.38 m
176.26 0 l
o
np
84.09 332.38 m
0 -7.20 l
o
np
128.15 332.38 m
0 -7.20 l
o
np
172.22 332.38 m
0 -7.20 l
o
np
216.28 332.38 m
0 -7.20 l
o
np
260.35 332.38 m
0 -7.20 l
o
/Font1 findfont 12 s
84.09 306.46 (10) .5 0 t
128.15 306.46 (20) .5 0 t
172.22 306.46 (30) .5 0 t
216.28 306.46 (40) .5 0 t
260.35 306.46 (50) .5 0 t
np
77.04 339.48 m
0 170.51 l
o
np
77.04 339.48 m
-7.20 0 l
o
np
77.04 373.58 m
-7.20 0 l
o
np
77.04 407.68 m
-7.20 0 l
o
np
77.04 441.79 m
-7.20 0 l
o
np
77.04 475.89 m
-7.20 0 l
o
np
77.04 509.99 m
-7.20 0 l
o
59.76 339.48 (0) .5 90 t
59.76 373.58 (10) .5 90 t
59.76 407.68 (20) .5 90 t
59.76 441.79 (30) .5 90 t
59.76 475.89 (40) .5 90 t
59.76 509.99 (50) .5 90 t
77.04 332.38 267.40 523.90 cl
0 0 0 srgb
0.75 setlinewidth
[] 0 setdash
1 setlinecap
1 setlinejoin
10.00 setmiterlimit
84.09 339.48 22.03 177.33 r p1
106.12 339.48 22.03 88.67 r p1
128.15 339.48 22.03 0.00 r p1
150.19 339.48 22.03 44.33 r p1
172.22 339.48 22.03 0.00 r p1
194.25 339.48 22.03 23.87 r p1
216.28 339.48 22.03 0.00 r p1
238.32 339.48 22.03 6.82 r p1
ep
%%Trailer
%%Pages: 2
%%EOF
267.40 523.90 cl
77.04 332.38 267.40 523.90 cl
0 0 0 srgb
0.75 setlinewidth
[] 0 setdash
1 setlinecap
1 setlinejoin
10.00 setmiterlimit
167.58 479.13 2.70 c p1
167.58 483.56 2.70 c p1
162.01 474.69 2.70 c p1
162.01 479.13 2.70 c p1
162.01 472.48 2.70 c p1
158.30 481.34 2.70 c p1
158.30 474.69 2.70 c p1
154.59 479.13 2.70 c p1
154.59 483.56 2.70 c p1
149.03 474.69 2.70 c p1
149.03 481.34 2.70 c p1
130.47 516.81 2.70 c p1
124.91 494.64 2.70 c p1
124.91 516.81 2.70 c p1
121.20 505.73 2.70 c p1
121.20 516.81 2.70 c p1
117.49 494.64 2.70 c p1
111.92 494.64 2.70 c p1
111.92 505.73 2.70 c p1
139.75 439.23 2.70 c p1
139.75 443.66 2.70 c p1
136.04 443.66 2.70 c p1
136.04 450.31 2.70 c p1
130.47 439.23 2.70 c p1
130.47 443.66 2.70 c p1
130.47 450.31 2.70 c p1
126.76 443.66 2.70 c p1
126.76 450.31 2.70 c p1
121.20 439.23 2.70 c p1
121.20 450.31 2.70 c p1
102.64 405.98 2.70 c p1
102.64 417.06 2.70 c p1
98.93 417.06 2.70 c p1
98.93 428.14 2.70 c p1
93.37 405.98 2.70 c p1
93.37 428.14 2.70 c p1
87.80 417.06 2.70 c p1
84.09 417.06 2.70 c p1
84.09 428.14 2.70 c p1
149.03 394.89 2.70 c p1
149.03 399.33 2.70 c p1
145.32 399.33 2.70 c p1
145.32 405.98 2.70 c p1
143.46 394.89 2.70 c p1
139.75 394.89 2.70 c p1
139.75 399.33 2.70 c p1
139.75 405.98 2.70 c p1
136.04 394.89 2.70 c p1
136.04 405.98 2.70 c p1
132.33 399.33 2.70 c p1
130.47 394.89 2.70 c p1
130.47 405.98 2.70 c p1
165.73 339.48 2.70 c p1
162.01 350.56 2.70 c p1
162.01 361.64 2.70 c p1
158.30 339.48 2.70 c p1
158.30 361.64 2.70 c p1
154.59 339.48 2.70 c p1
154.59 361.64 2.70 c p1
149.03 339.48 2.70 c p1
176.86 394.89 2.70 c p1
176.86 405.98 2.70 c p1
176.86 417.06 2.70 c p1
173.15 394.89 2.70 c p1
173.15 417.06 2.70 c p1
171.29 405.98 2.70 c p1
171.29 417.06 2.70 c p1
167.58 394.89 2.70 c p1
167.58 405.98 2.70 c p1
260.35 394.89 2.70 c p1
260.35 405.98 2.70 c p1
182.42 394.89 2.70 c p1
254.78 394.89 2.70 c p1
182.42 405.98 2.70 c p1
167.58 472.48 2.70 c p1
251.07 405.98 2.70 c p1
247.36 394.89 2.70 c p1
247.36 405.98 2.70 c p1
245.50 394.89 2.70 c p1
241.79 383.81 2.70 c p1
241.79 405.98 2.70 c p1
223.24 450.31 2.70 c p1
217.67 450.31 2.70 c p1
213.96 456.96 2.70 c p1
210.25 461.39 2.70 c p1
206.54 450.31 2.70 c p1
204.69 450.31 2.70 c p1
204.69 461.39 2.70 c p1
200.98 456.96 2.70 c p1
195.41 450.31 2.70 c p1
195.41 461.39 2.70 c p1
208.40 516.81 2.70 c p1
204.69 516.81 2.70 c p1
204.69 510.16 2.70 c p1
199.12 505.73 2.70 c p1
195.41 505.73 2.70 c p1
195.41 516.81 2.70 c p1
191.70 494.64 2.70 c p1
186.13 505.73 2.70 c p1
186.13 516.81 2.70 c p1
18.00 258.94 577.28 582.94 cl
0 0 0 srgb
0.75 setlinewidth
[] 0 setdash
1 setlinecap
1 setlinejoin
10.00 setmiterlimit
np
84.09 332.38 m
148.43 0 l
o
np
84.09 332.38 m
0 -7.20 l
o
np
121.20 332.38 m
0 -7.20 l
o
np
158.30 332.38 m
0 -7.20 l
o
np
195.41 332.38 m
0 -7.20 l
o
np
232.52 332.38 m
0 -7.20 l
o
/Font1 findfont 12 s
84.09 306.46 (0) .5 0 t
121.20 306.46 (20) .5 0 t
158.30 306.46 (40) .5 0 t
195.41 306.46 (60) .5 0 t
232.52 306.46 (80) .5 0 t
np
77.04 372.73 m
0 133.00 l
o
np
77.04 372.73 m
-7.20 0 l
o
np
77.04 417.06 m
-7.20 0 l
o
np
77.04 461.39 m
-7.20 0 l
o
np
77.04 505.73 m
-7.20 0 l
o
59.76 372.73 (20) .5 90 t
59.76 417.06 (40) .5 90 t
59.76 461.39 (60) .5 90 t
59.76 505.73 (80) .5 90 t
np
77.04 332.38 m
190.36 0 l
0 191.52 l
-190.36 0 l
0 -191.52 l
o
18.00 258.94 297.64 582.94 cl
/Font2 findfont 14 s
0 0 0 srgb
172.22 548.40 (c100b) .5 0 t
/Font1 findfont 12 s
172.22 263.26 (Locations plot) .5 0 t
172.22 277.66 (X) .5 0 t
30.96 428.14 (Y) .5 90 t
356.68 332.38 547.04 523.90 cl
356.68 332.38 547.04 523.90 cl
0 0 0 srgb
0.75 setlinewidth
[] 0 setdash
1 setlinecap
1 setlinejoin
10.00 setmiterlimit
np
363.73 516.81 m
3.63 0 l
0 -88.67 l
0 0 l
0 88.67 l
2.82 0 l
0 0 l
0.81 0 l
0 0 l
2.01 0 l
0 -44.33 l
3.23 0 l
0 0 l
3.63 0 l
0 0 l
2.42 0 l
0 44.33 l
3.23 0 l
0 0 l
0 0 l
0 0 l
0.80 0 l
0 -44.33 l
3.63 0 l
0 -44.34 l
0 0 l
0 88.67 l
0.81 0 l
0 -133.00 l
0 0 l
0 0 l
0.40 0 l
0 88.67 l
2.02 0 l
0 0 l
0 0 l
0 44.33 l
4.44 0 l
0 0 l
0.80 0 l
0 -44.33 l
0 0 l
0 0 l
3.63 0 l
0 44.33 l
0 0 l
0 0 l
0.41 0 l
0 -133.00 l
0.80 0 l
0 133.00 l
2.02 0 l
0 0 l
2.02 0 l
0 -44.33 l
0 0 l
0 44.33 l
1.61 0 l
0 0 l
2.42 0 l
0 -44.33 l
1.61 0 l
0 -44.34 l
0 0 l
0 -44.33 l
1.21 0 l
0 88.67 l
1.21 0 l
0 44.33 l
1.62 0 l
0 0 l
2.42 0 l
0 -44.33 l
2.01 0 l
0 -44.34 l
1.21 0 l
0 44.34 l
6.86 0 l
0 44.33 l
2.82 0 l
0 0 l
0.41 0 l
0 -44.33 l
0.40 0 l
0 44.33 l
0 0 l
0 0 l
2.42 0 l
0 0 l
2.82 0 l
0 -88.67 l
0.41 0 l
0 88.67 l
0.40 0 l
0 0 l
0.81 0 l
0 0 l
2.01 0 l
0 0 l
0 0 l
441.97 516.81 lineto
0 0 l
0 0 l
1.21 0 l
0 -44.33 l
0.81 0 l
0 -88.67 l
1.62 0 l
0 133.00 l
0 0 l
0 -88.67 l
0.40 0 l
0 -44.33 l
0.40 0 l
0 44.33 l
4.04 0 l
0 88.67 l
10.48 0 l
0 -44.33 l
4.04 0 l
0 44.33 l
0.40 0 l
0 -44.33 l
0.81 0 l
0 -133.00 l
3.63 0 l
0 177.33 l
0.80 0 l
0 0 l
1.62 0 l
0 0 l
5.64 0 l
0 0 l
3.63 0 l
0 0 l
0.41 0 l
0 0 l
3.63 0 l
0 -88.67 l
0.40 0 l
0 44.34 l
2.02 0 l
0 44.33 l
1.61 0 l
0 0 l
1.21 0 l
0 -177.33 l
2.02 0 l
0 133.00 l
2.01 0 l
0 44.33 l
3.63 0 l
0 0 l
0 0 l
0 -44.33 l
0.41 0 l
0 44.33 l
1.61 0 l
0 0 l
1.61 0 l
0 -88.67 l
0.81 0 l
0 44.34 l
0.81 0 l
0 44.33 l
0.80 0 l
0 -44.33 l
3.63 0 l
0 -44.34 l
1.21 0 l
0 88.67 l
3.23 0 l
0 -44.33 l
1.21 0 l
0 -44.34 l
1.61 0 l
0 88.67 l
1.62 0 l
0 0 l
1.21 0 l
0 0 l
0.40 0 l
0 -44.33 l
9.68 0 l
0 -88.67 l
4.44 0 l
0 133.00 l
0 0 l
0 -88.67 l
0.80 0 l
0 88.67 l
0.41 0 l
0 -88.67 l
4.03 0 l
0 44.34 l
1.61 0 l
0 44.33 l
0.41 0 l
0 -44.33 l
o
18.00 258.94 577.28 582.94 cl
0 0 0 srgb
0.75 setlinewidth
[] 0 setdash
1 setlinecap
1 setlinejoin
10.00 setmiterlimit
np
362.92 332.38 m
161.34 0 l
o
np
362.92 332.38 m
0 -7.20 l
o
np
403.25 332.38 m
0 -7.20 l
o
np
443.59 332.38 m
0 -7.20 l
o
np
483.92 332.38 m
0 -7.20 l
o
np
524.26 332.38 m
0 -7.20 l
o
/Font1 findfont 12 s
362.92 306.46 (0) .5 0 t
403.25 306.46 (100) .5 0 t
443.59 306.46 (200) .5 0 t
483.92 306.46 (300) .5 0 t
524.26 306.46 (400) .5 0 t
np
356.68 339.48 m
0 177.33 l
o
np
356.68 339.48 m
-7.20 0 l
o
np
356.68 383.81 m
-7.20 0 l
o
np
356.68 428.14 m
-7.20 0 l
o
np
356.68 472.48 m
-7.20 0 l
o
np
356.68 516.81 m
-7.20 0 l
o
339.40 339.48 (-50) .5 90 t
339.40 383.81 (-40) .5 90 t
339.40 428.14 (-30) .5 90 t
339.40 472.48 (-20) .5 90 t
339.40 516.81 (-10) .5 90 t
np
356.68 332.38 m
190.36 0 l
0 191.52 l
-190.36 0 l
0 -191.52 l
o
297.64 258.94 577.28 582.94 cl
/Font2 findfont 14 s
0 0 0 srgb
451.86 548.40 (c100bD) .5 0 t
/Font1 findfont 12 s
451.86 263.26 (Requests time) .5 0 t
451.86 277.66 (Time) .5 0 t
310.60 428.14 (Requests) .5 90 t
ep
%%Page: 4 4
bp
77.04 332.38 267.40 523.90 cl
18.00 258.94 297.64 582.94 cl
/Font2 findfont 14 s
0 0 0 srgb
172.22 548.40 (c100b) .5 0 t
/Font1 findfont 12 s
97.86 263.26 (Requests v) 0 ta
-0.300 (olume histogr) tb
-0.120 (am) tb gr
151.88 277.66 (V) 0 ta
-0.960 (olume) tb gr
30.96 387.46 (No) 90 ta
-0.480 (. of requests) tb gr
18.00 258.94 577.28 582.94 cl
0 0 0 srgb
0.75 setlinewidth
[] 0 setdash
1 setlinecap
1 setlinejoin
10.00 setmiterlimit
np
84.09 332.38 m
176.26 0 l
o
np
84.09 332.38 m
0 -7.20 l
o
np
128.15 332.38 m
0 -7.20 l
o
np
172.22 332.38 m
0 -7.20 l
o
np
216.28 332.38 m
0 -7.20 l
o
np
260.35 332.38 m
0 -7.20 l
o
/Font1 findfont 12 s
84.09 306.46 (10) .5 0 t
128.15 306.46 (20) .5 0 t
172.22 306.46 (30) .5 0 t
216.28 306.46 (40) .5 0 t
260.35 306.46 (50) .5 0 t
np
77.04 339.48 m
0 170.51 l
o
np
77.04 339.48 m
-7.20 0 l
o
np
77.04 373.58 m
-7.20 0 l
o
np
77.04 407.68 m
-7.20 0 l
o
np
77.04 441.79 m
-7.20 0 l
o
np
77.04 475.89 m
-7.20 0 l
o
np
77.04 509.99 m
-7.20 0 l
o
59.76 339.48 (0) .5 90 t
59.76 373.58 (10) .5 90 t
59.76 407.68 (20) .5 90 t
59.76 441.79 (30) .5 90 t
59.76 475.89 (40) .5 90 t
59.76 509.99 (50) .5 90 t
77.04 332.38 267.40 523.90 cl
0 0 0 srgb
0.75 setlinewidth
[] 0 setdash
1 setlinecap
1 setlinejoin
10.00 setmiterlimit
84.09 339.48 22.03 177.33 r p1
106.12 339.48 22.03 88.67 r p1
128.15 339.48 22.03 0.00 r p1
150.19 339.48 22.03 44.33 r p1
172.22 339.48 22.03 0.00 r p1
194.25 339.48 22.03 23.87 r p1
216.28 339.48 22.03 0.00 r p1
238.32 339.48 22.03 6.82 r p1
356.68 332.38 547.04 523.90 cl
ep
%%Page: 5 5
bp
77.04 332.38 267.40 523.90 cl
77.04 332.38 267.40 523.90 cl
0 0 0 srgb
0.75 setlinewidth
[] 0 setdash
1 setlinecap
1 setlinejoin
10.00 setmiterlimit
167.58 479.13 2.70 c p1
167.58 483.56 2.70 c p1
162.01 474.69 2.70 c p1
162.01 479.13 2.70 c p1
162.01 472.48 2.70 c p1
158.30 481.34 2.70 c p1
158.30 474.69 2.70 c p1
154.59 479.13 2.70 c p1
154.59 483.56 2.70 c p1
149.03 474.69 2.70 c p1
149.03 481.34 2.70 c p1
130.47 516.81 2.70 c p1
124.91 494.64 2.70 c p1
124.91 516.81 2.70 c p1
121.20 505.73 2.70 c p1
121.20 516.81 2.70 c p1
117.49 494.64 2.70 c p1
111.92 494.64 2.70 c p1
111.92 505.73 2.70 c p1
139.75 439.23 2.70 c p1
139.75 443.66 2.70 c p1
136.04 443.66 2.70 c p1
136.04 450.31 2.70 c p1
130.47 439.23 2.70 c p1
130.47 443.66 2.70 c p1
130.47 450.31 2.70 c p1
126.76 443.66 2.70 c p1
126.76 450.31 2.70 c p1
121.20 439.23 2.70 c p1
121.20 450.31 2.70 c p1
102.64 405.98 2.70 c p1
102.64 417.06 2.70 c p1
98.93 417.06 2.70 c p1
98.93 428.14 2.70 c p1
93.37 405.98 2.70 c p1
93.37 428.14 2.70 c p1
87.80 417.06 2.70 c p1
84.09 417.06 2.70 c p1
84.09 428.14 2.70 c p1
149.03 394.89 2.70 c p1
149.03 399.33 2.70 c p1
145.32 399.33 2.70 c p1
145.32 405.98 2.70 c p1
143.46 394.89 2.70 c p1
139.75 394.89 2.70 c p1
139.75 399.33 2.70 c p1
139.75 405.98 2.70 c p1
136.04 394.89 2.70 c p1
136.04 405.98 2.70 c p1
132.33 399.33 2.70 c p1
130.47 394.89 2.70 c p1
130.47 405.98 2.70 c p1
165.73 339.48 2.70 c p1
162.01 350.56 2.70 c p1
162.01 361.64 2.70 c p1
158.30 339.48 2.70 c p1
158.30 361.64 2.70 c p1
154.59 339.48 2.70 c p1
154.59 361.64 2.70 c p1
149.03 339.48 2.70 c p1
176.86 394.89 2.70 c p1
176.86 405.98 2.70 c p1
176.86 417.06 2.70 c p1
173.15 394.89 2.70 c p1
173.15 417.06 2.70 c p1
171.29 405.98 2.70 c p1
171.29 417.06 2.70 c p1
167.58 394.89 2.70 c p1
167.58 405.98 2.70 c p1
260.35 394.89 2.70 c p1
260.35 405.98 2.70 c p1
182.42 394.89 2.70 c p1
254.78 394.89 2.70 c p1
182.42 405.98 2.70 c p1
167.58 472.48 2.70 c p1
251.07 405.98 2.70 c p1
247.36 394.89 2.70 c p1
247.36 405.98 2.70 c p1
245.50 394.89 2.70 c p1
241.79 383.81 2.70 c p1
241.79 405.98 2.70 c p1
223.24 450.31 2.70 c p1
217.67 450.31 2.70 c p1
213.96 456.96 2.70 c p1
210.25 461.39 2.70 c p1
206.54 450.31 2.70 c p1
204.69 450.31 2.70 c p1
204.69 461.39 2.70 c p1
200.98 456.96 2.70 c p1
195.41 450.31 2.70 c p1
195.41 461.39 2.70 c p1
208.40 516.81 2.70 c p1
204.69 516.81 2.70 c p1
204.69 510.16 2.70 c p1
199.12 505.73 2.70 c p1
195.41 505.73 2.70 c p1
195.41 516.81 2.70 c p1
191.70 494.64 2.70 c p1
186.13 505.73 2.70 c p1
186.13 516.81 2.70 c p1
18.00 258.94 577.28 582.94 cl
0 0 0 srgb
0.75 setlinewidth
[] 0 setdash
1 setlinecap
1 setlinejoin
10.00 setmiterlimit
np
84.09 332.38 m
148.43 0 l
o
np
84.09 332.38 m
0 -7.20 l
o
np
121.20 332.38 m
0 -7.20 l
o
np
158.30 332.38 m
0 -7.20 l
o
np
195.41 332.38 m
0 -7.20 l
o
np
232.52 332.38 m
0 -7.20 l
o
/Font1 findfont 12 s
84.09 306.46 (0) .5 0 t
121.20 306.46 (20) .5 0 t
158.30 306.46 (40) .5 0 t
195.41 306.46 (60) .5 0 t
232.52 306.46 (80) .5 0 t
np
77.04 372.73 m
0 133.00 l
o
np
77.04 372.73 m
-7.20 0 l
o
np
77.04 417.06 m
-7.20 0 l
o
np
77.04 461.39 m
-7.20 0 l
o
np
77.04 505.73 m
-7.20 0 l
o
59.76 372.73 (20) .5 90 t
59.76 417.06 (40) .5 90 t
59.76 461.39 (60) .5 90 t
59.76 505.73 (80) .5 90 t
np
77.04 332.38 m
190.36 0 l
0 191.52 l
-190.36 0 l
0 -191.52 l
o
18.00 258.94 297.64 582.94 cl
/Font2 findfont 14 s
0 0 0 srgb
172.22 548.40 (c100b) .5 0 t
/Font1 findfont 12 s
172.22 263.26 (Locations plot) .5 0 t
172.22 277.66 (X) .5 0 t
30.96 428.14 (Y) .5 90 t
356.68 332.38 547.04 523.90 cl
356.68 332.38 547.04 523.90 cl
0 0 0 srgb
0.75 setlinewidth
[] 0 setdash
1 setlinecap
1 setlinejoin
10.00 setmiterlimit
np
363.73 516.81 m
3.63 0 l
0 -88.67 l
0 0 l
0 88.67 l
2.82 0 l
0 0 l
0.81 0 l
0 0 l
2.01 0 l
0 -44.33 l
3.23 0 l
0 0 l
3.63 0 l
0 0 l
2.42 0 l
0 44.33 l
3.23 0 l
0 0 l
0 0 l
0 0 l
0.80 0 l
0 -44.33 l
3.63 0 l
0 -44.34 l
0 0 l
0 88.67 l
0.81 0 l
0 -133.00 l
0 0 l
0 0 l
0.40 0 l
0 88.67 l
2.02 0 l
0 0 l
0 0 l
0 44.33 l
4.44 0 l
0 0 l
0.80 0 l
0 -44.33 l
0 0 l
0 0 l
3.63 0 l
0 44.33 l
0 0 l
0 0 l
0.41 0 l
0 -133.00 l
0.80 0 l
0 133.00 l
2.02 0 l
0 0 l
2.02 0 l
0 -44.33 l
0 0 l
0 44.33 l
1.61 0 l
0 0 l
2.42 0 l
0 -44.33 l
1.61 0 l
0 -44.34 l
0 0 l
0 -44.33 l
1.21 0 l
0 88.67 l
1.21 0 l
0 44.33 l
1.62 0 l
0 0 l
2.42 0 l
0 -44.33 l
2.01 0 l
0 -44.34 l
1.21 0 l
0 44.34 l
6.86 0 l
0 44.33 l
2.82 0 l
0 0 l
0.41 0 l
0 -44.33 l
0.40 0 l
0 44.33 l
0 0 l
0 0 l
2.42 0 l
0 0 l
2.82 0 l
0 -88.67 l
0.41 0 l
0 88.67 l
0.40 0 l
0 0 l
0.81 0 l
0 0 l
2.01 0 l
0 0 l
0 0 l
441.97 516.81 lineto
0 0 l
0 0 l
1.21 0 l
0 -44.33 l
0.81 0 l
0 -88.67 l
1.62 0 l
0 133.00 l
0 0 l
0 -88.67 l
0.40 0 l
0 -44.33 l
0.40 0 l
0 44.33 l
4.04 0 l
0 88.67 l
10.48 0 l
0 -44.33 l
4.04 0 l
0 44.33 l
0.40 0 l
0 -44.33 l
0.81 0 l
0 -133.00 l
3.63 0 l
0 177.33 l
0.80 0 l
0 0 l
1.62 0 l
0 0 l
5.64 0 l
0 0 l
3.63 0 l
0 0 l
0.41 0 l
0 0 l
3.63 0 l
0 -88.67 l
0.40 0 l
0 44.34 l
2.02 0 l
0 44.33 l
1.61 0 l
0 0 l
1.21 0 l
0 -177.33 l
2.02 0 l
0 133.00 l
2.01 0 l
0 44.33 l
3.63 0 l
0 0 l
0 0 l
0 -44.33 l
0.41 0 l
0 44.33 l
1.61 0 l
0 0 l
1.61 0 l
0 -88.67 l
0.81 0 l
0 44.34 l
0.81 0 l
0 44.33 l
0.80 0 l
0 -44.33 l
3.63 0 l
0 -44.34 l
1.21 0 l
0 88.67 l
3.23 0 l
0 -44.33 l
1.21 0 l
0 -44.34 l
1.61 0 l
0 88.67 l
1.62 0 l
0 0 l
1.21 0 l
0 0 l
0.40 0 l
0 -44.33 l
9.68 0 l
0 -88.67 l
4.44 0 l
0 133.00 l
0 0 l
0 -88.67 l
0.80 0 l
0 88.67 l
0.41 0 l
0 -88.67 l
4.03 0 l
0 44.34 l
1.61 0 l
0 44.33 l
0.41 0 l
0 -44.33 l
o
18.00 258.94 577.28 582.94 cl
0 0 0 srgb
0.75 setlinewidth
[] 0 setdash
1 setlinecap
1 setlinejoin
10.00 setmiterlimit
np
362.92 332.38 m
161.34 0 l
o
np
362.92 332.38 m
0 -7.20 l
o
np
403.25 332.38 m
0 -7.20 l
o
np
443.59 332.38 m
0 -7.20 l
o
np
483.92 332.38 m
0 -7.20 l
o
np
524.26 332.38 m
0 -7.20 l
o
/Font1 findfont 12 s
362.92 306.46 (0) .5 0 t
403.25 306.46 (100) .5 0 t
443.59 306.46 (200) .5 0 t
483.92 306.46 (300) .5 0 t
524.26 306.46 (400) .5 0 t
np
356.68 339.48 m
0 177.33 l
o
np
356.68 339.48 m
-7.20 0 l
o
np
356.68 383.81 m
-7.20 0 l
o
np
356.68 428.14 m
-7.20 0 l
o
np
356.68 472.48 m
-7.20 0 l
o
np
356.68 516.81 m
-7.20 0 l
o
339.40 339.48 (-50) .5 90 t
339.40 383.81 (-40) .5 90 t
339.40 428.14 (-30) .5 90 t
339.40 472.48 (-20) .5 90 t
339.40 516.81 (-10) .5 90 t
np
356.68 332.38 m
190.36 0 l
0 191.52 l
-190.36 0 l
0 -191.52 l
o
297.64 258.94 577.28 582.94 cl
/Font2 findfont 14 s
0 0 0 srgb
451.86 548.40 (c100bD) .5 0 t
/Font1 findfont 12 s
451.86 263.26 (Requests time) .5 0 t
451.86 277.66 (Time) .5 0 t
310.60 428.14 (Requests) .5 90 t
ep
%%Page: 6 6
bp
77.04 332.38 267.40 523.90 cl
18.00 258.94 297.64 582.94 cl
/Font2 findfont 14 s
0 0 0 srgb
172.22 548.40 (c100b) .5 0 t
/Font1 findfont 12 s
97.86 263.26 (Requests v) 0 ta
-0.300 (olume histogr) tb
-0.120 (am) tb gr
151.88 277.66 (V) 0 ta
-0.960 (olume) tb gr
30.96 387.46 (No) 90 ta
-0.480 (. of requests) tb gr
18.00 258.94 577.28 582.94 cl
0 0 0 srgb
0.75 setlinewidth
[] 0 setdash
1 setlinecap
1 setlinejoin
10.00 setmiterlimit
np
84.09 332.38 m
176.26 0 l
o
np
84.09 332.38 m
0 -7.20 l
o
np
128.15 332.38 m
0 -7.20 l
o
np
172.22 332.38 m
0 -7.20 l
o
np
216.28 332.38 m
0 -7.20 l
o
np
260.35 332.38 m
0 -7.20 l
o
/Font1 findfont 12 s
84.09 306.46 (10) .5 0 t
128.15 306.46 (20) .5 0 t
172.22 306.46 (30) .5 0 t
216.28 306.46 (40) .5 0 t
260.35 306.46 (50) .5 0 t
np
77.04 339.48 m
0 170.51 l
o
np
77.04 339.48 m
-7.20 0 l
o
np
77.04 373.58 m
-7.20 0 l
o
np
77.04 407.68 m
-7.20 0 l
o
np
77.04 441.79 m
-7.20 0 l
o
np
77.04 475.89 m
-7.20 0 l
o
np
77.04 509.99 m
-7.20 0 l
o
59.76 339.48 (0) .5 90 t
59.76 373.58 (10) .5 90 t
59.76 407.68 (20) .5 90 t
59.76 441.79 (30) .5 90 t
59.76 475.89 (40) .5 90 t
59.76 509.99 (50) .5 90 t
77.04 332.38 267.40 523.90 cl
0 0 0 srgb
0.75 setlinewidth
[] 0 setdash
1 setlinecap
1 setlinejoin
10.00 setmiterlimit
84.09 339.48 22.03 177.33 r p1
106.12 339.48 22.03 88.67 r p1
128.15 339.48 22.03 0.00 r p1
150.19 339.48 22.03 44.33 r p1
172.22 339.48 22.03 0.00 r p1
194.25 339.48 22.03 23.87 r p1
216.28 339.48 22.03 0.00 r p1
238.32 339.48 22.03 6.82 r p1
356.68 332.38 547.04 523.90 cl
ep
%%Page: 7 7
bp
77.04 332.38 267.40 523.90 cl
77.04 332.38 267.40 523.90 cl
0 0 0 srgb
0.75 setlinewidth
[] 0 setdash
1 setlinecap
1 setlinejoin
10.00 setmiterlimit
167.58 479.13 2.70 c p1
167.58 483.56 2.70 c p1
162.01 474.69 2.70 c p1
162.01 479.13 2.70 c p1
162.01 472.48 2.70 c p1
158.30 481.34 2.70 c p1
158.30 474.69 2.70 c p1
154.59 479.13 2.70 c p1
154.59 483.56 2.70 c p1
149.03 474.69 2.70 c p1
149.03 481.34 2.70 c p1
130.47 516.81 2.70 c p1
124.91 494.64 2.70 c p1
124.91 516.81 2.70 c p1
121.20 505.73 2.70 c p1
121.20 516.81 2.70 c p1
117.49 494.64 2.70 c p1
111.92 494.64 2.70 c p1
111.92 505.73 2.70 c p1
139.75 439.23 2.70 c p1
139.75 443.66 2.70 c p1
136.04 443.66 2.70 c p1
136.04 450.31 2.70 c p1
130.47 439.23 2.70 c p1
130.47 443.66 2.70 c p1
130.47 450.31 2.70 c p1
126.76 443.66 2.70 c p1
126.76 450.31 2.70 c p1
121.20 439.23 2.70 c p1
121.20 450.31 2.70 c p1
102.64 405.98 2.70 c p1
102.64 417.06 2.70 c p1
98.93 417.06 2.70 c p1
98.93 428.14 2.70 c p1
93.37 405.98 2.70 c p1
93.37 428.14 2.70 c p1
87.80 417.06 2.70 c p1
84.09 417.06 2.70 c p1
84.09 428.14 2.70 c p1
149.03 394.89 2.70 c p1
149.03 399.33 2.70 c p1
145.32 399.33 2.70 c p1
145.32 405.98 2.70 c p1
143.46 394.89 2.70 c p1
139.75 394.89 2.70 c p1
139.75 399.33 2.70 c p1
139.75 405.98 2.70 c p1
136.04 394.89 2.70 c p1
136.04 405.98 2.70 c p1
132.33 399.33 2.70 c p1
130.47 394.89 2.70 c p1
130.47 405.98 2.70 c p1
165.73 339.48 2.70 c p1
162.01 350.56 2.70 c p1
162.01 361.64 2.70 c p1
158.30 339.48 2.70 c p1
158.30 361.64 2.70 c p1
154.59 339.48 2.70 c p1
154.59 361.64 2.70 c p1
149.03 339.48 2.70 c p1
176.86 394.89 2.70 c p1
176.86 405.98 2.70 c p1
176.86 417.06 2.70 c p1
173.15 394.89 2.70 c p1
173.15 417.06 2.70 c p1
171.29 405.98 2.70 c p1
171.29 417.06 2.70 c p1
167.58 394.89 2.70 c p1
167.58 405.98 2.70 c p1
260.35 394.89 2.70 c p1
260.35 405.98 2.70 c p1
182.42 394.89 2.70 c p1
254.78 394.89 2.70 c p1
182.42 405.98 2.70 c p1
167.58 472.48 2.70 c p1
251.07 405.98 2.70 c p1
247.36 394.89 2.70 c p1
247.36 405.98 2.70 c p1
245.50 394.89 2.70 c p1
241.79 383.81 2.70 c p1
241.79 405.98 2.70 c p1
223.24 450.31 2.70 c p1
217.67 450.31 2.70 c p1
213.96 456.96 2.70 c p1
210.25 461.39 2.70 c p1
206.54 450.31 2.70 c p1
204.69 450.31 2.70 c p1
204.69 461.39 2.70 c p1
200.98 456.96 2.70 c p1
195.41 450.31 2.70 c p1
195.41 461.39 2.70 c p1
208.40 516.81 2.70 c p1
204.69 516.81 2.70 c p1
204.69 510.16 2.70 c p1
199.12 505.73 2.70 c p1
195.41 505.73 2.70 c p1
195.41 516.81 2.70 c p1
191.70 494.64 2.70 c p1
186.13 505.73 2.70 c p1
186.13 516.81 2.70 c p1
18.00 258.94 577.28 582.94 cl
0 0 0 srgb
0.75 setlinewidth
[] 0 setdash
1 setlinecap
1 setlinejoin
10.00 setmiterlimit
np
84.09 332.38 m
148.43 0 l
o
np
84.09 332.38 m
0 -7.20 l
o
np
121.20 332.38 m
0 -7.20 l
o
np
158.30 332.38 m
0 -7.20 l
o
np
195.41 332.38 m
0 -7.20 l
o
np
232.52 332.38 m
0 -7.20 l
o
/Font1 findfont 12 s
84.09 306.46 (0) .5 0 t
121.20 306.46 (20) .5 0 t
158.30 306.46 (40) .5 0 t
195.41 306.46 (60) .5 0 t
232.52 306.46 (80) .5 0 t
np
77.04 372.73 m
0 133.00 l
o
np
77.04 372.73 m
-7.20 0 l
o
np
77.04 417.06 m
-7.20 0 l
o
np
77.04 461.39 m
-7.20 0 l
o
np
77.04 505.73 m
-7.20 0 l
o
59.76 372.73 (20) .5 90 t
59.76 417.06 (40) .5 90 t
59.76 461.39 (60) .5 90 t
59.76 505.73 (80) .5 90 t
np
77.04 332.38 m
190.36 0 l
0 191.52 l
-190.36 0 l
0 -191.52 l
o
18.00 258.94 297.64 582.94 cl
/Font2 findfont 14 s
0 0 0 srgb
172.22 548.40 (c100b) .5 0 t
/Font1 findfont 12 s
172.22 263.26 (Locations plot) .5 0 t
172.22 277.66 (X) .5 0 t
30.96 428.14 (Y) .5 90 t
356.68 332.38 547.04 523.90 cl
356.68 332.38 547.04 523.90 cl
0 0 0 srgb
0.75 setlinewidth
[] 0 setdash
1 setlinecap
1 setlinejoin
10.00 setmiterlimit
np
363.73 516.81 m
3.63 0 l
0 -88.67 l
0 0 l
0 88.67 l
2.82 0 l
0 0 l
0.81 0 l
0 0 l
2.01 0 l
0 -44.33 l
3.23 0 l
0 0 l
3.63 0 l
0 0 l
2.42 0 l
0 44.33 l
3.23 0 l
0 0 l
0 0 l
0 0 l
0.80 0 l
0 -44.33 l
3.63 0 l
0 -44.34 l
0 0 l
0 88.67 l
0.81 0 l
0 -133.00 l
0 0 l
0 0 l
0.40 0 l
0 88.67 l
2.02 0 l
0 0 l
0 0 l
0 44.33 l
4.44 0 l
0 0 l
0.80 0 l
0 -44.33 l
0 0 l
0 0 l
3.63 0 l
0 44.33 l
0 0 l
0 0 l
0.41 0 l
0 -133.00 l
0.80 0 l
0 133.00 l
2.02 0 l
0 0 l
2.02 0 l
0 -44.33 l
0 0 l
0 44.33 l
1.61 0 l
0 0 l
2.42 0 l
0 -44.33 l
1.61 0 l
0 -44.34 l
0 0 l
0 -44.33 l
1.21 0 l
0 88.67 l
1.21 0 l
0 44.33 l
1.62 0 l
0 0 l
2.42 0 l
0 -44.33 l
2.01 0 l
0 -44.34 l
1.21 0 l
0 44.34 l
6.86 0 l
0 44.33 l
2.82 0 l
0 0 l
0.41 0 l
0 -44.33 l
0.40 0 l
0 44.33 l
0 0 l
0 0 l
2.42 0 l
0 0 l
2.82 0 l
0 -88.67 l
0.41 0 l
0 88.67 l
0.40 0 l
0 0 l
0.81 0 l
0 0 l
2.01 0 l
0 0 l
0 0 l
441.97 516.81 lineto
0 0 l
0 0 l
1.21 0 l
0 -44.33 l
0.81 0 l
0 -88.67 l
1.62 0 l
0 133.00 l
0 0 l
0 -88.67 l
0.40 0 l
0 -44.33 l
0.40 0 l
0 44.33 l
4.04 0 l
0 88.67 l
10.48 0 l
0 -44.33 l
4.04 0 l
0 44.33 l
0.40 0 l
0 -44.33 l
0.81 0 l
0 -133.00 l
3.63 0 l
0 177.33 l
0.80 0 l
0 0 l
1.62 0 l
0 0 l
5.64 0 l
0 0 l
3.63 0 l
0 0 l
0.41 0 l
0 0 l
3.63 0 l
0 -88.67 l
0.40 0 l
0 44.34 l
2.02 0 l
0 44.33 l
1.61 0 l
0 0 l
1.21 0 l
0 -177.33 l
2.02 0 l
0 133.00 l
2.01 0 l
0 44.33 l
3.63 0 l
0 0 l
0 0 l
0 -44.33 l
0.41 0 l
0 44.33 l
1.61 0 l
0 0 l
1.61 0 l
0 -88.67 l
0.81 0 l
0 44.34 l
0.81 0 l
0 44.33 l
0.80 0 l
0 -44.33 l
3.63 0 l
0 -44.34 l
1.21 0 l
0 88.67 l
3.23 0 l
0 -44.33 l
1.21 0 l
0 -44.34 l
1.61 0 l
0 88.67 l
1.62 0 l
0 0 l
1.21 0 l
0 0 l
0.40 0 l
0 -44.33 l
9.68 0 l
0 -88.67 l
4.44 0 l
0 133.00 l
0 0 l
0 -88.67 l
0.80 0 l
0 88.67 l
0.41 0 l
0 -88.67 l
4.03 0 l
0 44.34 l
1.61 0 l
0 44.33 l
0.41 0 l
0 -44.33 l
o
18.00 258.94 577.28 582.94 cl
0 0 0 srgb
0.75 setlinewidth
[] 0 setdash
1 setlinecap
1 setlinejoin
10.00 setmiterlimit
np
362.92 332.38 m
161.34 0 l
o
np
362.92 332.38 m
0 -7.20 l
o
np
403.25 332.38 m
0 -7.20 l
o
np
443.59 332.38 m
0 -7.20 l
o
np
483.92 332.38 m
0 -7.20 l
o
np
524.26 332.38 m
0 -7.20 l
o
/Font1 findfont 12 s
362.92 306.46 (0) .5 0 t
403.25 306.46 (100) .5 0 t
443.59 306.46 (200) .5 0 t
483.92 306.46 (300) .5 0 t
524.26 306.46 (400) .5 0 t
np
356.68 339.48 m
0 177.33 l
o
np
356.68 339.48 m
-7.20 0 l
o
np
356.68 383.81 m
-7.20 0 l
o
np
356.68 428.14 m
-7.20 0 l
o
np
356.68 472.48 m
-7.20 0 l
o
np
356.68 516.81 m
-7.20 0 l
o
339.40 339.48 (-50) .5 90 t
339.40 383.81 (-40) .5 90 t
339.40 428.14 (-30) .5 90 t
339.40 472.48 (-20) .5 90 t
339.40 516.81 (-10) .5 90 t
np
356.68 332.38 m
190.36 0 l
0 191.52 l
-190.36 0 l
0 -191.52 l
o
297.64 258.94 577.28 582.94 cl
/Font2 findfont 14 s
0 0 0 srgb
451.86 548.40 (c100bD) .5 0 t
/Font1 findfont 12 s
451.86 263.26 (Requests time) .5 0 t
451.86 277.66 (Time) .5 0 t
310.60 428.14 (Requests) .5 90 t
ep
%%Page: 8 8
bp
77.04 332.38 267.40 523.90 cl
18.00 258.94 297.64 582.94 cl
/Font2 findfont 14 s
0 0 0 srgb
172.22 548.40 (c100b) .5 0 t
/Font1 findfont 12 s
97.86 263.26 (Requests v) 0 ta
-0.300 (olume histogr) tb
-0.120 (am) tb gr
151.88 277.66 (V) 0 ta
-0.960 (olume) tb gr
30.96 387.46 (No) 90 ta
-0.480 (. of requests) tb gr
18.00 258.94 577.28 582.94 cl
0 0 0 srgb
0.75 setlinewidth
[] 0 setdash
1 setlinecap
1 setlinejoin
10.00 setmiterlimit
np
84.09 332.38 m
176.26 0 l
o
np
84.09 332.38 m
0 -7.20 l
o
np
128.15 332.38 m
0 -7.20 l
o
np
172.22 332.38 m
0 -7.20 l
o
np
216.28 332.38 m
0 -7.20 l
o
np
260.35 332.38 m
0 -7.20 l
o
/Font1 findfont 12 s
84.09 306.46 (10) .5 0 t
128.15 306.46 (20) .5 0 t
172.22 306.46 (30) .5 0 t
216.28 306.46 (40) .5 0 t
260.35 306.46 (50) .5 0 t
np
77.04 339.48 m
0 170.51 l
o
np
77.04 339.48 m
-7.20 0 l
o
np
77.04 373.58 m
-7.20 0 l
o
np
77.04 407.68 m
-7.20 0 l
o
np
77.04 441.79 m
-7.20 0 l
o
np
77.04 475.89 m
-7.20 0 l
o
np
77.04 509.99 m
-7.20 0 l
o
59.76 339.48 (0) .5 90 t
59.76 373.58 (10) .5 90 t
59.76 407.68 (20) .5 90 t
59.76 441.79 (30) .5 90 t
59.76 475.89 (40) .5 90 t
59.76 509.99 (50) .5 90 t
77.04 332.38 267.40 523.90 cl
0 0 0 srgb
0.75 setlinewidth
[] 0 setdash
1 setlinecap
1 setlinejoin
10.00 setmiterlimit
84.09 339.48 22.03 177.33 r p1
106.12 339.48 22.03 88.67 r p1
128.15 339.48 22.03 0.00 r p1
150.19 339.48 22.03 44.33 r p1
172.22 339.48 22.03 0.00 r p1
194.25 339.48 22.03 23.87 r p1
216.28 339.48 22.03 0.00 r p1
238.32 339.48 22.03 6.82 r p1
356.68 332.38 547.04 523.90 cl
ep
%%Trailer
%%Pages: 8
%%EOF
