%!PS-Adobe-3.0
%%DocumentNeededResources: font Helvetica
%%+ font Helvetica-Bold
%%+ font Helvetica-Oblique
%%+ font Helvetica-BoldOblique
%%+ font Symbol
%%DocumentMedia: a4 595 841 0 () ()
%%Title: R Graphics Output
%%Creator: R Software
%%Pages: (atend)
%%Orientation: Portrait
%%BoundingBox: 18 259 577 583
%%EndComments
%%BeginProlog
/bp  { gs sRGB gs } def
% begin .ps.prolog
/gs  { gsave } bind def
/gr  { grestore } bind def
/ep  { showpage gr gr } bind def
/m   { moveto } bind def
/l  { rlineto } bind def
/np  { newpath } bind def
/cp  { closepath } bind def
/f   { fill } bind def
/o   { stroke } bind def
/c   { newpath 0 360 arc } bind def
/r   { 4 2 roll moveto 1 copy 3 -1 roll exch 0 exch rlineto 0 rlineto -1 mul 0 exch rlineto closepath } bind def
/p1  { stroke } bind def
/p2  { gsave bg fill grestore newpath } bind def
/p3  { gsave bg fill grestore stroke } bind def
/p6  { gsave bg eofill grestore newpath } bind def
/p7  { gsave bg eofill grestore stroke } bind def
/t   { 5 -2 roll moveto gsave rotate
       1 index stringwidth pop
       mul neg 0 rmoveto show grestore } bind def
/ta  { 4 -2 roll moveto gsave rotate show } bind def
/tb  { 2 -1 roll 0 rmoveto show } bind def
/cl  { grestore gsave newpath 3 index 3 index moveto 1 index
       4 -1 roll lineto  exch 1 index lineto lineto
       closepath clip newpath } bind def
/rgb { setrgbcolor } bind def
/s   { scalefont setfont } bind def
% end   .ps.prolog
/sRGB { [ /CIEBasedABC
          << /DecodeLMN
               [ { dup 0.03928 le
                        {12.92321 div}
                        {0.055 add 1.055 div 2.4 exp }
                     ifelse
                 } bind dup dup
               ]
             /MatrixLMN [0.412457 0.212673 0.019334
                         0.357576 0.715152 0.119192
                         0.180437 0.072175 0.950301]
             /WhitePoint [0.9505 1.0 1.0890]
           >>
         ] setcolorspace } bind def
/srgb { setcolor } bind def
% begin encoding
/WinAnsiEncoding [
 /.notdef /.notdef /.notdef /.notdef /.notdef /.notdef /.notdef /.notdef
 /.notdef /.notdef /.notdef /.notdef /.notdef /.notdef /.notdef /.notdef
 /.notdef /.notdef /.notdef /.notdef /.notdef /.notdef /.notdef /.notdef
 /.notdef /.notdef /.notdef /.notdef /.notdef /.notdef /.notdef /.notdef
 /space /exclam /quotedbl /numbersign /dollar /percent /ampersand /quoteright
 /parenleft /parenright /asterisk /plus /comma /minus /period /slash
 /zero /one /two /three /four /five /six /seven
 /eight /nine /colon /semicolon /less /equal /greater /question
 /at /A /B /C /D /E /F /G
 /H /I /J /K /L /M /N /O
 /P /Q /R /S /T /U /V /W
 /X /Y /Z /bracketleft /backslash /bracketright /asciicircum /underscore
 /grave /a /b /c /d /e /f /g
 /h /i /j /k /l /m /n /o
 /p /q /r /s /t /u /v /w
 /x /y /z /braceleft /bar /braceright /asciitilde /.notdef
 /Euro /.notdef /quotesinglbase /florin /quotedblbase /ellipsis /dagger /daggerdbl
 /circumflex /perthousand /Scaron /guilsinglleft /OE /.notdef /Zcaron /.notdef
 /.notdef /quoteleft /quoteright /quotedblleft /quotedblright /bullet /endash /emdash
 /tilde /trademark /scaron /guilsinglright /oe /.notdef /zcaron /Ydieresis
 /space /exclamdown /cent /sterling /currency /yen /brokenbar /section
 /dieresis /copyright /ordfeminine /guillemotleft /logicalnot /hyphen /registered /macron
 /degree /plusminus /twosuperior /threesuperior /acute /mu /paragraph /periodcentered
 /cedilla /onesuperior /ordmasculine /guillemotright /onequarter /onehalf /threequarters /questiondown
 /Agrave /Aacute /Acircumflex /Atilde /Adieresis /Aring /AE /Ccedilla
 /Egrave /Eacute /Ecircumflex /Edieresis /Igrave /Iacute /Icircumflex /Idieresis
 /Eth /Ntilde /Ograve /Oacute /Ocircumflex /Otilde /Odieresis /multiply
 /Oslash /Ugrave /Uacute /Ucircumflex /Udieresis /Yacute /Thorn /germandbls
 /agrave /aacute /acircumflex /atilde /adieresis /aring /ae /ccedilla
 /egrave /eacute /ecircumflex /edieresis /igrave /iacute /icircumflex /idieresis
 /eth /ntilde /ograve /oacute /ocircumflex /otilde /odieresis /divide
 /oslash /ugrave /uacute /ucircumflex /udieresis /yacute /thorn /ydieresis
]
 def
% end encoding
%%IncludeResource: font Helvetica
/Helvetica findfont
dup length dict begin
  {1 index /FID ne {def} {pop pop} ifelse} forall
  /Encoding WinAnsiEncoding def
  currentdict
  end
/Font1 exch definefont pop
%%IncludeResource: font Helvetica-Bold
/Helvetica-Bold findfont
dup length dict begin
  {1 index /FID ne {def} {pop pop} ifelse} forall
  /Encoding WinAnsiEncoding def
  currentdict
  end
/Font2 exch definefont pop
%%IncludeResource: font Helvetica-Oblique
/Helvetica-Oblique findfont
dup length dict begin
  {1 index /FID ne {def} {pop pop} ifelse} forall
  /Encoding WinAnsiEncoding def
  currentdict
  end
/Font3 exch definefont pop
%%IncludeResource: font Helvetica-BoldOblique
/Helvetica-BoldOblique findfont
dup length dict begin
  {1 index /FID ne {def} {pop pop} ifelse} forall
  /Encoding WinAnsiEncoding def
  currentdict
  end
/Font4 exch definefont pop
%%IncludeResource: font Symbol
/Symbol findfont
dup length dict begin
  {1 index /FID ne {def} {pop pop} ifelse} forall
  currentdict
  end
/Font5 exch definefont pop
%%EndProlog
%%Page: 1 1
bp
77.04 332.38 267.40 523.90 cl
0 0 0 srgb
0.75 setlinewidth
[] 0 setdash
1 setlinecap
1 setlinejoin
10.00 setmiterlimit
189.84 449.71 2.70 c p1
173.57 373.03 2.70 c p1
227.81 440.13 2.70 c p1
227.81 380.22 2.70 c p1
119.34 404.18 2.70 c p1
146.46 404.18 2.70 c p1
132.90 452.11 2.70 c p1
105.78 435.33 2.70 c p1
227.81 476.07 2.70 c p1
160.02 476.07 2.70 c p1
132.90 488.05 2.70 c p1
214.25 416.16 2.70 c p1
160.02 392.20 2.70 c p1
119.34 356.25 2.70 c p1
160.02 344.27 2.70 c p1
105.78 380.22 2.70 c p1
92.23 404.18 2.70 c p1
132.90 428.14 2.70 c p1
119.34 476.07 2.70 c p1
200.69 488.05 2.70 c p1
200.69 380.22 2.70 c p1
200.69 356.25 2.70 c p1
227.81 344.27 2.70 c p1
254.92 416.16 2.70 c p1
254.92 380.22 2.70 c p1
200.69 404.18 2.70 c p1
173.57 428.14 2.70 c p1
189.84 420.96 2.70 c p1
252.21 432.94 2.70 c p1
187.13 476.07 2.70 c p1
162.73 456.90 2.70 c p1
173.57 497.64 2.70 c p1
222.38 456.90 2.70 c p1
254.92 464.09 2.70 c p1
249.50 488.05 2.70 c p1
84.09 476.07 2.70 c p1
132.90 380.22 2.70 c p1
92.23 344.27 2.70 c p1
241.37 361.05 2.70 c p1
187.13 392.20 2.70 c p1
192.56 349.06 2.70 c p1
143.75 361.05 2.70 c p1
141.03 339.48 2.70 c p1
108.50 365.84 2.70 c p1
94.94 423.35 2.70 c p1
84.09 447.32 2.70 c p1
100.36 466.49 2.70 c p1
113.92 456.90 2.70 c p1
94.94 495.24 2.70 c p1
206.11 444.92 2.70 c p1
211.54 471.28 2.70 c p1
151.88 435.33 2.70 c p1
179.00 406.58 2.70 c p1
233.23 401.78 2.70 c p1
249.50 387.41 2.70 c p1
222.38 361.05 2.70 c p1
165.44 361.05 2.70 c p1
176.29 394.60 2.70 c p1
135.61 389.80 2.70 c p1
124.77 413.77 2.70 c p1
111.21 389.80 2.70 c p1
143.75 471.28 2.70 c p1
151.88 497.64 2.70 c p1
119.34 516.81 2.70 c p1
246.79 516.81 2.70 c p1
211.54 507.23 2.70 c p1
260.35 344.27 2.70 c p1
230.52 425.75 2.70 c p1
179.00 444.92 2.70 c p1
179.00 466.49 2.70 c p1
233.23 495.24 2.70 c p1
206.11 370.63 2.70 c p1
197.98 373.03 2.70 c p1
203.40 363.44 2.70 c p1
211.54 358.65 2.70 c p1
211.54 432.94 2.70 c p1
222.38 435.33 2.70 c p1
244.08 456.90 2.70 c p1
233.23 447.32 2.70 c p1
230.52 420.96 2.70 c p1
227.81 461.69 2.70 c p1
119.34 444.92 2.70 c p1
116.63 420.96 2.70 c p1
108.50 406.58 2.70 c p1
122.05 385.01 2.70 c p1
89.51 375.42 2.70 c p1
154.59 375.42 2.70 c p1
149.17 456.90 2.70 c p1
149.17 416.16 2.70 c p1
162.73 492.85 2.70 c p1
119.34 377.82 2.70 c p1
138.32 385.01 2.70 c p1
127.48 389.80 2.70 c p1
149.17 396.99 2.70 c p1
146.46 389.80 2.70 c p1
138.32 396.99 2.70 c p1
146.46 382.61 2.70 c p1
130.19 382.61 2.70 c p1
132.90 394.60 2.70 c p1
127.48 375.42 2.70 c p1
18.00 258.94 577.28 582.94 cl
0 0 0 srgb
0.75 setlinewidth
[] 0 setdash
1 setlinecap
1 setlinejoin
10.00 setmiterlimit
np
78.67 332.38 m
162.70 0 l
o
np
78.67 332.38 m
0 -7.20 l
o
np
105.78 332.38 m
0 -7.20 l
o
np
132.90 332.38 m
0 -7.20 l
o
np
160.02 332.38 m
0 -7.20 l
o
np
187.13 332.38 m
0 -7.20 l
o
np
214.25 332.38 m
0 -7.20 l
o
np
241.37 332.38 m
0 -7.20 l
o
/Font1 findfont 12 s
78.67 306.46 (0) .5 0 t
105.78 306.46 (10) .5 0 t
132.90 306.46 (20) .5 0 t
160.02 306.46 (30) .5 0 t
187.13 306.46 (40) .5 0 t
214.25 306.46 (50) .5 0 t
241.37 306.46 (60) .5 0 t
np
77.04 380.22 m
0 95.85 l
o
np
77.04 380.22 m
-7.20 0 l
o
np
77.04 428.14 m
-7.20 0 l
o
np
77.04 476.07 m
-7.20 0 l
o
59.76 380.22 (20) .5 90 t
59.76 428.14 (40) .5 90 t
59.76 476.07 (60) .5 90 t
np
77.04 332.38 m
190.36 0 l
0 191.52 l
-190.36 0 l
0 -191.52 l
o
18.00 258.94 297.64 582.94 cl
/Font2 findfont 14 s
0 0 0 srgb
172.22 548.40 (c100) .5 0 t
/Font1 findfont 12 s
172.22 263.26 (Locations plot) .5 0 t
172.22 277.66 (X) .5 0 t
30.96 428.14 (Y) .5 90 t
356.68 332.38 547.04 523.90 cl
356.68 332.38 547.04 523.90 cl
0 0 0 srgb
0.75 setlinewidth
[] 0 setdash
1 setlinecap
1 setlinejoin
10.00 setmiterlimit
np
363.73 476.91 m
3.31 0 l
0 13.30 l
0 0 l
0 -26.60 l
3.32 0 l
0 -26.60 l
0.48 0 l
0 -31.03 l
2.36 0 l
0 101.96 l
2.85 0 l
0 -8.86 l
3.31 0 l
0 -17.74 l
2.85 0 l
0 -31.03 l
2.84 0 l
0 0 l
0.47 0 l
0 17.73 l
0.48 0 l
0 -31.03 l
3.79 0 l
0 -17.73 l
0 0 l
0 13.30 l
0.95 0 l
0 53.20 l
0 0 l
0 -48.77 l
0.47 0 l
0 75.37 l
1.89 0 l
0 -44.34 l
0 0 l
0 -22.16 l
4.27 0 l
0 35.46 l
0.95 0 l
0 -8.86 l
0 0 l
0 -31.04 l
3.31 0 l
0 -48.76 l
0.48 0 l
0 115.26 l
0 0 l
0 -13.30 l
1.42 0 l
0 -48.76 l
1.42 0 l
0 4.43 l
2.37 0 l
0 0 l
0 0 l
0 31.03 l
1.42 0 l
0 -53.20 l
2.37 0 l
0 -26.60 l
1.42 0 l
0 17.74 l
0.47 0 l
0 53.20 l
0.95 0 l
0 -13.30 l
1.42 0 l
0 26.60 l
1.42 0 l
0 13.30 l
2.37 0 l
0 -13.30 l
2.37 0 l
0 -35.47 l
0.95 0 l
0 -66.50 l
7.11 0 l
0 97.53 l
2.37 0 l
0 17.74 l
0.47 0 l
0 0 l
0.95 0 l
0 -8.87 l
0 0 l
0 -48.77 l
1.89 0 l
0 8.87 l
2.85 0 l
0 66.50 l
0.47 0 l
0 -115.27 l
0.47 0 l
0 -39.90 l
0.95 0 l
0 26.60 l
1.90 0 l
0 75.37 l
0 0 l
441.91 476.91 lineto
0 0 l
0 4.43 l
0.94 0 l
0 -22.16 l
0.95 0 l
0 -17.74 l
1.42 0 l
0 70.94 l
0.48 0 l
0 -17.74 l
0.47 0 l
0 -4.43 l
0.47 0 l
0 -48.77 l
3.80 0 l
0 -44.33 l
10.42 0 l
0 110.83 l
4.26 0 l
0 -44.33 l
0 0 l
0 -26.60 l
0.95 0 l
0 39.90 l
3.79 0 l
0 4.43 l
0.48 0 l
0 -48.76 l
1.89 0 l
0 -22.17 l
5.69 0 l
0 0 l
3.79 0 l
0 -48.77 l
0.47 0 l
0 133.00 l
3.32 0 l
0 4.44 l
0.47 0 l
0 -44.34 l
1.90 0 l
0 -44.33 l
1.89 0 l
0 70.93 l
0.95 0 l
0 4.44 l
1.89 0 l
0 -44.34 l
2.37 0 l
0 22.17 l
3.32 0 l
0 -4.43 l
0.47 0 l
0 48.76 l
0.48 0 l
0 -88.66 l
1.42 0 l
0 75.36 l
1.42 0 l
0 -88.66 l
0.95 0 l
0 44.33 l
0.47 0 l
0 22.17 l
0.95 0 l
0 17.73 l
3.79 0 l
0 -150.73 l
1.42 0 l
0 26.60 l
2.84 0 l
0 39.90 l
1.43 0 l
0 75.36 l
1.42 0 l
0 -26.60 l
1.89 0 l
0 53.20 l
0.95 0 l
0 8.87 l
0.47 0 l
0 -4.43 l
9.48 0 l
0 -88.67 l
4.74 0 l
0 -22.17 l
0 0 l
0 31.04 l
0.47 0 l
0 39.90 l
0.95 0 l
0 -4.44 l
3.79 0 l
0 8.87 l
1.90 0 l
0 4.43 l
0 0 l
0 -35.46 l
o
18.00 258.94 577.28 582.94 cl
0 0 0 srgb
0.75 setlinewidth
[] 0 setdash
1 setlinecap
1 setlinejoin
10.00 setmiterlimit
np
362.78 332.38 m
142.14 0 l
o
np
362.78 332.38 m
0 -7.20 l
o
np
410.16 332.38 m
0 -7.20 l
o
np
457.54 332.38 m
0 -7.20 l
o
np
504.92 332.38 m
0 -7.20 l
o
/Font1 findfont 12 s
362.78 306.46 (0) .5 0 t
410.16 306.46 (100) .5 0 t
457.54 306.46 (200) .5 0 t
504.92 306.46 (300) .5 0 t
np
356.68 343.91 m
0 177.33 l
o
np
356.68 343.91 m
-7.20 0 l
o
np
356.68 388.24 m
-7.20 0 l
o
np
356.68 432.58 m
-7.20 0 l
o
np
356.68 476.91 m
-7.20 0 l
o
np
356.68 521.24 m
-7.20 0 l
o
339.40 343.91 (-40) .5 90 t
339.40 388.24 (-30) .5 90 t
339.40 432.58 (-20) .5 90 t
339.40 476.91 (-10) .5 90 t
339.40 521.24 (0) .5 90 t
np
356.68 332.38 m
190.36 0 l
0 191.52 l
-190.36 0 l
0 -191.52 l
o
297.64 258.94 577.28 582.94 cl
/Font2 findfont 14 s
0 0 0 srgb
451.86 548.40 (c100D) .5 0 t
/Font1 findfont 12 s
451.86 263.26 (Requests time) .5 0 t
451.86 277.66 (Time) .5 0 t
310.60 428.14 (Requests) .5 90 t
ep
%%Page: 2 2
bp
77.04 332.38 267.40 523.90 cl
18.00 258.94 297.64 582.94 cl
/Font2 findfont 14 s
0 0 0 srgb
172.22 548.40 (c100) .5 0 t
/Font1 findfont 12 s
97.86 263.26 (Requests v) 0 ta
-0.300 (olume histogr) tb
-0.120 (am) tb gr
151.88 277.66 (V) 0 ta
-0.960 (olume) tb gr
30.96 387.46 (No) 90 ta
-0.480 (. of requests) tb gr
18.00 258.94 577.28 582.94 cl
0 0 0 srgb
0.75 setlinewidth
[] 0 setdash
1 setlinecap
1 setlinejoin
10.00 setmiterlimit
np
84.09 332.38 m
156.67 0 l
o
np
84.09 332.38 m
0 -7.20 l
o
np
123.26 332.38 m
0 -7.20 l
o
np
162.43 332.38 m
0 -7.20 l
o
np
201.60 332.38 m
0 -7.20 l
o
np
240.76 332.38 m
0 -7.20 l
o
/Font1 findfont 12 s
84.09 306.46 (0) .5 0 t
123.26 306.46 (10) .5 0 t
162.43 306.46 (20) .5 0 t
201.60 306.46 (30) .5 0 t
240.76 306.46 (40) .5 0 t
np
77.04 339.48 m
0 177.33 l
o
np
77.04 339.48 m
-7.20 0 l
o
np
77.04 374.94 m
-7.20 0 l
o
np
77.04 410.41 m
-7.20 0 l
o
np
77.04 445.88 m
-7.20 0 l
o
np
77.04 481.34 m
-7.20 0 l
o
np
77.04 516.81 m
-7.20 0 l
o
59.76 339.48 (0) .5 90 t
59.76 374.94 (5) .5 90 t
59.76 410.41 (10) .5 90 t
59.76 445.88 (15) .5 90 t
59.76 481.34 (20) .5 90 t
59.76 516.81 (25) .5 90 t
77.04 332.38 267.40 523.90 cl
0 0 0 srgb
0.75 setlinewidth
[] 0 setdash
1 setlinecap
1 setlinejoin
10.00 setmiterlimit
84.09 339.48 19.58 106.40 r p1
103.67 339.48 19.58 177.33 r p1
123.26 339.48 19.58 113.49 r p1
142.84 339.48 19.58 156.05 r p1
162.43 339.48 19.58 56.75 r p1
182.01 339.48 19.58 63.84 r p1
201.60 339.48 19.58 14.19 r p1
221.18 339.48 19.58 14.19 r p1
240.76 339.48 19.58 7.09 r p1
ep
%%Page: 3 3
bp
77.04 332.38 267.40 523.90 cl
77.04 332.38 267.40 523.90 cl
0 0 0 srgb
0.75 setlinewidth
[] 0 setdash
1 setlinecap
1 setlinejoin
10.00 setmiterlimit
121.59 339.48 2.70 c p1
121.59 343.46 2.70 c p1
132.84 347.45 2.70 c p1
134.72 347.45 2.70 c p1
132.84 351.43 2.70 c p1
134.72 355.42 2.70 c p1
138.47 355.42 2.70 c p1
160.97 355.42 2.70 c p1
140.34 351.43 2.70 c p1
138.47 349.44 2.70 c p1
140.34 347.45 2.70 c p1
162.84 349.44 2.70 c p1
149.72 347.45 2.70 c p1
147.84 343.46 2.70 c p1
142.22 343.46 2.70 c p1
211.60 349.44 2.70 c p1
211.60 353.43 2.70 c p1
119.72 409.22 2.70 c p1
217.22 349.44 2.70 c p1
217.22 357.41 2.70 c p1
217.22 363.39 2.70 c p1
220.97 343.46 2.70 c p1
220.97 355.42 2.70 c p1
222.85 343.46 2.70 c p1
222.85 347.45 2.70 c p1
222.85 359.40 2.70 c p1
228.47 343.46 2.70 c p1
228.47 351.43 2.70 c p1
243.47 367.37 2.70 c p1
232.22 343.46 2.70 c p1
232.22 347.45 2.70 c p1
232.22 355.42 2.70 c p1
234.10 339.48 2.70 c p1
237.85 347.45 2.70 c p1
234.10 353.43 2.70 c p1
237.85 351.43 2.70 c p1
235.97 419.18 2.70 c p1
235.97 425.16 2.70 c p1
235.97 429.14 2.70 c p1
234.10 447.07 2.70 c p1
241.60 423.16 2.70 c p1
241.60 429.14 2.70 c p1
241.60 441.10 2.70 c p1
247.22 421.17 2.70 c p1
247.22 441.10 2.70 c p1
250.97 421.17 2.70 c p1
250.97 425.16 2.70 c p1
250.97 433.13 2.70 c p1
254.72 421.17 2.70 c p1
260.35 429.14 2.70 c p1
260.35 437.11 2.70 c p1
230.35 496.89 2.70 c p1
230.35 502.86 2.70 c p1
234.10 498.88 2.70 c p1
234.10 506.85 2.70 c p1
234.10 514.82 2.70 c p1
237.85 496.89 2.70 c p1
237.85 508.84 2.70 c p1
243.47 490.91 2.70 c p1
243.47 512.83 2.70 c p1
249.10 500.87 2.70 c p1
249.10 504.86 2.70 c p1
249.10 514.82 2.70 c p1
250.97 508.84 2.70 c p1
252.85 496.89 2.70 c p1
260.35 514.82 2.70 c p1
144.09 502.86 2.70 c p1
168.47 496.89 2.70 c p1
140.34 506.85 2.70 c p1
140.34 510.83 2.70 c p1
157.22 508.84 2.70 c p1
160.97 514.82 2.70 c p1
160.97 502.86 2.70 c p1
160.97 510.83 2.70 c p1
160.97 514.82 2.70 c p1
164.72 502.86 2.70 c p1
168.47 506.85 2.70 c p1
168.47 512.83 2.70 c p1
175.97 508.84 2.70 c p1
175.97 516.81 2.70 c p1
93.47 407.22 2.70 c p1
93.47 417.19 2.70 c p1
108.47 397.26 2.70 c p1
106.59 407.22 2.70 c p1
104.72 413.20 2.70 c p1
100.97 417.19 2.70 c p1
102.84 421.17 2.70 c p1
95.34 421.17 2.70 c p1
108.47 417.19 2.70 c p1
114.09 415.19 2.70 c p1
112.22 417.19 2.70 c p1
108.47 419.18 2.70 c p1
112.22 425.16 2.70 c p1
115.97 425.16 2.70 c p1
104.72 427.15 2.70 c p1
112.22 427.15 2.70 c p1
121.59 427.15 2.70 c p1
130.97 447.07 2.70 c p1
112.22 437.11 2.70 c p1
115.97 439.10 2.70 c p1
108.47 435.12 2.70 c p1
104.72 433.13 2.70 c p1
112.22 447.07 2.70 c p1
108.47 443.09 2.70 c p1
100.97 437.11 2.70 c p1
102.84 439.10 2.70 c p1
104.72 445.08 2.70 c p1
127.22 403.24 2.70 c p1
136.59 413.20 2.70 c p1
130.97 437.11 2.70 c p1
99.09 417.19 2.70 c p1
102.84 409.22 2.70 c p1
108.47 399.25 2.70 c p1
121.59 411.21 2.70 c p1
130.97 429.14 2.70 c p1
121.59 441.10 2.70 c p1
104.72 403.24 2.70 c p1
121.59 407.22 2.70 c p1
84.09 417.19 2.70 c p1
84.09 437.11 2.70 c p1
18.00 258.94 577.28 582.94 cl
0 0 0 srgb
0.75 setlinewidth
[] 0 setdash
1 setlinecap
1 setlinejoin
10.00 setmiterlimit
np
112.22 332.38 m
150.00 0 l
o
np
112.22 332.38 m
0 -7.20 l
o
np
149.72 332.38 m
0 -7.20 l
o
np
187.22 332.38 m
0 -7.20 l
o
np
224.72 332.38 m
0 -7.20 l
o
np
262.22 332.38 m
0 -7.20 l
o
/Font1 findfont 12 s
112.22 306.46 (20) .5 0 t
149.72 306.46 (40) .5 0 t
187.22 306.46 (60) .5 0 t
224.72 306.46 (80) .5 0 t
262.22 306.46 (100) .5 0 t
np
77.04 337.49 m
0 159.40 l
o
np
77.04 337.49 m
-7.20 0 l
o
np
77.04 377.34 m
-7.20 0 l
o
np
77.04 417.19 m
-7.20 0 l
o
np
77.04 457.04 m
-7.20 0 l
o
np
77.04 496.89 m
-7.20 0 l
o
59.76 337.49 (0) .5 90 t
59.76 377.34 (20) .5 90 t
59.76 417.19 (40) .5 90 t
59.76 457.04 (60) .5 90 t
59.76 496.89 (80) .5 90 t
np
77.04 332.38 m
190.36 0 l
0 191.52 l
-190.36 0 l
0 -191.52 l
o
18.00 258.94 297.64 582.94 cl
/Font2 findfont 14 s
0 0 0 srgb
172.22 548.40 (c120) .5 0 t
/Font1 findfont 12 s
172.22 263.26 (Locations plot) .5 0 t
172.22 277.66 (X) .5 0 t
30.96 428.14 (Y) .5 90 t
356.68 332.38 547.04 523.90 cl
356.68 332.38 547.04 523.90 cl
0 0 0 srgb
0.75 setlinewidth
[] 0 setdash
1 setlinecap
1 setlinejoin
10.00 setmiterlimit
np
363.73 393.22 m
2.89 0 l
0 96.72 l
2.68 0 l
0 -32.24 l
0.22 0 l
0 37.62 l
0.45 0 l
0 -42.99 l
1.11 0 l
0 48.36 l
0.22 0 l
0 -32.24 l
0.67 0 l
0 -42.99 l
1.79 0 l
0 75.23 l
3.56 0 l
0 -53.74 l
1.78 0 l
0 0 l
0 0 l
0 -10.74 l
0.23 0 l
0 21.49 l
4.01 0 l
0 5.37 l
5.57 0 l
0 -32.24 l
1.78 0 l
0 26.87 l
4.01 0 l
0 -26.87 l
2.68 0 l
0 32.24 l
3.11 0 l
0 -26.86 l
1.34 0 l
0 69.85 l
2.01 0 l
0 -16.12 l
1.56 0 l
0 -26.87 l
2.67 0 l
0 -5.37 l
1.34 0 l
0 26.87 l
3.79 0 l
0 -42.99 l
0 0 l
0 5.37 l
0.66 0 l
0 48.37 l
1.79 0 l
0 5.37 l
0.22 0 l
0 -21.49 l
3.57 0 l
0 -10.75 l
0.66 0 l
0 5.37 l
4.24 0 l
0 37.62 l
0.22 0 l
0 -21.50 l
0.45 0 l
0 26.87 l
2.89 0 l
0 -10.75 l
0.67 0 l
0 0 l
2.68 0 l
0 -75.23 l
4.45 0 l
0 21.50 l
0 0 l
0 10.74 l
0 0 l
0 -26.86 l
1.34 0 l
0 -16.13 l
0 0 l
0 32.25 l
2.00 0 l
0 -10.75 l
1.56 0 l
0 32.24 l
2.23 0 l
0 5.38 l
0.45 0 l
0 -10.75 l
0.67 0 l
0 21.49 l
3.56 0 l
0 -32.24 l
1.34 0 l
0 42.99 l
2.90 0 l
0 5.37 l
1.33 0 l
453.08 414.71 lineto
0.89 0 l
0 42.99 l
0.67 0 l
0 10.75 l
0.67 0 l
0 -5.38 l
4.46 0 l
0 -10.74 l
0.67 0 l
0 21.49 l
1.78 0 l
0 10.75 l
0.44 0 l
0 -42.99 l
2.01 0 l
0 -16.12 l
3.34 0 l
0 75.23 l
0.67 0 l
0 -64.48 l
0.89 0 l
0 53.73 l
0 0 l
0 -48.36 l
2.01 0 l
0 10.75 l
0 0 l
0 -16.12 l
0.67 0 l
0 21.49 l
1.56 0 l
0 -21.49 l
0.66 0 l
0 21.49 l
1.12 0 l
0 -5.37 l
0.67 0 l
0 -10.75 l
4.01 0 l
0 48.36 l
0.67 0 l
0 -32.24 l
0.44 0 l
0 21.50 l
0.89 0 l
0 -10.75 l
1.34 0 l
0 -128.97 l
0 0 l
0 161.21 l
0 0 l
0 -123.60 l
1.56 0 l
0 112.85 l
0.45 0 l
0 21.50 l
1.33 0 l
0 -37.62 l
0.89 0 l
0 16.12 l
3.35 0 l
0 -26.87 l
0.22 0 l
0 5.38 l
0.44 0 l
0 5.37 l
0.23 0 l
0 10.75 l
0.89 0 l
0 -16.12 l
0.67 0 l
0 -53.74 l
8.02 0 l
0 91.35 l
1.11 0 l
0 -59.11 l
0 0 l
0 -5.37 l
1.79 0 l
0 64.48 l
1.33 0 l
0 -64.48 l
0.89 0 l
0 48.36 l
0.67 0 l
0 -16.12 l
0.23 0 l
0 5.38 l
2.22 0 l
0 -10.75 l
0.89 0 l
0 -32.24 l
2.68 0 l
0 26.86 l
2.00 0 l
0 5.38 l
0 0 l
0 21.49 l
1.34 0 l
516.81 479.20 lineto
0.67 0 l
0 -10.75 l
0.67 0 l
0 -5.38 l
2.23 0 l
0 26.87 l
0.44 0 l
0 -5.37 l
0.22 0 l
0 10.75 l
0.67 0 l
0 5.37 l
2.68 0 l
0 -37.62 l
0.67 0 l
0 -5.37 l
1.56 0 l
0 32.24 l
0.44 0 l
0 0 l
4.01 0 l
0 -5.37 l
2.01 0 l
0 -16.12 l
1.11 0 l
0 -10.75 l
0.67 0 l
0 10.75 l
2.45 0 l
0 5.37 l
1.12 0 l
0 16.12 l
0 0 l
0 16.12 l
0.66 0 l
0 -85.98 l
0.90 0 l
0 37.62 l
o
18.00 258.94 577.28 582.94 cl
0 0 0 srgb
0.75 setlinewidth
[] 0 setdash
1 setlinecap
1 setlinejoin
10.00 setmiterlimit
np
363.51 332.38 m
178.26 0 l
o
np
363.51 332.38 m
0 -7.20 l
o
np
408.07 332.38 m
0 -7.20 l
o
np
452.64 332.38 m
0 -7.20 l
o
np
497.20 332.38 m
0 -7.20 l
o
np
541.77 332.38 m
0 -7.20 l
o
/Font1 findfont 12 s
363.51 306.46 (0) .5 0 t
408.07 306.46 (200) .5 0 t
452.64 306.46 (400) .5 0 t
497.20 306.46 (600) .5 0 t
541.77 306.46 (800) .5 0 t
np
356.68 339.48 m
0 161.21 l
o
np
356.68 339.48 m
-7.20 0 l
o
np
356.68 366.35 m
-7.20 0 l
o
np
356.68 393.22 m
-7.20 0 l
o
np
356.68 420.08 m
-7.20 0 l
o
np
356.68 446.95 m
-7.20 0 l
o
np
356.68 473.82 m
-7.20 0 l
o
np
356.68 500.69 m
-7.20 0 l
o
339.40 339.48 (-35) .5 90 t
339.40 393.22 (-25) .5 90 t
339.40 446.95 (-15) .5 90 t
339.40 500.69 (-5) .5 90 t
np
356.68 332.38 m
190.36 0 l
0 191.52 l
-190.36 0 l
0 -191.52 l
o
297.64 258.94 577.28 582.94 cl
/Font2 findfont 14 s
0 0 0 srgb
451.86 548.40 (c120D) .5 0 t
/Font1 findfont 12 s
451.86 263.26 (Requests time) .5 0 t
451.86 277.66 (Time) .5 0 t
310.60 428.14 (Requests) .5 90 t
ep
%%Page: 4 4
bp
77.04 332.38 267.40 523.90 cl
18.00 258.94 297.64 582.94 cl
/Font2 findfont 14 s
0 0 0 srgb
172.22 548.40 (c120) .5 0 t
/Font1 findfont 12 s
97.86 263.26 (Requests v) 0 ta
-0.300 (olume histogr) tb
-0.120 (am) tb gr
151.88 277.66 (V) 0 ta
-0.960 (olume) tb gr
30.96 387.46 (No) 90 ta
-0.480 (. of requests) tb gr
18.00 258.94 577.28 582.94 cl
0 0 0 srgb
0.75 setlinewidth
[] 0 setdash
1 setlinecap
1 setlinejoin
10.00 setmiterlimit
np
84.09 332.38 m
176.26 0 l
o
np
84.09 332.38 m
0 -7.20 l
o
np
109.27 332.38 m
0 -7.20 l
o
np
134.45 332.38 m
0 -7.20 l
o
np
159.63 332.38 m
0 -7.20 l
o
np
184.81 332.38 m
0 -7.20 l
o
np
209.99 332.38 m
0 -7.20 l
o
np
235.17 332.38 m
0 -7.20 l
o
np
260.35 332.38 m
0 -7.20 l
o
/Font1 findfont 12 s
84.09 306.46 (0) .5 0 t
109.27 306.46 (5) .5 0 t
134.45 306.46 (10) .5 0 t
159.63 306.46 (15) .5 0 t
184.81 306.46 (20) .5 0 t
209.99 306.46 (25) .5 0 t
235.17 306.46 (30) .5 0 t
260.35 306.46 (35) .5 0 t
np
77.04 339.48 m
0 164.96 l
o
np
77.04 339.48 m
-7.20 0 l
o
np
77.04 380.72 m
-7.20 0 l
o
np
77.04 421.96 m
-7.20 0 l
o
np
77.04 463.20 m
-7.20 0 l
o
np
77.04 504.44 m
-7.20 0 l
o
59.76 339.48 (0) .5 90 t
59.76 380.72 (10) .5 90 t
59.76 421.96 (20) .5 90 t
59.76 463.20 (30) .5 90 t
59.76 504.44 (40) .5 90 t
77.04 332.38 267.40 523.90 cl
0 0 0 srgb
0.75 setlinewidth
[] 0 setdash
1 setlinecap
1 setlinejoin
10.00 setmiterlimit
84.09 339.48 25.18 70.11 r p1
109.27 339.48 25.18 140.22 r p1
134.45 339.48 25.18 177.33 r p1
159.63 339.48 25.18 86.60 r p1
184.81 339.48 25.18 12.37 r p1
209.99 339.48 25.18 4.12 r p1
235.17 339.48 25.18 4.12 r p1
356.68 332.38 547.04 523.90 cl
ep
%%Trailer
%%Pages: 4
%%EOF
