%!PS-Adobe-3.0
%%DocumentNeededResources: font Helvetica
%%+ font Helvetica-Bold
%%+ font Helvetica-Oblique
%%+ font Helvetica-BoldOblique
%%+ font Symbol
%%DocumentMedia: a4 595 841 0 () ()
%%Title: R Graphics Output
%%Creator: R Software
%%Pages: (atend)
%%Orientation: Portrait
%%BoundingBox: 18 259 577 583
%%EndComments
%%BeginProlog
/bp  { gs sRGB gs } def
% begin .ps.prolog
/gs  { gsave } bind def
/gr  { grestore } bind def
/ep  { showpage gr gr } bind def
/m   { moveto } bind def
/l  { rlineto } bind def
/np  { newpath } bind def
/cp  { closepath } bind def
/f   { fill } bind def
/o   { stroke } bind def
/c   { newpath 0 360 arc } bind def
/r   { 4 2 roll moveto 1 copy 3 -1 roll exch 0 exch rlineto 0 rlineto -1 mul 0 exch rlineto closepath } bind def
/p1  { stroke } bind def
/p2  { gsave bg fill grestore newpath } bind def
/p3  { gsave bg fill grestore stroke } bind def
/p6  { gsave bg eofill grestore newpath } bind def
/p7  { gsave bg eofill grestore stroke } bind def
/t   { 5 -2 roll moveto gsave rotate
       1 index stringwidth pop
       mul neg 0 rmoveto show grestore } bind def
/ta  { 4 -2 roll moveto gsave rotate show } bind def
/tb  { 2 -1 roll 0 rmoveto show } bind def
/cl  { grestore gsave newpath 3 index 3 index moveto 1 index
       4 -1 roll lineto  exch 1 index lineto lineto
       closepath clip newpath } bind def
/rgb { setrgbcolor } bind def
/s   { scalefont setfont } bind def
% end   .ps.prolog
/sRGB { [ /CIEBasedABC
          << /DecodeLMN
               [ { dup 0.03928 le
                        {12.92321 div}
                        {0.055 add 1.055 div 2.4 exp }
                     ifelse
                 } bind dup dup
               ]
             /MatrixLMN [0.412457 0.212673 0.019334
                         0.357576 0.715152 0.119192
                         0.180437 0.072175 0.950301]
             /WhitePoint [0.9505 1.0 1.0890]
           >>
         ] setcolorspace } bind def
/srgb { setcolor } bind def
% begin encoding
/WinAnsiEncoding [
 /.notdef /.notdef /.notdef /.notdef /.notdef /.notdef /.notdef /.notdef
 /.notdef /.notdef /.notdef /.notdef /.notdef /.notdef /.notdef /.notdef
 /.notdef /.notdef /.notdef /.notdef /.notdef /.notdef /.notdef /.notdef
 /.notdef /.notdef /.notdef /.notdef /.notdef /.notdef /.notdef /.notdef
 /space /exclam /quotedbl /numbersign /dollar /percent /ampersand /quoteright
 /parenleft /parenright /asterisk /plus /comma /minus /period /slash
 /zero /one /two /three /four /five /six /seven
 /eight /nine /colon /semicolon /less /equal /greater /question
 /at /A /B /C /D /E /F /G
 /H /I /J /K /L /M /N /O
 /P /Q /R /S /T /U /V /W
 /X /Y /Z /bracketleft /backslash /bracketright /asciicircum /underscore
 /grave /a /b /c /d /e /f /g
 /h /i /j /k /l /m /n /o
 /p /q /r /s /t /u /v /w
 /x /y /z /braceleft /bar /braceright /asciitilde /.notdef
 /Euro /.notdef /quotesinglbase /florin /quotedblbase /ellipsis /dagger /daggerdbl
 /circumflex /perthousand /Scaron /guilsinglleft /OE /.notdef /Zcaron /.notdef
 /.notdef /quoteleft /quoteright /quotedblleft /quotedblright /bullet /endash /emdash
 /tilde /trademark /scaron /guilsinglright /oe /.notdef /zcaron /Ydieresis
 /space /exclamdown /cent /sterling /currency /yen /brokenbar /section
 /dieresis /copyright /ordfeminine /guillemotleft /logicalnot /hyphen /registered /macron
 /degree /plusminus /twosuperior /threesuperior /acute /mu /paragraph /periodcentered
 /cedilla /onesuperior /ordmasculine /guillemotright /onequarter /onehalf /threequarters /questiondown
 /Agrave /Aacute /Acircumflex /Atilde /Adieresis /Aring /AE /Ccedilla
 /Egrave /Eacute /Ecircumflex /Edieresis /Igrave /Iacute /Icircumflex /Idieresis
 /Eth /Ntilde /Ograve /Oacute /Ocircumflex /Otilde /Odieresis /multiply
 /Oslash /Ugrave /Uacute /Ucircumflex /Udieresis /Yacute /Thorn /germandbls
 /agrave /aacute /acircumflex /atilde /adieresis /aring /ae /ccedilla
 /egrave /eacute /ecircumflex /edieresis /igrave /iacute /icircumflex /idieresis
 /eth /ntilde /ograve /oacute /ocircumflex /otilde /odieresis /divide
 /oslash /ugrave /uacute /ucircumflex /udieresis /yacute /thorn /ydieresis
]
 def
% end encoding
%%IncludeResource: font Helvetica
/Helvetica findfont
dup length dict begin
  {1 index /FID ne {def} {pop pop} ifelse} forall
  /Encoding WinAnsiEncoding def
  currentdict
  end
/Font1 exch definefont pop
%%IncludeResource: font Helvetica-Bold
/Helvetica-Bold findfont
dup length dict begin
  {1 index /FID ne {def} {pop pop} ifelse} forall
  /Encoding WinAnsiEncoding def
  currentdict
  end
/Font2 exch definefont pop
%%IncludeResource: font Helvetica-Oblique
/Helvetica-Oblique findfont
dup length dict begin
  {1 index /FID ne {def} {pop pop} ifelse} forall
  /Encoding WinAnsiEncoding def
  currentdict
  end
/Font3 exch definefont pop
%%IncludeResource: font Helvetica-BoldOblique
/Helvetica-BoldOblique findfont
dup length dict begin
  {1 index /FID ne {def} {pop pop} ifelse} forall
  /Encoding WinAnsiEncoding def
  currentdict
  end
/Font4 exch definefont pop
%%IncludeResource: font Symbol
/Symbol findfont
dup length dict begin
  {1 index /FID ne {def} {pop pop} ifelse} forall
  currentdict
  end
/Font5 exch definefont pop
%%EndProlog
%%Page: 1 1
bp
77.04 332.38 267.40 523.90 cl
0 0 0 srgb
0.75 setlinewidth
[] 0 setdash
1 setlinecap
1 setlinejoin
10.00 setmiterlimit
189.84 449.71 2.70 c p1
173.57 373.03 2.70 c p1
227.81 440.13 2.70 c p1
227.81 380.22 2.70 c p1
119.34 404.18 2.70 c p1
146.46 404.18 2.70 c p1
132.90 452.11 2.70 c p1
105.78 435.33 2.70 c p1
227.81 476.07 2.70 c p1
160.02 476.07 2.70 c p1
132.90 488.05 2.70 c p1
214.25 416.16 2.70 c p1
160.02 392.20 2.70 c p1
119.34 356.25 2.70 c p1
160.02 344.27 2.70 c p1
105.78 380.22 2.70 c p1
92.23 404.18 2.70 c p1
132.90 428.14 2.70 c p1
119.34 476.07 2.70 c p1
200.69 488.05 2.70 c p1
200.69 380.22 2.70 c p1
200.69 356.25 2.70 c p1
227.81 344.27 2.70 c p1
254.92 416.16 2.70 c p1
254.92 380.22 2.70 c p1
200.69 404.18 2.70 c p1
173.57 428.14 2.70 c p1
189.84 420.96 2.70 c p1
252.21 432.94 2.70 c p1
187.13 476.07 2.70 c p1
162.73 456.90 2.70 c p1
173.57 497.64 2.70 c p1
222.38 456.90 2.70 c p1
254.92 464.09 2.70 c p1
249.50 488.05 2.70 c p1
84.09 476.07 2.70 c p1
132.90 380.22 2.70 c p1
92.23 344.27 2.70 c p1
241.37 361.05 2.70 c p1
187.13 392.20 2.70 c p1
192.56 349.06 2.70 c p1
143.75 361.05 2.70 c p1
141.03 339.48 2.70 c p1
108.50 365.84 2.70 c p1
94.94 423.35 2.70 c p1
84.09 447.32 2.70 c p1
100.36 466.49 2.70 c p1
113.92 456.90 2.70 c p1
94.94 495.24 2.70 c p1
206.11 444.92 2.70 c p1
211.54 471.28 2.70 c p1
151.88 435.33 2.70 c p1
179.00 406.58 2.70 c p1
233.23 401.78 2.70 c p1
249.50 387.41 2.70 c p1
222.38 361.05 2.70 c p1
165.44 361.05 2.70 c p1
176.29 394.60 2.70 c p1
135.61 389.80 2.70 c p1
124.77 413.77 2.70 c p1
111.21 389.80 2.70 c p1
143.75 471.28 2.70 c p1
151.88 497.64 2.70 c p1
119.34 516.81 2.70 c p1
246.79 516.81 2.70 c p1
211.54 507.23 2.70 c p1
260.35 344.27 2.70 c p1
230.52 425.75 2.70 c p1
179.00 444.92 2.70 c p1
179.00 466.49 2.70 c p1
233.23 495.24 2.70 c p1
206.11 370.63 2.70 c p1
197.98 373.03 2.70 c p1
203.40 363.44 2.70 c p1
211.54 358.65 2.70 c p1
211.54 432.94 2.70 c p1
222.38 435.33 2.70 c p1
244.08 456.90 2.70 c p1
233.23 447.32 2.70 c p1
230.52 420.96 2.70 c p1
227.81 461.69 2.70 c p1
119.34 444.92 2.70 c p1
116.63 420.96 2.70 c p1
108.50 406.58 2.70 c p1
122.05 385.01 2.70 c p1
89.51 375.42 2.70 c p1
154.59 375.42 2.70 c p1
149.17 456.90 2.70 c p1
149.17 416.16 2.70 c p1
162.73 492.85 2.70 c p1
119.34 377.82 2.70 c p1
138.32 385.01 2.70 c p1
127.48 389.80 2.70 c p1
149.17 396.99 2.70 c p1
146.46 389.80 2.70 c p1
138.32 396.99 2.70 c p1
146.46 382.61 2.70 c p1
130.19 382.61 2.70 c p1
132.90 394.60 2.70 c p1
127.48 375.42 2.70 c p1
179.00 456.90 2.70 c p1
211.54 449.71 2.70 c p1
219.67 485.66 2.70 c p1
132.90 394.60 2.70 c p1
187.13 404.18 2.70 c p1
135.61 444.92 2.70 c p1
124.77 483.26 2.70 c p1
162.73 480.87 2.70 c p1
219.67 411.37 2.70 c p1
216.96 382.61 2.70 c p1
192.56 430.54 2.70 c p1
162.73 408.97 2.70 c p1
92.23 392.20 2.70 c p1
111.21 432.94 2.70 c p1
176.29 370.63 2.70 c p1
219.67 430.54 2.70 c p1
151.88 387.41 2.70 c p1
124.77 411.37 2.70 c p1
113.92 363.44 2.70 c p1
233.23 471.28 2.70 c p1
246.79 432.94 2.70 c p1
192.56 468.88 2.70 c p1
122.05 468.88 2.70 c p1
100.36 456.90 2.70 c p1
97.65 423.35 2.70 c p1
151.88 495.24 2.70 c p1
160.02 447.32 2.70 c p1
195.27 492.85 2.70 c p1
235.94 447.32 2.70 c p1
235.94 396.99 2.70 c p1
179.00 497.64 2.70 c p1
181.71 442.52 2.70 c p1
203.40 356.25 2.70 c p1
244.08 411.37 2.70 c p1
246.79 483.26 2.70 c p1
249.50 497.64 2.70 c p1
165.44 385.01 2.70 c p1
200.69 416.16 2.70 c p1
238.65 368.23 2.70 c p1
92.23 346.67 2.70 c p1
105.78 373.03 2.70 c p1
135.61 356.25 2.70 c p1
92.23 485.66 2.70 c p1
160.02 368.23 2.70 c p1
184.42 356.25 2.70 c p1
165.44 425.75 2.70 c p1
146.46 408.97 2.70 c p1
146.46 464.09 2.70 c p1
208.83 399.39 2.70 c p1
230.52 420.96 2.70 c p1
18.00 258.94 577.28 582.94 cl
0 0 0 srgb
0.75 setlinewidth
[] 0 setdash
1 setlinecap
1 setlinejoin
10.00 setmiterlimit
np
78.67 332.38 m
162.70 0 l
o
np
78.67 332.38 m
0 -7.20 l
o
np
105.78 332.38 m
0 -7.20 l
o
np
132.90 332.38 m
0 -7.20 l
o
np
160.02 332.38 m
0 -7.20 l
o
np
187.13 332.38 m
0 -7.20 l
o
np
214.25 332.38 m
0 -7.20 l
o
np
241.37 332.38 m
0 -7.20 l
o
/Font1 findfont 12 s
78.67 306.46 (0) .5 0 t
105.78 306.46 (10) .5 0 t
132.90 306.46 (20) .5 0 t
160.02 306.46 (30) .5 0 t
187.13 306.46 (40) .5 0 t
214.25 306.46 (50) .5 0 t
241.37 306.46 (60) .5 0 t
np
77.04 380.22 m
0 95.85 l
o
np
77.04 380.22 m
-7.20 0 l
o
np
77.04 428.14 m
-7.20 0 l
o
np
77.04 476.07 m
-7.20 0 l
o
59.76 380.22 (20) .5 90 t
59.76 428.14 (40) .5 90 t
59.76 476.07 (60) .5 90 t
np
77.04 332.38 m
190.36 0 l
0 191.52 l
-190.36 0 l
0 -191.52 l
o
18.00 258.94 297.64 582.94 cl
/Font2 findfont 14 s
0 0 0 srgb
172.22 548.40 (c150) .5 0 t
/Font1 findfont 12 s
172.22 263.26 (Locations plot) .5 0 t
172.22 277.66 (X) .5 0 t
30.96 428.14 (Y) .5 90 t
356.68 332.38 547.04 523.90 cl
356.68 332.38 547.04 523.90 cl
0 0 0 srgb
0.75 setlinewidth
[] 0 setdash
1 setlinecap
1 setlinejoin
10.00 setmiterlimit
np
363.73 476.91 m
0.45 0 l
0 13.30 l
0.44 0 l
0 -26.60 l
0.90 0 l
0 -26.60 l
0.89 0 l
0 -31.03 l
0.90 0 l
0 101.96 l
1.79 0 l
0 -8.86 l
2.23 0 l
0 -17.74 l
0 0 l
0 -31.03 l
0.90 0 l
0 0 l
0 0 l
0 17.73 l
1.34 0 l
0 -31.03 l
2.24 0 l
0 -17.73 l
1.34 0 l
0 13.30 l
1.34 0 l
0 53.20 l
2.24 0 l
0 -48.77 l
1.79 0 l
0 75.37 l
0 0 l
0 -44.34 l
3.13 0 l
0 -22.16 l
0.45 0 l
0 35.46 l
2.68 0 l
0 -8.86 l
0.89 0 l
0 -31.04 l
0.45 0 l
0 -48.76 l
0.45 0 l
0 115.26 l
0.89 0 l
0 -13.30 l
0.90 0 l
0 -48.76 l
1.34 0 l
0 4.43 l
0.45 0 l
0 0 l
0 0 l
0 31.03 l
1.79 0 l
0 -53.20 l
0.44 0 l
0 -26.60 l
1.79 0 l
0 17.74 l
1.35 0 l
0 53.20 l
0 0 l
0 -13.30 l
1.34 0 l
0 26.60 l
1.34 0 l
0 13.30 l
1.34 0 l
0 -13.30 l
1.34 0 l
0 -35.47 l
0.90 0 l
0 -66.50 l
0.89 0 l
0 97.53 l
0.45 0 l
0 17.74 l
1.34 0 l
0 0 l
2.24 0 l
0 -8.87 l
0.45 0 l
0 -48.77 l
1.34 0 l
0 8.87 l
2.24 0 l
0 66.50 l
0.44 0 l
0 -115.27 l
0 0 l
0 -39.90 l
0.45 0 l
0 26.60 l
1.34 0 l
0 75.37 l
0.90 0 l
417.86 476.91 lineto
1.34 0 l
0 4.43 l
0.45 0 l
0 -22.16 l
0.89 0 l
0 -17.74 l
4.92 0 l
0 70.94 l
0 0 l
0 -17.74 l
0.90 0 l
0 -4.43 l
3.13 0 l
0 -48.77 l
2.68 0 l
0 -44.33 l
5.82 0 l
0 110.83 l
0.45 0 l
0 -44.33 l
1.79 0 l
0 -26.60 l
2.68 0 l
0 39.90 l
0 0 l
0 4.43 l
0.45 0 l
0 -48.76 l
1.79 0 l
0 -22.17 l
2.23 0 l
0 0 l
0.90 0 l
0 -48.77 l
0.45 0 l
0 133.00 l
1.78 0 l
0 4.44 l
1.79 0 l
0 -44.34 l
0 0 l
0 -44.33 l
0.45 0 l
0 70.93 l
1.34 0 l
0 4.44 l
0 0 l
0 -44.34 l
2.24 0 l
0 22.17 l
0.89 0 l
0 -4.43 l
1.79 0 l
0 48.76 l
6.27 0 l
0 -88.66 l
1.34 0 l
0 75.36 l
0 0 l
0 -88.66 l
0.45 0 l
0 44.33 l
0.44 0 l
0 22.17 l
3.58 0 l
0 17.73 l
1.79 0 l
0 -150.73 l
3.58 0 l
0 26.60 l
2.24 0 l
0 39.90 l
0.45 0 l
0 75.36 l
0 0 l
0 -26.60 l
0.89 0 l
0 53.20 l
0 0 l
0 8.87 l
0.45 0 l
0 -4.43 l
0.89 0 l
0 -88.67 l
3.13 0 l
0 -22.17 l
0 0 l
0 31.04 l
1.79 0 l
0 39.90 l
0 0 l
0 -4.44 l
0.45 0 l
0 8.87 l
1.79 0 l
0 4.43 l
0 0 l
0 -35.46 l
0.89 0 l
489.43 490.21 lineto
1.35 0 l
0 -101.97 l
0 0 l
0 62.07 l
0 0 l
0 31.03 l
0.89 0 l
0 -53.20 l
1.79 0 l
0 26.60 l
0.90 0 l
0 -17.73 l
0 0 l
0 -17.73 l
0.89 0 l
0 53.20 l
0.45 0 l
0 26.60 l
0.89 0 l
0 -62.07 l
0 0 l
0 -44.33 l
4.48 0 l
0 26.60 l
4.47 0 l
0 8.86 l
0.45 0 l
0 48.77 l
1.79 0 l
0 -22.17 l
0.89 0 l
0 53.20 l
0.90 0 l
0 -168.46 l
0.89 0 l
0 141.86 l
1.79 0 l
0 -84.23 l
1.79 0 l
0 88.67 l
0.89 0 l
0 0 l
0 0 l
0 -35.47 l
0.90 0 l
0 26.60 l
0.89 0 l
0 -79.80 l
0 0 l
0 93.10 l
0 0 l
0 -35.47 l
0.45 0 l
0 4.44 l
1.34 0 l
0 35.46 l
0.45 0 l
0 -57.63 l
0.45 0 l
0 35.47 l
0.44 0 l
0 -4.44 l
0.90 0 l
0 -48.76 l
1.79 0 l
0 -13.30 l
1.34 0 l
0 39.90 l
0.45 0 l
0 48.76 l
1.34 0 l
0 -13.30 l
0.45 0 l
0 -26.60 l
0 0 l
0 4.44 l
2.23 0 l
0 31.03 l
0.90 0 l
0 -88.67 l
0 0 l
0 62.07 l
0.45 0 l
0 8.87 l
1.34 0 l
0 -22.17 l
1.79 0 l
0 26.60 l
1.34 0 l
0 22.17 l
1.79 0 l
0 -88.67 l
0.89 0 l
0 35.47 l
2.69 0 l
0 -4.44 l
0.45 0 l
0 35.47 l
o
18.00 258.94 577.28 582.94 cl
0 0 0 srgb
0.75 setlinewidth
[] 0 setdash
1 setlinecap
1 setlinejoin
10.00 setmiterlimit
np
362.39 332.38 m
178.94 0 l
o
np
362.39 332.38 m
0 -7.20 l
o
np
407.12 332.38 m
0 -7.20 l
o
np
451.86 332.38 m
0 -7.20 l
o
np
496.59 332.38 m
0 -7.20 l
o
np
541.33 332.38 m
0 -7.20 l
o
/Font1 findfont 12 s
362.39 306.46 (0) .5 0 t
407.12 306.46 (100) .5 0 t
451.86 306.46 (200) .5 0 t
496.59 306.46 (300) .5 0 t
541.33 306.46 (400) .5 0 t
np
356.68 343.91 m
0 177.33 l
o
np
356.68 343.91 m
-7.20 0 l
o
np
356.68 388.24 m
-7.20 0 l
o
np
356.68 432.58 m
-7.20 0 l
o
np
356.68 476.91 m
-7.20 0 l
o
np
356.68 521.24 m
-7.20 0 l
o
339.40 343.91 (-40) .5 90 t
339.40 388.24 (-30) .5 90 t
339.40 432.58 (-20) .5 90 t
339.40 476.91 (-10) .5 90 t
339.40 521.24 (0) .5 90 t
np
356.68 332.38 m
190.36 0 l
0 191.52 l
-190.36 0 l
0 -191.52 l
o
297.64 258.94 577.28 582.94 cl
/Font2 findfont 14 s
0 0 0 srgb
451.86 548.40 (c150D) .5 0 t
/Font1 findfont 12 s
451.86 263.26 (Requests time) .5 0 t
451.86 277.66 (Time) .5 0 t
310.60 428.14 (Requests) .5 90 t
ep
%%Page: 2 2
bp
77.04 332.38 267.40 523.90 cl
18.00 258.94 297.64 582.94 cl
/Font2 findfont 14 s
0 0 0 srgb
172.22 548.40 (c150) .5 0 t
/Font1 findfont 12 s
97.86 263.26 (Requests v) 0 ta
-0.300 (olume histogr) tb
-0.120 (am) tb gr
151.88 277.66 (V) 0 ta
-0.960 (olume) tb gr
30.96 387.46 (No) 90 ta
-0.480 (. of requests) tb gr
18.00 258.94 577.28 582.94 cl
0 0 0 srgb
0.75 setlinewidth
[] 0 setdash
1 setlinecap
1 setlinejoin
10.00 setmiterlimit
np
84.09 332.38 m
156.67 0 l
o
np
84.09 332.38 m
0 -7.20 l
o
np
123.26 332.38 m
0 -7.20 l
o
np
162.43 332.38 m
0 -7.20 l
o
np
201.60 332.38 m
0 -7.20 l
o
np
240.76 332.38 m
0 -7.20 l
o
/Font1 findfont 12 s
84.09 306.46 (0) .5 0 t
123.26 306.46 (10) .5 0 t
162.43 306.46 (20) .5 0 t
201.60 306.46 (30) .5 0 t
240.76 306.46 (40) .5 0 t
np
77.04 339.48 m
0 181.88 l
o
np
77.04 339.48 m
-7.20 0 l
o
np
77.04 384.95 m
-7.20 0 l
o
np
77.04 430.42 m
-7.20 0 l
o
np
77.04 475.89 m
-7.20 0 l
o
np
77.04 521.36 m
-7.20 0 l
o
59.76 339.48 (0) .5 90 t
59.76 384.95 (10) .5 90 t
59.76 430.42 (20) .5 90 t
59.76 475.89 (30) .5 90 t
59.76 521.36 (40) .5 90 t
77.04 332.38 267.40 523.90 cl
0 0 0 srgb
0.75 setlinewidth
[] 0 setdash
1 setlinecap
1 setlinejoin
10.00 setmiterlimit
84.09 339.48 19.58 81.85 r p1
103.67 339.48 19.58 177.33 r p1
123.26 339.48 19.58 122.77 r p1
142.84 339.48 19.58 140.96 r p1
162.43 339.48 19.58 63.66 r p1
182.01 339.48 19.58 68.21 r p1
201.60 339.48 19.58 9.09 r p1
221.18 339.48 19.58 9.09 r p1
240.76 339.48 19.58 9.09 r p1
ep
%%Page: 3 3
bp
77.04 332.38 267.40 523.90 cl
77.04 332.38 267.40 523.90 cl
0 0 0 srgb
0.75 setlinewidth
[] 0 setdash
1 setlinecap
1 setlinejoin
10.00 setmiterlimit
189.84 449.71 2.70 c p1
173.57 373.03 2.70 c p1
227.81 440.13 2.70 c p1
227.81 380.22 2.70 c p1
119.34 404.18 2.70 c p1
146.46 404.18 2.70 c p1
132.90 452.11 2.70 c p1
105.78 435.33 2.70 c p1
227.81 476.07 2.70 c p1
160.02 476.07 2.70 c p1
132.90 488.05 2.70 c p1
214.25 416.16 2.70 c p1
160.02 392.20 2.70 c p1
119.34 356.25 2.70 c p1
160.02 344.27 2.70 c p1
105.78 380.22 2.70 c p1
92.23 404.18 2.70 c p1
132.90 428.14 2.70 c p1
119.34 476.07 2.70 c p1
200.69 488.05 2.70 c p1
200.69 380.22 2.70 c p1
200.69 356.25 2.70 c p1
227.81 344.27 2.70 c p1
254.92 416.16 2.70 c p1
254.92 380.22 2.70 c p1
200.69 404.18 2.70 c p1
173.57 428.14 2.70 c p1
189.84 420.96 2.70 c p1
252.21 432.94 2.70 c p1
187.13 476.07 2.70 c p1
162.73 456.90 2.70 c p1
173.57 497.64 2.70 c p1
222.38 456.90 2.70 c p1
254.92 464.09 2.70 c p1
249.50 488.05 2.70 c p1
84.09 476.07 2.70 c p1
132.90 380.22 2.70 c p1
92.23 344.27 2.70 c p1
241.37 361.05 2.70 c p1
187.13 392.20 2.70 c p1
192.56 349.06 2.70 c p1
143.75 361.05 2.70 c p1
141.03 339.48 2.70 c p1
108.50 365.84 2.70 c p1
94.94 423.35 2.70 c p1
84.09 447.32 2.70 c p1
100.36 466.49 2.70 c p1
113.92 456.90 2.70 c p1
94.94 495.24 2.70 c p1
206.11 444.92 2.70 c p1
211.54 471.28 2.70 c p1
151.88 435.33 2.70 c p1
179.00 406.58 2.70 c p1
233.23 401.78 2.70 c p1
249.50 387.41 2.70 c p1
222.38 361.05 2.70 c p1
165.44 361.05 2.70 c p1
176.29 394.60 2.70 c p1
135.61 389.80 2.70 c p1
124.77 413.77 2.70 c p1
111.21 389.80 2.70 c p1
143.75 471.28 2.70 c p1
151.88 497.64 2.70 c p1
119.34 516.81 2.70 c p1
246.79 516.81 2.70 c p1
211.54 507.23 2.70 c p1
260.35 344.27 2.70 c p1
230.52 425.75 2.70 c p1
179.00 444.92 2.70 c p1
179.00 466.49 2.70 c p1
233.23 495.24 2.70 c p1
206.11 370.63 2.70 c p1
197.98 373.03 2.70 c p1
203.40 363.44 2.70 c p1
211.54 358.65 2.70 c p1
211.54 432.94 2.70 c p1
222.38 435.33 2.70 c p1
244.08 456.90 2.70 c p1
233.23 447.32 2.70 c p1
230.52 420.96 2.70 c p1
227.81 461.69 2.70 c p1
119.34 444.92 2.70 c p1
116.63 420.96 2.70 c p1
108.50 406.58 2.70 c p1
122.05 385.01 2.70 c p1
89.51 375.42 2.70 c p1
154.59 375.42 2.70 c p1
149.17 456.90 2.70 c p1
149.17 416.16 2.70 c p1
162.73 492.85 2.70 c p1
119.34 377.82 2.70 c p1
138.32 385.01 2.70 c p1
127.48 389.80 2.70 c p1
149.17 396.99 2.70 c p1
146.46 389.80 2.70 c p1
138.32 396.99 2.70 c p1
146.46 382.61 2.70 c p1
130.19 382.61 2.70 c p1
132.90 394.60 2.70 c p1
127.48 375.42 2.70 c p1
179.00 456.90 2.70 c p1
211.54 449.71 2.70 c p1
219.67 485.66 2.70 c p1
132.90 394.60 2.70 c p1
187.13 404.18 2.70 c p1
135.61 444.92 2.70 c p1
124.77 483.26 2.70 c p1
162.73 480.87 2.70 c p1
219.67 411.37 2.70 c p1
216.96 382.61 2.70 c p1
192.56 430.54 2.70 c p1
162.73 408.97 2.70 c p1
92.23 392.20 2.70 c p1
111.21 432.94 2.70 c p1
176.29 370.63 2.70 c p1
219.67 430.54 2.70 c p1
151.88 387.41 2.70 c p1
124.77 411.37 2.70 c p1
113.92 363.44 2.70 c p1
233.23 471.28 2.70 c p1
246.79 432.94 2.70 c p1
192.56 468.88 2.70 c p1
122.05 468.88 2.70 c p1
100.36 456.90 2.70 c p1
97.65 423.35 2.70 c p1
151.88 495.24 2.70 c p1
160.02 447.32 2.70 c p1
195.27 492.85 2.70 c p1
235.94 447.32 2.70 c p1
235.94 396.99 2.70 c p1
179.00 497.64 2.70 c p1
181.71 442.52 2.70 c p1
203.40 356.25 2.70 c p1
244.08 411.37 2.70 c p1
246.79 483.26 2.70 c p1
249.50 497.64 2.70 c p1
165.44 385.01 2.70 c p1
200.69 416.16 2.70 c p1
238.65 368.23 2.70 c p1
92.23 346.67 2.70 c p1
105.78 373.03 2.70 c p1
135.61 356.25 2.70 c p1
92.23 485.66 2.70 c p1
160.02 368.23 2.70 c p1
184.42 356.25 2.70 c p1
165.44 425.75 2.70 c p1
146.46 408.97 2.70 c p1
146.46 464.09 2.70 c p1
208.83 399.39 2.70 c p1
230.52 420.96 2.70 c p1
138.32 385.01 2.70 c p1
176.29 394.60 2.70 c p1
135.61 440.13 2.70 c p1
200.69 416.16 2.70 c p1
227.81 380.22 2.70 c p1
168.15 413.77 2.70 c p1
214.25 452.11 2.70 c p1
227.81 440.13 2.70 c p1
149.17 473.68 2.70 c p1
187.13 490.45 2.70 c p1
227.81 488.05 2.70 c p1
173.57 454.51 2.70 c p1
246.79 416.16 2.70 c p1
246.79 468.88 2.70 c p1
246.79 389.80 2.70 c p1
135.61 418.56 2.70 c p1
168.15 437.73 2.70 c p1
103.07 466.49 2.70 c p1
246.79 447.32 2.70 c p1
257.64 365.84 2.70 c p1
197.98 363.44 2.70 c p1
149.17 363.44 2.70 c p1
108.50 399.39 2.70 c p1
97.65 435.33 2.70 c p1
124.77 485.66 2.70 c p1
189.84 442.52 2.70 c p1
227.81 413.77 2.70 c p1
173.57 370.63 2.70 c p1
219.67 394.60 2.70 c p1
195.27 394.60 2.70 c p1
162.73 514.42 2.70 c p1
138.32 459.30 2.70 c p1
149.17 401.78 2.70 c p1
214.25 428.14 2.70 c p1
227.81 452.11 2.70 c p1
225.10 356.25 2.70 c p1
241.37 368.23 2.70 c p1
206.11 490.45 2.70 c p1
160.02 476.07 2.70 c p1
160.02 452.11 2.70 c p1
111.21 373.03 2.70 c p1
119.34 365.84 2.70 c p1
122.05 377.82 2.70 c p1
135.61 447.32 2.70 c p1
214.25 404.18 2.70 c p1
216.96 432.94 2.70 c p1
214.25 368.23 2.70 c p1
208.83 382.61 2.70 c p1
111.21 423.35 2.70 c p1
18.00 258.94 577.28 582.94 cl
0 0 0 srgb
0.75 setlinewidth
[] 0 setdash
1 setlinecap
1 setlinejoin
10.00 setmiterlimit
np
78.67 332.38 m
162.70 0 l
o
np
78.67 332.38 m
0 -7.20 l
o
np
105.78 332.38 m
0 -7.20 l
o
np
132.90 332.38 m
0 -7.20 l
o
np
160.02 332.38 m
0 -7.20 l
o
np
187.13 332.38 m
0 -7.20 l
o
np
214.25 332.38 m
0 -7.20 l
o
np
241.37 332.38 m
0 -7.20 l
o
/Font1 findfont 12 s
78.67 306.46 (0) .5 0 t
105.78 306.46 (10) .5 0 t
132.90 306.46 (20) .5 0 t
160.02 306.46 (30) .5 0 t
187.13 306.46 (40) .5 0 t
214.25 306.46 (50) .5 0 t
241.37 306.46 (60) .5 0 t
np
77.04 380.22 m
0 95.85 l
o
np
77.04 380.22 m
-7.20 0 l
o
np
77.04 428.14 m
-7.20 0 l
o
np
77.04 476.07 m
-7.20 0 l
o
59.76 380.22 (20) .5 90 t
59.76 428.14 (40) .5 90 t
59.76 476.07 (60) .5 90 t
np
77.04 332.38 m
190.36 0 l
0 191.52 l
-190.36 0 l
0 -191.52 l
o
18.00 258.94 297.64 582.94 cl
/Font2 findfont 14 s
0 0 0 srgb
172.22 548.40 (c199) .5 0 t
/Font1 findfont 12 s
172.22 263.26 (Locations plot) .5 0 t
172.22 277.66 (X) .5 0 t
30.96 428.14 (Y) .5 90 t
356.68 332.38 547.04 523.90 cl
356.68 332.38 547.04 523.90 cl
0 0 0 srgb
0.75 setlinewidth
[] 0 setdash
1 setlinecap
1 setlinejoin
10.00 setmiterlimit
np
363.73 476.91 m
0.45 0 l
0 13.30 l
0.90 0 l
0 -26.60 l
0.90 0 l
0 -26.60 l
0 0 l
0 -31.03 l
0.45 0 l
0 101.96 l
1.79 0 l
0 -8.86 l
1.35 0 l
0 -17.74 l
0 0 l
0 -31.03 l
1.80 0 l
0 0 l
0.45 0 l
0 17.73 l
0.45 0 l
0 -31.03 l
0 0 l
0 -17.73 l
2.25 0 l
0 13.30 l
0.45 0 l
0 53.20 l
0 0 l
0 -48.77 l
0 0 l
0 75.37 l
2.25 0 l
0 -44.34 l
0.90 0 l
0 -22.16 l
0.45 0 l
0 35.46 l
0 0 l
0 -8.86 l
2.24 0 l
0 -31.04 l
0.45 0 l
0 -48.76 l
0 0 l
0 115.26 l
1.80 0 l
0 -13.30 l
0.45 0 l
0 -48.76 l
0.90 0 l
0 4.43 l
0.45 0 l
0 0 l
0.45 0 l
0 31.03 l
0.90 0 l
0 -53.20 l
0.90 0 l
0 -26.60 l
0 0 l
0 17.74 l
0.45 0 l
0 53.20 l
0.90 0 l
0 -13.30 l
0.45 0 l
0 26.60 l
0.90 0 l
0 13.30 l
1.35 0 l
0 -13.30 l
0.45 0 l
0 -35.47 l
1.34 0 l
0 -66.50 l
0.45 0 l
0 97.53 l
0 0 l
0 17.74 l
0 0 l
0 0 l
0.90 0 l
0 -8.87 l
0.45 0 l
0 -48.77 l
1.35 0 l
0 8.87 l
0 0 l
0 66.50 l
1.80 0 l
0 -115.27 l
0.90 0 l
0 -39.90 l
3.15 0 l
0 26.60 l
2.25 0 l
0 75.37 l
0.44 0 l
404.64 476.91 lineto
0 0 l
0 4.43 l
3.15 0 l
0 -22.16 l
0.90 0 l
0 -17.74 l
1.80 0 l
0 70.94 l
3.15 0 l
0 -17.74 l
0.90 0 l
0 -4.43 l
1.35 0 l
0 -48.77 l
0.90 0 l
0 -44.33 l
0 0 l
0 110.83 l
1.79 0 l
0 -44.33 l
0 0 l
0 -26.60 l
0.90 0 l
0 39.90 l
0 0 l
0 4.43 l
2.25 0 l
0 -48.76 l
0.45 0 l
0 -22.17 l
0 0 l
0 0 l
0.90 0 l
0 -48.77 l
0.45 0 l
0 133.00 l
1.35 0 l
0 4.44 l
0.90 0 l
0 -44.34 l
2.25 0 l
0 -44.33 l
0.45 0 l
0 70.93 l
0 0 l
0 4.44 l
0.89 0 l
0 -44.34 l
0.45 0 l
0 22.17 l
0.45 0 l
0 -4.43 l
1.80 0 l
0 48.76 l
2.25 0 l
0 -88.66 l
0.45 0 l
0 75.36 l
0.90 0 l
0 -88.66 l
0.45 0 l
0 44.33 l
1.35 0 l
0 22.17 l
0.90 0 l
0 17.73 l
0 0 l
0 -150.73 l
1.35 0 l
0 26.60 l
3.59 0 l
0 39.90 l
0.45 0 l
0 75.36 l
4.95 0 l
0 -26.60 l
0.45 0 l
0 53.20 l
0.45 0 l
0 8.87 l
1.35 0 l
0 -4.43 l
0 0 l
0 -88.67 l
0.90 0 l
0 -22.17 l
1.80 0 l
0 31.04 l
1.79 0 l
0 39.90 l
0.45 0 l
0 -4.44 l
0 0 l
0 8.87 l
0 0 l
0 4.43 l
0.90 0 l
0 -35.46 l
0.90 0 l
457.70 490.21 lineto
1.35 0 l
0 -101.97 l
1.35 0 l
0 62.07 l
1.35 0 l
0 31.03 l
2.25 0 l
0 -53.20 l
0.90 0 l
0 26.60 l
3.14 0 l
0 -17.73 l
1.80 0 l
0 -17.73 l
2.25 0 l
0 53.20 l
1.80 0 l
0 26.60 l
0.45 0 l
0 -62.07 l
0 0 l
0 -44.33 l
0 0 l
0 26.60 l
3.60 0 l
0 8.86 l
0.45 0 l
0 48.77 l
0 0 l
0 -22.17 l
0.89 0 l
0 53.20 l
0.45 0 l
0 -168.46 l
2.25 0 l
0 141.86 l
0 0 l
0 -84.23 l
0.90 0 l
0 88.67 l
0.45 0 l
0 0 l
0.90 0 l
0 -35.47 l
0.45 0 l
0 26.60 l
0 0 l
0 -79.80 l
1.80 0 l
0 93.10 l
0.45 0 l
0 -35.47 l
0.45 0 l
0 4.44 l
1.80 0 l
0 35.46 l
0 0 l
0 -57.63 l
1.35 0 l
0 35.47 l
0.45 0 l
0 -4.44 l
0.89 0 l
0 -48.76 l
0.45 0 l
0 -13.30 l
0.45 0 l
0 39.90 l
1.35 0 l
0 48.76 l
0 0 l
0 -13.30 l
2.70 0 l
0 -26.60 l
0.45 0 l
0 4.44 l
0 0 l
0 31.03 l
1.80 0 l
0 -88.67 l
0.45 0 l
0 62.07 l
0.90 0 l
0 8.87 l
0 0 l
0 -22.17 l
1.35 0 l
0 26.60 l
0.45 0 l
0 22.17 l
0.45 0 l
0 -88.67 l
0.89 0 l
0 35.47 l
0.45 0 l
0 -4.44 l
2.70 0 l
0 35.47 l
0.45 0 l
507.16 441.44 lineto
0.90 0 l
0 -35.46 l
0 0 l
0 66.50 l
1.35 0 l
0 -84.24 l
1.35 0 l
0 39.90 l
0.90 0 l
0 8.87 l
0 0 l
0 17.73 l
2.25 0 l
0 -4.43 l
0.45 0 l
0 -57.63 l
0 0 l
0 13.30 l
0.45 0 l
0 -48.77 l
0.45 0 l
0 93.10 l
0 0 l
0 17.73 l
0.89 0 l
0 -84.23 l
0.45 0 l
0 101.97 l
0.45 0 l
0 -48.77 l
0.90 0 l
0 -4.43 l
0.45 0 l
0 31.03 l
0.45 0 l
0 -8.87 l
0.45 0 l
0 -31.03 l
0 0 l
0 -26.60 l
0.45 0 l
0 70.93 l
1.80 0 l
0 26.60 l
0.90 0 l
0 -93.10 l
0.45 0 l
0 57.64 l
0.45 0 l
0 -17.74 l
0.90 0 l
0 4.44 l
2.70 0 l
0 -53.20 l
0 0 l
0 70.93 l
0.45 0 l
0 -39.90 l
0 0 l
0 -13.30 l
1.34 0 l
0 -13.30 l
0.45 0 l
0 4.43 l
1.35 0 l
0 35.47 l
0 0 l
0 39.90 l
1.80 0 l
0 -8.87 l
0.45 0 l
0 -8.86 l
1.80 0 l
0 -44.34 l
0.90 0 l
0 35.47 l
0 0 l
0 -75.37 l
0 0 l
0 79.80 l
0 0 l
0 17.74 l
0.45 0 l
0 -31.04 l
1.80 0 l
0 4.44 l
0.45 0 l
0 -17.74 l
0 0 l
0 -26.60 l
0.90 0 l
0 35.47 l
0.90 0 l
0 -4.43 l
0 0 l
0 66.50 l
o
18.00 258.94 577.28 582.94 cl
0 0 0 srgb
0.75 setlinewidth
[] 0 setdash
1 setlinecap
1 setlinejoin
10.00 setmiterlimit
np
363.73 332.38 m
179.85 0 l
o
np
363.73 332.38 m
0 -7.20 l
o
np
408.69 332.38 m
0 -7.20 l
o
np
453.66 332.38 m
0 -7.20 l
o
np
498.62 332.38 m
0 -7.20 l
o
np
543.58 332.38 m
0 -7.20 l
o
/Font1 findfont 12 s
363.73 306.46 (0) .5 0 t
408.69 306.46 (100) .5 0 t
453.66 306.46 (200) .5 0 t
498.62 306.46 (300) .5 0 t
543.58 306.46 (400) .5 0 t
np
356.68 343.91 m
0 177.33 l
o
np
356.68 343.91 m
-7.20 0 l
o
np
356.68 388.24 m
-7.20 0 l
o
np
356.68 432.58 m
-7.20 0 l
o
np
356.68 476.91 m
-7.20 0 l
o
np
356.68 521.24 m
-7.20 0 l
o
339.40 343.91 (-40) .5 90 t
339.40 388.24 (-30) .5 90 t
339.40 432.58 (-20) .5 90 t
339.40 476.91 (-10) .5 90 t
339.40 521.24 (0) .5 90 t
np
356.68 332.38 m
190.36 0 l
0 191.52 l
-190.36 0 l
0 -191.52 l
o
297.64 258.94 577.28 582.94 cl
/Font2 findfont 14 s
0 0 0 srgb
451.86 548.40 (c199D) .5 0 t
/Font1 findfont 12 s
451.86 263.26 (Requests time) .5 0 t
451.86 277.66 (Time) .5 0 t
310.60 428.14 (Requests) .5 90 t
ep
%%Page: 4 4
bp
77.04 332.38 267.40 523.90 cl
18.00 258.94 297.64 582.94 cl
/Font2 findfont 14 s
0 0 0 srgb
172.22 548.40 (c199) .5 0 t
/Font1 findfont 12 s
97.86 263.26 (Requests v) 0 ta
-0.300 (olume histogr) tb
-0.120 (am) tb gr
151.88 277.66 (V) 0 ta
-0.960 (olume) tb gr
30.96 387.46 (No) 90 ta
-0.480 (. of requests) tb gr
18.00 258.94 577.28 582.94 cl
0 0 0 srgb
0.75 setlinewidth
[] 0 setdash
1 setlinecap
1 setlinejoin
10.00 setmiterlimit
np
84.09 332.38 m
156.67 0 l
o
np
84.09 332.38 m
0 -7.20 l
o
np
123.26 332.38 m
0 -7.20 l
o
np
162.43 332.38 m
0 -7.20 l
o
np
201.60 332.38 m
0 -7.20 l
o
np
240.76 332.38 m
0 -7.20 l
o
/Font1 findfont 12 s
84.09 306.46 (0) .5 0 t
123.26 306.46 (10) .5 0 t
162.43 306.46 (20) .5 0 t
201.60 306.46 (30) .5 0 t
240.76 306.46 (40) .5 0 t
np
77.04 339.48 m
0 157.63 l
o
np
77.04 339.48 m
-7.20 0 l
o
np
77.04 378.89 m
-7.20 0 l
o
np
77.04 418.29 m
-7.20 0 l
o
np
77.04 457.70 m
-7.20 0 l
o
np
77.04 497.11 m
-7.20 0 l
o
59.76 339.48 (0) .5 90 t
59.76 378.89 (10) .5 90 t
59.76 418.29 (20) .5 90 t
59.76 457.70 (30) .5 90 t
59.76 497.11 (40) .5 90 t
77.04 332.38 267.40 523.90 cl
0 0 0 srgb
0.75 setlinewidth
[] 0 setdash
1 setlinecap
1 setlinejoin
10.00 setmiterlimit
84.09 339.48 19.58 74.87 r p1
103.67 339.48 19.58 165.51 r p1
123.26 339.48 19.58 153.69 r p1
142.84 339.48 19.58 177.33 r p1
162.43 339.48 19.58 78.81 r p1
182.01 339.48 19.58 98.52 r p1
201.60 339.48 19.58 15.76 r p1
221.18 339.48 19.58 11.82 r p1
240.76 339.48 19.58 7.88 r p1
356.68 332.38 547.04 523.90 cl
ep
%%Trailer
%%Pages: 4
%%EOF
