%!PS-Adobe-3.0
%%DocumentNeededResources: font Helvetica
%%+ font Helvetica-Bold
%%+ font Helvetica-Oblique
%%+ font Helvetica-BoldOblique
%%+ font Symbol
%%DocumentMedia: a4 595 841 0 () ()
%%Title: R Graphics Output
%%Creator: R Software
%%Pages: (atend)
%%Orientation: Portrait
%%BoundingBox: 18 259 577 583
%%EndComments
%%BeginProlog
/bp  { gs sRGB gs } def
% begin .ps.prolog
/gs  { gsave } bind def
/gr  { grestore } bind def
/ep  { showpage gr gr } bind def
/m   { moveto } bind def
/l  { rlineto } bind def
/np  { newpath } bind def
/cp  { closepath } bind def
/f   { fill } bind def
/o   { stroke } bind def
/c   { newpath 0 360 arc } bind def
/r   { 4 2 roll moveto 1 copy 3 -1 roll exch 0 exch rlineto 0 rlineto -1 mul 0 exch rlineto closepath } bind def
/p1  { stroke } bind def
/p2  { gsave bg fill grestore newpath } bind def
/p3  { gsave bg fill grestore stroke } bind def
/p6  { gsave bg eofill grestore newpath } bind def
/p7  { gsave bg eofill grestore stroke } bind def
/t   { 5 -2 roll moveto gsave rotate
       1 index stringwidth pop
       mul neg 0 rmoveto show grestore } bind def
/ta  { 4 -2 roll moveto gsave rotate show } bind def
/tb  { 2 -1 roll 0 rmoveto show } bind def
/cl  { grestore gsave newpath 3 index 3 index moveto 1 index
       4 -1 roll lineto  exch 1 index lineto lineto
       closepath clip newpath } bind def
/rgb { setrgbcolor } bind def
/s   { scalefont setfont } bind def
% end   .ps.prolog
/sRGB { [ /CIEBasedABC
          << /DecodeLMN
               [ { dup 0.03928 le
                        {12.92321 div}
                        {0.055 add 1.055 div 2.4 exp }
                     ifelse
                 } bind dup dup
               ]
             /MatrixLMN [0.412457 0.212673 0.019334
                         0.357576 0.715152 0.119192
                         0.180437 0.072175 0.950301]
             /WhitePoint [0.9505 1.0 1.0890]
           >>
         ] setcolorspace } bind def
/srgb { setcolor } bind def
% begin encoding
/WinAnsiEncoding [
 /.notdef /.notdef /.notdef /.notdef /.notdef /.notdef /.notdef /.notdef
 /.notdef /.notdef /.notdef /.notdef /.notdef /.notdef /.notdef /.notdef
 /.notdef /.notdef /.notdef /.notdef /.notdef /.notdef /.notdef /.notdef
 /.notdef /.notdef /.notdef /.notdef /.notdef /.notdef /.notdef /.notdef
 /space /exclam /quotedbl /numbersign /dollar /percent /ampersand /quoteright
 /parenleft /parenright /asterisk /plus /comma /minus /period /slash
 /zero /one /two /three /four /five /six /seven
 /eight /nine /colon /semicolon /less /equal /greater /question
 /at /A /B /C /D /E /F /G
 /H /I /J /K /L /M /N /O
 /P /Q /R /S /T /U /V /W
 /X /Y /Z /bracketleft /backslash /bracketright /asciicircum /underscore
 /grave /a /b /c /d /e /f /g
 /h /i /j /k /l /m /n /o
 /p /q /r /s /t /u /v /w
 /x /y /z /braceleft /bar /braceright /asciitilde /.notdef
 /Euro /.notdef /quotesinglbase /florin /quotedblbase /ellipsis /dagger /daggerdbl
 /circumflex /perthousand /Scaron /guilsinglleft /OE /.notdef /Zcaron /.notdef
 /.notdef /quoteleft /quoteright /quotedblleft /quotedblright /bullet /endash /emdash
 /tilde /trademark /scaron /guilsinglright /oe /.notdef /zcaron /Ydieresis
 /space /exclamdown /cent /sterling /currency /yen /brokenbar /section
 /dieresis /copyright /ordfeminine /guillemotleft /logicalnot /hyphen /registered /macron
 /degree /plusminus /twosuperior /threesuperior /acute /mu /paragraph /periodcentered
 /cedilla /onesuperior /ordmasculine /guillemotright /onequarter /onehalf /threequarters /questiondown
 /Agrave /Aacute /Acircumflex /Atilde /Adieresis /Aring /AE /Ccedilla
 /Egrave /Eacute /Ecircumflex /Edieresis /Igrave /Iacute /Icircumflex /Idieresis
 /Eth /Ntilde /Ograve /Oacute /Ocircumflex /Otilde /Odieresis /multiply
 /Oslash /Ugrave /Uacute /Ucircumflex /Udieresis /Yacute /Thorn /germandbls
 /agrave /aacute /acircumflex /atilde /adieresis /aring /ae /ccedilla
 /egrave /eacute /ecircumflex /edieresis /igrave /iacute /icircumflex /idieresis
 /eth /ntilde /ograve /oacute /ocircumflex /otilde /odieresis /divide
 /oslash /ugrave /uacute /ucircumflex /udieresis /yacute /thorn /ydieresis
]
 def
% end encoding
%%IncludeResource: font Helvetica
/Helvetica findfont
dup length dict begin
  {1 index /FID ne {def} {pop pop} ifelse} forall
  /Encoding WinAnsiEncoding def
  currentdict
  end
/Font1 exch definefont pop
%%IncludeResource: font Helvetica-Bold
/Helvetica-Bold findfont
dup length dict begin
  {1 index /FID ne {def} {pop pop} ifelse} forall
  /Encoding WinAnsiEncoding def
  currentdict
  end
/Font2 exch definefont pop
%%IncludeResource: font Helvetica-Oblique
/Helvetica-Oblique findfont
dup length dict begin
  {1 index /FID ne {def} {pop pop} ifelse} forall
  /Encoding WinAnsiEncoding def
  currentdict
  end
/Font3 exch definefont pop
%%IncludeResource: font Helvetica-BoldOblique
/Helvetica-BoldOblique findfont
dup length dict begin
  {1 index /FID ne {def} {pop pop} ifelse} forall
  /Encoding WinAnsiEncoding def
  currentdict
  end
/Font4 exch definefont pop
%%IncludeResource: font Symbol
/Symbol findfont
dup length dict begin
  {1 index /FID ne {def} {pop pop} ifelse} forall
  currentdict
  end
/Font5 exch definefont pop
%%EndProlog
%%Page: 1 1
bp
77.04 332.38 267.40 523.90 cl
0 0 0 srgb
0.75 setlinewidth
[] 0 setdash
1 setlinecap
1 setlinejoin
10.00 setmiterlimit
181.34 468.96 2.70 c p1
217.80 460.52 2.70 c p1
226.92 502.74 2.70 c p1
129.67 395.77 2.70 c p1
190.45 407.03 2.70 c p1
132.71 454.89 2.70 c p1
120.56 499.92 2.70 c p1
163.10 497.11 2.70 c p1
226.92 415.48 2.70 c p1
223.88 381.70 2.70 c p1
196.53 438.00 2.70 c p1
163.10 412.66 2.70 c p1
84.09 392.96 2.70 c p1
105.36 440.81 2.70 c p1
178.30 367.63 2.70 c p1
226.92 438.00 2.70 c p1
150.95 387.33 2.70 c p1
120.56 415.48 2.70 c p1
108.40 359.18 2.70 c p1
242.11 485.85 2.70 c p1
257.31 440.81 2.70 c p1
196.53 483.03 2.70 c p1
117.52 483.03 2.70 c p1
93.21 468.96 2.70 c p1
90.17 429.55 2.70 c p1
150.95 514.00 2.70 c p1
160.06 457.70 2.70 c p1
199.57 511.18 2.70 c p1
245.15 457.70 2.70 c p1
245.15 398.59 2.70 c p1
181.34 516.81 2.70 c p1
184.37 452.07 2.70 c p1
208.69 350.74 2.70 c p1
254.27 415.48 2.70 c p1
257.31 499.92 2.70 c p1
260.35 516.81 2.70 c p1
166.14 384.52 2.70 c p1
205.65 421.11 2.70 c p1
248.19 364.81 2.70 c p1
84.09 339.48 2.70 c p1
99.28 370.44 2.70 c p1
132.71 350.74 2.70 c p1
84.09 502.74 2.70 c p1
160.06 364.81 2.70 c p1
187.41 350.74 2.70 c p1
166.14 432.37 2.70 c p1
144.87 412.66 2.70 c p1
144.87 477.40 2.70 c p1
214.76 401.40 2.70 c p1
239.08 426.74 2.70 c p1
18.00 258.94 577.28 582.94 cl
0 0 0 srgb
0.75 setlinewidth
[] 0 setdash
1 setlinecap
1 setlinejoin
10.00 setmiterlimit
np
99.28 332.38 m
151.95 0 l
o
np
99.28 332.38 m
0 -7.20 l
o
np
129.67 332.38 m
0 -7.20 l
o
np
160.06 332.38 m
0 -7.20 l
o
np
190.45 332.38 m
0 -7.20 l
o
np
220.84 332.38 m
0 -7.20 l
o
np
251.23 332.38 m
0 -7.20 l
o
/Font1 findfont 12 s
99.28 306.46 (10) .5 0 t
129.67 306.46 (20) .5 0 t
160.06 306.46 (30) .5 0 t
190.45 306.46 (40) .5 0 t
220.84 306.46 (50) .5 0 t
251.23 306.46 (60) .5 0 t
np
77.04 350.74 m
0 168.89 l
o
np
77.04 350.74 m
-7.20 0 l
o
np
77.04 378.89 m
-7.20 0 l
o
np
77.04 407.03 m
-7.20 0 l
o
np
77.04 435.18 m
-7.20 0 l
o
np
77.04 463.33 m
-7.20 0 l
o
np
77.04 491.48 m
-7.20 0 l
o
np
77.04 519.63 m
-7.20 0 l
o
59.76 350.74 (10) .5 90 t
59.76 378.89 (20) .5 90 t
59.76 407.03 (30) .5 90 t
59.76 435.18 (40) .5 90 t
59.76 463.33 (50) .5 90 t
59.76 491.48 (60) .5 90 t
59.76 519.63 (70) .5 90 t
np
77.04 332.38 m
190.36 0 l
0 191.52 l
-190.36 0 l
0 -191.52 l
o
18.00 258.94 297.64 582.94 cl
/Font2 findfont 14 s
0 0 0 srgb
172.22 548.40 (c50) .5 0 t
/Font1 findfont 12 s
172.22 263.26 (Locations plot) .5 0 t
172.22 277.66 (X) .5 0 t
30.96 428.14 (Y) .5 90 t
356.68 332.38 547.04 523.90 cl
356.68 332.38 547.04 523.90 cl
0 0 0 srgb
0.75 setlinewidth
[] 0 setdash
1 setlinecap
1 setlinejoin
10.00 setmiterlimit
np
363.73 498.14 m
1.54 0 l
0 -107.33 l
2.56 0 l
0 65.33 l
1.53 0 l
0 32.67 l
0 0 l
0 -56.00 l
2.05 0 l
0 28.00 l
2.57 0 l
0 -18.67 l
6.66 0 l
0 -18.66 l
4.10 0 l
0 56.00 l
1.02 0 l
0 28.00 l
3.59 0 l
0 -65.34 l
3.58 0 l
0 -46.66 l
2.57 0 l
0 28.00 l
8.19 0 l
0 9.33 l
0.52 0 l
0 51.33 l
0 0 l
0 -23.33 l
3.07 0 l
0 56.00 l
7.17 0 l
0 -177.33 l
2.05 0 l
0 149.33 l
6.15 0 l
0 -88.67 l
6.15 0 l
0 93.34 l
5.12 0 l
0 0 l
9.74 0 l
0 -37.34 l
13.83 0 l
0 28.00 l
2.56 0 l
0 -84.00 l
7.69 0 l
0 98.00 l
6.66 0 l
0 -37.33 l
3.59 0 l
0 4.67 l
0 0 l
0 37.33 l
1.02 0 l
0 -60.67 l
3.08 0 l
0 37.34 l
4.61 0 l
0 -4.67 l
0.51 0 l
0 -51.33 l
1.54 0 l
0 -14.00 l
3.07 0 l
0 42.00 l
2.05 0 l
0 51.33 l
13.84 0 l
0 -14.00 l
0.51 0 l
0 -28.00 l
3.07 0 l
0 4.67 l
0.51 0 l
0 32.66 l
2.05 0 l
0 -93.33 l
0 0 l
0 65.33 l
1.03 0 l
0 9.34 l
1.02 0 l
0 -23.34 l
2.05 0 l
0 28.00 l
1.54 0 l
0 23.34 l
3.59 0 l
0 -93.34 l
1.02 0 l
0 37.34 l
13.32 0 l
0 -4.67 l
2.57 0 l
0 37.33 l
o
18.00 258.94 577.28 582.94 cl
0 0 0 srgb
0.75 setlinewidth
[] 0 setdash
1 setlinecap
1 setlinejoin
10.00 setmiterlimit
np
363.22 332.38 m
179.33 0 l
o
np
363.22 332.38 m
0 -7.20 l
o
np
388.83 332.38 m
0 -7.20 l
o
np
414.45 332.38 m
0 -7.20 l
o
np
440.07 332.38 m
0 -7.20 l
o
np
465.69 332.38 m
0 -7.20 l
o
np
491.31 332.38 m
0 -7.20 l
o
np
516.93 332.38 m
0 -7.20 l
o
np
542.55 332.38 m
0 -7.20 l
o
/Font1 findfont 12 s
363.22 306.46 (0) .5 0 t
388.83 306.46 (50) .5 0 t
440.07 306.46 (150) .5 0 t
491.31 306.46 (250) .5 0 t
542.55 306.46 (350) .5 0 t
np
356.68 344.14 m
0 140.00 l
o
np
356.68 344.14 m
-7.20 0 l
o
np
356.68 390.81 m
-7.20 0 l
o
np
356.68 437.48 m
-7.20 0 l
o
np
356.68 484.14 m
-7.20 0 l
o
339.40 344.14 (-40) .5 90 t
339.40 390.81 (-30) .5 90 t
339.40 437.48 (-20) .5 90 t
339.40 484.14 (-10) .5 90 t
np
356.68 332.38 m
190.36 0 l
0 191.52 l
-190.36 0 l
0 -191.52 l
o
297.64 258.94 577.28 582.94 cl
/Font2 findfont 14 s
0 0 0 srgb
451.86 548.40 (c50D) .5 0 t
/Font1 findfont 12 s
451.86 263.26 (Requests time) .5 0 t
451.86 277.66 (Time) .5 0 t
310.60 428.14 (Requests) .5 90 t
ep
%%Page: 2 2
bp
77.04 332.38 267.40 523.90 cl
18.00 258.94 297.64 582.94 cl
/Font2 findfont 14 s
0 0 0 srgb
172.22 548.40 (c50) .5 0 t
/Font1 findfont 12 s
97.86 263.26 (Requests v) 0 ta
-0.300 (olume histogr) tb
-0.120 (am) tb gr
151.88 277.66 (V) 0 ta
-0.960 (olume) tb gr
30.96 387.46 (No) 90 ta
-0.480 (. of requests) tb gr
18.00 258.94 577.28 582.94 cl
0 0 0 srgb
0.75 setlinewidth
[] 0 setdash
1 setlinecap
1 setlinejoin
10.00 setmiterlimit
np
84.09 332.38 m
156.67 0 l
o
np
84.09 332.38 m
0 -7.20 l
o
np
123.26 332.38 m
0 -7.20 l
o
np
162.43 332.38 m
0 -7.20 l
o
np
201.60 332.38 m
0 -7.20 l
o
np
240.76 332.38 m
0 -7.20 l
o
/Font1 findfont 12 s
84.09 306.46 (0) .5 0 t
123.26 306.46 (10) .5 0 t
162.43 306.46 (20) .5 0 t
201.60 306.46 (30) .5 0 t
240.76 306.46 (40) .5 0 t
np
77.04 339.48 m
0 177.33 l
o
np
77.04 339.48 m
-7.20 0 l
o
np
77.04 364.81 m
-7.20 0 l
o
np
77.04 390.14 m
-7.20 0 l
o
np
77.04 415.48 m
-7.20 0 l
o
np
77.04 440.81 m
-7.20 0 l
o
np
77.04 466.14 m
-7.20 0 l
o
np
77.04 491.48 m
-7.20 0 l
o
np
77.04 516.81 m
-7.20 0 l
o
59.76 339.48 (0) .5 90 t
59.76 364.81 (2) .5 90 t
59.76 390.14 (4) .5 90 t
59.76 415.48 (6) .5 90 t
59.76 440.81 (8) .5 90 t
59.76 466.14 (10) .5 90 t
59.76 491.48 (12) .5 90 t
59.76 516.81 (14) .5 90 t
77.04 332.38 267.40 523.90 cl
0 0 0 srgb
0.75 setlinewidth
[] 0 setdash
1 setlinecap
1 setlinejoin
10.00 setmiterlimit
84.09 339.48 19.58 38.00 r p1
103.67 339.48 19.58 177.33 r p1
123.26 339.48 19.58 139.33 r p1
142.84 339.48 19.58 114.00 r p1
162.43 339.48 19.58 76.00 r p1
182.01 339.48 19.58 76.00 r p1
201.60 339.48 19.58 0.00 r p1
221.18 339.48 19.58 0.00 r p1
240.76 339.48 19.58 12.67 r p1
ep
%%Page: 3 3
bp
77.04 332.38 267.40 523.90 cl
77.04 332.38 267.40 523.90 cl
0 0 0 srgb
0.75 setlinewidth
[] 0 setdash
1 setlinecap
1 setlinejoin
10.00 setmiterlimit
128.15 383.81 2.70 c p1
166.71 393.66 2.70 c p1
125.40 440.46 2.70 c p1
191.50 415.83 2.70 c p1
219.04 378.89 2.70 c p1
158.45 413.37 2.70 c p1
205.27 452.77 2.70 c p1
219.04 440.46 2.70 c p1
139.17 474.94 2.70 c p1
177.73 492.18 2.70 c p1
219.04 489.72 2.70 c p1
163.96 455.24 2.70 c p1
238.32 415.83 2.70 c p1
238.32 470.02 2.70 c p1
238.32 388.74 2.70 c p1
125.40 418.29 2.70 c p1
158.45 438.00 2.70 c p1
92.35 467.55 2.70 c p1
238.32 447.85 2.70 c p1
249.33 364.11 2.70 c p1
188.74 361.64 2.70 c p1
139.17 361.64 2.70 c p1
97.86 398.59 2.70 c p1
86.84 435.53 2.70 c p1
114.38 487.26 2.70 c p1
180.48 442.92 2.70 c p1
219.04 413.37 2.70 c p1
163.96 369.03 2.70 c p1
210.78 393.66 2.70 c p1
185.99 393.66 2.70 c p1
152.94 516.81 2.70 c p1
128.15 460.16 2.70 c p1
139.17 401.05 2.70 c p1
205.27 428.14 2.70 c p1
219.04 452.77 2.70 c p1
216.28 354.26 2.70 c p1
232.81 366.57 2.70 c p1
197.01 492.18 2.70 c p1
150.19 477.40 2.70 c p1
150.19 452.77 2.70 c p1
100.61 371.50 2.70 c p1
108.88 364.11 2.70 c p1
111.63 376.42 2.70 c p1
125.40 447.85 2.70 c p1
205.27 403.52 2.70 c p1
208.02 433.07 2.70 c p1
205.27 366.57 2.70 c p1
199.76 381.35 2.70 c p1
100.61 423.22 2.70 c p1
108.88 467.55 2.70 c p1
147.43 425.68 2.70 c p1
216.28 423.22 2.70 c p1
219.04 470.02 2.70 c p1
252.09 430.61 2.70 c p1
95.11 502.03 2.70 c p1
84.09 391.20 2.70 c p1
246.58 396.13 2.70 c p1
177.73 477.40 2.70 c p1
260.35 487.26 2.70 c p1
243.82 339.48 2.70 c p1
166.71 344.40 2.70 c p1
150.19 378.89 2.70 c p1
122.65 403.52 2.70 c p1
108.88 341.94 2.70 c p1
205.27 502.03 2.70 c p1
224.55 506.96 2.70 c p1
191.50 433.07 2.70 c p1
172.22 410.90 2.70 c p1
205.27 339.48 2.70 c p1
249.33 349.33 2.70 c p1
230.05 341.94 2.70 c p1
163.96 477.40 2.70 c p1
141.92 388.74 2.70 c p1
177.73 378.89 2.70 c p1
177.73 420.76 2.70 c p1
18.00 258.94 577.28 582.94 cl
0 0 0 srgb
0.75 setlinewidth
[] 0 setdash
1 setlinecap
1 setlinejoin
10.00 setmiterlimit
np
95.11 332.38 m
165.24 0 l
o
np
95.11 332.38 m
0 -7.20 l
o
np
122.65 332.38 m
0 -7.20 l
o
np
150.19 332.38 m
0 -7.20 l
o
np
177.73 332.38 m
0 -7.20 l
o
np
205.27 332.38 m
0 -7.20 l
o
np
232.81 332.38 m
0 -7.20 l
o
np
260.35 332.38 m
0 -7.20 l
o
/Font1 findfont 12 s
95.11 306.46 (10) .5 0 t
122.65 306.46 (20) .5 0 t
150.19 306.46 (30) .5 0 t
177.73 306.46 (40) .5 0 t
205.27 306.46 (50) .5 0 t
232.81 306.46 (60) .5 0 t
260.35 306.46 (70) .5 0 t
np
77.04 354.26 m
0 147.77 l
o
np
77.04 354.26 m
-7.20 0 l
o
np
77.04 378.89 m
-7.20 0 l
o
np
77.04 403.52 m
-7.20 0 l
o
np
77.04 428.14 m
-7.20 0 l
o
np
77.04 452.77 m
-7.20 0 l
o
np
77.04 477.40 m
-7.20 0 l
o
np
77.04 502.03 m
-7.20 0 l
o
59.76 354.26 (10) .5 90 t
59.76 378.89 (20) .5 90 t
59.76 403.52 (30) .5 90 t
59.76 428.14 (40) .5 90 t
59.76 452.77 (50) .5 90 t
59.76 477.40 (60) .5 90 t
59.76 502.03 (70) .5 90 t
np
77.04 332.38 m
190.36 0 l
0 191.52 l
-190.36 0 l
0 -191.52 l
o
18.00 258.94 297.64 582.94 cl
/Font2 findfont 14 s
0 0 0 srgb
172.22 548.40 (c75) .5 0 t
/Font1 findfont 12 s
172.22 263.26 (Locations plot) .5 0 t
172.22 277.66 (X) .5 0 t
30.96 428.14 (Y) .5 90 t
356.68 332.38 547.04 523.90 cl
356.68 332.38 547.04 523.90 cl
0 0 0 srgb
0.75 setlinewidth
[] 0 setdash
1 setlinecap
1 setlinejoin
10.00 setmiterlimit
np
363.73 433.07 m
1.03 0 l
0 -39.41 l
1.54 0 l
0 73.89 l
2.58 0 l
0 -93.59 l
2.06 0 l
0 44.33 l
1.55 0 l
0 9.85 l
0 0 l
0 19.71 l
0 0 l
0 -4.93 l
1.03 0 l
0 -64.03 l
1.03 0 l
0 14.77 l
0.52 0 l
0 -54.18 l
2.57 0 l
0 103.44 l
1.03 0 l
0 19.71 l
1.03 0 l
0 -93.60 l
4.13 0 l
0 113.30 l
0 0 l
0 -54.19 l
2.57 0 l
0 -4.92 l
9.80 0 l
0 34.48 l
2.57 0 l
0 -9.85 l
4.13 0 l
0 -34.48 l
2.57 0 l
0 -29.56 l
0 0 l
0 78.82 l
0.52 0 l
0 29.55 l
1.03 0 l
0 -103.44 l
7.21 0 l
0 64.03 l
3.10 0 l
0 -19.70 l
0.51 0 l
0 4.93 l
0.52 0 l
0 -59.11 l
1.54 0 l
0 78.81 l
3.61 0 l
0 -44.33 l
1.03 0 l
0 -14.78 l
0.52 0 l
0 -14.78 l
3.09 0 l
0 4.93 l
1.55 0 l
0 39.40 l
2.06 0 l
0 44.34 l
1.54 0 l
0 -9.85 l
6.19 0 l
0 -9.86 l
1.03 0 l
0 -49.25 l
0 0 l
0 39.40 l
14.94 0 l
0 -83.74 l
0.52 0 l
0 88.67 l
3.61 0 l
0 19.70 l
3.60 0 l
0 -34.48 l
1.55 0 l
0 4.93 l
2.06 0 l
0 -19.71 l
3.61 0 l
0 -29.55 l
3.09 0 l
0 39.40 l
0.52 0 l
0 -4.92 l
7.21 0 l
0 73.89 l
0 0 l
0 -83.74 l
2.06 0 l
483.29 462.63 lineto
1.04 0 l
0 -34.49 l
0 0 l
0 -14.77 l
4.12 0 l
0 29.55 l
3.09 0 l
0 44.34 l
1.03 0 l
0 -93.60 l
0.52 0 l
0 59.11 l
2.06 0 l
0 -34.48 l
0 0 l
0 -14.77 l
5.15 0 l
0 54.18 l
8.25 0 l
0 -9.85 l
0 0 l
0 -14.78 l
8.24 0 l
0 34.48 l
2.58 0 l
0 -83.74 l
4.12 0 l
0 93.59 l
4.13 0 l
0 -137.92 l
0.51 0 l
0 34.48 l
3.09 0 l
0 98.52 l
2.58 0 l
0 9.85 l
1.03 0 l
0 -14.78 l
0.52 0 l
0 39.41 l
0.51 0 l
0 9.85 l
0.52 0 l
0 -24.63 l
2.57 0 l
0 -19.70 l
1.04 0 l
0 -49.26 l
o
18.00 258.94 577.28 582.94 cl
0 0 0 srgb
0.75 setlinewidth
[] 0 setdash
1 setlinecap
1 setlinejoin
10.00 setmiterlimit
np
362.18 332.38 m
180.38 0 l
o
np
362.18 332.38 m
0 -7.20 l
o
np
387.95 332.38 m
0 -7.20 l
o
np
413.72 332.38 m
0 -7.20 l
o
np
439.49 332.38 m
0 -7.20 l
o
np
465.26 332.38 m
0 -7.20 l
o
np
491.02 332.38 m
0 -7.20 l
o
np
516.79 332.38 m
0 -7.20 l
o
np
542.56 332.38 m
0 -7.20 l
o
/Font1 findfont 12 s
362.18 306.46 (0) .5 0 t
387.95 306.46 (50) .5 0 t
439.49 306.46 (150) .5 0 t
491.02 306.46 (250) .5 0 t
542.56 306.46 (350) .5 0 t
np
356.68 349.33 m
0 172.41 l
o
np
356.68 349.33 m
-7.20 0 l
o
np
356.68 373.96 m
-7.20 0 l
o
np
356.68 398.59 m
-7.20 0 l
o
np
356.68 423.22 m
-7.20 0 l
o
np
356.68 447.85 m
-7.20 0 l
o
np
356.68 472.48 m
-7.20 0 l
o
np
356.68 497.11 m
-7.20 0 l
o
np
356.68 521.74 m
-7.20 0 l
o
339.40 349.33 (-35) .5 90 t
339.40 398.59 (-25) .5 90 t
339.40 447.85 (-15) .5 90 t
339.40 497.11 (-5) .5 90 t
339.40 521.74 (0) .5 90 t
np
356.68 332.38 m
190.36 0 l
0 191.52 l
-190.36 0 l
0 -191.52 l
o
297.64 258.94 577.28 582.94 cl
/Font2 findfont 14 s
0 0 0 srgb
451.86 548.40 (c75D) .5 0 t
/Font1 findfont 12 s
451.86 263.26 (Requests time) .5 0 t
451.86 277.66 (Time) .5 0 t
310.60 428.14 (Requests) .5 90 t
ep
%%Page: 4 4
bp
77.04 332.38 267.40 523.90 cl
18.00 258.94 297.64 582.94 cl
/Font2 findfont 14 s
0 0 0 srgb
172.22 548.40 (c75) .5 0 t
/Font1 findfont 12 s
97.86 263.26 (Requests v) 0 ta
-0.300 (olume histogr) tb
-0.120 (am) tb gr
151.88 277.66 (V) 0 ta
-0.960 (olume) tb gr
30.96 387.46 (No) 90 ta
-0.480 (. of requests) tb gr
18.00 258.94 577.28 582.94 cl
0 0 0 srgb
0.75 setlinewidth
[] 0 setdash
1 setlinecap
1 setlinejoin
10.00 setmiterlimit
np
84.09 332.38 m
176.26 0 l
o
np
84.09 332.38 m
0 -7.20 l
o
np
128.15 332.38 m
0 -7.20 l
o
np
172.22 332.38 m
0 -7.20 l
o
np
216.28 332.38 m
0 -7.20 l
o
np
260.35 332.38 m
0 -7.20 l
o
/Font1 findfont 12 s
84.09 306.46 (0) .5 0 t
128.15 306.46 (10) .5 0 t
172.22 306.46 (20) .5 0 t
216.28 306.46 (30) .5 0 t
260.35 306.46 (40) .5 0 t
np
77.04 339.48 m
0 147.78 l
o
np
77.04 339.48 m
-7.20 0 l
o
np
77.04 388.74 m
-7.20 0 l
o
np
77.04 438.00 m
-7.20 0 l
o
np
77.04 487.26 m
-7.20 0 l
o
59.76 339.48 (0) .5 90 t
59.76 388.74 (5) .5 90 t
59.76 438.00 (10) .5 90 t
59.76 487.26 (15) .5 90 t
77.04 332.38 267.40 523.90 cl
0 0 0 srgb
0.75 setlinewidth
[] 0 setdash
1 setlinecap
1 setlinejoin
10.00 setmiterlimit
84.09 339.48 22.03 29.56 r p1
106.12 339.48 22.03 88.67 r p1
128.15 339.48 22.03 177.33 r p1
150.19 339.48 22.03 177.33 r p1
172.22 339.48 22.03 98.52 r p1
194.25 339.48 22.03 128.07 r p1
216.28 339.48 22.03 19.70 r p1
238.32 339.48 22.03 19.70 r p1
356.68 332.38 547.04 523.90 cl
ep
%%Trailer
%%Pages: 4
%%EOF
