%!PS-Adobe-3.0
%%DocumentNeededResources: font Helvetica
%%+ font Helvetica-Bold
%%+ font Helvetica-Oblique
%%+ font Helvetica-BoldOblique
%%+ font Symbol
%%DocumentMedia: a4 595 841 0 () ()
%%Title: R Graphics Output
%%Creator: R Software
%%Pages: (atend)
%%Orientation: Portrait
%%BoundingBox: 18 259 577 583
%%EndComments
%%BeginProlog
/bp  { gs sRGB gs } def
% begin .ps.prolog
/gs  { gsave } bind def
/gr  { grestore } bind def
/ep  { showpage gr gr } bind def
/m   { moveto } bind def
/l  { rlineto } bind def
/np  { newpath } bind def
/cp  { closepath } bind def
/f   { fill } bind def
/o   { stroke } bind def
/c   { newpath 0 360 arc } bind def
/r   { 4 2 roll moveto 1 copy 3 -1 roll exch 0 exch rlineto 0 rlineto -1 mul 0 exch rlineto closepath } bind def
/p1  { stroke } bind def
/p2  { gsave bg fill grestore newpath } bind def
/p3  { gsave bg fill grestore stroke } bind def
/p6  { gsave bg eofill grestore newpath } bind def
/p7  { gsave bg eofill grestore stroke } bind def
/t   { 5 -2 roll moveto gsave rotate
       1 index stringwidth pop
       mul neg 0 rmoveto show grestore } bind def
/ta  { 4 -2 roll moveto gsave rotate show } bind def
/tb  { 2 -1 roll 0 rmoveto show } bind def
/cl  { grestore gsave newpath 3 index 3 index moveto 1 index
       4 -1 roll lineto  exch 1 index lineto lineto
       closepath clip newpath } bind def
/rgb { setrgbcolor } bind def
/s   { scalefont setfont } bind def
% end   .ps.prolog
/sRGB { [ /CIEBasedABC
          << /DecodeLMN
               [ { dup 0.03928 le
                        {12.92321 div}
                        {0.055 add 1.055 div 2.4 exp }
                     ifelse
                 } bind dup dup
               ]
             /MatrixLMN [0.412457 0.212673 0.019334
                         0.357576 0.715152 0.119192
                         0.180437 0.072175 0.950301]
             /WhitePoint [0.9505 1.0 1.0890]
           >>
         ] setcolorspace } bind def
/srgb { setcolor } bind def
% begin encoding
/WinAnsiEncoding [
 /.notdef /.notdef /.notdef /.notdef /.notdef /.notdef /.notdef /.notdef
 /.notdef /.notdef /.notdef /.notdef /.notdef /.notdef /.notdef /.notdef
 /.notdef /.notdef /.notdef /.notdef /.notdef /.notdef /.notdef /.notdef
 /.notdef /.notdef /.notdef /.notdef /.notdef /.notdef /.notdef /.notdef
 /space /exclam /quotedbl /numbersign /dollar /percent /ampersand /quoteright
 /parenleft /parenright /asterisk /plus /comma /minus /period /slash
 /zero /one /two /three /four /five /six /seven
 /eight /nine /colon /semicolon /less /equal /greater /question
 /at /A /B /C /D /E /F /G
 /H /I /J /K /L /M /N /O
 /P /Q /R /S /T /U /V /W
 /X /Y /Z /bracketleft /backslash /bracketright /asciicircum /underscore
 /grave /a /b /c /d /e /f /g
 /h /i /j /k /l /m /n /o
 /p /q /r /s /t /u /v /w
 /x /y /z /braceleft /bar /braceright /asciitilde /.notdef
 /Euro /.notdef /quotesinglbase /florin /quotedblbase /ellipsis /dagger /daggerdbl
 /circumflex /perthousand /Scaron /guilsinglleft /OE /.notdef /Zcaron /.notdef
 /.notdef /quoteleft /quoteright /quotedblleft /quotedblright /bullet /endash /emdash
 /tilde /trademark /scaron /guilsinglright /oe /.notdef /zcaron /Ydieresis
 /space /exclamdown /cent /sterling /currency /yen /brokenbar /section
 /dieresis /copyright /ordfeminine /guillemotleft /logicalnot /hyphen /registered /macron
 /degree /plusminus /twosuperior /threesuperior /acute /mu /paragraph /periodcentered
 /cedilla /onesuperior /ordmasculine /guillemotright /onequarter /onehalf /threequarters /questiondown
 /Agrave /Aacute /Acircumflex /Atilde /Adieresis /Aring /AE /Ccedilla
 /Egrave /Eacute /Ecircumflex /Edieresis /Igrave /Iacute /Icircumflex /Idieresis
 /Eth /Ntilde /Ograve /Oacute /Ocircumflex /Otilde /Odieresis /multiply
 /Oslash /Ugrave /Uacute /Ucircumflex /Udieresis /Yacute /Thorn /germandbls
 /agrave /aacute /acircumflex /atilde /adieresis /aring /ae /ccedilla
 /egrave /eacute /ecircumflex /edieresis /igrave /iacute /icircumflex /idieresis
 /eth /ntilde /ograve /oacute /ocircumflex /otilde /odieresis /divide
 /oslash /ugrave /uacute /ucircumflex /udieresis /yacute /thorn /ydieresis
]
 def
% end encoding
%%IncludeResource: font Helvetica
/Helvetica findfont
dup length dict begin
  {1 index /FID ne {def} {pop pop} ifelse} forall
  /Encoding WinAnsiEncoding def
  currentdict
  end
/Font1 exch definefont pop
%%IncludeResource: font Helvetica-Bold
/Helvetica-Bold findfont
dup length dict begin
  {1 index /FID ne {def} {pop pop} ifelse} forall
  /Encoding WinAnsiEncoding def
  currentdict
  end
/Font2 exch definefont pop
%%IncludeResource: font Helvetica-Oblique
/Helvetica-Oblique findfont
dup length dict begin
  {1 index /FID ne {def} {pop pop} ifelse} forall
  /Encoding WinAnsiEncoding def
  currentdict
  end
/Font3 exch definefont pop
%%IncludeResource: font Helvetica-BoldOblique
/Helvetica-BoldOblique findfont
dup length dict begin
  {1 index /FID ne {def} {pop pop} ifelse} forall
  /Encoding WinAnsiEncoding def
  currentdict
  end
/Font4 exch definefont pop
%%IncludeResource: font Symbol
/Symbol findfont
dup length dict begin
  {1 index /FID ne {def} {pop pop} ifelse} forall
  currentdict
  end
/Font5 exch definefont pop
%%EndProlog
%%Page: 1 1
bp
77.04 332.38 267.40 523.90 cl
0 0 0 srgb
0.75 setlinewidth
[] 0 setdash
1 setlinecap
1 setlinejoin
10.00 setmiterlimit
231.56 414.33 2.70 c p1
251.89 420.30 2.70 c p1
250.66 407.24 2.70 c p1
254.93 420.30 2.70 c p1
256.07 419.74 2.70 c p1
257.97 419.74 2.70 c p1
260.35 424.41 2.70 c p1
257.02 424.41 2.70 c p1
256.07 423.48 2.70 c p1
253.70 426.65 2.70 c p1
255.41 431.50 2.70 c p1
254.17 431.50 2.70 c p1
250.85 440.28 2.70 c p1
253.22 442.14 2.70 c p1
252.27 442.14 2.70 c p1
248.00 440.28 2.70 c p1
209.51 429.08 2.70 c p1
208.56 430.94 2.70 c p1
200.01 460.81 2.70 c p1
223.77 460.81 2.70 c p1
229.75 438.04 2.70 c p1
230.23 430.57 2.70 c p1
230.23 429.26 2.70 c p1
230.42 430.20 2.70 c p1
233.08 436.54 2.70 c p1
235.17 432.81 2.70 c p1
237.83 435.80 2.70 c p1
239.35 431.88 2.70 c p1
242.20 425.90 2.70 c p1
238.97 427.21 2.70 c p1
237.35 424.78 2.70 c p1
229.09 410.04 2.70 c p1
200.01 386.14 2.70 c p1
230.42 404.81 2.70 c p1
242.29 406.68 2.70 c p1
242.77 408.17 2.70 c p1
244.86 409.29 2.70 c p1
244.86 412.65 2.70 c p1
245.81 413.02 2.70 c p1
247.81 408.73 2.70 c p1
250.18 410.60 2.70 c p1
250.37 412.28 2.70 c p1
248.28 412.28 2.70 c p1
248.28 412.28 2.70 c p1
246.09 416.76 2.70 c p1
215.21 434.68 2.70 c p1
228.04 417.69 2.70 c p1
231.56 410.04 2.70 c p1
233.84 408.17 2.70 c p1
236.78 410.04 2.70 c p1
237.07 410.97 2.70 c p1
237.07 411.34 2.70 c p1
239.16 410.97 2.70 c p1
238.78 413.58 2.70 c p1
239.44 413.40 2.70 c p1
240.20 413.58 2.70 c p1
240.20 415.08 2.70 c p1
239.16 417.69 2.70 c p1
234.69 422.92 2.70 c p1
234.03 420.68 2.70 c p1
235.36 416.01 2.70 c p1
235.36 412.28 2.70 c p1
224.72 397.34 2.70 c p1
225.67 407.05 2.70 c p1
190.51 496.28 2.70 c p1
214.26 423.48 2.70 c p1
218.06 386.14 2.70 c p1
204.76 367.48 2.70 c p1
204.76 339.48 2.70 c p1
205.71 339.48 2.70 c p1
211.41 423.48 2.70 c p1
226.62 423.48 2.70 c p1
224.72 419.74 2.70 c p1
225.67 414.14 2.70 c p1
230.51 416.38 2.70 c p1
226.90 410.41 2.70 c p1
225.67 408.54 2.70 c p1
221.87 404.81 2.70 c p1
225.67 393.61 2.70 c p1
200.01 384.28 2.70 c p1
169.61 386.14 2.70 c p1
220.92 460.81 2.70 c p1
229.47 516.81 2.70 c p1
238.02 501.88 2.70 c p1
238.02 501.88 2.70 c p1
238.02 500.01 2.70 c p1
243.72 458.94 2.70 c p1
253.22 444.01 2.70 c p1
243.72 444.01 2.70 c p1
243.24 440.65 2.70 c p1
228.52 435.61 2.70 c p1
244.86 431.50 2.70 c p1
244.19 419.37 2.70 c p1
244.57 419.18 2.70 c p1
245.62 408.54 2.70 c p1
243.91 412.28 2.70 c p1
242.77 412.28 2.70 c p1
242.77 410.41 2.70 c p1
242.58 409.29 2.70 c p1
242.29 410.41 2.70 c p1
240.87 409.66 2.70 c p1
239.73 410.41 2.70 c p1
239.92 412.28 2.70 c p1
240.68 411.53 2.70 c p1
241.25 415.08 2.70 c p1
85.99 419.74 2.70 c p1
84.09 406.68 2.70 c p1
84.09 404.81 2.70 c p1
93.59 346.94 2.70 c p1
154.40 369.34 2.70 c p1
154.40 371.21 2.70 c p1
154.40 373.08 2.70 c p1
152.50 378.68 2.70 c p1
116.40 445.88 2.70 c p1
126.85 460.81 2.70 c p1
147.75 430.94 2.70 c p1
154.40 432.81 2.70 c p1
214.26 434.68 2.70 c p1
169.61 464.54 2.70 c p1
114.50 367.48 2.70 c p1
143.00 363.74 2.70 c p1
153.45 369.34 2.70 c p1
153.45 370.28 2.70 c p1
153.45 371.21 2.70 c p1
154.40 372.14 2.70 c p1
153.45 373.08 2.70 c p1
152.50 373.08 2.70 c p1
152.50 374.94 2.70 c p1
152.50 376.81 2.70 c p1
182.91 473.88 2.70 c p1
147.75 432.81 2.70 c p1
169.61 388.01 2.70 c p1
214.26 397.34 2.70 c p1
227.57 410.78 2.70 c p1
18.00 258.94 577.28 582.94 cl
0 0 0 srgb
0.75 setlinewidth
[] 0 setdash
1 setlinecap
1 setlinejoin
10.00 setmiterlimit
np
85.99 332.38 m
142.53 0 l
o
np
85.99 332.38 m
0 -7.20 l
o
np
133.50 332.38 m
0 -7.20 l
o
np
181.01 332.38 m
0 -7.20 l
o
np
228.52 332.38 m
0 -7.20 l
o
/Font1 findfont 12 s
85.99 306.46 (-1500) .5 0 t
133.50 306.46 (-1000) .5 0 t
181.01 306.46 (-500) .5 0 t
228.52 306.46 (0) .5 0 t
np
77.04 367.48 m
0 149.33 l
o
np
77.04 367.48 m
-7.20 0 l
o
np
77.04 404.81 m
-7.20 0 l
o
np
77.04 442.14 m
-7.20 0 l
o
np
77.04 479.48 m
-7.20 0 l
o
np
77.04 516.81 m
-7.20 0 l
o
59.76 367.48 (-200) .5 90 t
59.76 404.81 (0) .5 90 t
59.76 442.14 (200) .5 90 t
59.76 479.48 (400) .5 90 t
59.76 516.81 (600) .5 90 t
np
77.04 332.38 m
190.36 0 l
0 191.52 l
-190.36 0 l
0 -191.52 l
o
18.00 258.94 297.64 582.94 cl
/Font2 findfont 14 s
0 0 0 srgb
172.22 548.40 (f134) .5 0 t
/Font1 findfont 12 s
172.22 263.26 (Locations plot) .5 0 t
172.22 277.66 (X) .5 0 t
30.96 428.14 (Y) .5 90 t
356.68 332.38 547.04 523.90 cl
356.68 332.38 547.04 523.90 cl
0 0 0 srgb
0.75 setlinewidth
[] 0 setdash
1 setlinecap
1 setlinejoin
10.00 setmiterlimit
np
363.73 512.24 m
1.30 0 l
0 -30.90 l
0.28 0 l
0 29.80 l
1.95 0 l
0 2.05 l
0.35 0 l
0 -1.90 l
0.95 0 l
0 5.52 l
0.66 0 l
0 -4.73 l
0.97 0 l
0 1.11 l
1.33 0 l
0 -0.95 l
0.69 0 l
0 0.95 l
1.29 0 l
0 0 l
0.66 0 l
0 -1.26 l
2.91 0 l
0 1.26 l
0.67 0 l
0 0 l
1.30 0 l
0 0.78 l
0.01 0 l
0 -0.78 l
1.98 0 l
0 0.94 l
0.95 0 l
0 -2.84 l
0.66 0 l
0 -12.45 l
0 0 l
0 14.35 l
2.30 0 l
0 0 l
0.94 0 l
0 -5.84 l
0.04 0 l
0 -1.57 l
2.58 0 l
0 5.51 l
1.33 0 l
0 2.84 l
0.98 0 l
0 -1.89 l
2.24 0 l
0 -0.16 l
0.03 0 l
0 -0.79 l
0 0 l
0 2.84 l
1.91 0 l
0 -155.42 l
0.03 0 l
0 155.42 l
0.67 0 l
0 -2.52 l
0.33 0 l
0 -74.09 l
1.65 0 l
0 76.61 l
1.90 0 l
0 -3.31 l
1.34 0 l
0 2.37 l
0.32 0 l
0 -2.05 l
0.62 0 l
0 2.05 l
0.72 0 l
0 -11.83 l
1.57 0 l
0 11.83 l
0 0 l
0 0 l
2.96 0 l
0 -1.90 l
1.63 0 l
0 0.95 l
0.36 0 l
0 0.79 l
0.29 0 l
0 0.16 l
0.36 0 l
0 -15.45 l
1.97 0 l
0 -11.67 l
0.93 0 l
0 -5.20 l
1.35 0 l
0 23.02 l
2.91 0 l
0 10.24 l
1.28 0 l
418.18 513.19 lineto
1.03 0 l
0 -44.46 l
0.29 0 l
0 45.40 l
0.65 0 l
0 -0.31 l
0.99 0 l
0 0.31 l
0.70 0 l
0 -0.94 l
2.55 0 l
0 0.31 l
0.34 0 l
0 -0.31 l
0 0 l
0 0.94 l
1.35 0 l
0 0 l
0.59 0 l
0 -0.94 l
1.31 0 l
0 0 l
0.68 0 l
0 -0.95 l
0.02 0 l
0 0.95 l
2.29 0 l
0 -2.53 l
0.97 0 l
0 -19.86 l
1.58 0 l
0 -13.87 l
0.03 0 l
0 10.56 l
4.91 0 l
0 14.66 l
1.33 0 l
0 12.14 l
3.86 0 l
0 -42.25 l
1.01 0 l
0 41.15 l
2.30 0 l
0 0 l
0.98 0 l
0 -28.53 l
1.90 0 l
0 28.68 l
0.33 0 l
0 -0.78 l
1.00 0 l
0 -3.63 l
1.28 0 l
0 0.32 l
1.00 0 l
0 4.72 l
0.32 0 l
0 -38.30 l
1.31 0 l
0 22.38 l
0.01 0 l
0 -23.01 l
0.04 0 l
0 -69.04 l
0.96 0 l
0 104.98 l
3.25 0 l
0 3.15 l
1.94 0 l
0 -1.89 l
1.02 0 l
0 0.79 l
0.98 0 l
0 2.05 l
0.30 0 l
0 -0.95 l
2.28 0 l
0 -1.10 l
1.01 0 l
0 -1.58 l
3.56 0 l
0 2.68 l
3.60 0 l
0 0.95 l
0.98 0 l
0 -1.26 l
3.58 0 l
0 -174.34 l
1.69 0 l
0 176.07 l
1.57 0 l
0 -4.26 l
0.36 0 l
0 3.79 l
0.97 0 l
0 -3.00 l
0.64 0 l
0 -10.24 l
1.33 0 l
485.15 512.71 lineto
0.29 0 l
0 -4.25 l
1.31 0 l
0 -13.09 l
3.28 0 l
0 19.71 l
1.30 0 l
0 -7.25 l
2.58 0 l
0 -23.33 l
4.29 0 l
0 4.41 l
0.60 0 l
0 -48.55 l
1.65 0 l
0 70.93 l
1.02 0 l
0 -35.46 l
0.32 0 l
0 19.86 l
0.32 0 l
0 0 l
0.31 0 l
0 -37.52 l
1.30 0 l
0 -25.53 l
0.38 0 l
0 77.71 l
1.60 0 l
0 5.20 l
6.49 0 l
0 -15.92 l
1.00 0 l
0 11.66 l
1.02 0 l
0 2.84 l
0.28 0 l
0 -111.60 l
1.94 0 l
0 84.96 l
1.06 0 l
0 25.85 l
1.62 0 l
0 -17.49 l
3.23 0 l
0 13.71 l
0.68 0 l
0 -0.63 l
0.33 0 l
0 1.26 l
4.87 0 l
0 -5.67 l
0.31 0 l
0 -5.21 l
0.33 0 l
0 3.31 l
3.61 0 l
0 -22.22 l
0.30 0 l
0 -39.57 l
5.27 0 l
0 -54.38 l
0.62 0 l
0 128.79 l
1.33 0 l
0 -0.16 l
o
18.00 258.94 577.28 582.94 cl
0 0 0 srgb
0.75 setlinewidth
[] 0 setdash
1 setlinecap
1 setlinejoin
10.00 setmiterlimit
np
363.35 332.38 m
181.16 0 l
o
np
363.35 332.38 m
0 -7.20 l
o
np
393.54 332.38 m
0 -7.20 l
o
np
423.74 332.38 m
0 -7.20 l
o
np
453.93 332.38 m
0 -7.20 l
o
np
484.13 332.38 m
0 -7.20 l
o
np
514.32 332.38 m
0 -7.20 l
o
np
544.51 332.38 m
0 -7.20 l
o
/Font1 findfont 12 s
363.35 306.46 (0) .5 0 t
393.54 306.46 (2000) .5 0 t
453.93 306.46 (6000) .5 0 t
514.32 306.46 (10000) .5 0 t
np
356.68 359.34 m
0 157.63 l
o
np
356.68 359.34 m
-7.20 0 l
o
np
356.68 390.87 m
-7.20 0 l
o
np
356.68 422.39 m
-7.20 0 l
o
np
356.68 453.92 m
-7.20 0 l
o
np
356.68 485.44 m
-7.20 0 l
o
np
356.68 516.97 m
-7.20 0 l
o
339.40 359.34 (-1000) .5 90 t
339.40 422.39 (-600) .5 90 t
339.40 485.44 (-200) .5 90 t
339.40 516.97 (0) .5 90 t
np
356.68 332.38 m
190.36 0 l
0 191.52 l
-190.36 0 l
0 -191.52 l
o
297.64 258.94 577.28 582.94 cl
/Font2 findfont 14 s
0 0 0 srgb
451.86 548.40 (f134D) .5 0 t
/Font1 findfont 12 s
451.86 263.26 (Requests time) .5 0 t
451.86 277.66 (Time) .5 0 t
310.60 428.14 (Requests) .5 90 t
ep
%%Page: 2 2
bp
77.04 332.38 267.40 523.90 cl
18.00 258.94 297.64 582.94 cl
/Font2 findfont 14 s
0 0 0 srgb
172.22 548.40 (f134) .5 0 t
/Font1 findfont 12 s
97.86 263.26 (Requests v) 0 ta
-0.300 (olume histogr) tb
-0.120 (am) tb gr
151.88 277.66 (V) 0 ta
-0.960 (olume) tb gr
30.96 387.46 (No) 90 ta
-0.480 (. of requests) tb gr
18.00 258.94 577.28 582.94 cl
0 0 0 srgb
0.75 setlinewidth
[] 0 setdash
1 setlinecap
1 setlinejoin
10.00 setmiterlimit
np
84.09 332.38 m
176.26 0 l
o
np
84.09 332.38 m
0 -7.20 l
o
np
113.47 332.38 m
0 -7.20 l
o
np
142.84 332.38 m
0 -7.20 l
o
np
172.22 332.38 m
0 -7.20 l
o
np
201.60 332.38 m
0 -7.20 l
o
np
230.97 332.38 m
0 -7.20 l
o
np
260.35 332.38 m
0 -7.20 l
o
/Font1 findfont 12 s
84.09 306.46 (0) .5 0 t
113.47 306.46 (200) .5 0 t
172.22 306.46 (600) .5 0 t
230.97 306.46 (1000) .5 0 t
np
77.04 339.48 m
0 179.12 l
o
np
77.04 339.48 m
-7.20 0 l
o
np
77.04 375.30 m
-7.20 0 l
o
np
77.04 411.13 m
-7.20 0 l
o
np
77.04 446.95 m
-7.20 0 l
o
np
77.04 482.78 m
-7.20 0 l
o
np
77.04 518.60 m
-7.20 0 l
o
59.76 339.48 (0) .5 90 t
59.76 375.30 (20) .5 90 t
59.76 411.13 (40) .5 90 t
59.76 446.95 (60) .5 90 t
59.76 482.78 (80) .5 90 t
59.76 518.60 (100) .5 90 t
77.04 332.38 267.40 523.90 cl
0 0 0 srgb
0.75 setlinewidth
[] 0 setdash
1 setlinecap
1 setlinejoin
10.00 setmiterlimit
84.09 339.48 14.69 177.33 r p1
98.78 339.48 14.69 25.08 r p1
113.47 339.48 14.69 17.91 r p1
128.15 339.48 14.69 3.58 r p1
142.84 339.48 14.69 3.58 r p1
157.53 339.48 14.69 3.58 r p1
172.22 339.48 14.69 0.00 r p1
186.91 339.48 14.69 3.58 r p1
201.60 339.48 14.69 1.79 r p1
216.28 339.48 14.69 0.00 r p1
230.97 339.48 14.69 1.79 r p1
245.66 339.48 14.69 1.79 r p1
ep
%%Page: 3 3
bp
77.04 332.38 267.40 523.90 cl
77.04 332.38 267.40 523.90 cl
0 0 0 srgb
0.75 setlinewidth
[] 0 setdash
1 setlinecap
1 setlinejoin
10.00 setmiterlimit
136.31 405.54 2.70 c p1
116.73 409.02 2.70 c p1
208.12 363.82 2.70 c p1
227.71 353.39 2.70 c p1
208.12 367.30 2.70 c p1
155.90 384.68 2.70 c p1
227.71 349.91 2.70 c p1
221.18 353.39 2.70 c p1
260.35 339.48 2.70 c p1
168.95 367.30 2.70 c p1
142.84 409.02 2.70 c p1
123.26 395.11 2.70 c p1
123.26 398.59 2.70 c p1
142.84 419.45 2.70 c p1
123.26 409.02 2.70 c p1
116.73 395.11 2.70 c p1
116.73 398.59 2.70 c p1
155.90 405.54 2.70 c p1
123.26 412.50 2.70 c p1
234.24 447.27 2.70 c p1
247.29 457.70 2.70 c p1
247.29 461.18 2.70 c p1
227.71 454.22 2.70 c p1
221.18 457.70 2.70 c p1
221.18 461.18 2.70 c p1
227.71 457.70 2.70 c p1
253.82 475.09 2.70 c p1
247.29 468.13 2.70 c p1
234.24 450.75 2.70 c p1
240.76 454.22 2.70 c p1
175.48 429.88 2.70 c p1
175.48 433.36 2.70 c p1
162.43 419.45 2.70 c p1
168.95 433.36 2.70 c p1
168.95 415.97 2.70 c p1
168.95 419.45 2.70 c p1
84.09 468.13 2.70 c p1
84.09 471.61 2.70 c p1
136.31 461.18 2.70 c p1
84.09 478.56 2.70 c p1
175.48 454.22 2.70 c p1
227.71 499.43 2.70 c p1
227.71 502.90 2.70 c p1
221.18 499.43 2.70 c p1
208.12 509.86 2.70 c p1
221.18 502.90 2.70 c p1
201.60 495.95 2.70 c p1
201.60 499.43 2.70 c p1
188.54 488.99 2.70 c p1
188.54 492.47 2.70 c p1
182.01 488.99 2.70 c p1
182.01 516.81 2.70 c p1
221.18 506.38 2.70 c p1
175.48 443.79 2.70 c p1
175.48 447.27 2.70 c p1
155.90 447.27 2.70 c p1
155.90 450.75 2.70 c p1
136.31 443.79 2.70 c p1
136.31 447.27 2.70 c p1
142.84 436.84 2.70 c p1
142.84 440.31 2.70 c p1
123.26 440.31 2.70 c p1
123.26 443.79 2.70 c p1
116.73 440.31 2.70 c p1
116.73 443.79 2.70 c p1
110.20 450.75 2.70 c p1
110.20 454.22 2.70 c p1
116.73 461.18 2.70 c p1
84.09 461.18 2.70 c p1
182.01 492.47 2.70 c p1
155.90 388.16 2.70 c p1
18.00 258.94 577.28 582.94 cl
0 0 0 srgb
0.75 setlinewidth
[] 0 setdash
1 setlinecap
1 setlinejoin
10.00 setmiterlimit
np
84.09 332.38 m
163.20 0 l
o
np
84.09 332.38 m
0 -7.20 l
o
np
116.73 332.38 m
0 -7.20 l
o
np
149.37 332.38 m
0 -7.20 l
o
np
182.01 332.38 m
0 -7.20 l
o
np
214.65 332.38 m
0 -7.20 l
o
np
247.29 332.38 m
0 -7.20 l
o
/Font1 findfont 12 s
84.09 306.46 (-20) .5 0 t
116.73 306.46 (-15) .5 0 t
149.37 306.46 (-10) .5 0 t
182.01 306.46 (-5) .5 0 t
214.65 306.46 (0) .5 0 t
247.29 306.46 (5) .5 0 t
np
77.04 356.86 m
0 139.09 l
o
np
77.04 356.86 m
-7.20 0 l
o
np
77.04 391.64 m
-7.20 0 l
o
np
77.04 426.41 m
-7.20 0 l
o
np
77.04 461.18 m
-7.20 0 l
o
np
77.04 495.95 m
-7.20 0 l
o
59.76 356.86 (-20) .5 90 t
59.76 391.64 (-10) .5 90 t
59.76 426.41 (0) .5 90 t
59.76 461.18 (10) .5 90 t
59.76 495.95 (20) .5 90 t
np
77.04 332.38 m
190.36 0 l
0 191.52 l
-190.36 0 l
0 -191.52 l
o
18.00 258.94 297.64 582.94 cl
/Font2 findfont 14 s
0 0 0 srgb
172.22 548.40 (f71) .5 0 t
/Font1 findfont 12 s
172.22 263.26 (Locations plot) .5 0 t
172.22 277.66 (X) .5 0 t
30.96 428.14 (Y) .5 90 t
356.68 332.38 547.04 523.90 cl
356.68 332.38 547.04 523.90 cl
0 0 0 srgb
0.75 setlinewidth
[] 0 setdash
1 setlinecap
1 setlinejoin
10.00 setmiterlimit
np
363.73 458.88 m
1.71 0 l
0 57.55 l
0.85 0 l
0 0.23 l
0.86 0 l
0 -25.04 l
0.86 0 l
0 22.36 l
0.85 0 l
0 -5.73 l
3.42 0 l
0 2.87 l
3.43 0 l
0 -18.91 l
0.85 0 l
0 24.38 l
0.86 0 l
0 -9.06 l
3.42 0 l
0 -168.05 l
3.42 0 l
0 176.90 l
2.57 0 l
0 0.05 l
5.13 0 l
0 -4.11 l
0 0 l
0 3.06 l
1.71 0 l
0 1.42 l
0.86 0 l
0 -4.29 l
0 0 l
0 -18.91 l
4.28 0 l
0 10.82 l
1.71 0 l
0 5.13 l
2.57 0 l
0 -13.67 l
0 0 l
0 10.99 l
3.42 0 l
0 -4.88 l
1.71 0 l
0 -10.18 l
0 0 l
0 25.00 l
3.42 0 l
0 -12.79 l
4.28 0 l
0 6.74 l
1.71 0 l
0 -6.49 l
0.86 0 l
0 6.76 l
0.85 0 l
0 -2.57 l
4.28 0 l
0 1.14 l
0.86 0 l
0 -6.62 l
1.71 0 l
0 -70.14 l
0.85 0 l
0 83.77 l
0.86 0 l
0 -23.52 l
2.57 0 l
0 20.06 l
2.56 0 l
0 0.32 l
0 0 l
0 1.68 l
10.27 0 l
0 -2.38 l
5.99 0 l
0 -4.31 l
0.86 0 l
0 7.42 l
0.85 0 l
0 0.59 l
1.71 0 l
0 0.31 l
0.86 0 l
0 -0.08 l
1.71 0 l
0 -4.46 l
0 0 l
0 -10.80 l
4.28 0 l
0 -13.67 l
1.71 0 l
0 22.50 l
5.13 0 l
0 -1.36 l
4.28 0 l
0 7.43 l
3.42 0 l
474.10 505.63 lineto
0.86 0 l
0 9.33 l
7.70 0 l
0 1.85 l
0.85 0 l
0 -0.06 l
0.86 0 l
0 -1.10 l
0.86 0 l
0 -57.48 l
0.85 0 l
0 40.21 l
8.56 0 l
0 15.32 l
5.13 0 l
0 2.04 l
1.71 0 l
0 -14.88 l
1.71 0 l
0 14.49 l
0 0 l
0 -30.79 l
3.43 0 l
0 28.44 l
6.84 0 l
0 3.70 l
1.71 0 l
0 -0.95 l
2.57 0 l
0 -18.11 l
5.99 0 l
0 13.02 l
5.99 0 l
0 -4.19 l
0.85 0 l
0 3.76 l
3.43 0 l
0 -23.47 l
5.99 0 l
0 9.96 l
o
18.00 258.94 577.28 582.94 cl
0 0 0 srgb
0.75 setlinewidth
[] 0 setdash
1 setlinecap
1 setlinejoin
10.00 setmiterlimit
np
362.02 332.38 m
171.12 0 l
o
np
362.02 332.38 m
0 -7.20 l
o
np
404.80 332.38 m
0 -7.20 l
o
np
447.58 332.38 m
0 -7.20 l
o
np
490.36 332.38 m
0 -7.20 l
o
np
533.14 332.38 m
0 -7.20 l
o
/Font1 findfont 12 s
362.02 306.46 (0) .5 0 t
404.80 306.46 (50) .5 0 t
447.58 306.46 (100) .5 0 t
490.36 306.46 (150) .5 0 t
533.14 306.46 (200) .5 0 t
np
356.68 352.70 m
0 164.14 l
o
np
356.68 352.70 m
-7.20 0 l
o
np
356.68 393.74 m
-7.20 0 l
o
np
356.68 434.77 m
-7.20 0 l
o
np
356.68 475.81 m
-7.20 0 l
o
np
356.68 516.84 m
-7.20 0 l
o
339.40 352.70 (-20000) .5 90 t
339.40 434.77 (-10000) .5 90 t
339.40 516.84 (0) .5 90 t
np
356.68 332.38 m
190.36 0 l
0 191.52 l
-190.36 0 l
0 -191.52 l
o
297.64 258.94 577.28 582.94 cl
/Font2 findfont 14 s
0 0 0 srgb
451.86 548.40 (f71D) .5 0 t
/Font1 findfont 12 s
451.86 263.26 (Requests time) .5 0 t
451.86 277.66 (Time) .5 0 t
310.60 428.14 (Requests) .5 90 t
ep
%%Page: 4 4
bp
77.04 332.38 267.40 523.90 cl
18.00 258.94 297.64 582.94 cl
/Font2 findfont 14 s
0 0 0 srgb
172.22 548.40 (f71) .5 0 t
/Font1 findfont 12 s
97.86 263.26 (Requests v) 0 ta
-0.300 (olume histogr) tb
-0.120 (am) tb gr
151.88 277.66 (V) 0 ta
-0.960 (olume) tb gr
30.96 387.46 (No) 90 ta
-0.480 (. of requests) tb gr
18.00 258.94 577.28 582.94 cl
0 0 0 srgb
0.75 setlinewidth
[] 0 setdash
1 setlinecap
1 setlinejoin
10.00 setmiterlimit
np
84.09 332.38 m
160.23 0 l
o
np
84.09 332.38 m
0 -7.20 l
o
np
124.15 332.38 m
0 -7.20 l
o
np
164.21 332.38 m
0 -7.20 l
o
np
204.27 332.38 m
0 -7.20 l
o
np
244.32 332.38 m
0 -7.20 l
o
/Font1 findfont 12 s
84.09 306.46 (0) .5 0 t
124.15 306.46 (5000) .5 0 t
164.21 306.46 (10000) .5 0 t
244.32 306.46 (20000) .5 0 t
np
77.04 339.48 m
0 161.21 l
o
np
77.04 339.48 m
-7.20 0 l
o
np
77.04 371.72 m
-7.20 0 l
o
np
77.04 403.96 m
-7.20 0 l
o
np
77.04 436.21 m
-7.20 0 l
o
np
77.04 468.45 m
-7.20 0 l
o
np
77.04 500.69 m
-7.20 0 l
o
59.76 339.48 (0) .5 90 t
59.76 371.72 (10) .5 90 t
59.76 403.96 (20) .5 90 t
59.76 436.21 (30) .5 90 t
59.76 468.45 (40) .5 90 t
59.76 500.69 (50) .5 90 t
77.04 332.38 267.40 523.90 cl
0 0 0 srgb
0.75 setlinewidth
[] 0 setdash
1 setlinecap
1 setlinejoin
10.00 setmiterlimit
84.09 339.48 16.02 177.33 r p1
100.11 339.48 16.02 38.69 r p1
116.14 339.48 16.02 0.00 r p1
132.16 339.48 16.02 6.45 r p1
148.18 339.48 16.02 0.00 r p1
164.21 339.48 16.02 3.22 r p1
180.23 339.48 16.02 0.00 r p1
196.25 339.48 16.02 0.00 r p1
212.28 339.48 16.02 0.00 r p1
228.30 339.48 16.02 0.00 r p1
244.32 339.48 16.02 3.22 r p1
356.68 332.38 547.04 523.90 cl
ep
%%Trailer
%%Pages: 4
%%EOF
