%!PS-Adobe-3.0
%%DocumentNeededResources: font Helvetica
%%+ font Helvetica-Bold
%%+ font Helvetica-Oblique
%%+ font Helvetica-BoldOblique
%%+ font Symbol
%%DocumentMedia: a4 595 841 0 () ()
%%Title: R Graphics Output
%%Creator: R Software
%%Pages: (atend)
%%Orientation: Portrait
%%BoundingBox: 18 259 577 583
%%EndComments
%%BeginProlog
/bp  { gs sRGB gs } def
% begin .ps.prolog
/gs  { gsave } bind def
/gr  { grestore } bind def
/ep  { showpage gr gr } bind def
/m   { moveto } bind def
/l  { rlineto } bind def
/np  { newpath } bind def
/cp  { closepath } bind def
/f   { fill } bind def
/o   { stroke } bind def
/c   { newpath 0 360 arc } bind def
/r   { 4 2 roll moveto 1 copy 3 -1 roll exch 0 exch rlineto 0 rlineto -1 mul 0 exch rlineto closepath } bind def
/p1  { stroke } bind def
/p2  { gsave bg fill grestore newpath } bind def
/p3  { gsave bg fill grestore stroke } bind def
/p6  { gsave bg eofill grestore newpath } bind def
/p7  { gsave bg eofill grestore stroke } bind def
/t   { 5 -2 roll moveto gsave rotate
       1 index stringwidth pop
       mul neg 0 rmoveto show grestore } bind def
/ta  { 4 -2 roll moveto gsave rotate show } bind def
/tb  { 2 -1 roll 0 rmoveto show } bind def
/cl  { grestore gsave newpath 3 index 3 index moveto 1 index
       4 -1 roll lineto  exch 1 index lineto lineto
       closepath clip newpath } bind def
/rgb { setrgbcolor } bind def
/s   { scalefont setfont } bind def
% end   .ps.prolog
/sRGB { [ /CIEBasedABC
          << /DecodeLMN
               [ { dup 0.03928 le
                        {12.92321 div}
                        {0.055 add 1.055 div 2.4 exp }
                     ifelse
                 } bind dup dup
               ]
             /MatrixLMN [0.412457 0.212673 0.019334
                         0.357576 0.715152 0.119192
                         0.180437 0.072175 0.950301]
             /WhitePoint [0.9505 1.0 1.0890]
           >>
         ] setcolorspace } bind def
/srgb { setcolor } bind def
% begin encoding
/WinAnsiEncoding [
 /.notdef /.notdef /.notdef /.notdef /.notdef /.notdef /.notdef /.notdef
 /.notdef /.notdef /.notdef /.notdef /.notdef /.notdef /.notdef /.notdef
 /.notdef /.notdef /.notdef /.notdef /.notdef /.notdef /.notdef /.notdef
 /.notdef /.notdef /.notdef /.notdef /.notdef /.notdef /.notdef /.notdef
 /space /exclam /quotedbl /numbersign /dollar /percent /ampersand /quoteright
 /parenleft /parenright /asterisk /plus /comma /minus /period /slash
 /zero /one /two /three /four /five /six /seven
 /eight /nine /colon /semicolon /less /equal /greater /question
 /at /A /B /C /D /E /F /G
 /H /I /J /K /L /M /N /O
 /P /Q /R /S /T /U /V /W
 /X /Y /Z /bracketleft /backslash /bracketright /asciicircum /underscore
 /grave /a /b /c /d /e /f /g
 /h /i /j /k /l /m /n /o
 /p /q /r /s /t /u /v /w
 /x /y /z /braceleft /bar /braceright /asciitilde /.notdef
 /Euro /.notdef /quotesinglbase /florin /quotedblbase /ellipsis /dagger /daggerdbl
 /circumflex /perthousand /Scaron /guilsinglleft /OE /.notdef /Zcaron /.notdef
 /.notdef /quoteleft /quoteright /quotedblleft /quotedblright /bullet /endash /emdash
 /tilde /trademark /scaron /guilsinglright /oe /.notdef /zcaron /Ydieresis
 /space /exclamdown /cent /sterling /currency /yen /brokenbar /section
 /dieresis /copyright /ordfeminine /guillemotleft /logicalnot /hyphen /registered /macron
 /degree /plusminus /twosuperior /threesuperior /acute /mu /paragraph /periodcentered
 /cedilla /onesuperior /ordmasculine /guillemotright /onequarter /onehalf /threequarters /questiondown
 /Agrave /Aacute /Acircumflex /Atilde /Adieresis /Aring /AE /Ccedilla
 /Egrave /Eacute /Ecircumflex /Edieresis /Igrave /Iacute /Icircumflex /Idieresis
 /Eth /Ntilde /Ograve /Oacute /Ocircumflex /Otilde /Odieresis /multiply
 /Oslash /Ugrave /Uacute /Ucircumflex /Udieresis /Yacute /Thorn /germandbls
 /agrave /aacute /acircumflex /atilde /adieresis /aring /ae /ccedilla
 /egrave /eacute /ecircumflex /edieresis /igrave /iacute /icircumflex /idieresis
 /eth /ntilde /ograve /oacute /ocircumflex /otilde /odieresis /divide
 /oslash /ugrave /uacute /ucircumflex /udieresis /yacute /thorn /ydieresis
]
 def
% end encoding
%%IncludeResource: font Helvetica
/Helvetica findfont
dup length dict begin
  {1 index /FID ne {def} {pop pop} ifelse} forall
  /Encoding WinAnsiEncoding def
  currentdict
  end
/Font1 exch definefont pop
%%IncludeResource: font Helvetica-Bold
/Helvetica-Bold findfont
dup length dict begin
  {1 index /FID ne {def} {pop pop} ifelse} forall
  /Encoding WinAnsiEncoding def
  currentdict
  end
/Font2 exch definefont pop
%%IncludeResource: font Helvetica-Oblique
/Helvetica-Oblique findfont
dup length dict begin
  {1 index /FID ne {def} {pop pop} ifelse} forall
  /Encoding WinAnsiEncoding def
  currentdict
  end
/Font3 exch definefont pop
%%IncludeResource: font Helvetica-BoldOblique
/Helvetica-BoldOblique findfont
dup length dict begin
  {1 index /FID ne {def} {pop pop} ifelse} forall
  /Encoding WinAnsiEncoding def
  currentdict
  end
/Font4 exch definefont pop
%%IncludeResource: font Symbol
/Symbol findfont
dup length dict begin
  {1 index /FID ne {def} {pop pop} ifelse} forall
  currentdict
  end
/Font5 exch definefont pop
%%EndProlog
%%Page: 1 1
bp
77.04 332.38 267.40 523.90 cl
0 0 0 srgb
0.75 setlinewidth
[] 0 setdash
1 setlinecap
1 setlinejoin
10.00 setmiterlimit
136.31 405.54 2.70 c p1
116.73 409.02 2.70 c p1
208.12 363.82 2.70 c p1
227.71 353.39 2.70 c p1
208.12 367.30 2.70 c p1
155.90 384.68 2.70 c p1
227.71 349.91 2.70 c p1
221.18 353.39 2.70 c p1
260.35 339.48 2.70 c p1
168.95 367.30 2.70 c p1
142.84 409.02 2.70 c p1
123.26 395.11 2.70 c p1
123.26 398.59 2.70 c p1
142.84 419.45 2.70 c p1
123.26 409.02 2.70 c p1
116.73 395.11 2.70 c p1
116.73 398.59 2.70 c p1
155.90 405.54 2.70 c p1
123.26 412.50 2.70 c p1
234.24 447.27 2.70 c p1
247.29 457.70 2.70 c p1
247.29 461.18 2.70 c p1
227.71 454.22 2.70 c p1
221.18 457.70 2.70 c p1
221.18 461.18 2.70 c p1
227.71 457.70 2.70 c p1
253.82 475.09 2.70 c p1
247.29 468.13 2.70 c p1
234.24 450.75 2.70 c p1
240.76 454.22 2.70 c p1
175.48 429.88 2.70 c p1
175.48 433.36 2.70 c p1
162.43 419.45 2.70 c p1
168.95 433.36 2.70 c p1
168.95 415.97 2.70 c p1
168.95 419.45 2.70 c p1
84.09 468.13 2.70 c p1
84.09 471.61 2.70 c p1
136.31 461.18 2.70 c p1
84.09 478.56 2.70 c p1
175.48 454.22 2.70 c p1
227.71 499.43 2.70 c p1
227.71 502.90 2.70 c p1
221.18 499.43 2.70 c p1
208.12 509.86 2.70 c p1
221.18 502.90 2.70 c p1
201.60 495.95 2.70 c p1
201.60 499.43 2.70 c p1
188.54 488.99 2.70 c p1
188.54 492.47 2.70 c p1
182.01 488.99 2.70 c p1
182.01 516.81 2.70 c p1
221.18 506.38 2.70 c p1
175.48 443.79 2.70 c p1
175.48 447.27 2.70 c p1
155.90 447.27 2.70 c p1
155.90 450.75 2.70 c p1
136.31 443.79 2.70 c p1
136.31 447.27 2.70 c p1
142.84 436.84 2.70 c p1
142.84 440.31 2.70 c p1
123.26 440.31 2.70 c p1
123.26 443.79 2.70 c p1
116.73 440.31 2.70 c p1
116.73 443.79 2.70 c p1
110.20 450.75 2.70 c p1
110.20 454.22 2.70 c p1
116.73 461.18 2.70 c p1
84.09 461.18 2.70 c p1
182.01 492.47 2.70 c p1
155.90 388.16 2.70 c p1
18.00 258.94 577.28 582.94 cl
0 0 0 srgb
0.75 setlinewidth
[] 0 setdash
1 setlinecap
1 setlinejoin
10.00 setmiterlimit
np
84.09 332.38 m
163.20 0 l
o
np
84.09 332.38 m
0 -7.20 l
o
np
116.73 332.38 m
0 -7.20 l
o
np
149.37 332.38 m
0 -7.20 l
o
np
182.01 332.38 m
0 -7.20 l
o
np
214.65 332.38 m
0 -7.20 l
o
np
247.29 332.38 m
0 -7.20 l
o
/Font1 findfont 12 s
84.09 306.46 (-20) .5 0 t
116.73 306.46 (-15) .5 0 t
149.37 306.46 (-10) .5 0 t
182.01 306.46 (-5) .5 0 t
214.65 306.46 (0) .5 0 t
247.29 306.46 (5) .5 0 t
np
77.04 356.86 m
0 139.09 l
o
np
77.04 356.86 m
-7.20 0 l
o
np
77.04 391.64 m
-7.20 0 l
o
np
77.04 426.41 m
-7.20 0 l
o
np
77.04 461.18 m
-7.20 0 l
o
np
77.04 495.95 m
-7.20 0 l
o
59.76 356.86 (-20) .5 90 t
59.76 391.64 (-10) .5 90 t
59.76 426.41 (0) .5 90 t
59.76 461.18 (10) .5 90 t
59.76 495.95 (20) .5 90 t
np
77.04 332.38 m
190.36 0 l
0 191.52 l
-190.36 0 l
0 -191.52 l
o
18.00 258.94 297.64 582.94 cl
/Font2 findfont 14 s
0 0 0 srgb
172.22 548.40 (f71) .5 0 t
/Font1 findfont 12 s
172.22 263.26 (Locations plot) .5 0 t
172.22 277.66 (X) .5 0 t
30.96 428.14 (Y) .5 90 t
356.68 332.38 547.04 523.90 cl
356.68 332.38 547.04 523.90 cl
0 0 0 srgb
0.75 setlinewidth
[] 0 setdash
1 setlinecap
1 setlinejoin
10.00 setmiterlimit
np
363.73 458.88 m
1.71 0 l
0 57.55 l
0.85 0 l
0 0.23 l
0.86 0 l
0 -25.04 l
0.86 0 l
0 22.36 l
0.85 0 l
0 -5.73 l
3.42 0 l
0 2.87 l
3.43 0 l
0 -18.91 l
0.85 0 l
0 24.38 l
0.86 0 l
0 -9.06 l
3.42 0 l
0 -168.05 l
3.42 0 l
0 176.90 l
2.57 0 l
0 0.05 l
5.13 0 l
0 -4.11 l
0 0 l
0 3.06 l
1.71 0 l
0 1.42 l
0.86 0 l
0 -4.29 l
0 0 l
0 -18.91 l
4.28 0 l
0 10.82 l
1.71 0 l
0 5.13 l
2.57 0 l
0 -13.67 l
0 0 l
0 10.99 l
3.42 0 l
0 -4.88 l
1.71 0 l
0 -10.18 l
0 0 l
0 25.00 l
3.42 0 l
0 -12.79 l
4.28 0 l
0 6.74 l
1.71 0 l
0 -6.49 l
0.86 0 l
0 6.76 l
0.85 0 l
0 -2.57 l
4.28 0 l
0 1.14 l
0.86 0 l
0 -6.62 l
1.71 0 l
0 -70.14 l
0.85 0 l
0 83.77 l
0.86 0 l
0 -23.52 l
2.57 0 l
0 20.06 l
2.56 0 l
0 0.32 l
0 0 l
0 1.68 l
10.27 0 l
0 -2.38 l
5.99 0 l
0 -4.31 l
0.86 0 l
0 7.42 l
0.85 0 l
0 0.59 l
1.71 0 l
0 0.31 l
0.86 0 l
0 -0.08 l
1.71 0 l
0 -4.46 l
0 0 l
0 -10.80 l
4.28 0 l
0 -13.67 l
1.71 0 l
0 22.50 l
5.13 0 l
0 -1.36 l
4.28 0 l
0 7.43 l
3.42 0 l
474.10 505.63 lineto
0.86 0 l
0 9.33 l
7.70 0 l
0 1.85 l
0.85 0 l
0 -0.06 l
0.86 0 l
0 -1.10 l
0.86 0 l
0 -57.48 l
0.85 0 l
0 40.21 l
8.56 0 l
0 15.32 l
5.13 0 l
0 2.04 l
1.71 0 l
0 -14.88 l
1.71 0 l
0 14.49 l
0 0 l
0 -30.79 l
3.43 0 l
0 28.44 l
6.84 0 l
0 3.70 l
1.71 0 l
0 -0.95 l
2.57 0 l
0 -18.11 l
5.99 0 l
0 13.02 l
5.99 0 l
0 -4.19 l
0.85 0 l
0 3.76 l
3.43 0 l
0 -23.47 l
5.99 0 l
0 9.96 l
o
18.00 258.94 577.28 582.94 cl
0 0 0 srgb
0.75 setlinewidth
[] 0 setdash
1 setlinecap
1 setlinejoin
10.00 setmiterlimit
np
362.02 332.38 m
171.12 0 l
o
np
362.02 332.38 m
0 -7.20 l
o
np
404.80 332.38 m
0 -7.20 l
o
np
447.58 332.38 m
0 -7.20 l
o
np
490.36 332.38 m
0 -7.20 l
o
np
533.14 332.38 m
0 -7.20 l
o
/Font1 findfont 12 s
362.02 306.46 (0) .5 0 t
404.80 306.46 (50) .5 0 t
447.58 306.46 (100) .5 0 t
490.36 306.46 (150) .5 0 t
533.14 306.46 (200) .5 0 t
np
356.68 352.70 m
0 164.14 l
o
np
356.68 352.70 m
-7.20 0 l
o
np
356.68 393.74 m
-7.20 0 l
o
np
356.68 434.77 m
-7.20 0 l
o
np
356.68 475.81 m
-7.20 0 l
o
np
356.68 516.84 m
-7.20 0 l
o
339.40 352.70 (-20000) .5 90 t
339.40 434.77 (-10000) .5 90 t
339.40 516.84 (0) .5 90 t
np
356.68 332.38 m
190.36 0 l
0 191.52 l
-190.36 0 l
0 -191.52 l
o
297.64 258.94 577.28 582.94 cl
/Font2 findfont 14 s
0 0 0 srgb
451.86 548.40 (f71D) .5 0 t
/Font1 findfont 12 s
451.86 263.26 (Requests time) .5 0 t
451.86 277.66 (Time) .5 0 t
310.60 428.14 (Requests) .5 90 t
ep
%%Page: 2 2
bp
77.04 332.38 267.40 523.90 cl
18.00 258.94 297.64 582.94 cl
/Font2 findfont 14 s
0 0 0 srgb
172.22 548.40 (f71) .5 0 t
/Font1 findfont 12 s
97.86 263.26 (Requests v) 0 ta
-0.300 (olume histogr) tb
-0.120 (am) tb gr
151.88 277.66 (V) 0 ta
-0.960 (olume) tb gr
30.96 387.46 (No) 90 ta
-0.480 (. of requests) tb gr
18.00 258.94 577.28 582.94 cl
0 0 0 srgb
0.75 setlinewidth
[] 0 setdash
1 setlinecap
1 setlinejoin
10.00 setmiterlimit
np
84.09 332.38 m
160.23 0 l
o
np
84.09 332.38 m
0 -7.20 l
o
np
124.15 332.38 m
0 -7.20 l
o
np
164.21 332.38 m
0 -7.20 l
o
np
204.27 332.38 m
0 -7.20 l
o
np
244.32 332.38 m
0 -7.20 l
o
/Font1 findfont 12 s
84.09 306.46 (0) .5 0 t
124.15 306.46 (5000) .5 0 t
164.21 306.46 (10000) .5 0 t
244.32 306.46 (20000) .5 0 t
np
77.04 339.48 m
0 161.21 l
o
np
77.04 339.48 m
-7.20 0 l
o
np
77.04 371.72 m
-7.20 0 l
o
np
77.04 403.96 m
-7.20 0 l
o
np
77.04 436.21 m
-7.20 0 l
o
np
77.04 468.45 m
-7.20 0 l
o
np
77.04 500.69 m
-7.20 0 l
o
59.76 339.48 (0) .5 90 t
59.76 371.72 (10) .5 90 t
59.76 403.96 (20) .5 90 t
59.76 436.21 (30) .5 90 t
59.76 468.45 (40) .5 90 t
59.76 500.69 (50) .5 90 t
77.04 332.38 267.40 523.90 cl
0 0 0 srgb
0.75 setlinewidth
[] 0 setdash
1 setlinecap
1 setlinejoin
10.00 setmiterlimit
84.09 339.48 16.02 177.33 r p1
100.11 339.48 16.02 38.69 r p1
116.14 339.48 16.02 0.00 r p1
132.16 339.48 16.02 6.45 r p1
148.18 339.48 16.02 0.00 r p1
164.21 339.48 16.02 3.22 r p1
180.23 339.48 16.02 0.00 r p1
196.25 339.48 16.02 0.00 r p1
212.28 339.48 16.02 0.00 r p1
228.30 339.48 16.02 0.00 r p1
244.32 339.48 16.02 3.22 r p1
ep
%%Page: 3 3
bp
77.04 332.38 267.40 523.90 cl
77.04 332.38 267.40 523.90 cl
0 0 0 srgb
0.75 setlinewidth
[] 0 setdash
1 setlinecap
1 setlinejoin
10.00 setmiterlimit
150.19 476.07 2.70 c p1
138.69 474.87 2.70 c p1
136.78 494.05 2.70 c p1
163.60 510.82 2.70 c p1
169.35 490.45 2.70 c p1
134.86 514.42 2.70 c p1
139.65 473.68 2.70 c p1
169.35 478.47 2.70 c p1
166.47 485.66 2.70 c p1
155.93 514.42 2.70 c p1
169.35 501.23 2.70 c p1
163.60 491.65 2.70 c p1
156.89 490.45 2.70 c p1
148.27 483.26 2.70 c p1
138.69 486.86 2.70 c p1
166.47 476.07 2.70 c p1
137.73 510.82 2.70 c p1
146.36 516.81 2.70 c p1
163.60 363.44 2.70 c p1
177.01 351.46 2.70 c p1
163.60 339.48 2.70 c p1
166.47 356.25 2.70 c p1
170.30 349.06 2.70 c p1
193.29 367.04 2.70 c p1
192.34 374.23 2.70 c p1
195.21 385.01 2.70 c p1
182.76 340.68 2.70 c p1
174.13 382.61 2.70 c p1
177.97 346.67 2.70 c p1
200.00 374.23 2.70 c p1
187.55 358.65 2.70 c p1
194.25 345.47 2.70 c p1
192.34 356.25 2.70 c p1
177.01 351.46 2.70 c p1
191.38 382.61 2.70 c p1
174.13 344.27 2.70 c p1
175.09 381.42 2.70 c p1
199.04 376.62 2.70 c p1
241.19 472.48 2.70 c p1
222.03 438.93 2.70 c p1
229.69 479.67 2.70 c p1
201.91 448.51 2.70 c p1
198.08 482.06 2.70 c p1
237.36 465.29 2.70 c p1
237.36 462.89 2.70 c p1
206.70 470.08 2.70 c p1
199.04 437.73 2.70 c p1
215.33 473.68 2.70 c p1
207.66 480.87 2.70 c p1
214.37 474.87 2.70 c p1
210.54 476.07 2.70 c p1
178.92 412.57 2.70 c p1
161.68 393.40 2.70 c p1
162.64 399.39 2.70 c p1
166.47 389.80 2.70 c p1
168.39 383.81 2.70 c p1
167.43 391.00 2.70 c p1
162.64 406.58 2.70 c p1
178.92 407.78 2.70 c p1
165.51 395.79 2.70 c p1
169.35 383.81 2.70 c p1
158.81 385.01 2.70 c p1
172.22 387.41 2.70 c p1
164.56 391.00 2.70 c p1
170.30 380.22 2.70 c p1
246.94 398.19 2.70 c p1
212.45 425.75 2.70 c p1
226.82 369.43 2.70 c p1
257.47 398.19 2.70 c p1
222.03 387.41 2.70 c p1
260.35 389.80 2.70 c p1
241.19 395.79 2.70 c p1
231.61 371.83 2.70 c p1
211.49 367.04 2.70 c p1
234.48 408.97 2.70 c p1
101.33 466.49 2.70 c p1
117.62 477.27 2.70 c p1
116.66 478.47 2.70 c p1
115.70 484.46 2.70 c p1
119.53 485.66 2.70 c p1
125.28 476.07 2.70 c p1
105.16 489.25 2.70 c p1
107.08 489.25 2.70 c p1
115.70 484.46 2.70 c p1
121.45 494.05 2.70 c p1
115.70 477.27 2.70 c p1
100.37 478.47 2.70 c p1
109.95 480.87 2.70 c p1
101.33 476.07 2.70 c p1
124.32 490.45 2.70 c p1
107.08 474.87 2.70 c p1
100.37 495.24 2.70 c p1
123.36 486.86 2.70 c p1
93.67 477.27 2.70 c p1
99.42 459.30 2.70 c p1
84.09 474.87 2.70 c p1
92.71 460.50 2.70 c p1
155.93 459.30 2.70 c p1
166.47 441.33 2.70 c p1
177.97 455.70 2.70 c p1
18.00 258.94 577.28 582.94 cl
0 0 0 srgb
0.75 setlinewidth
[] 0 setdash
1 setlinecap
1 setlinejoin
10.00 setmiterlimit
np
107.08 332.38 m
143.69 0 l
o
np
107.08 332.38 m
0 -7.20 l
o
np
154.98 332.38 m
0 -7.20 l
o
np
202.87 332.38 m
0 -7.20 l
o
np
250.77 332.38 m
0 -7.20 l
o
/Font1 findfont 12 s
107.08 306.46 (-50) .5 0 t
154.98 306.46 (0) .5 0 t
202.87 306.46 (50) .5 0 t
250.77 306.46 (100) .5 0 t
np
77.04 392.20 m
0 119.82 l
o
np
77.04 392.20 m
-7.20 0 l
o
np
77.04 452.11 m
-7.20 0 l
o
np
77.04 512.02 m
-7.20 0 l
o
59.76 392.20 (0) .5 90 t
59.76 452.11 (50) .5 90 t
59.76 512.02 (100) .5 90 t
np
77.04 332.38 m
190.36 0 l
0 191.52 l
-190.36 0 l
0 -191.52 l
o
18.00 258.94 297.64 582.94 cl
/Font2 findfont 14 s
0 0 0 srgb
172.22 548.40 (tai100a) .5 0 t
/Font1 findfont 12 s
172.22 263.26 (Locations plot) .5 0 t
172.22 277.66 (X) .5 0 t
30.96 428.14 (Y) .5 90 t
356.68 332.38 547.04 523.90 cl
356.68 332.38 547.04 523.90 cl
0 0 0 srgb
0.75 setlinewidth
[] 0 setdash
1 setlinecap
1 setlinejoin
10.00 setmiterlimit
np
363.73 515.07 m
3.94 0 l
0 -18.95 l
0 0 l
0 16.00 l
6.89 0 l
0 4.69 l
2.76 0 l
0 -0.35 l
3.74 0 l
0 -72.49 l
0.20 0 l
0 71.10 l
0.39 0 l
0 -1.56 l
0.39 0 l
0 -26.25 l
1.18 0 l
0 22.95 l
0.99 0 l
0 5.73 l
0.98 0 l
0 0 l
0 0 l
0 -17.73 l
0 0 l
0 -15.30 l
2.56 0 l
0 -32.34 l
0.40 0 l
0 33.21 l
0.59 0 l
0 -7.82 l
2.56 0 l
0 -4.70 l
2.17 0 l
0 45.55 l
0.59 0 l
0 -81.02 l
0.19 0 l
0 80.33 l
2.76 0 l
0 0.17 l
6.50 0 l
0 -17.73 l
0.98 0 l
0 17.03 l
0.20 0 l
0 -5.21 l
1.77 0 l
0 -103.45 l
2.17 0 l
0 101.88 l
1.38 0 l
0 -17.38 l
1.18 0 l
0 -44.16 l
0.98 0 l
0 62.76 l
0.40 0 l
0 -4.87 l
1.38 0 l
0 -22.77 l
2.16 0 l
0 23.47 l
1.58 0 l
0 -79.98 l
3.54 0 l
0 90.41 l
0.99 0 l
0 -47.46 l
0.39 0 l
0 20.69 l
0 0 l
0 27.29 l
3.35 0 l
0 -0.17 l
0 0 l
0 -17.56 l
0.98 0 l
0 10.26 l
3.75 0 l
0 -74.41 l
0.19 0 l
0 81.19 l
1.78 0 l
0 0 l
0.39 0 l
0 -16.00 l
0 0 l
0 -4.69 l
0.98 0 l
0 1.21 l
0 0 l
0 12.70 l
3.16 0 l
0 -39.47 l
0.78 0 l
0 31.64 l
0.20 0 l
438.17 466.22 lineto
2.95 0 l
0 50.42 l
2.37 0 l
0 -13.39 l
3.15 0 l
0 -35.47 l
2.95 0 l
0 33.91 l
1.97 0 l
0 -64.68 l
0.79 0 l
0 69.02 l
2.76 0 l
0 10.26 l
0 0 l
0 0.35 l
0.98 0 l
0 -91.28 l
2.36 0 l
0 63.29 l
11.62 0 l
0 27.99 l
0.40 0 l
0 -67.81 l
1.57 0 l
0 67.98 l
3.55 0 l
0 -9.91 l
0.79 0 l
0 -145.86 l
0.59 0 l
0 126.91 l
0 0 l
0 27.64 l
4.13 0 l
0 -6.43 l
8.86 0 l
0 1.74 l
0.59 0 l
0 2.43 l
0.99 0 l
0 -0.34 l
1.77 0 l
0 -72.85 l
1.18 0 l
0 76.67 l
1.38 0 l
0 -16.69 l
2.96 0 l
0 7.13 l
1.18 0 l
0 8.87 l
3.35 0 l
0 -0.70 l
0.98 0 l
0 -0.69 l
0.59 0 l
0 -63.64 l
0.59 0 l
0 65.03 l
1.77 0 l
0 -5.57 l
1.19 0 l
0 -80.49 l
0.39 0 l
0 67.28 l
0.39 0 l
0 5.22 l
3.15 0 l
0 14.25 l
1.97 0 l
0 -23.12 l
1.97 0 l
0 4.35 l
0.99 0 l
0 7.82 l
1.57 0 l
0 2.78 l
2.37 0 l
0 -35.12 l
3.15 0 l
0 43.12 l
0.39 0 l
0 -20.00 l
3.55 0 l
0 -109.00 l
0 0 l
0 128.65 l
5.31 0 l
0 -7.82 l
1.58 0 l
0 -47.12 l
0.59 0 l
0 -121.87 l
3.54 0 l
0 176.98 l
0.60 0 l
0 -0.87 l
o
18.00 258.94 577.28 582.94 cl
0 0 0 srgb
0.75 setlinewidth
[] 0 setdash
1 setlinecap
1 setlinejoin
10.00 setmiterlimit
np
363.53 332.38 m
157.55 0 l
o
np
363.53 332.38 m
0 -7.20 l
o
np
402.92 332.38 m
0 -7.20 l
o
np
442.31 332.38 m
0 -7.20 l
o
np
481.69 332.38 m
0 -7.20 l
o
np
521.08 332.38 m
0 -7.20 l
o
/Font1 findfont 12 s
363.53 306.46 (0) .5 0 t
402.92 306.46 (200) .5 0 t
442.31 306.46 (400) .5 0 t
481.69 306.46 (600) .5 0 t
521.08 306.46 (800) .5 0 t
np
356.68 343.48 m
0 173.85 l
o
np
356.68 343.48 m
-7.20 0 l
o
np
356.68 378.25 m
-7.20 0 l
o
np
356.68 413.02 m
-7.20 0 l
o
np
356.68 447.79 m
-7.20 0 l
o
np
356.68 482.56 m
-7.20 0 l
o
np
356.68 517.33 m
-7.20 0 l
o
339.40 343.48 (-1000) .5 90 t
339.40 413.02 (-600) .5 90 t
339.40 482.56 (-200) .5 90 t
339.40 517.33 (0) .5 90 t
np
356.68 332.38 m
190.36 0 l
0 191.52 l
-190.36 0 l
0 -191.52 l
o
297.64 258.94 577.28 582.94 cl
/Font2 findfont 14 s
0 0 0 srgb
451.86 548.40 (tai100aD) .5 0 t
/Font1 findfont 12 s
451.86 263.26 (Requests time) .5 0 t
451.86 277.66 (Time) .5 0 t
310.60 428.14 (Requests) .5 90 t
ep
%%Page: 4 4
bp
77.04 332.38 267.40 523.90 cl
18.00 258.94 297.64 582.94 cl
/Font2 findfont 14 s
0 0 0 srgb
172.22 548.40 (tai100a) .5 0 t
/Font1 findfont 12 s
97.86 263.26 (Requests v) 0 ta
-0.300 (olume histogr) tb
-0.120 (am) tb gr
151.88 277.66 (V) 0 ta
-0.960 (olume) tb gr
30.96 387.46 (No) 90 ta
-0.480 (. of requests) tb gr
18.00 258.94 577.28 582.94 cl
0 0 0 srgb
0.75 setlinewidth
[] 0 setdash
1 setlinecap
1 setlinejoin
10.00 setmiterlimit
np
84.09 332.38 m
160.23 0 l
o
np
84.09 332.38 m
0 -7.20 l
o
np
116.14 332.38 m
0 -7.20 l
o
np
148.18 332.38 m
0 -7.20 l
o
np
180.23 332.38 m
0 -7.20 l
o
np
212.28 332.38 m
0 -7.20 l
o
np
244.32 332.38 m
0 -7.20 l
o
/Font1 findfont 12 s
84.09 306.46 (0) .5 0 t
116.14 306.46 (200) .5 0 t
148.18 306.46 (400) .5 0 t
180.23 306.46 (600) .5 0 t
212.28 306.46 (800) .5 0 t
np
77.04 339.48 m
0 183.45 l
o
np
77.04 339.48 m
-7.20 0 l
o
np
77.04 370.05 m
-7.20 0 l
o
np
77.04 400.63 m
-7.20 0 l
o
np
77.04 431.20 m
-7.20 0 l
o
np
77.04 461.78 m
-7.20 0 l
o
np
77.04 492.35 m
-7.20 0 l
o
np
77.04 522.93 m
-7.20 0 l
o
59.76 339.48 (0) .5 90 t
59.76 370.05 (10) .5 90 t
59.76 400.63 (20) .5 90 t
59.76 431.20 (30) .5 90 t
59.76 461.78 (40) .5 90 t
59.76 492.35 (50) .5 90 t
59.76 522.93 (60) .5 90 t
77.04 332.38 267.40 523.90 cl
0 0 0 srgb
0.75 setlinewidth
[] 0 setdash
1 setlinecap
1 setlinejoin
10.00 setmiterlimit
84.09 339.48 16.02 177.33 r p1
100.11 339.48 16.02 51.98 r p1
116.14 339.48 16.02 24.46 r p1
132.16 339.48 16.02 12.23 r p1
148.18 339.48 16.02 18.34 r p1
164.21 339.48 16.02 9.17 r p1
180.23 339.48 16.02 3.06 r p1
196.25 339.48 16.02 3.06 r p1
212.28 339.48 16.02 3.06 r p1
228.30 339.48 16.02 0.00 r p1
244.32 339.48 16.02 3.06 r p1
356.68 332.38 547.04 523.90 cl
ep
%%Trailer
%%Pages: 4
%%EOF
