%!PS-Adobe-3.0
%%DocumentNeededResources: font Helvetica
%%+ font Helvetica-Bold
%%+ font Helvetica-Oblique
%%+ font Helvetica-BoldOblique
%%+ font Symbol
%%DocumentMedia: a4 595 841 0 () ()
%%Title: R Graphics Output
%%Creator: R Software
%%Pages: (atend)
%%Orientation: Portrait
%%BoundingBox: 18 259 577 583
%%EndComments
%%BeginProlog
/bp  { gs sRGB gs } def
% begin .ps.prolog
/gs  { gsave } bind def
/gr  { grestore } bind def
/ep  { showpage gr gr } bind def
/m   { moveto } bind def
/l  { rlineto } bind def
/np  { newpath } bind def
/cp  { closepath } bind def
/f   { fill } bind def
/o   { stroke } bind def
/c   { newpath 0 360 arc } bind def
/r   { 4 2 roll moveto 1 copy 3 -1 roll exch 0 exch rlineto 0 rlineto -1 mul 0 exch rlineto closepath } bind def
/p1  { stroke } bind def
/p2  { gsave bg fill grestore newpath } bind def
/p3  { gsave bg fill grestore stroke } bind def
/p6  { gsave bg eofill grestore newpath } bind def
/p7  { gsave bg eofill grestore stroke } bind def
/t   { 5 -2 roll moveto gsave rotate
       1 index stringwidth pop
       mul neg 0 rmoveto show grestore } bind def
/ta  { 4 -2 roll moveto gsave rotate show } bind def
/tb  { 2 -1 roll 0 rmoveto show } bind def
/cl  { grestore gsave newpath 3 index 3 index moveto 1 index
       4 -1 roll lineto  exch 1 index lineto lineto
       closepath clip newpath } bind def
/rgb { setrgbcolor } bind def
/s   { scalefont setfont } bind def
% end   .ps.prolog
/sRGB { [ /CIEBasedABC
          << /DecodeLMN
               [ { dup 0.03928 le
                        {12.92321 div}
                        {0.055 add 1.055 div 2.4 exp }
                     ifelse
                 } bind dup dup
               ]
             /MatrixLMN [0.412457 0.212673 0.019334
                         0.357576 0.715152 0.119192
                         0.180437 0.072175 0.950301]
             /WhitePoint [0.9505 1.0 1.0890]
           >>
         ] setcolorspace } bind def
/srgb { setcolor } bind def
% begin encoding
/WinAnsiEncoding [
 /.notdef /.notdef /.notdef /.notdef /.notdef /.notdef /.notdef /.notdef
 /.notdef /.notdef /.notdef /.notdef /.notdef /.notdef /.notdef /.notdef
 /.notdef /.notdef /.notdef /.notdef /.notdef /.notdef /.notdef /.notdef
 /.notdef /.notdef /.notdef /.notdef /.notdef /.notdef /.notdef /.notdef
 /space /exclam /quotedbl /numbersign /dollar /percent /ampersand /quoteright
 /parenleft /parenright /asterisk /plus /comma /minus /period /slash
 /zero /one /two /three /four /five /six /seven
 /eight /nine /colon /semicolon /less /equal /greater /question
 /at /A /B /C /D /E /F /G
 /H /I /J /K /L /M /N /O
 /P /Q /R /S /T /U /V /W
 /X /Y /Z /bracketleft /backslash /bracketright /asciicircum /underscore
 /grave /a /b /c /d /e /f /g
 /h /i /j /k /l /m /n /o
 /p /q /r /s /t /u /v /w
 /x /y /z /braceleft /bar /braceright /asciitilde /.notdef
 /Euro /.notdef /quotesinglbase /florin /quotedblbase /ellipsis /dagger /daggerdbl
 /circumflex /perthousand /Scaron /guilsinglleft /OE /.notdef /Zcaron /.notdef
 /.notdef /quoteleft /quoteright /quotedblleft /quotedblright /bullet /endash /emdash
 /tilde /trademark /scaron /guilsinglright /oe /.notdef /zcaron /Ydieresis
 /space /exclamdown /cent /sterling /currency /yen /brokenbar /section
 /dieresis /copyright /ordfeminine /guillemotleft /logicalnot /hyphen /registered /macron
 /degree /plusminus /twosuperior /threesuperior /acute /mu /paragraph /periodcentered
 /cedilla /onesuperior /ordmasculine /guillemotright /onequarter /onehalf /threequarters /questiondown
 /Agrave /Aacute /Acircumflex /Atilde /Adieresis /Aring /AE /Ccedilla
 /Egrave /Eacute /Ecircumflex /Edieresis /Igrave /Iacute /Icircumflex /Idieresis
 /Eth /Ntilde /Ograve /Oacute /Ocircumflex /Otilde /Odieresis /multiply
 /Oslash /Ugrave /Uacute /Ucircumflex /Udieresis /Yacute /Thorn /germandbls
 /agrave /aacute /acircumflex /atilde /adieresis /aring /ae /ccedilla
 /egrave /eacute /ecircumflex /edieresis /igrave /iacute /icircumflex /idieresis
 /eth /ntilde /ograve /oacute /ocircumflex /otilde /odieresis /divide
 /oslash /ugrave /uacute /ucircumflex /udieresis /yacute /thorn /ydieresis
]
 def
% end encoding
%%IncludeResource: font Helvetica
/Helvetica findfont
dup length dict begin
  {1 index /FID ne {def} {pop pop} ifelse} forall
  /Encoding WinAnsiEncoding def
  currentdict
  end
/Font1 exch definefont pop
%%IncludeResource: font Helvetica-Bold
/Helvetica-Bold findfont
dup length dict begin
  {1 index /FID ne {def} {pop pop} ifelse} forall
  /Encoding WinAnsiEncoding def
  currentdict
  end
/Font2 exch definefont pop
%%IncludeResource: font Helvetica-Oblique
/Helvetica-Oblique findfont
dup length dict begin
  {1 index /FID ne {def} {pop pop} ifelse} forall
  /Encoding WinAnsiEncoding def
  currentdict
  end
/Font3 exch definefont pop
%%IncludeResource: font Helvetica-BoldOblique
/Helvetica-BoldOblique findfont
dup length dict begin
  {1 index /FID ne {def} {pop pop} ifelse} forall
  /Encoding WinAnsiEncoding def
  currentdict
  end
/Font4 exch definefont pop
%%IncludeResource: font Symbol
/Symbol findfont
dup length dict begin
  {1 index /FID ne {def} {pop pop} ifelse} forall
  currentdict
  end
/Font5 exch definefont pop
%%EndProlog
%%Page: 1 1
bp
77.04 332.38 267.40 523.90 cl
0 0 0 srgb
0.75 setlinewidth
[] 0 setdash
1 setlinecap
1 setlinejoin
10.00 setmiterlimit
155.24 495.95 2.70 c p1
149.58 495.95 2.70 c p1
148.77 505.34 2.70 c p1
161.71 513.68 2.70 c p1
164.13 503.25 2.70 c p1
147.96 515.77 2.70 c p1
149.58 494.91 2.70 c p1
164.94 496.99 2.70 c p1
163.33 501.16 2.70 c p1
158.47 515.77 2.70 c p1
164.94 508.47 2.70 c p1
161.71 504.29 2.70 c p1
158.47 503.25 2.70 c p1
154.43 499.08 2.70 c p1
149.58 502.21 2.70 c p1
163.33 495.95 2.70 c p1
149.58 513.68 2.70 c p1
153.62 516.81 2.70 c p1
179.50 350.95 2.70 c p1
185.96 345.74 2.70 c p1
179.50 339.48 2.70 c p1
181.11 347.82 2.70 c p1
182.73 344.69 2.70 c p1
194.05 353.04 2.70 c p1
193.24 357.21 2.70 c p1
194.86 362.43 2.70 c p1
188.39 339.48 2.70 c p1
184.35 361.38 2.70 c p1
186.77 342.61 2.70 c p1
197.28 357.21 2.70 c p1
191.62 348.87 2.70 c p1
194.86 342.61 2.70 c p1
193.24 347.82 2.70 c p1
185.96 345.74 2.70 c p1
193.24 361.38 2.70 c p1
184.35 342.61 2.70 c p1
185.16 360.34 2.70 c p1
197.28 358.25 2.70 c p1
240.94 474.04 2.70 c p1
231.24 457.35 2.70 c p1
235.28 477.17 2.70 c p1
222.35 462.57 2.70 c p1
220.73 478.22 2.70 c p1
238.52 469.87 2.70 c p1
238.52 468.83 2.70 c p1
223.96 473.00 2.70 c p1
220.73 457.35 2.70 c p1
228.01 474.04 2.70 c p1
224.77 478.22 2.70 c p1
228.01 475.09 2.70 c p1
226.39 476.13 2.70 c p1
177.07 399.98 2.70 c p1
168.98 389.55 2.70 c p1
168.98 392.68 2.70 c p1
171.41 387.46 2.70 c p1
172.22 384.33 2.70 c p1
171.41 388.51 2.70 c p1
168.98 395.81 2.70 c p1
177.07 396.85 2.70 c p1
170.60 390.59 2.70 c p1
172.22 384.33 2.70 c p1
167.37 385.38 2.70 c p1
173.84 386.42 2.70 c p1
169.79 388.51 2.70 c p1
173.03 382.25 2.70 c p1
253.88 393.72 2.70 c p1
238.52 407.28 2.70 c p1
244.18 380.16 2.70 c p1
258.73 393.72 2.70 c p1
242.56 388.51 2.70 c p1
260.35 389.55 2.70 c p1
251.45 392.68 2.70 c p1
247.41 382.25 2.70 c p1
237.71 379.12 2.70 c p1
248.22 398.94 2.70 c p1
104.30 479.26 2.70 c p1
113.20 485.52 2.70 c p1
113.20 486.56 2.70 c p1
112.39 489.69 2.70 c p1
114.81 490.73 2.70 c p1
118.05 485.52 2.70 c p1
106.73 492.82 2.70 c p1
107.54 492.82 2.70 c p1
112.39 489.69 2.70 c p1
115.62 495.95 2.70 c p1
112.39 485.52 2.70 c p1
104.30 486.56 2.70 c p1
109.15 487.60 2.70 c p1
105.11 484.47 2.70 c p1
117.24 493.86 2.70 c p1
108.35 484.47 2.70 c p1
104.30 495.95 2.70 c p1
117.24 491.78 2.70 c p1
88.94 476.13 2.70 c p1
92.18 466.74 2.70 c p1
84.09 475.09 2.70 c p1
88.94 466.74 2.70 c p1
163.33 455.27 2.70 c p1
168.98 446.92 2.70 c p1
175.45 454.22 2.70 c p1
164.94 446.92 2.70 c p1
174.64 458.40 2.70 c p1
159.28 450.05 2.70 c p1
173.84 444.84 2.70 c p1
170.60 458.40 2.70 c p1
174.64 442.75 2.70 c p1
164.94 438.58 2.70 c p1
160.90 441.71 2.70 c p1
173.03 456.31 2.70 c p1
168.18 440.66 2.70 c p1
160.90 453.18 2.70 c p1
161.71 450.05 2.70 c p1
173.84 439.62 2.70 c p1
232.86 356.17 2.70 c p1
232.86 358.25 2.70 c p1
223.16 356.17 2.70 c p1
232.05 366.60 2.70 c p1
233.67 360.34 2.70 c p1
219.92 369.73 2.70 c p1
229.62 350.95 2.70 c p1
225.58 356.17 2.70 c p1
228.01 361.38 2.70 c p1
232.86 364.51 2.70 c p1
224.77 355.13 2.70 c p1
229.62 355.13 2.70 c p1
224.77 357.21 2.70 c p1
229.62 371.82 2.70 c p1
225.58 355.13 2.70 c p1
231.24 367.64 2.70 c p1
198.09 381.20 2.70 c p1
205.37 379.12 2.70 c p1
210.22 378.07 2.70 c p1
202.13 369.73 2.70 c p1
211.84 382.25 2.70 c p1
211.03 371.82 2.70 c p1
204.56 364.51 2.70 c p1
189.20 383.29 2.70 c p1
122.90 477.17 2.70 c p1
129.37 489.69 2.70 c p1
128.56 487.60 2.70 c p1
126.94 500.12 2.70 c p1
130.98 501.16 2.70 c p1
120.47 501.16 2.70 c p1
135.84 494.91 2.70 c p1
127.75 487.60 2.70 c p1
132.60 480.30 2.70 c p1
138.26 486.56 2.70 c p1
121.28 501.16 2.70 c p1
129.37 496.99 2.70 c p1
130.18 481.34 2.70 c p1
18.00 258.94 577.28 582.94 cl
0 0 0 srgb
0.75 setlinewidth
[] 0 setdash
1 setlinecap
1 setlinejoin
10.00 setmiterlimit
np
77.62 332.38 m
161.71 0 l
o
np
77.62 332.38 m
0 -7.20 l
o
np
118.05 332.38 m
0 -7.20 l
o
np
158.47 332.38 m
0 -7.20 l
o
np
198.90 332.38 m
0 -7.20 l
o
np
239.33 332.38 m
0 -7.20 l
o
/Font1 findfont 12 s
77.62 306.46 (-100) .5 0 t
118.05 306.46 (-50) .5 0 t
158.47 306.46 (0) .5 0 t
198.90 306.46 (50) .5 0 t
239.33 306.46 (100) .5 0 t
np
77.04 333.22 m
0 156.47 l
o
np
77.04 333.22 m
-7.20 0 l
o
np
77.04 385.38 m
-7.20 0 l
o
np
77.04 437.53 m
-7.20 0 l
o
np
77.04 489.69 m
-7.20 0 l
o
59.76 333.22 (-50) .5 90 t
59.76 385.38 (0) .5 90 t
59.76 437.53 (50) .5 90 t
59.76 489.69 (100) .5 90 t
np
77.04 332.38 m
190.36 0 l
0 191.52 l
-190.36 0 l
0 -191.52 l
o
18.00 258.94 297.64 582.94 cl
/Font2 findfont 14 s
0 0 0 srgb
172.22 548.40 (tai150a) .5 0 t
/Font1 findfont 12 s
172.22 263.26 (Locations plot) .5 0 t
172.22 277.66 (X) .5 0 t
30.96 428.14 (Y) .5 90 t
356.68 332.38 547.04 523.90 cl
356.68 332.38 547.04 523.90 cl
0 0 0 srgb
0.75 setlinewidth
[] 0 setdash
1 setlinecap
1 setlinejoin
10.00 setmiterlimit
np
363.73 515.07 m
0.83 0 l
0 -18.95 l
0.34 0 l
0 16.00 l
0.67 0 l
0 4.69 l
3.01 0 l
0 -0.35 l
1.17 0 l
0 -72.49 l
0.33 0 l
0 71.10 l
1.17 0 l
0 -1.56 l
2.18 0 l
0 -26.25 l
1.00 0 l
0 22.95 l
0.34 0 l
0 5.73 l
0.66 0 l
0 0 l
0.34 0 l
0 -17.73 l
1.67 0 l
0 -15.30 l
0.84 0 l
0 -32.34 l
1.67 0 l
0 33.21 l
0.67 0 l
0 -7.82 l
1.67 0 l
0 -4.70 l
0.67 0 l
0 45.55 l
3.01 0 l
0 -81.02 l
0.17 0 l
0 80.33 l
0.33 0 l
0 0.17 l
0.34 0 l
0 -17.73 l
1.67 0 l
0 17.03 l
0 0 l
0 -5.21 l
0.33 0 l
0 -103.45 l
3.51 0 l
0 101.88 l
0.34 0 l
0 -17.38 l
1.34 0 l
0 -44.16 l
1.00 0 l
0 62.76 l
2.01 0 l
0 -4.87 l
0 0 l
0 -22.77 l
0.33 0 l
0 23.47 l
0.34 0 l
0 -79.98 l
2.50 0 l
0 90.41 l
2.01 0 l
0 -47.46 l
1.00 0 l
0 20.69 l
0.34 0 l
0 27.29 l
3.84 0 l
0 -0.17 l
1.68 0 l
0 -17.56 l
0 0 l
0 10.26 l
0.33 0 l
0 -74.41 l
1.67 0 l
0 81.19 l
1.68 0 l
0 0 l
4.18 0 l
0 -16.00 l
3.68 0 l
0 -4.69 l
0.50 0 l
0 1.21 l
1.33 0 l
0 12.70 l
1.68 0 l
0 -39.47 l
0 0 l
0 31.64 l
0.33 0 l
424.43 466.22 lineto
0.34 0 l
0 50.42 l
0 0 l
0 -13.39 l
1.00 0 l
0 -35.47 l
1.00 0 l
0 33.91 l
3.51 0 l
0 -64.68 l
4.02 0 l
0 69.02 l
1.00 0 l
0 10.26 l
1.00 0 l
0 0.35 l
1.18 0 l
0 -91.28 l
3.67 0 l
0 63.29 l
0.67 0 l
0 27.99 l
0 0 l
0 -67.81 l
0.84 0 l
0 67.98 l
1.34 0 l
0 -9.91 l
2.00 0 l
0 -145.86 l
0.34 0 l
0 126.91 l
0 0 l
0 27.64 l
1.67 0 l
0 -6.43 l
5.85 0 l
0 1.74 l
1.01 0 l
0 2.43 l
2.84 0 l
0 -0.34 l
2.01 0 l
0 -72.85 l
1.33 0 l
0 76.67 l
1.34 0 l
0 -16.69 l
0.67 0 l
0 7.13 l
0.34 0 l
0 8.87 l
0.66 0 l
0 -0.70 l
1.17 0 l
0 -0.69 l
0.67 0 l
0 -63.64 l
1.01 0 l
0 65.03 l
2.34 0 l
0 -5.57 l
0 0 l
0 -80.49 l
0.67 0 l
0 67.28 l
0 0 l
0 5.22 l
1.67 0 l
0 14.25 l
0 0 l
0 -23.12 l
0.67 0 l
0 4.35 l
1.50 0 l
0 7.82 l
0.67 0 l
0 2.78 l
0 0 l
0 -35.12 l
2.68 0 l
0 43.12 l
1.67 0 l
0 -20.00 l
0.50 0 l
0 -109.00 l
0.84 0 l
0 128.65 l
0.50 0 l
0 -7.82 l
1.17 0 l
0 -47.12 l
1.84 0 l
0 -121.87 l
0.33 0 l
0 176.98 l
0 0 l
0 -0.87 l
1.01 0 l
484.97 490.73 lineto
2.34 0 l
0 21.56 l
0.67 0 l
0 2.78 l
1.17 0 l
0 1.74 l
2.34 0 l
0 -0.17 l
0 0 l
0 -11.48 l
0.67 0 l
0 10.61 l
1.00 0 l
0 -23.99 l
1.67 0 l
0 25.03 l
0.17 0 l
0 -1.22 l
0.34 0 l
0 1.05 l
0.66 0 l
0 -75.63 l
0.17 0 l
0 73.89 l
2.18 0 l
0 -124.31 l
0.33 0 l
0 121.70 l
1.67 0 l
0 4.52 l
0 0 l
0 -16.51 l
1.34 0 l
0 -2.61 l
0.67 0 l
0 -1.57 l
0.84 0 l
0 19.30 l
0.33 0 l
0 -13.73 l
0.33 0 l
0 -121.53 l
1.01 0 l
0 136.13 l
2.67 0 l
0 -30.08 l
0.34 0 l
0 30.60 l
0 0 l
0 0 l
1.00 0 l
0 -3.13 l
1.67 0 l
0 -147.43 l
1.51 0 l
0 108.31 l
2.67 0 l
0 41.03 l
1.34 0 l
0 -4.52 l
1.67 0 l
0 3.83 l
0.84 0 l
0 -20.86 l
0.33 0 l
0 -7.13 l
1.01 0 l
0 24.86 l
2.00 0 l
0 2.09 l
0 0 l
0 -33.38 l
1.34 0 l
0 29.03 l
1.51 0 l
0 -22.25 l
5.01 0 l
0 -11.65 l
1.34 0 l
0 38.94 l
0.34 0 l
0 -1.91 l
1.50 0 l
0 -5.91 l
1.01 0 l
0 -24.69 l
1.00 0 l
0 34.42 l
0.33 0 l
0 -63.28 l
2.01 0 l
0 50.07 l
1.00 0 l
0 -8.17 l
1.68 0 l
0 -48.33 l
0 0 l
0 65.02 l
o
18.00 258.94 577.28 582.94 cl
0 0 0 srgb
0.75 setlinewidth
[] 0 setdash
1 setlinecap
1 setlinejoin
10.00 setmiterlimit
np
363.06 332.38 m
167.23 0 l
o
np
363.06 332.38 m
0 -7.20 l
o
np
396.50 332.38 m
0 -7.20 l
o
np
429.95 332.38 m
0 -7.20 l
o
np
463.40 332.38 m
0 -7.20 l
o
np
496.84 332.38 m
0 -7.20 l
o
np
530.29 332.38 m
0 -7.20 l
o
/Font1 findfont 12 s
363.06 306.46 (0) .5 0 t
396.50 306.46 (200) .5 0 t
429.95 306.46 (400) .5 0 t
463.40 306.46 (600) .5 0 t
496.84 306.46 (800) .5 0 t
530.29 306.46 (1000) .5 0 t
np
356.68 343.48 m
0 173.85 l
o
np
356.68 343.48 m
-7.20 0 l
o
np
356.68 378.25 m
-7.20 0 l
o
np
356.68 413.02 m
-7.20 0 l
o
np
356.68 447.79 m
-7.20 0 l
o
np
356.68 482.56 m
-7.20 0 l
o
np
356.68 517.33 m
-7.20 0 l
o
339.40 343.48 (-1000) .5 90 t
339.40 413.02 (-600) .5 90 t
339.40 482.56 (-200) .5 90 t
339.40 517.33 (0) .5 90 t
np
356.68 332.38 m
190.36 0 l
0 191.52 l
-190.36 0 l
0 -191.52 l
o
297.64 258.94 577.28 582.94 cl
/Font2 findfont 14 s
0 0 0 srgb
451.86 548.40 (tai150aD) .5 0 t
/Font1 findfont 12 s
451.86 263.26 (Requests time) .5 0 t
451.86 277.66 (Time) .5 0 t
310.60 428.14 (Requests) .5 90 t
ep
%%Page: 2 2
bp
77.04 332.38 267.40 523.90 cl
18.00 258.94 297.64 582.94 cl
/Font2 findfont 14 s
0 0 0 srgb
172.22 548.40 (tai150a) .5 0 t
/Font1 findfont 12 s
97.86 263.26 (Requests v) 0 ta
-0.300 (olume histogr) tb
-0.120 (am) tb gr
151.88 277.66 (V) 0 ta
-0.960 (olume) tb gr
30.96 387.46 (No) 90 ta
-0.480 (. of requests) tb gr
18.00 258.94 577.28 582.94 cl
0 0 0 srgb
0.75 setlinewidth
[] 0 setdash
1 setlinecap
1 setlinejoin
10.00 setmiterlimit
np
84.09 332.38 m
160.23 0 l
o
np
84.09 332.38 m
0 -7.20 l
o
np
116.14 332.38 m
0 -7.20 l
o
np
148.18 332.38 m
0 -7.20 l
o
np
180.23 332.38 m
0 -7.20 l
o
np
212.28 332.38 m
0 -7.20 l
o
np
244.32 332.38 m
0 -7.20 l
o
/Font1 findfont 12 s
84.09 306.46 (0) .5 0 t
116.14 306.46 (200) .5 0 t
148.18 306.46 (400) .5 0 t
180.23 306.46 (600) .5 0 t
212.28 306.46 (800) .5 0 t
np
77.04 339.48 m
0 159.40 l
o
np
77.04 339.48 m
-7.20 0 l
o
np
77.04 379.33 m
-7.20 0 l
o
np
77.04 419.18 m
-7.20 0 l
o
np
77.04 459.03 m
-7.20 0 l
o
np
77.04 498.88 m
-7.20 0 l
o
59.76 339.48 (0) .5 90 t
59.76 379.33 (20) .5 90 t
59.76 419.18 (40) .5 90 t
59.76 459.03 (60) .5 90 t
59.76 498.88 (80) .5 90 t
77.04 332.38 267.40 523.90 cl
0 0 0 srgb
0.75 setlinewidth
[] 0 setdash
1 setlinecap
1 setlinejoin
10.00 setmiterlimit
84.09 339.48 16.02 177.33 r p1
100.11 339.48 16.02 51.81 r p1
116.14 339.48 16.02 23.91 r p1
132.16 339.48 16.02 9.96 r p1
148.18 339.48 16.02 15.94 r p1
164.21 339.48 16.02 5.98 r p1
180.23 339.48 16.02 1.99 r p1
196.25 339.48 16.02 5.98 r p1
212.28 339.48 16.02 3.99 r p1
228.30 339.48 16.02 0.00 r p1
244.32 339.48 16.02 1.99 r p1
ep
%%Page: 3 3
bp
77.04 332.38 267.40 523.90 cl
77.04 332.38 267.40 523.90 cl
0 0 0 srgb
0.75 setlinewidth
[] 0 setdash
1 setlinecap
1 setlinejoin
10.00 setmiterlimit
216.67 344.96 2.70 c p1
233.83 344.05 2.70 c p1
233.05 340.39 2.70 c p1
221.35 353.19 2.70 c p1
219.01 354.10 2.70 c p1
228.37 348.62 2.70 c p1
220.57 344.05 2.70 c p1
215.89 350.45 2.70 c p1
221.35 344.05 2.70 c p1
221.35 339.48 2.70 c p1
232.27 350.45 2.70 c p1
187.04 415.35 2.70 c p1
182.36 413.52 2.70 c p1
176.90 405.29 2.70 c p1
178.46 429.97 2.70 c p1
184.70 408.95 2.70 c p1
182.36 408.03 2.70 c p1
187.04 420.83 2.70 c p1
187.04 427.23 2.70 c p1
178.46 419.00 2.70 c p1
186.26 424.49 2.70 c p1
177.68 411.69 2.70 c p1
178.46 427.23 2.70 c p1
190.16 418.09 2.70 c p1
182.36 428.14 2.70 c p1
169.88 413.52 2.70 c p1
187.04 423.57 2.70 c p1
176.90 411.69 2.70 c p1
92.67 390.67 2.70 c p1
98.13 389.75 2.70 c p1
94.23 393.41 2.70 c p1
84.09 395.24 2.70 c p1
97.35 396.15 2.70 c p1
84.09 388.84 2.70 c p1
91.89 399.81 2.70 c p1
96.57 401.64 2.70 c p1
85.65 397.98 2.70 c p1
92.67 399.81 2.70 c p1
89.55 404.38 2.70 c p1
88.77 389.75 2.70 c p1
86.43 389.75 2.70 c p1
91.89 389.75 2.70 c p1
92.67 400.72 2.70 c p1
94.23 402.55 2.70 c p1
98.13 391.58 2.70 c p1
96.57 401.64 2.70 c p1
93.45 398.89 2.70 c p1
84.87 402.55 2.70 c p1
86.43 402.55 2.70 c p1
119.97 402.55 2.70 c p1
134.00 388.84 2.70 c p1
125.42 416.26 2.70 c p1
134.78 409.86 2.70 c p1
123.09 404.38 2.70 c p1
115.29 403.46 2.70 c p1
125.42 412.61 2.70 c p1
114.51 408.03 2.70 c p1
123.09 410.78 2.70 c p1
115.29 397.98 2.70 c p1
119.19 403.46 2.70 c p1
117.63 390.67 2.70 c p1
127.76 414.43 2.70 c p1
119.97 408.03 2.70 c p1
115.29 407.12 2.70 c p1
135.56 399.81 2.70 c p1
136.34 397.07 2.70 c p1
131.66 394.32 2.70 c p1
114.51 397.07 2.70 c p1
123.87 399.81 2.70 c p1
126.98 468.36 2.70 c p1
135.56 481.16 2.70 c p1
126.98 474.76 2.70 c p1
133.22 479.33 2.70 c p1
207.31 505.84 2.70 c p1
210.43 516.81 2.70 c p1
213.55 507.67 2.70 c p1
109.05 439.11 2.70 c p1
108.27 445.51 2.70 c p1
105.15 441.86 2.70 c p1
108.27 440.03 2.70 c p1
112.17 439.11 2.70 c p1
165.20 365.07 2.70 c p1
162.86 363.24 2.70 c p1
162.08 369.64 2.70 c p1
163.64 361.42 2.70 c p1
165.20 368.73 2.70 c p1
167.54 357.76 2.70 c p1
160.52 361.42 2.70 c p1
254.11 419.00 2.70 c p1
246.31 419.00 2.70 c p1
243.19 434.54 2.70 c p1
250.99 425.40 2.70 c p1
241.63 435.46 2.70 c p1
244.75 419.00 2.70 c p1
254.89 418.09 2.70 c p1
254.11 412.61 2.70 c p1
250.99 428.14 2.70 c p1
241.63 420.83 2.70 c p1
259.57 412.61 2.70 c p1
240.07 427.23 2.70 c p1
239.29 432.72 2.70 c p1
249.43 415.35 2.70 c p1
255.67 428.14 2.70 c p1
260.35 429.97 2.70 c p1
248.65 423.57 2.70 c p1
239.29 417.18 2.70 c p1
257.23 428.14 2.70 c p1
250.99 436.37 2.70 c p1
165.20 512.24 2.70 c p1
164.42 506.76 2.70 c p1
163.64 512.24 2.70 c p1
168.32 512.24 2.70 c p1
165.20 508.58 2.70 c p1
164.42 504.93 2.70 c p1
165.98 514.98 2.70 c p1
168.32 506.76 2.70 c p1
162.08 505.84 2.70 c p1
160.52 515.90 2.70 c p1
163.64 509.50 2.70 c p1
183.14 409.86 2.70 c p1
194.84 407.12 2.70 c p1
195.62 420.83 2.70 c p1
183.14 414.43 2.70 c p1
184.70 419.92 2.70 c p1
186.26 406.21 2.70 c p1
186.26 405.29 2.70 c p1
182.36 411.69 2.70 c p1
187.82 407.12 2.70 c p1
190.16 404.38 2.70 c p1
191.72 422.66 2.70 c p1
187.04 408.03 2.70 c p1
189.38 416.26 2.70 c p1
192.50 408.95 2.70 c p1
190.94 416.26 2.70 c p1
192.50 411.69 2.70 c p1
184.70 409.86 2.70 c p1
195.62 404.38 2.70 c p1
188.60 415.35 2.70 c p1
193.28 410.78 2.70 c p1
167.54 425.40 2.70 c p1
172.22 429.97 2.70 c p1
173.00 411.69 2.70 c p1
164.42 422.66 2.70 c p1
175.34 409.86 2.70 c p1
170.66 414.43 2.70 c p1
162.86 430.89 2.70 c p1
162.08 416.26 2.70 c p1
169.10 410.78 2.70 c p1
157.40 417.18 2.70 c p1
155.06 414.43 2.70 c p1
18.00 258.94 577.28 582.94 cl
0 0 0 srgb
0.75 setlinewidth
[] 0 setdash
1 setlinecap
1 setlinejoin
10.00 setmiterlimit
np
93.45 332.38 m
155.98 0 l
o
np
93.45 332.38 m
0 -7.20 l
o
np
132.44 332.38 m
0 -7.20 l
o
np
171.44 332.38 m
0 -7.20 l
o
np
210.43 332.38 m
0 -7.20 l
o
np
249.43 332.38 m
0 -7.20 l
o
/Font1 findfont 12 s
93.45 306.46 (-100) .5 0 t
132.44 306.46 (-50) .5 0 t
171.44 306.46 (0) .5 0 t
210.43 306.46 (50) .5 0 t
249.43 306.46 (100) .5 0 t
np
77.04 367.81 m
0 137.12 l
o
np
77.04 367.81 m
-7.20 0 l
o
np
77.04 413.52 m
-7.20 0 l
o
np
77.04 459.22 m
-7.20 0 l
o
np
77.04 504.93 m
-7.20 0 l
o
59.76 367.81 (-50) .5 90 t
59.76 413.52 (0) .5 90 t
59.76 459.22 (50) .5 90 t
59.76 504.93 (100) .5 90 t
np
77.04 332.38 m
190.36 0 l
0 191.52 l
-190.36 0 l
0 -191.52 l
o
18.00 258.94 297.64 582.94 cl
/Font2 findfont 14 s
0 0 0 srgb
172.22 548.40 (tai150b) .5 0 t
/Font1 findfont 12 s
172.22 263.26 (Locations plot) .5 0 t
172.22 277.66 (X) .5 0 t
30.96 428.14 (Y) .5 90 t
356.68 332.38 547.04 523.90 cl
356.68 332.38 547.04 523.90 cl
0 0 0 srgb
0.75 setlinewidth
[] 0 setdash
1 setlinecap
1 setlinejoin
10.00 setmiterlimit
np
363.73 509.11 m
0.36 0 l
0 0 l
0.36 0 l
0 -19.67 l
1.97 0 l
0 -20.81 l
0.89 0 l
0 47.20 l
1.44 0 l
0 -101.78 l
0.54 0 l
0 73.92 l
1.97 0 l
0 0 l
1.07 0 l
0 -6.07 l
4.13 0 l
0 34.75 l
0 0 l
0 -0.82 l
1.97 0 l
0 -23.77 l
0.36 0 l
0 6.07 l
1.61 0 l
0 8.85 l
0 0 l
0 -61.13 l
0.72 0 l
0 -76.87 l
0.36 0 l
0 146.03 l
0 0 l
0 1.80 l
1.25 0 l
0 -1.15 l
0.90 0 l
0 -25.56 l
1.61 0 l
0 -7.38 l
1.44 0 l
0 33.27 l
0.36 0 l
0 -2.78 l
0.54 0 l
0 -18.69 l
1.07 0 l
0 -12.13 l
0 0 l
0 -89.32 l
0.36 0 l
0 53.92 l
0.90 0 l
0 69.49 l
0.89 0 l
0 -21.47 l
1.98 0 l
0 -59.82 l
1.61 0 l
0 66.87 l
1.08 0 l
0 11.80 l
4.84 0 l
0 -24.25 l
0 0 l
0 24.09 l
0.71 0 l
0 3.11 l
0.36 0 l
0 -43.92 l
0.90 0 l
0 -26.55 l
0.72 0 l
0 70.47 l
0.89 0 l
0 -176.35 l
3.05 0 l
0 138.66 l
0.54 0 l
0 36.38 l
1.97 0 l
0 0.16 l
2.33 0 l
0 -11.14 l
1.62 0 l
0 2.46 l
0.35 0 l
0 9.67 l
1.98 0 l
0 -9.02 l
0.89 0 l
0 8.36 l
0.36 0 l
0 -4.26 l
0 0 l
0 -32.78 l
0.36 0 l
0 33.44 l
1.61 0 l
418.95 510.75 lineto
1.62 0 l
0 -13.61 l
0 0 l
0 19.02 l
0 0 l
0 -4.27 l
2.33 0 l
0 -55.06 l
0.90 0 l
0 58.67 l
2.68 0 l
0 -1.97 l
0.36 0 l
0 -30.32 l
1.26 0 l
0 33.44 l
0.54 0 l
0 -0.66 l
0.18 0 l
0 -4.59 l
0.89 0 l
0 -76.70 l
5.56 0 l
0 79.98 l
0.90 0 l
0 -91.45 l
1.43 0 l
0 90.96 l
1.97 0 l
0 -35.40 l
3.77 0 l
0 -34.42 l
1.08 0 l
0 71.95 l
0.35 0 l
0 -6.06 l
0.90 0 l
0 -27.37 l
4.66 0 l
0 -9.51 l
0.18 0 l
0 -23.27 l
0.72 0 l
0 46.87 l
0.90 0 l
0 18.52 l
0.71 0 l
0 -176.02 l
1.08 0 l
0 177.00 l
1.25 0 l
0 -85.88 l
0 0 l
0 69.17 l
2.51 0 l
0 -27.37 l
0 0 l
0 41.13 l
0.36 0 l
0 -21.79 l
3.05 0 l
0 20.32 l
0.18 0 l
0 -23.77 l
1.97 0 l
0 26.39 l
1.44 0 l
0 1.31 l
0 0 l
0 -1.80 l
0.53 0 l
0 -5.41 l
0.36 0 l
0 0.82 l
1.08 0 l
0 7.05 l
1.25 0 l
0 -60.32 l
0 0 l
0 -25.07 l
1.26 0 l
0 69.49 l
0.72 0 l
0 -130.62 l
5.91 0 l
0 140.62 l
0.54 0 l
0 1.31 l
1.62 0 l
0 -161.44 l
0.71 0 l
0 149.80 l
0.90 0 l
0 -0.98 l
0.36 0 l
0 5.41 l
0 0 l
0 -155.54 l
1.25 0 l
481.17 508.62 lineto
3.23 0 l
0 5.08 l
0.36 0 l
0 -158.82 l
0.36 0 l
0 161.77 l
1.61 0 l
0 -23.44 l
2.33 0 l
0 16.06 l
6.82 0 l
0 -37.20 l
0.35 0 l
0 44.09 l
0.36 0 l
0 -11.64 l
0 0 l
0 -50.97 l
0.90 0 l
0 63.10 l
1.43 0 l
0 -62.94 l
0.18 0 l
0 41.47 l
0 0 l
0 -16.06 l
0.36 0 l
0 26.06 l
1.44 0 l
0 3.76 l
0.18 0 l
0 7.71 l
0.35 0 l
0 -34.75 l
1.62 0 l
0 21.47 l
1.07 0 l
0 7.87 l
0 0 l
0 5.08 l
0.90 0 l
0 -0.98 l
1.08 0 l
0 0 l
0.36 0 l
0 -5.41 l
1.25 0 l
0 6.88 l
2.15 0 l
0 -19.50 l
0.18 0 l
0 12.45 l
1.62 0 l
0 -14.09 l
0.17 0 l
0 -54.41 l
0.36 0 l
0 74.24 l
1.44 0 l
0 0 l
2.15 0 l
0 -0.82 l
0.36 0 l
0 -16.88 l
0.71 0 l
0 9.67 l
0.36 0 l
0 7.54 l
2.16 0 l
0 0.16 l
0.71 0 l
0 -12.62 l
0.90 0 l
0 13.93 l
1.43 0 l
0 -74.24 l
0.36 0 l
0 74.08 l
3.23 0 l
0 0.49 l
2.15 0 l
0 -15.73 l
0.36 0 l
0 4.26 l
0.36 0 l
0 9.83 l
3.94 0 l
0 0.49 l
2.87 0 l
0 0.17 l
1.44 0 l
0 -66.87 l
0.53 0 l
0 43.76 l
0 0 l
0 16.55 l
2.34 0 l
0 -36.38 l
o
18.00 258.94 577.28 582.94 cl
0 0 0 srgb
0.75 setlinewidth
[] 0 setdash
1 setlinecap
1 setlinejoin
10.00 setmiterlimit
np
363.19 332.38 m
179.31 0 l
o
np
363.19 332.38 m
0 -7.20 l
o
np
399.05 332.38 m
0 -7.20 l
o
np
434.91 332.38 m
0 -7.20 l
o
np
470.77 332.38 m
0 -7.20 l
o
np
506.63 332.38 m
0 -7.20 l
o
np
542.50 332.38 m
0 -7.20 l
o
/Font1 findfont 12 s
363.19 306.46 (0) .5 0 t
399.05 306.46 (200) .5 0 t
434.91 306.46 (400) .5 0 t
470.77 306.46 (600) .5 0 t
506.63 306.46 (800) .5 0 t
542.50 306.46 (1000) .5 0 t
np
356.68 353.41 m
0 163.89 l
o
np
356.68 353.41 m
-7.20 0 l
o
np
356.68 386.19 m
-7.20 0 l
o
np
356.68 418.97 m
-7.20 0 l
o
np
356.68 451.75 m
-7.20 0 l
o
np
356.68 484.52 m
-7.20 0 l
o
np
356.68 517.30 m
-7.20 0 l
o
339.40 353.41 (-1000) .5 90 t
339.40 418.97 (-600) .5 90 t
339.40 484.52 (-200) .5 90 t
339.40 517.30 (0) .5 90 t
np
356.68 332.38 m
190.36 0 l
0 191.52 l
-190.36 0 l
0 -191.52 l
o
297.64 258.94 577.28 582.94 cl
/Font2 findfont 14 s
0 0 0 srgb
451.86 548.40 (tai150bD) .5 0 t
/Font1 findfont 12 s
451.86 263.26 (Requests time) .5 0 t
451.86 277.66 (Time) .5 0 t
310.60 428.14 (Requests) .5 90 t
ep
%%Page: 4 4
bp
77.04 332.38 267.40 523.90 cl
18.00 258.94 297.64 582.94 cl
/Font2 findfont 14 s
0 0 0 srgb
172.22 548.40 (tai150b) .5 0 t
/Font1 findfont 12 s
97.86 263.26 (Requests v) 0 ta
-0.300 (olume histogr) tb
-0.120 (am) tb gr
151.88 277.66 (V) 0 ta
-0.960 (olume) tb gr
30.96 387.46 (No) 90 ta
-0.480 (. of requests) tb gr
18.00 258.94 577.28 582.94 cl
0 0 0 srgb
0.75 setlinewidth
[] 0 setdash
1 setlinecap
1 setlinejoin
10.00 setmiterlimit
np
84.09 332.38 m
160.23 0 l
o
np
84.09 332.38 m
0 -7.20 l
o
np
116.14 332.38 m
0 -7.20 l
o
np
148.18 332.38 m
0 -7.20 l
o
np
180.23 332.38 m
0 -7.20 l
o
np
212.28 332.38 m
0 -7.20 l
o
np
244.32 332.38 m
0 -7.20 l
o
/Font1 findfont 12 s
84.09 306.46 (0) .5 0 t
116.14 306.46 (200) .5 0 t
148.18 306.46 (400) .5 0 t
180.23 306.46 (600) .5 0 t
212.28 306.46 (800) .5 0 t
np
77.04 339.48 m
0 166.90 l
o
np
77.04 339.48 m
-7.20 0 l
o
np
77.04 381.20 m
-7.20 0 l
o
np
77.04 422.93 m
-7.20 0 l
o
np
77.04 464.65 m
-7.20 0 l
o
np
77.04 506.38 m
-7.20 0 l
o
59.76 339.48 (0) .5 90 t
59.76 381.20 (20) .5 90 t
59.76 422.93 (40) .5 90 t
59.76 464.65 (60) .5 90 t
59.76 506.38 (80) .5 90 t
77.04 332.38 267.40 523.90 cl
0 0 0 srgb
0.75 setlinewidth
[] 0 setdash
1 setlinecap
1 setlinejoin
10.00 setmiterlimit
84.09 339.48 16.02 177.33 r p1
100.11 339.48 16.02 47.98 r p1
116.14 339.48 16.02 33.38 r p1
132.16 339.48 16.02 8.35 r p1
148.18 339.48 16.02 16.69 r p1
164.21 339.48 16.02 10.43 r p1
180.23 339.48 16.02 2.09 r p1
196.25 339.48 16.02 2.09 r p1
212.28 339.48 16.02 2.09 r p1
228.30 339.48 16.02 4.17 r p1
244.32 339.48 16.02 8.35 r p1
356.68 332.38 547.04 523.90 cl
ep
%%Trailer
%%Pages: 4
%%EOF
