%!PS-Adobe-3.0
%%DocumentNeededResources: font Helvetica
%%+ font Helvetica-Bold
%%+ font Helvetica-Oblique
%%+ font Helvetica-BoldOblique
%%+ font Symbol
%%DocumentMedia: a4 595 841 0 () ()
%%Title: R Graphics Output
%%Creator: R Software
%%Pages: (atend)
%%Orientation: Portrait
%%BoundingBox: 18 259 577 583
%%EndComments
%%BeginProlog
/bp  { gs sRGB gs } def
% begin .ps.prolog
/gs  { gsave } bind def
/gr  { grestore } bind def
/ep  { showpage gr gr } bind def
/m   { moveto } bind def
/l  { rlineto } bind def
/np  { newpath } bind def
/cp  { closepath } bind def
/f   { fill } bind def
/o   { stroke } bind def
/c   { newpath 0 360 arc } bind def
/r   { 4 2 roll moveto 1 copy 3 -1 roll exch 0 exch rlineto 0 rlineto -1 mul 0 exch rlineto closepath } bind def
/p1  { stroke } bind def
/p2  { gsave bg fill grestore newpath } bind def
/p3  { gsave bg fill grestore stroke } bind def
/p6  { gsave bg eofill grestore newpath } bind def
/p7  { gsave bg eofill grestore stroke } bind def
/t   { 5 -2 roll moveto gsave rotate
       1 index stringwidth pop
       mul neg 0 rmoveto show grestore } bind def
/ta  { 4 -2 roll moveto gsave rotate show } bind def
/tb  { 2 -1 roll 0 rmoveto show } bind def
/cl  { grestore gsave newpath 3 index 3 index moveto 1 index
       4 -1 roll lineto  exch 1 index lineto lineto
       closepath clip newpath } bind def
/rgb { setrgbcolor } bind def
/s   { scalefont setfont } bind def
% end   .ps.prolog
/sRGB { [ /CIEBasedABC
          << /DecodeLMN
               [ { dup 0.03928 le
                        {12.92321 div}
                        {0.055 add 1.055 div 2.4 exp }
                     ifelse
                 } bind dup dup
               ]
             /MatrixLMN [0.412457 0.212673 0.019334
                         0.357576 0.715152 0.119192
                         0.180437 0.072175 0.950301]
             /WhitePoint [0.9505 1.0 1.0890]
           >>
         ] setcolorspace } bind def
/srgb { setcolor } bind def
% begin encoding
/WinAnsiEncoding [
 /.notdef /.notdef /.notdef /.notdef /.notdef /.notdef /.notdef /.notdef
 /.notdef /.notdef /.notdef /.notdef /.notdef /.notdef /.notdef /.notdef
 /.notdef /.notdef /.notdef /.notdef /.notdef /.notdef /.notdef /.notdef
 /.notdef /.notdef /.notdef /.notdef /.notdef /.notdef /.notdef /.notdef
 /space /exclam /quotedbl /numbersign /dollar /percent /ampersand /quoteright
 /parenleft /parenright /asterisk /plus /comma /minus /period /slash
 /zero /one /two /three /four /five /six /seven
 /eight /nine /colon /semicolon /less /equal /greater /question
 /at /A /B /C /D /E /F /G
 /H /I /J /K /L /M /N /O
 /P /Q /R /S /T /U /V /W
 /X /Y /Z /bracketleft /backslash /bracketright /asciicircum /underscore
 /grave /a /b /c /d /e /f /g
 /h /i /j /k /l /m /n /o
 /p /q /r /s /t /u /v /w
 /x /y /z /braceleft /bar /braceright /asciitilde /.notdef
 /Euro /.notdef /quotesinglbase /florin /quotedblbase /ellipsis /dagger /daggerdbl
 /circumflex /perthousand /Scaron /guilsinglleft /OE /.notdef /Zcaron /.notdef
 /.notdef /quoteleft /quoteright /quotedblleft /quotedblright /bullet /endash /emdash
 /tilde /trademark /scaron /guilsinglright /oe /.notdef /zcaron /Ydieresis
 /space /exclamdown /cent /sterling /currency /yen /brokenbar /section
 /dieresis /copyright /ordfeminine /guillemotleft /logicalnot /hyphen /registered /macron
 /degree /plusminus /twosuperior /threesuperior /acute /mu /paragraph /periodcentered
 /cedilla /onesuperior /ordmasculine /guillemotright /onequarter /onehalf /threequarters /questiondown
 /Agrave /Aacute /Acircumflex /Atilde /Adieresis /Aring /AE /Ccedilla
 /Egrave /Eacute /Ecircumflex /Edieresis /Igrave /Iacute /Icircumflex /Idieresis
 /Eth /Ntilde /Ograve /Oacute /Ocircumflex /Otilde /Odieresis /multiply
 /Oslash /Ugrave /Uacute /Ucircumflex /Udieresis /Yacute /Thorn /germandbls
 /agrave /aacute /acircumflex /atilde /adieresis /aring /ae /ccedilla
 /egrave /eacute /ecircumflex /edieresis /igrave /iacute /icircumflex /idieresis
 /eth /ntilde /ograve /oacute /ocircumflex /otilde /odieresis /divide
 /oslash /ugrave /uacute /ucircumflex /udieresis /yacute /thorn /ydieresis
]
 def
% end encoding
%%IncludeResource: font Helvetica
/Helvetica findfont
dup length dict begin
  {1 index /FID ne {def} {pop pop} ifelse} forall
  /Encoding WinAnsiEncoding def
  currentdict
  end
/Font1 exch definefont pop
%%IncludeResource: font Helvetica-Bold
/Helvetica-Bold findfont
dup length dict begin
  {1 index /FID ne {def} {pop pop} ifelse} forall
  /Encoding WinAnsiEncoding def
  currentdict
  end
/Font2 exch definefont pop
%%IncludeResource: font Helvetica-Oblique
/Helvetica-Oblique findfont
dup length dict begin
  {1 index /FID ne {def} {pop pop} ifelse} forall
  /Encoding WinAnsiEncoding def
  currentdict
  end
/Font3 exch definefont pop
%%IncludeResource: font Helvetica-BoldOblique
/Helvetica-BoldOblique findfont
dup length dict begin
  {1 index /FID ne {def} {pop pop} ifelse} forall
  /Encoding WinAnsiEncoding def
  currentdict
  end
/Font4 exch definefont pop
%%IncludeResource: font Symbol
/Symbol findfont
dup length dict begin
  {1 index /FID ne {def} {pop pop} ifelse} forall
  currentdict
  end
/Font5 exch definefont pop
%%EndProlog
%%Page: 1 1
bp
77.04 332.38 267.40 523.90 cl
0 0 0 srgb
0.75 setlinewidth
[] 0 setdash
1 setlinecap
1 setlinejoin
10.00 setmiterlimit
150.19 476.07 2.70 c p1
138.69 474.87 2.70 c p1
136.78 494.05 2.70 c p1
163.60 510.82 2.70 c p1
169.35 490.45 2.70 c p1
134.86 514.42 2.70 c p1
139.65 473.68 2.70 c p1
169.35 478.47 2.70 c p1
166.47 485.66 2.70 c p1
155.93 514.42 2.70 c p1
169.35 501.23 2.70 c p1
163.60 491.65 2.70 c p1
156.89 490.45 2.70 c p1
148.27 483.26 2.70 c p1
138.69 486.86 2.70 c p1
166.47 476.07 2.70 c p1
137.73 510.82 2.70 c p1
146.36 516.81 2.70 c p1
163.60 363.44 2.70 c p1
177.01 351.46 2.70 c p1
163.60 339.48 2.70 c p1
166.47 356.25 2.70 c p1
170.30 349.06 2.70 c p1
193.29 367.04 2.70 c p1
192.34 374.23 2.70 c p1
195.21 385.01 2.70 c p1
182.76 340.68 2.70 c p1
174.13 382.61 2.70 c p1
177.97 346.67 2.70 c p1
200.00 374.23 2.70 c p1
187.55 358.65 2.70 c p1
194.25 345.47 2.70 c p1
192.34 356.25 2.70 c p1
177.01 351.46 2.70 c p1
191.38 382.61 2.70 c p1
174.13 344.27 2.70 c p1
175.09 381.42 2.70 c p1
199.04 376.62 2.70 c p1
241.19 472.48 2.70 c p1
222.03 438.93 2.70 c p1
229.69 479.67 2.70 c p1
201.91 448.51 2.70 c p1
198.08 482.06 2.70 c p1
237.36 465.29 2.70 c p1
237.36 462.89 2.70 c p1
206.70 470.08 2.70 c p1
199.04 437.73 2.70 c p1
215.33 473.68 2.70 c p1
207.66 480.87 2.70 c p1
214.37 474.87 2.70 c p1
210.54 476.07 2.70 c p1
178.92 412.57 2.70 c p1
161.68 393.40 2.70 c p1
162.64 399.39 2.70 c p1
166.47 389.80 2.70 c p1
168.39 383.81 2.70 c p1
167.43 391.00 2.70 c p1
162.64 406.58 2.70 c p1
178.92 407.78 2.70 c p1
165.51 395.79 2.70 c p1
169.35 383.81 2.70 c p1
158.81 385.01 2.70 c p1
172.22 387.41 2.70 c p1
164.56 391.00 2.70 c p1
170.30 380.22 2.70 c p1
246.94 398.19 2.70 c p1
212.45 425.75 2.70 c p1
226.82 369.43 2.70 c p1
257.47 398.19 2.70 c p1
222.03 387.41 2.70 c p1
260.35 389.80 2.70 c p1
241.19 395.79 2.70 c p1
231.61 371.83 2.70 c p1
211.49 367.04 2.70 c p1
234.48 408.97 2.70 c p1
101.33 466.49 2.70 c p1
117.62 477.27 2.70 c p1
116.66 478.47 2.70 c p1
115.70 484.46 2.70 c p1
119.53 485.66 2.70 c p1
125.28 476.07 2.70 c p1
105.16 489.25 2.70 c p1
107.08 489.25 2.70 c p1
115.70 484.46 2.70 c p1
121.45 494.05 2.70 c p1
115.70 477.27 2.70 c p1
100.37 478.47 2.70 c p1
109.95 480.87 2.70 c p1
101.33 476.07 2.70 c p1
124.32 490.45 2.70 c p1
107.08 474.87 2.70 c p1
100.37 495.24 2.70 c p1
123.36 486.86 2.70 c p1
93.67 477.27 2.70 c p1
99.42 459.30 2.70 c p1
84.09 474.87 2.70 c p1
92.71 460.50 2.70 c p1
155.93 459.30 2.70 c p1
166.47 441.33 2.70 c p1
177.97 455.70 2.70 c p1
18.00 258.94 577.28 582.94 cl
0 0 0 srgb
0.75 setlinewidth
[] 0 setdash
1 setlinecap
1 setlinejoin
10.00 setmiterlimit
np
107.08 332.38 m
143.69 0 l
o
np
107.08 332.38 m
0 -7.20 l
o
np
154.98 332.38 m
0 -7.20 l
o
np
202.87 332.38 m
0 -7.20 l
o
np
250.77 332.38 m
0 -7.20 l
o
/Font1 findfont 12 s
107.08 306.46 (-50) .5 0 t
154.98 306.46 (0) .5 0 t
202.87 306.46 (50) .5 0 t
250.77 306.46 (100) .5 0 t
np
77.04 392.20 m
0 119.82 l
o
np
77.04 392.20 m
-7.20 0 l
o
np
77.04 452.11 m
-7.20 0 l
o
np
77.04 512.02 m
-7.20 0 l
o
59.76 392.20 (0) .5 90 t
59.76 452.11 (50) .5 90 t
59.76 512.02 (100) .5 90 t
np
77.04 332.38 m
190.36 0 l
0 191.52 l
-190.36 0 l
0 -191.52 l
o
18.00 258.94 297.64 582.94 cl
/Font2 findfont 14 s
0 0 0 srgb
172.22 548.40 (tai100a) .5 0 t
/Font1 findfont 12 s
172.22 263.26 (Locations plot) .5 0 t
172.22 277.66 (X) .5 0 t
30.96 428.14 (Y) .5 90 t
356.68 332.38 547.04 523.90 cl
356.68 332.38 547.04 523.90 cl
0 0 0 srgb
0.75 setlinewidth
[] 0 setdash
1 setlinecap
1 setlinejoin
10.00 setmiterlimit
np
363.73 515.07 m
3.94 0 l
0 -18.95 l
0 0 l
0 16.00 l
6.89 0 l
0 4.69 l
2.76 0 l
0 -0.35 l
3.74 0 l
0 -72.49 l
0.20 0 l
0 71.10 l
0.39 0 l
0 -1.56 l
0.39 0 l
0 -26.25 l
1.18 0 l
0 22.95 l
0.99 0 l
0 5.73 l
0.98 0 l
0 0 l
0 0 l
0 -17.73 l
0 0 l
0 -15.30 l
2.56 0 l
0 -32.34 l
0.40 0 l
0 33.21 l
0.59 0 l
0 -7.82 l
2.56 0 l
0 -4.70 l
2.17 0 l
0 45.55 l
0.59 0 l
0 -81.02 l
0.19 0 l
0 80.33 l
2.76 0 l
0 0.17 l
6.50 0 l
0 -17.73 l
0.98 0 l
0 17.03 l
0.20 0 l
0 -5.21 l
1.77 0 l
0 -103.45 l
2.17 0 l
0 101.88 l
1.38 0 l
0 -17.38 l
1.18 0 l
0 -44.16 l
0.98 0 l
0 62.76 l
0.40 0 l
0 -4.87 l
1.38 0 l
0 -22.77 l
2.16 0 l
0 23.47 l
1.58 0 l
0 -79.98 l
3.54 0 l
0 90.41 l
0.99 0 l
0 -47.46 l
0.39 0 l
0 20.69 l
0 0 l
0 27.29 l
3.35 0 l
0 -0.17 l
0 0 l
0 -17.56 l
0.98 0 l
0 10.26 l
3.75 0 l
0 -74.41 l
0.19 0 l
0 81.19 l
1.78 0 l
0 0 l
0.39 0 l
0 -16.00 l
0 0 l
0 -4.69 l
0.98 0 l
0 1.21 l
0 0 l
0 12.70 l
3.16 0 l
0 -39.47 l
0.78 0 l
0 31.64 l
0.20 0 l
438.17 466.22 lineto
2.95 0 l
0 50.42 l
2.37 0 l
0 -13.39 l
3.15 0 l
0 -35.47 l
2.95 0 l
0 33.91 l
1.97 0 l
0 -64.68 l
0.79 0 l
0 69.02 l
2.76 0 l
0 10.26 l
0 0 l
0 0.35 l
0.98 0 l
0 -91.28 l
2.36 0 l
0 63.29 l
11.62 0 l
0 27.99 l
0.40 0 l
0 -67.81 l
1.57 0 l
0 67.98 l
3.55 0 l
0 -9.91 l
0.79 0 l
0 -145.86 l
0.59 0 l
0 126.91 l
0 0 l
0 27.64 l
4.13 0 l
0 -6.43 l
8.86 0 l
0 1.74 l
0.59 0 l
0 2.43 l
0.99 0 l
0 -0.34 l
1.77 0 l
0 -72.85 l
1.18 0 l
0 76.67 l
1.38 0 l
0 -16.69 l
2.96 0 l
0 7.13 l
1.18 0 l
0 8.87 l
3.35 0 l
0 -0.70 l
0.98 0 l
0 -0.69 l
0.59 0 l
0 -63.64 l
0.59 0 l
0 65.03 l
1.77 0 l
0 -5.57 l
1.19 0 l
0 -80.49 l
0.39 0 l
0 67.28 l
0.39 0 l
0 5.22 l
3.15 0 l
0 14.25 l
1.97 0 l
0 -23.12 l
1.97 0 l
0 4.35 l
0.99 0 l
0 7.82 l
1.57 0 l
0 2.78 l
2.37 0 l
0 -35.12 l
3.15 0 l
0 43.12 l
0.39 0 l
0 -20.00 l
3.55 0 l
0 -109.00 l
0 0 l
0 128.65 l
5.31 0 l
0 -7.82 l
1.58 0 l
0 -47.12 l
0.59 0 l
0 -121.87 l
3.54 0 l
0 176.98 l
0.60 0 l
0 -0.87 l
o
18.00 258.94 577.28 582.94 cl
0 0 0 srgb
0.75 setlinewidth
[] 0 setdash
1 setlinecap
1 setlinejoin
10.00 setmiterlimit
np
363.53 332.38 m
157.55 0 l
o
np
363.53 332.38 m
0 -7.20 l
o
np
402.92 332.38 m
0 -7.20 l
o
np
442.31 332.38 m
0 -7.20 l
o
np
481.69 332.38 m
0 -7.20 l
o
np
521.08 332.38 m
0 -7.20 l
o
/Font1 findfont 12 s
363.53 306.46 (0) .5 0 t
402.92 306.46 (200) .5 0 t
442.31 306.46 (400) .5 0 t
481.69 306.46 (600) .5 0 t
521.08 306.46 (800) .5 0 t
np
356.68 343.48 m
0 173.85 l
o
np
356.68 343.48 m
-7.20 0 l
o
np
356.68 378.25 m
-7.20 0 l
o
np
356.68 413.02 m
-7.20 0 l
o
np
356.68 447.79 m
-7.20 0 l
o
np
356.68 482.56 m
-7.20 0 l
o
np
356.68 517.33 m
-7.20 0 l
o
339.40 343.48 (-1000) .5 90 t
339.40 413.02 (-600) .5 90 t
339.40 482.56 (-200) .5 90 t
339.40 517.33 (0) .5 90 t
np
356.68 332.38 m
190.36 0 l
0 191.52 l
-190.36 0 l
0 -191.52 l
o
297.64 258.94 577.28 582.94 cl
/Font2 findfont 14 s
0 0 0 srgb
451.86 548.40 (tai100aD) .5 0 t
/Font1 findfont 12 s
451.86 263.26 (Requests time) .5 0 t
451.86 277.66 (Time) .5 0 t
310.60 428.14 (Requests) .5 90 t
ep
%%Page: 2 2
bp
77.04 332.38 267.40 523.90 cl
18.00 258.94 297.64 582.94 cl
/Font2 findfont 14 s
0 0 0 srgb
172.22 548.40 (tai100a) .5 0 t
/Font1 findfont 12 s
97.86 263.26 (Requests v) 0 ta
-0.300 (olume histogr) tb
-0.120 (am) tb gr
151.88 277.66 (V) 0 ta
-0.960 (olume) tb gr
30.96 387.46 (No) 90 ta
-0.480 (. of requests) tb gr
18.00 258.94 577.28 582.94 cl
0 0 0 srgb
0.75 setlinewidth
[] 0 setdash
1 setlinecap
1 setlinejoin
10.00 setmiterlimit
np
84.09 332.38 m
160.23 0 l
o
np
84.09 332.38 m
0 -7.20 l
o
np
116.14 332.38 m
0 -7.20 l
o
np
148.18 332.38 m
0 -7.20 l
o
np
180.23 332.38 m
0 -7.20 l
o
np
212.28 332.38 m
0 -7.20 l
o
np
244.32 332.38 m
0 -7.20 l
o
/Font1 findfont 12 s
84.09 306.46 (0) .5 0 t
116.14 306.46 (200) .5 0 t
148.18 306.46 (400) .5 0 t
180.23 306.46 (600) .5 0 t
212.28 306.46 (800) .5 0 t
np
77.04 339.48 m
0 183.45 l
o
np
77.04 339.48 m
-7.20 0 l
o
np
77.04 370.05 m
-7.20 0 l
o
np
77.04 400.63 m
-7.20 0 l
o
np
77.04 431.20 m
-7.20 0 l
o
np
77.04 461.78 m
-7.20 0 l
o
np
77.04 492.35 m
-7.20 0 l
o
np
77.04 522.93 m
-7.20 0 l
o
59.76 339.48 (0) .5 90 t
59.76 370.05 (10) .5 90 t
59.76 400.63 (20) .5 90 t
59.76 431.20 (30) .5 90 t
59.76 461.78 (40) .5 90 t
59.76 492.35 (50) .5 90 t
59.76 522.93 (60) .5 90 t
77.04 332.38 267.40 523.90 cl
0 0 0 srgb
0.75 setlinewidth
[] 0 setdash
1 setlinecap
1 setlinejoin
10.00 setmiterlimit
84.09 339.48 16.02 177.33 r p1
100.11 339.48 16.02 51.98 r p1
116.14 339.48 16.02 24.46 r p1
132.16 339.48 16.02 12.23 r p1
148.18 339.48 16.02 18.34 r p1
164.21 339.48 16.02 9.17 r p1
180.23 339.48 16.02 3.06 r p1
196.25 339.48 16.02 3.06 r p1
212.28 339.48 16.02 3.06 r p1
228.30 339.48 16.02 0.00 r p1
244.32 339.48 16.02 3.06 r p1
ep
%%Page: 3 3
bp
77.04 332.38 267.40 523.90 cl
77.04 332.38 267.40 523.90 cl
0 0 0 srgb
0.75 setlinewidth
[] 0 setdash
1 setlinecap
1 setlinejoin
10.00 setmiterlimit
200.98 352.06 2.70 c p1
235.30 349.77 2.70 c p1
233.45 340.62 2.70 c p1
210.25 370.37 2.70 c p1
204.69 370.37 2.70 c p1
224.17 358.93 2.70 c p1
207.47 348.63 2.70 c p1
197.27 363.50 2.70 c p1
209.33 349.77 2.70 c p1
210.25 339.48 2.70 c p1
232.52 363.50 2.70 c p1
190.77 416.13 2.70 c p1
179.64 411.56 2.70 c p1
169.44 392.11 2.70 c p1
171.29 449.31 2.70 c p1
186.13 401.26 2.70 c p1
180.57 400.11 2.70 c p1
191.70 428.72 2.70 c p1
190.77 442.45 2.70 c p1
171.29 424.14 2.70 c p1
189.84 437.87 2.70 c p1
170.36 408.12 2.70 c p1
173.15 442.45 2.70 c p1
198.19 421.85 2.70 c p1
181.50 444.73 2.70 c p1
153.67 411.56 2.70 c p1
190.77 435.58 2.70 c p1
168.51 408.12 2.70 c p1
99.86 390.96 2.70 c p1
109.14 388.67 2.70 c p1
102.64 394.39 2.70 c p1
84.09 398.97 2.70 c p1
108.21 400.11 2.70 c p1
84.09 386.39 2.70 c p1
98.01 408.12 2.70 c p1
107.28 411.56 2.70 c p1
87.80 404.69 2.70 c p1
100.79 406.98 2.70 c p1
93.37 414.99 2.70 c p1
92.44 388.67 2.70 c p1
87.80 387.53 2.70 c p1
98.01 387.53 2.70 c p1
98.93 409.27 2.70 c p1
103.57 412.70 2.70 c p1
109.14 390.96 2.70 c p1
107.28 410.41 2.70 c p1
101.72 404.69 2.70 c p1
85.95 412.70 2.70 c p1
88.73 412.70 2.70 c p1
115.63 405.84 2.70 c p1
148.10 374.94 2.70 c p1
127.69 437.87 2.70 c p1
149.03 423.00 2.70 c p1
123.05 411.56 2.70 c p1
105.43 408.12 2.70 c p1
129.55 428.72 2.70 c p1
104.50 419.56 2.70 c p1
123.05 426.43 2.70 c p1
105.43 394.39 2.70 c p1
115.63 408.12 2.70 c p1
111.92 377.23 2.70 c p1
135.11 434.44 2.70 c p1
116.56 418.42 2.70 c p1
106.35 416.13 2.70 c p1
152.74 400.11 2.70 c p1
152.74 393.25 2.70 c p1
142.53 386.39 2.70 c p1
103.57 392.11 2.70 c p1
125.84 400.11 2.70 c p1
120.27 457.32 2.70 c p1
137.90 487.07 2.70 c p1
119.34 472.19 2.70 c p1
132.33 483.63 2.70 c p1
199.12 499.65 2.70 c p1
203.76 516.81 2.70 c p1
208.40 504.23 2.70 c p1
112.85 437.87 2.70 c p1
111.92 447.02 2.70 c p1
107.28 442.45 2.70 c p1
111.92 439.01 2.70 c p1
117.49 437.87 2.70 c p1
163.87 372.66 2.70 c p1
160.16 369.22 2.70 c p1
157.38 380.67 2.70 c p1
160.16 364.65 2.70 c p1
162.94 378.38 2.70 c p1
167.58 360.07 2.70 c p1
155.52 365.79 2.70 c p1
247.36 414.99 2.70 c p1
230.66 414.99 2.70 c p1
224.17 450.45 2.70 c p1
240.87 429.86 2.70 c p1
221.39 451.60 2.70 c p1
226.95 414.99 2.70 c p1
250.14 412.70 2.70 c p1
247.36 401.26 2.70 c p1
240.87 435.58 2.70 c p1
220.46 420.71 2.70 c p1
260.35 400.11 2.70 c p1
217.67 434.44 2.70 c p1
18.00 258.94 577.28 582.94 cl
0 0 0 srgb
0.75 setlinewidth
[] 0 setdash
1 setlinecap
1 setlinejoin
10.00 setmiterlimit
np
122.12 332.38 m
139.16 0 l
o
np
122.12 332.38 m
0 -7.20 l
o
np
168.51 332.38 m
0 -7.20 l
o
np
214.89 332.38 m
0 -7.20 l
o
np
261.28 332.38 m
0 -7.20 l
o
/Font1 findfont 12 s
122.12 306.46 (-50) .5 0 t
168.51 306.46 (0) .5 0 t
214.89 306.46 (50) .5 0 t
261.28 306.46 (100) .5 0 t
np
77.04 358.93 m
0 114.41 l
o
np
77.04 358.93 m
-7.20 0 l
o
np
77.04 416.13 m
-7.20 0 l
o
np
77.04 473.34 m
-7.20 0 l
o
59.76 358.93 (-50) .5 90 t
59.76 416.13 (0) .5 90 t
59.76 473.34 (50) .5 90 t
np
77.04 332.38 m
190.36 0 l
0 191.52 l
-190.36 0 l
0 -191.52 l
o
18.00 258.94 297.64 582.94 cl
/Font2 findfont 14 s
0 0 0 srgb
172.22 548.40 (tai100b) .5 0 t
/Font1 findfont 12 s
172.22 263.26 (Locations plot) .5 0 t
172.22 277.66 (X) .5 0 t
30.96 428.14 (Y) .5 90 t
356.68 332.38 547.04 523.90 cl
356.68 332.38 547.04 523.90 cl
0 0 0 srgb
0.75 setlinewidth
[] 0 setdash
1 setlinecap
1 setlinejoin
10.00 setmiterlimit
np
363.73 509.11 m
3.98 0 l
0 0 l
0 0 l
0 -19.67 l
6.85 0 l
0 -20.81 l
2.88 0 l
0 47.20 l
3.54 0 l
0 -101.78 l
0.22 0 l
0 73.92 l
0.44 0 l
0 0 l
0.22 0 l
0 -6.07 l
1.33 0 l
0 34.75 l
1.11 0 l
0 -0.82 l
0.88 0 l
0 -23.77 l
0 0 l
0 6.07 l
0 0 l
0 8.85 l
2.65 0 l
0 -61.13 l
0.22 0 l
0 -76.87 l
0.67 0 l
0 146.03 l
2.65 0 l
0 1.80 l
1.99 0 l
0 -1.15 l
0.67 0 l
0 -25.56 l
0.22 0 l
0 -7.38 l
2.65 0 l
0 33.27 l
6.41 0 l
0 -2.78 l
1.11 0 l
0 -18.69 l
0.22 0 l
0 -12.13 l
1.77 0 l
0 -89.32 l
2.21 0 l
0 53.92 l
1.33 0 l
0 69.49 l
1.33 0 l
0 -21.47 l
0.88 0 l
0 -59.82 l
0.44 0 l
0 66.87 l
1.33 0 l
0 11.80 l
2.21 0 l
0 -24.25 l
1.55 0 l
0 24.09 l
3.54 0 l
0 3.11 l
1.10 0 l
0 -43.92 l
0.22 0 l
0 -26.55 l
0 0 l
0 70.47 l
3.32 0 l
0 -176.35 l
0 0 l
0 138.66 l
0.89 0 l
0 36.38 l
3.98 0 l
0 0.16 l
0 0 l
0 -11.14 l
1.99 0 l
0 2.46 l
0.22 0 l
0 9.67 l
0 0 l
0 -9.02 l
1.10 0 l
0 8.36 l
0 0 l
0 -4.26 l
3.10 0 l
0 -32.78 l
0.66 0 l
0 33.44 l
0.45 0 l
438.26 510.75 lineto
2.87 0 l
0 -13.61 l
2.21 0 l
0 19.02 l
3.32 0 l
0 -4.27 l
2.87 0 l
0 -55.06 l
1.99 0 l
0 58.67 l
0.67 0 l
0 -1.97 l
2.87 0 l
0 -30.32 l
0.22 0 l
0 33.44 l
0.89 0 l
0 -0.66 l
2.21 0 l
0 -4.59 l
11.72 0 l
0 -76.70 l
0.44 0 l
0 79.98 l
1.55 0 l
0 -91.45 l
3.54 0 l
0 90.96 l
0.66 0 l
0 -35.40 l
0.67 0 l
0 -34.42 l
0 0 l
0 71.95 l
4.20 0 l
0 -6.06 l
8.85 0 l
0 -27.37 l
0.66 0 l
0 -9.51 l
0.88 0 l
0 -23.27 l
1.77 0 l
0 46.87 l
1.33 0 l
0 18.52 l
1.11 0 l
0 -176.02 l
3.09 0 l
0 177.00 l
1.33 0 l
0 -85.88 l
3.09 0 l
0 69.17 l
1.11 0 l
0 -27.37 l
0.66 0 l
0 41.13 l
0.45 0 l
0 -21.79 l
1.76 0 l
0 20.32 l
1.33 0 l
0 -23.77 l
0.22 0 l
0 26.39 l
0.45 0 l
0 1.31 l
3.09 0 l
0 -1.80 l
1.99 0 l
0 -5.41 l
1.99 0 l
0 0.82 l
0.89 0 l
0 7.05 l
1.77 0 l
0 -60.32 l
2.21 0 l
0 -25.07 l
3.31 0 l
0 69.49 l
0.23 0 l
0 -130.62 l
3.76 0 l
0 140.62 l
0 0 l
0 1.31 l
5.08 0 l
0 -161.44 l
1.55 0 l
0 149.80 l
0.66 0 l
0 -0.98 l
3.54 0 l
0 5.41 l
0.67 0 l
0 -155.54 l
o
18.00 258.94 577.28 582.94 cl
0 0 0 srgb
0.75 setlinewidth
[] 0 setdash
1 setlinecap
1 setlinejoin
10.00 setmiterlimit
np
363.51 332.38 m
176.92 0 l
o
np
363.51 332.38 m
0 -7.20 l
o
np
407.74 332.38 m
0 -7.20 l
o
np
451.97 332.38 m
0 -7.20 l
o
np
496.20 332.38 m
0 -7.20 l
o
np
540.43 332.38 m
0 -7.20 l
o
/Font1 findfont 12 s
363.51 306.46 (0) .5 0 t
407.74 306.46 (200) .5 0 t
451.97 306.46 (400) .5 0 t
496.20 306.46 (600) .5 0 t
540.43 306.46 (800) .5 0 t
np
356.68 353.41 m
0 163.89 l
o
np
356.68 353.41 m
-7.20 0 l
o
np
356.68 386.19 m
-7.20 0 l
o
np
356.68 418.97 m
-7.20 0 l
o
np
356.68 451.75 m
-7.20 0 l
o
np
356.68 484.52 m
-7.20 0 l
o
np
356.68 517.30 m
-7.20 0 l
o
339.40 353.41 (-1000) .5 90 t
339.40 418.97 (-600) .5 90 t
339.40 484.52 (-200) .5 90 t
339.40 517.30 (0) .5 90 t
np
356.68 332.38 m
190.36 0 l
0 191.52 l
-190.36 0 l
0 -191.52 l
o
297.64 258.94 577.28 582.94 cl
/Font2 findfont 14 s
0 0 0 srgb
451.86 548.40 (tai100bD) .5 0 t
/Font1 findfont 12 s
451.86 263.26 (Requests time) .5 0 t
451.86 277.66 (Time) .5 0 t
310.60 428.14 (Requests) .5 90 t
ep
%%Page: 4 4
bp
77.04 332.38 267.40 523.90 cl
18.00 258.94 297.64 582.94 cl
/Font2 findfont 14 s
0 0 0 srgb
172.22 548.40 (tai100b) .5 0 t
/Font1 findfont 12 s
97.86 263.26 (Requests v) 0 ta
-0.300 (olume histogr) tb
-0.120 (am) tb gr
151.88 277.66 (V) 0 ta
-0.960 (olume) tb gr
30.96 387.46 (No) 90 ta
-0.480 (. of requests) tb gr
18.00 258.94 577.28 582.94 cl
0 0 0 srgb
0.75 setlinewidth
[] 0 setdash
1 setlinecap
1 setlinejoin
10.00 setmiterlimit
np
84.09 332.38 m
160.23 0 l
o
np
84.09 332.38 m
0 -7.20 l
o
np
116.14 332.38 m
0 -7.20 l
o
np
148.18 332.38 m
0 -7.20 l
o
np
180.23 332.38 m
0 -7.20 l
o
np
212.28 332.38 m
0 -7.20 l
o
np
244.32 332.38 m
0 -7.20 l
o
/Font1 findfont 12 s
84.09 306.46 (0) .5 0 t
116.14 306.46 (200) .5 0 t
148.18 306.46 (400) .5 0 t
180.23 306.46 (600) .5 0 t
212.28 306.46 (800) .5 0 t
np
77.04 339.48 m
0 173.85 l
o
np
77.04 339.48 m
-7.20 0 l
o
np
77.04 374.25 m
-7.20 0 l
o
np
77.04 409.02 m
-7.20 0 l
o
np
77.04 443.79 m
-7.20 0 l
o
np
77.04 478.56 m
-7.20 0 l
o
np
77.04 513.33 m
-7.20 0 l
o
59.76 339.48 (0) .5 90 t
59.76 374.25 (10) .5 90 t
59.76 409.02 (20) .5 90 t
59.76 443.79 (30) .5 90 t
59.76 478.56 (40) .5 90 t
59.76 513.33 (50) .5 90 t
77.04 332.38 267.40 523.90 cl
0 0 0 srgb
0.75 setlinewidth
[] 0 setdash
1 setlinecap
1 setlinejoin
10.00 setmiterlimit
84.09 339.48 16.02 177.33 r p1
100.11 339.48 16.02 59.11 r p1
116.14 339.48 16.02 41.73 r p1
132.16 339.48 16.02 6.95 r p1
148.18 339.48 16.02 17.39 r p1
164.21 339.48 16.02 17.39 r p1
180.23 339.48 16.02 3.48 r p1
196.25 339.48 16.02 3.48 r p1
212.28 339.48 16.02 3.48 r p1
228.30 339.48 16.02 3.48 r p1
244.32 339.48 16.02 13.91 r p1
356.68 332.38 547.04 523.90 cl
ep
%%Trailer
%%Pages: 4
%%EOF
