%!PS-Adobe-3.0
%%DocumentNeededResources: font Helvetica
%%+ font Helvetica-Bold
%%+ font Helvetica-Oblique
%%+ font Helvetica-BoldOblique
%%+ font Symbol
%%DocumentMedia: a4 595 841 0 () ()
%%Title: R Graphics Output
%%Creator: R Software
%%Pages: (atend)
%%Orientation: Portrait
%%BoundingBox: 18 259 577 583
%%EndComments
%%BeginProlog
/bp  { gs sRGB gs } def
% begin .ps.prolog
/gs  { gsave } bind def
/gr  { grestore } bind def
/ep  { showpage gr gr } bind def
/m   { moveto } bind def
/l  { rlineto } bind def
/np  { newpath } bind def
/cp  { closepath } bind def
/f   { fill } bind def
/o   { stroke } bind def
/c   { newpath 0 360 arc } bind def
/r   { 4 2 roll moveto 1 copy 3 -1 roll exch 0 exch rlineto 0 rlineto -1 mul 0 exch rlineto closepath } bind def
/p1  { stroke } bind def
/p2  { gsave bg fill grestore newpath } bind def
/p3  { gsave bg fill grestore stroke } bind def
/p6  { gsave bg eofill grestore newpath } bind def
/p7  { gsave bg eofill grestore stroke } bind def
/t   { 5 -2 roll moveto gsave rotate
       1 index stringwidth pop
       mul neg 0 rmoveto show grestore } bind def
/ta  { 4 -2 roll moveto gsave rotate show } bind def
/tb  { 2 -1 roll 0 rmoveto show } bind def
/cl  { grestore gsave newpath 3 index 3 index moveto 1 index
       4 -1 roll lineto  exch 1 index lineto lineto
       closepath clip newpath } bind def
/rgb { setrgbcolor } bind def
/s   { scalefont setfont } bind def
% end   .ps.prolog
/sRGB { [ /CIEBasedABC
          << /DecodeLMN
               [ { dup 0.03928 le
                        {12.92321 div}
                        {0.055 add 1.055 div 2.4 exp }
                     ifelse
                 } bind dup dup
               ]
             /MatrixLMN [0.412457 0.212673 0.019334
                         0.357576 0.715152 0.119192
                         0.180437 0.072175 0.950301]
             /WhitePoint [0.9505 1.0 1.0890]
           >>
         ] setcolorspace } bind def
/srgb { setcolor } bind def
% begin encoding
/WinAnsiEncoding [
 /.notdef /.notdef /.notdef /.notdef /.notdef /.notdef /.notdef /.notdef
 /.notdef /.notdef /.notdef /.notdef /.notdef /.notdef /.notdef /.notdef
 /.notdef /.notdef /.notdef /.notdef /.notdef /.notdef /.notdef /.notdef
 /.notdef /.notdef /.notdef /.notdef /.notdef /.notdef /.notdef /.notdef
 /space /exclam /quotedbl /numbersign /dollar /percent /ampersand /quoteright
 /parenleft /parenright /asterisk /plus /comma /minus /period /slash
 /zero /one /two /three /four /five /six /seven
 /eight /nine /colon /semicolon /less /equal /greater /question
 /at /A /B /C /D /E /F /G
 /H /I /J /K /L /M /N /O
 /P /Q /R /S /T /U /V /W
 /X /Y /Z /bracketleft /backslash /bracketright /asciicircum /underscore
 /grave /a /b /c /d /e /f /g
 /h /i /j /k /l /m /n /o
 /p /q /r /s /t /u /v /w
 /x /y /z /braceleft /bar /braceright /asciitilde /.notdef
 /Euro /.notdef /quotesinglbase /florin /quotedblbase /ellipsis /dagger /daggerdbl
 /circumflex /perthousand /Scaron /guilsinglleft /OE /.notdef /Zcaron /.notdef
 /.notdef /quoteleft /quoteright /quotedblleft /quotedblright /bullet /endash /emdash
 /tilde /trademark /scaron /guilsinglright /oe /.notdef /zcaron /Ydieresis
 /space /exclamdown /cent /sterling /currency /yen /brokenbar /section
 /dieresis /copyright /ordfeminine /guillemotleft /logicalnot /hyphen /registered /macron
 /degree /plusminus /twosuperior /threesuperior /acute /mu /paragraph /periodcentered
 /cedilla /onesuperior /ordmasculine /guillemotright /onequarter /onehalf /threequarters /questiondown
 /Agrave /Aacute /Acircumflex /Atilde /Adieresis /Aring /AE /Ccedilla
 /Egrave /Eacute /Ecircumflex /Edieresis /Igrave /Iacute /Icircumflex /Idieresis
 /Eth /Ntilde /Ograve /Oacute /Ocircumflex /Otilde /Odieresis /multiply
 /Oslash /Ugrave /Uacute /Ucircumflex /Udieresis /Yacute /Thorn /germandbls
 /agrave /aacute /acircumflex /atilde /adieresis /aring /ae /ccedilla
 /egrave /eacute /ecircumflex /edieresis /igrave /iacute /icircumflex /idieresis
 /eth /ntilde /ograve /oacute /ocircumflex /otilde /odieresis /divide
 /oslash /ugrave /uacute /ucircumflex /udieresis /yacute /thorn /ydieresis
]
 def
% end encoding
%%IncludeResource: font Helvetica
/Helvetica findfont
dup length dict begin
  {1 index /FID ne {def} {pop pop} ifelse} forall
  /Encoding WinAnsiEncoding def
  currentdict
  end
/Font1 exch definefont pop
%%IncludeResource: font Helvetica-Bold
/Helvetica-Bold findfont
dup length dict begin
  {1 index /FID ne {def} {pop pop} ifelse} forall
  /Encoding WinAnsiEncoding def
  currentdict
  end
/Font2 exch definefont pop
%%IncludeResource: font Helvetica-Oblique
/Helvetica-Oblique findfont
dup length dict begin
  {1 index /FID ne {def} {pop pop} ifelse} forall
  /Encoding WinAnsiEncoding def
  currentdict
  end
/Font3 exch definefont pop
%%IncludeResource: font Helvetica-BoldOblique
/Helvetica-BoldOblique findfont
dup length dict begin
  {1 index /FID ne {def} {pop pop} ifelse} forall
  /Encoding WinAnsiEncoding def
  currentdict
  end
/Font4 exch definefont pop
%%IncludeResource: font Symbol
/Symbol findfont
dup length dict begin
  {1 index /FID ne {def} {pop pop} ifelse} forall
  currentdict
  end
/Font5 exch definefont pop
%%EndProlog
%%Page: 1 1
bp
77.04 332.38 267.40 523.90 cl
0 0 0 srgb
0.75 setlinewidth
[] 0 setdash
1 setlinecap
1 setlinejoin
10.00 setmiterlimit
161.61 430.64 2.70 c p1
164.54 433.49 2.70 c p1
161.61 437.76 2.70 c p1
164.54 433.49 2.70 c p1
166.73 431.35 2.70 c p1
158.69 432.77 2.70 c p1
160.88 433.49 2.70 c p1
162.35 432.06 2.70 c p1
165.27 434.20 2.70 c p1
164.54 430.64 2.70 c p1
161.61 430.64 2.70 c p1
165.27 430.64 2.70 c p1
160.15 434.20 2.70 c p1
161.61 435.62 2.70 c p1
166.73 434.91 2.70 c p1
148.45 511.11 2.70 c p1
152.11 515.39 2.70 c p1
146.99 512.54 2.70 c p1
148.45 509.69 2.70 c p1
141.87 514.68 2.70 c p1
143.33 510.40 2.70 c p1
142.60 509.69 2.70 c p1
149.91 511.11 2.70 c p1
152.84 514.68 2.70 c p1
144.06 516.10 2.70 c p1
152.84 512.54 2.70 c p1
144.79 510.40 2.70 c p1
152.84 516.81 2.70 c p1
141.87 515.39 2.70 c p1
142.60 508.27 2.70 c p1
151.38 515.39 2.70 c p1
144.79 507.55 2.70 c p1
143.33 507.55 2.70 c p1
152.84 514.68 2.70 c p1
151.38 516.81 2.70 c p1
152.11 437.05 2.70 c p1
140.40 446.31 2.70 c p1
147.72 449.87 2.70 c p1
148.45 444.17 2.70 c p1
152.84 442.74 2.70 c p1
154.30 445.59 2.70 c p1
142.60 445.59 2.70 c p1
138.21 440.61 2.70 c p1
141.14 442.74 2.70 c p1
152.84 451.29 2.70 c p1
150.64 447.02 2.70 c p1
149.18 452.00 2.70 c p1
144.79 439.18 2.70 c p1
139.67 447.73 2.70 c p1
142.60 439.90 2.70 c p1
147.72 443.46 2.70 c p1
149.91 444.88 2.70 c p1
138.94 436.33 2.70 c p1
139.67 449.15 2.70 c p1
163.81 356.57 2.70 c p1
163.08 346.60 2.70 c p1
155.03 344.46 2.70 c p1
161.61 339.48 2.70 c p1
152.84 354.43 2.70 c p1
150.64 343.75 2.70 c p1
163.81 343.04 2.70 c p1
152.11 346.60 2.70 c p1
154.30 353.01 2.70 c p1
100.91 402.86 2.70 c p1
91.40 414.26 2.70 c p1
87.75 392.18 2.70 c p1
97.99 402.86 2.70 c p1
162.35 423.52 2.70 c p1
169.66 422.09 2.70 c p1
161.61 424.23 2.70 c p1
165.27 430.64 2.70 c p1
169.66 429.93 2.70 c p1
164.54 422.80 2.70 c p1
165.27 427.79 2.70 c p1
171.85 428.50 2.70 c p1
169.66 431.35 2.70 c p1
168.93 430.64 2.70 c p1
97.99 469.10 2.70 c p1
85.55 471.23 2.70 c p1
90.67 469.81 2.70 c p1
87.75 476.93 2.70 c p1
94.33 473.37 2.70 c p1
91.40 469.81 2.70 c p1
84.09 474.08 2.70 c p1
140.40 435.62 2.70 c p1
142.60 437.05 2.70 c p1
144.06 432.77 2.70 c p1
139.67 434.91 2.70 c p1
144.06 436.33 2.70 c p1
140.40 436.33 2.70 c p1
146.99 434.20 2.70 c p1
146.26 435.62 2.70 c p1
143.33 435.62 2.70 c p1
142.60 437.76 2.70 c p1
146.26 437.05 2.70 c p1
140.40 439.90 2.70 c p1
141.14 433.49 2.70 c p1
141.14 433.49 2.70 c p1
176.24 434.20 2.70 c p1
168.20 437.76 2.70 c p1
173.32 433.49 2.70 c p1
176.24 434.20 2.70 c p1
171.12 432.77 2.70 c p1
171.12 437.76 2.70 c p1
172.58 433.49 2.70 c p1
170.39 437.76 2.70 c p1
167.47 438.47 2.70 c p1
172.58 432.06 2.70 c p1
170.39 438.47 2.70 c p1
172.58 436.33 2.70 c p1
176.24 438.47 2.70 c p1
184.29 457.70 2.70 c p1
183.55 453.43 2.70 c p1
187.94 452.00 2.70 c p1
179.90 450.58 2.70 c p1
239.14 447.02 2.70 c p1
242.06 458.41 2.70 c p1
253.77 449.15 2.70 c p1
246.45 439.90 2.70 c p1
256.69 443.46 2.70 c p1
250.84 441.32 2.70 c p1
246.45 443.46 2.70 c p1
254.50 444.17 2.70 c p1
260.35 446.31 2.70 c p1
250.11 451.29 2.70 c p1
172.58 477.64 2.70 c p1
179.90 488.32 2.70 c p1
178.44 482.63 2.70 c p1
181.36 487.61 2.70 c p1
182.82 475.50 2.70 c p1
171.12 481.20 2.70 c p1
179.90 476.22 2.70 c p1
177.70 488.32 2.70 c p1
176.97 480.49 2.70 c p1
169.66 485.48 2.70 c p1
168.93 479.78 2.70 c p1
165.27 474.08 2.70 c p1
163.08 476.93 2.70 c p1
163.81 481.20 2.70 c p1
162.35 481.91 2.70 c p1
156.49 478.35 2.70 c p1
157.23 474.08 2.70 c p1
165.27 475.50 2.70 c p1
141.14 405.71 2.70 c p1
145.52 402.86 2.70 c p1
148.45 400.01 2.70 c p1
143.33 400.73 2.70 c p1
146.26 399.30 2.70 c p1
146.99 407.14 2.70 c p1
141.14 400.73 2.70 c p1
18.00 258.94 577.28 582.94 cl
0 0 0 srgb
0.75 setlinewidth
[] 0 setdash
1 setlinecap
1 setlinejoin
10.00 setmiterlimit
np
89.21 332.38 m
146.27 0 l
o
np
89.21 332.38 m
0 -7.20 l
o
np
125.78 332.38 m
0 -7.20 l
o
np
162.35 332.38 m
0 -7.20 l
o
np
198.91 332.38 m
0 -7.20 l
o
np
235.48 332.38 m
0 -7.20 l
o
/Font1 findfont 12 s
89.21 306.46 (-100) .5 0 t
125.78 306.46 (-50) .5 0 t
162.35 306.46 (0) .5 0 t
198.91 306.46 (50) .5 0 t
235.48 306.46 (100) .5 0 t
np
77.04 362.27 m
0 142.43 l
o
np
77.04 362.27 m
-7.20 0 l
o
np
77.04 397.88 m
-7.20 0 l
o
np
77.04 433.49 m
-7.20 0 l
o
np
77.04 469.10 m
-7.20 0 l
o
np
77.04 504.70 m
-7.20 0 l
o
59.76 362.27 (-100) .5 90 t
59.76 397.88 (-50) .5 90 t
59.76 433.49 (0) .5 90 t
59.76 469.10 (50) .5 90 t
59.76 504.70 (100) .5 90 t
np
77.04 332.38 m
190.36 0 l
0 191.52 l
-190.36 0 l
0 -191.52 l
o
18.00 258.94 297.64 582.94 cl
/Font2 findfont 14 s
0 0 0 srgb
172.22 548.40 (tai150c) .5 0 t
/Font1 findfont 12 s
172.22 263.26 (Locations plot) .5 0 t
172.22 277.66 (X) .5 0 t
30.96 428.14 (Y) .5 90 t
356.68 332.38 547.04 523.90 cl
356.68 332.38 547.04 523.90 cl
0 0 0 srgb
0.75 setlinewidth
[] 0 setdash
1 setlinecap
1 setlinejoin
10.00 setmiterlimit
np
363.73 342.75 m
0.33 0 l
0 36.85 l
0.32 0 l
0 125.59 l
1.97 0 l
0 -100.38 l
0.99 0 l
0 83.84 l
1.31 0 l
0 -1.31 l
0.49 0 l
0 9.66 l
1.97 0 l
0 19.65 l
1.14 0 l
0 -12.61 l
4.10 0 l
0 4.09 l
0 0 l
0 4.42 l
1.97 0 l
0 0.99 l
0.33 0 l
0 3.11 l
1.64 0 l
0 -0.82 l
0 0 l
0 0.33 l
0.65 0 l
0 -28.49 l
0.33 0 l
0 20.79 l
0 0 l
0 -135.91 l
1.31 0 l
0 10.16 l
0.99 0 l
0 30.29 l
1.64 0 l
0 94.64 l
1.31 0 l
0 -13.26 l
0.33 0 l
0 -64.02 l
0.65 0 l
0 77.45 l
0.99 0 l
0 7.04 l
0 0 l
0 0.65 l
0.32 0 l
0 -28.49 l
0.99 0 l
0 4.26 l
0.98 0 l
0 -20.63 l
1.97 0 l
0 46.01 l
1.64 0 l
0 -0.98 l
0.98 0 l
0 1.14 l
4.92 0 l
0 -0.16 l
0 0 l
0 -1.15 l
0.66 0 l
0 -5.57 l
0.32 0 l
0 6.72 l
0.99 0 l
0 -36.19 l
0.65 0 l
0 -9.99 l
0.99 0 l
0 3.93 l
2.95 0 l
0 42.25 l
0.49 0 l
0 -63.37 l
1.97 0 l
0 55.18 l
2.29 0 l
0 -75.98 l
1.64 0 l
0 -48.63 l
0.33 0 l
0 129.36 l
1.97 0 l
0 -0.66 l
0.98 0 l
0 1.81 l
0.33 0 l
0 -93.34 l
0 0 l
0 85.15 l
0.33 0 l
0 -67.46 l
1.64 0 l
418.82 516.48 lineto
1.64 0 l
0 -1.80 l
0 0 l
0 -2.94 l
0 0 l
0 4.74 l
2.29 0 l
0 -0.65 l
0.99 0 l
0 -2.13 l
2.62 0 l
0 -16.05 l
0.33 0 l
0 -5.24 l
1.31 0 l
0 21.45 l
0.66 0 l
0 -3.76 l
0 0 l
0 -103.49 l
0.98 0 l
0 107.91 l
5.57 0 l
0 -122.32 l
0.99 0 l
0 122.97 l
1.31 0 l
0 1.15 l
1.97 0 l
0 -116.58 l
3.93 0 l
0 109.05 l
0.99 0 l
0 6.71 l
0.16 0 l
0 -13.43 l
0.98 0 l
0 -49.94 l
4.60 0 l
0 57.31 l
0.32 0 l
0 1.80 l
0.66 0 l
0 5.57 l
0.98 0 l
0 -0.82 l
0.66 0 l
0 -65.17 l
0.98 0 l
0 -111.34 l
1.31 0 l
0 177.33 l
0 0 l
0 -8.02 l
2.63 0 l
0 -5.90 l
0 0 l
0 9.83 l
0.33 0 l
0 -107.74 l
2.95 0 l
0 108.23 l
0.32 0 l
0 -12.45 l
1.97 0 l
0 15.89 l
1.31 0 l
0 -1.80 l
0 0 l
0 -70.41 l
0.66 0 l
0 72.21 l
0.33 0 l
0 -96.45 l
0.98 0 l
0 43.56 l
1.31 0 l
0 38.48 l
0 0 l
0 11.62 l
1.31 0 l
0 1.48 l
0.66 0 l
0 -5.24 l
5.90 0 l
0 -119.37 l
0.66 0 l
0 125.92 l
1.64 0 l
0 -1.64 l
0.65 0 l
0 -125.92 l
0.82 0 l
0 127.72 l
0.33 0 l
0 -81.38 l
0.17 0 l
0 18.01 l
1.14 0 l
481.12 506.82 lineto
3.28 0 l
0 -4.25 l
0.33 0 l
0 13.42 l
0.33 0 l
0 -151.13 l
1.64 0 l
0 71.23 l
2.29 0 l
0 78.10 l
6.89 0 l
0 -50.10 l
0.33 0 l
0 44.04 l
0.33 0 l
0 5.90 l
0 0 l
0 -52.07 l
0.98 0 l
0 54.52 l
1.31 0 l
0 -1.96 l
0.33 0 l
0 -33.57 l
0 0 l
0 35.37 l
0.33 0 l
0 0.33 l
1.31 0 l
0 -0.66 l
0.33 0 l
0 -25.54 l
0.32 0 l
0 11.13 l
1.64 0 l
0 14.74 l
0.99 0 l
0 -102.18 l
0 0 l
0 102.51 l
0.98 0 l
0 -18.18 l
0.99 0 l
0 -86.78 l
0.32 0 l
0 74.99 l
1.32 0 l
0 -11.95 l
2.29 0 l
0 41.75 l
0 0 l
0 -0.65 l
1.64 0 l
0 0 l
0.33 0 l
0 0.82 l
0.33 0 l
0 -2.13 l
1.31 0 l
0 -24.56 l
2.13 0 l
0 -140.66 l
0.33 0 l
0 163.91 l
0.65 0 l
0 -12.94 l
0.33 0 l
0 15.89 l
2.30 0 l
0 -6.72 l
0.65 0 l
0 -17.19 l
0.99 0 l
0 20.14 l
1.31 0 l
0 -21.45 l
0.33 0 l
0 25.87 l
3.27 0 l
0 -1.47 l
2.30 0 l
0 1.31 l
0.33 0 l
0 -8.35 l
0.33 0 l
0 7.20 l
3.93 0 l
0 1.31 l
2.95 0 l
0 -1.80 l
1.31 0 l
0 -64.51 l
0.66 0 l
0 58.78 l
0 0 l
0 7.37 l
2.30 0 l
0 -0.17 l
o
18.00 258.94 577.28 582.94 cl
0 0 0 srgb
0.75 setlinewidth
[] 0 setdash
1 setlinecap
1 setlinejoin
10.00 setmiterlimit
np
363.07 332.38 m
163.96 0 l
o
np
363.07 332.38 m
0 -7.20 l
o
np
395.86 332.38 m
0 -7.20 l
o
np
428.66 332.38 m
0 -7.20 l
o
np
461.45 332.38 m
0 -7.20 l
o
np
494.24 332.38 m
0 -7.20 l
o
np
527.03 332.38 m
0 -7.20 l
o
/Font1 findfont 12 s
363.07 306.46 (0) .5 0 t
395.86 306.46 (200) .5 0 t
428.66 306.46 (400) .5 0 t
461.45 306.46 (600) .5 0 t
494.24 306.46 (800) .5 0 t
np
356.68 353.56 m
0 163.74 l
o
np
356.68 353.56 m
-7.20 0 l
o
np
356.68 386.31 m
-7.20 0 l
o
np
356.68 419.06 m
-7.20 0 l
o
np
356.68 451.81 m
-7.20 0 l
o
np
356.68 484.55 m
-7.20 0 l
o
np
356.68 517.30 m
-7.20 0 l
o
339.40 353.56 (-1000) .5 90 t
339.40 419.06 (-600) .5 90 t
339.40 484.55 (-200) .5 90 t
339.40 517.30 (0) .5 90 t
np
356.68 332.38 m
190.36 0 l
0 191.52 l
-190.36 0 l
0 -191.52 l
o
297.64 258.94 577.28 582.94 cl
/Font2 findfont 14 s
0 0 0 srgb
451.86 548.40 (tai150cD) .5 0 t
/Font1 findfont 12 s
451.86 263.26 (Requests time) .5 0 t
451.86 277.66 (Time) .5 0 t
310.60 428.14 (Requests) .5 90 t
ep
%%Page: 2 2
bp
77.04 332.38 267.40 523.90 cl
18.00 258.94 297.64 582.94 cl
/Font2 findfont 14 s
0 0 0 srgb
172.22 548.40 (tai150c) .5 0 t
/Font1 findfont 12 s
97.86 263.26 (Requests v) 0 ta
-0.300 (olume histogr) tb
-0.120 (am) tb gr
151.88 277.66 (V) 0 ta
-0.960 (olume) tb gr
30.96 387.46 (No) 90 ta
-0.480 (. of requests) tb gr
18.00 258.94 577.28 582.94 cl
0 0 0 srgb
0.75 setlinewidth
[] 0 setdash
1 setlinecap
1 setlinejoin
10.00 setmiterlimit
np
84.09 332.38 m
160.23 0 l
o
np
84.09 332.38 m
0 -7.20 l
o
np
116.14 332.38 m
0 -7.20 l
o
np
148.18 332.38 m
0 -7.20 l
o
np
180.23 332.38 m
0 -7.20 l
o
np
212.28 332.38 m
0 -7.20 l
o
np
244.32 332.38 m
0 -7.20 l
o
/Font1 findfont 12 s
84.09 306.46 (0) .5 0 t
116.14 306.46 (200) .5 0 t
148.18 306.46 (400) .5 0 t
180.23 306.46 (600) .5 0 t
212.28 306.46 (800) .5 0 t
np
77.04 339.48 m
0 152.54 l
o
np
77.04 339.48 m
-7.20 0 l
o
np
77.04 377.61 m
-7.20 0 l
o
np
77.04 415.75 m
-7.20 0 l
o
np
77.04 453.89 m
-7.20 0 l
o
np
77.04 492.02 m
-7.20 0 l
o
59.76 339.48 (0) .5 90 t
59.76 377.61 (20) .5 90 t
59.76 415.75 (40) .5 90 t
59.76 453.89 (60) .5 90 t
59.76 492.02 (80) .5 90 t
77.04 332.38 267.40 523.90 cl
0 0 0 srgb
0.75 setlinewidth
[] 0 setdash
1 setlinecap
1 setlinejoin
10.00 setmiterlimit
84.09 339.48 16.02 177.33 r p1
100.11 339.48 16.02 32.42 r p1
116.14 339.48 16.02 11.44 r p1
132.16 339.48 16.02 11.44 r p1
148.18 339.48 16.02 11.44 r p1
164.21 339.48 16.02 7.63 r p1
180.23 339.48 16.02 11.44 r p1
196.25 339.48 16.02 7.63 r p1
212.28 339.48 16.02 7.63 r p1
228.30 339.48 16.02 1.91 r p1
244.32 339.48 16.02 5.72 r p1
ep
%%Page: 3 3
bp
77.04 332.38 267.40 523.90 cl
77.04 332.38 267.40 523.90 cl
0 0 0 srgb
0.75 setlinewidth
[] 0 setdash
1 setlinecap
1 setlinejoin
10.00 setmiterlimit
168.27 448.79 2.70 c p1
167.40 447.98 2.70 c p1
162.13 452.84 2.70 c p1
170.90 451.22 2.70 c p1
172.66 444.74 2.70 c p1
166.52 447.17 2.70 c p1
173.53 446.36 2.70 c p1
163.89 448.79 2.70 c p1
163.01 449.60 2.70 c p1
163.01 444.74 2.70 c p1
173.53 443.13 2.70 c p1
119.17 456.89 2.70 c p1
113.03 439.89 2.70 c p1
118.29 450.41 2.70 c p1
103.38 445.55 2.70 c p1
102.51 447.98 2.70 c p1
116.54 460.13 2.70 c p1
124.43 461.75 2.70 c p1
101.63 451.22 2.70 c p1
123.55 456.89 2.70 c p1
106.89 453.65 2.70 c p1
123.55 447.98 2.70 c p1
113.90 450.41 2.70 c p1
123.55 443.13 2.70 c p1
113.90 456.89 2.70 c p1
100.75 442.32 2.70 c p1
121.80 447.98 2.70 c p1
117.41 456.89 2.70 c p1
253.33 479.56 2.70 c p1
255.96 492.52 2.70 c p1
245.44 490.09 2.70 c p1
245.44 490.90 2.70 c p1
184.06 513.57 2.70 c p1
169.15 511.95 2.70 c p1
170.90 513.57 2.70 c p1
179.67 490.90 2.70 c p1
183.18 513.57 2.70 c p1
169.15 495.76 2.70 c p1
173.53 506.28 2.70 c p1
185.81 509.52 2.70 c p1
161.26 496.57 2.70 c p1
176.16 511.14 2.70 c p1
173.53 513.57 2.70 c p1
170.90 500.62 2.70 c p1
167.40 491.71 2.70 c p1
168.27 511.95 2.70 c p1
166.52 490.90 2.70 c p1
183.18 494.14 2.70 c p1
164.77 511.95 2.70 c p1
182.30 494.95 2.70 c p1
170.90 450.41 2.70 c p1
162.13 460.94 2.70 c p1
166.52 455.27 2.70 c p1
167.40 453.65 2.70 c p1
166.52 450.41 2.70 c p1
172.66 458.51 2.70 c p1
172.66 448.79 2.70 c p1
168.27 458.51 2.70 c p1
177.92 449.60 2.70 c p1
176.16 455.27 2.70 c p1
168.27 461.75 2.70 c p1
162.13 453.65 2.70 c p1
172.66 463.37 2.70 c p1
166.52 455.27 2.70 c p1
171.78 456.89 2.70 c p1
113.90 384.01 2.70 c p1
107.77 384.82 2.70 c p1
126.18 395.35 2.70 c p1
113.03 393.73 2.70 c p1
118.29 401.83 2.70 c p1
107.77 388.87 2.70 c p1
195.46 435.03 2.70 c p1
191.07 431.79 2.70 c p1
195.46 428.55 2.70 c p1
191.07 442.32 2.70 c p1
185.81 434.22 2.70 c p1
198.09 435.03 2.70 c p1
184.93 435.03 2.70 c p1
183.18 426.12 2.70 c p1
199.84 437.46 2.70 c p1
195.46 434.22 2.70 c p1
144.60 506.28 2.70 c p1
150.73 507.90 2.70 c p1
146.35 511.95 2.70 c p1
150.73 509.52 2.70 c p1
143.72 510.33 2.70 c p1
84.09 426.12 2.70 c p1
93.74 419.64 2.70 c p1
86.72 430.17 2.70 c p1
84.09 421.26 2.70 c p1
97.24 425.31 2.70 c p1
88.47 423.69 2.70 c p1
92.86 430.17 2.70 c p1
214.75 479.56 2.70 c p1
211.24 479.56 2.70 c p1
214.75 483.61 2.70 c p1
218.26 471.47 2.70 c p1
216.50 469.04 2.70 c p1
220.89 475.51 2.70 c p1
253.33 458.51 2.70 c p1
252.46 458.51 2.70 c p1
250.70 456.89 2.70 c p1
250.70 455.27 2.70 c p1
258.59 464.99 2.70 c p1
259.47 457.70 2.70 c p1
259.47 457.70 2.70 c p1
248.95 458.51 2.70 c p1
260.35 462.56 2.70 c p1
91.98 437.46 2.70 c p1
92.86 437.46 2.70 c p1
96.37 449.60 2.70 c p1
87.60 439.89 2.70 c p1
98.12 439.89 2.70 c p1
93.74 449.60 2.70 c p1
94.61 447.98 2.70 c p1
95.49 448.79 2.70 c p1
90.23 443.93 2.70 c p1
99.00 443.93 2.70 c p1
86.72 447.17 2.70 c p1
87.60 439.08 2.70 c p1
93.74 438.27 2.70 c p1
155.12 510.33 2.70 c p1
145.47 514.38 2.70 c p1
147.23 512.76 2.70 c p1
144.60 513.57 2.70 c p1
152.49 512.76 2.70 c p1
153.37 516.81 2.70 c p1
148.10 511.95 2.70 c p1
153.37 513.57 2.70 c p1
149.86 513.57 2.70 c p1
151.61 510.33 2.70 c p1
149.86 516.81 2.70 c p1
148.98 514.38 2.70 c p1
206.86 346.77 2.70 c p1
216.50 356.48 2.70 c p1
200.72 341.10 2.70 c p1
207.73 339.48 2.70 c p1
205.98 459.32 2.70 c p1
205.10 460.13 2.70 c p1
198.09 460.13 2.70 c p1
203.35 457.70 2.70 c p1
204.23 464.18 2.70 c p1
205.10 454.46 2.70 c p1
206.86 463.37 2.70 c p1
204.23 455.27 2.70 c p1
202.47 454.46 2.70 c p1
205.10 461.75 2.70 c p1
205.98 455.27 2.70 c p1
201.60 454.46 2.70 c p1
201.60 457.70 2.70 c p1
18.00 258.94 577.28 582.94 cl
0 0 0 srgb
0.75 setlinewidth
[] 0 setdash
1 setlinecap
1 setlinejoin
10.00 setmiterlimit
np
88.47 332.38 m
175.39 0 l
o
np
88.47 332.38 m
0 -7.20 l
o
np
132.32 332.38 m
0 -7.20 l
o
np
176.16 332.38 m
0 -7.20 l
o
np
220.01 332.38 m
0 -7.20 l
o
np
263.86 332.38 m
0 -7.20 l
o
/Font1 findfont 12 s
88.47 306.46 (-100) .5 0 t
132.32 306.46 (-50) .5 0 t
176.16 306.46 (0) .5 0 t
220.01 306.46 (50) .5 0 t
263.86 306.46 (100) .5 0 t
np
77.04 358.10 m
0 161.95 l
o
np
77.04 358.10 m
-7.20 0 l
o
np
77.04 398.59 m
-7.20 0 l
o
np
77.04 439.08 m
-7.20 0 l
o
np
77.04 479.56 m
-7.20 0 l
o
np
77.04 520.05 m
-7.20 0 l
o
59.76 358.10 (-100) .5 90 t
59.76 398.59 (-50) .5 90 t
59.76 439.08 (0) .5 90 t
59.76 479.56 (50) .5 90 t
59.76 520.05 (100) .5 90 t
np
77.04 332.38 m
190.36 0 l
0 191.52 l
-190.36 0 l
0 -191.52 l
o
18.00 258.94 297.64 582.94 cl
/Font2 findfont 14 s
0 0 0 srgb
172.22 548.40 (tai150d) .5 0 t
/Font1 findfont 12 s
172.22 263.26 (Locations plot) .5 0 t
172.22 277.66 (X) .5 0 t
30.96 428.14 (Y) .5 90 t
356.68 332.38 547.04 523.90 cl
356.68 332.38 547.04 523.90 cl
0 0 0 srgb
0.75 setlinewidth
[] 0 setdash
1 setlinecap
1 setlinejoin
10.00 setmiterlimit
np
363.73 501.56 m
0.34 0 l
0 13.74 l
0.70 0 l
0 -0.84 l
0.34 0 l
0 -100.90 l
2.60 0 l
0 93.53 l
1.39 0 l
0 9.72 l
0.86 0 l
0 -0.17 l
0.69 0 l
0 -1.50 l
2.95 0 l
0 -5.20 l
0 0 l
0 5.36 l
1.04 0 l
0 -3.85 l
0.34 0 l
0 -13.24 l
0.87 0 l
0 14.24 l
1.38 0 l
0 -7.87 l
1.22 0 l
0 -5.03 l
2.25 0 l
0 -8.55 l
2.07 0 l
0 19.11 l
1.56 0 l
0 6.53 l
0.35 0 l
0 -5.69 l
0.34 0 l
0 -29.17 l
1.74 0 l
0 28.49 l
1.55 0 l
0 5.37 l
0.70 0 l
0 -1.51 l
0.34 0 l
0 -140.29 l
1.21 0 l
0 141.30 l
0.35 0 l
0 -9.06 l
2.25 0 l
0 -12.90 l
1.39 0 l
0 -27.83 l
1.56 0 l
0 37.72 l
1.03 0 l
0 -163.59 l
1.56 0 l
0 120.18 l
1.73 0 l
0 53.97 l
3.47 0 l
0 1.17 l
0.17 0 l
0 -34.19 l
1.90 0 l
0 29.33 l
0.70 0 l
0 -54.64 l
0.52 0 l
0 49.61 l
1.38 0 l
0 -1.34 l
0.35 0 l
0 13.24 l
1.04 0 l
0 -6.03 l
1.21 0 l
0 -2.52 l
3.63 0 l
0 5.37 l
1.91 0 l
0 -24.98 l
1.04 0 l
0 17.77 l
0.34 0 l
0 -56.99 l
0 0 l
0 64.70 l
0.35 0 l
0 2.01 l
0 0 l
0 -97.05 l
0.35 0 l
0 95.71 l
0.52 0 l
0 -22.46 l
0.34 0 l
419.65 493.68 lineto
0.70 0 l
0 22.13 l
0.69 0 l
0 -42.24 l
0.34 0 l
0 43.07 l
1.22 0 l
0 -0.16 l
0.69 0 l
0 -2.69 l
0 0 l
0 -0.67 l
0.34 0 l
0 -10.22 l
0.52 0 l
0 0 l
1.04 0 l
0 -6.37 l
0.35 0 l
0 0.17 l
3.29 0 l
0 18.77 l
0.35 0 l
0 -5.03 l
1.03 0 l
0 -39.89 l
0.52 0 l
0 21.79 l
0 0 l
0 23.47 l
1.04 0 l
0 -9.39 l
1.91 0 l
0 -15.09 l
0 0 l
0 24.98 l
1.04 0 l
0 -12.91 l
0.34 0 l
0 12.07 l
2.25 0 l
0 -121.35 l
0.35 0 l
0 122.52 l
2.25 0 l
0 -8.71 l
0.35 0 l
0 5.03 l
0.69 0 l
0 3.52 l
2.94 0 l
0 -4.86 l
1.91 0 l
0 3.52 l
0.34 0 l
0 -168.29 l
0 0 l
0 156.22 l
2.60 0 l
0 12.57 l
0.35 0 l
0 0.50 l
1.38 0 l
0 0.17 l
0.52 0 l
0 -86.82 l
0.69 0 l
0 85.14 l
1.73 0 l
0 0.17 l
0.52 0 l
0 -17.10 l
1.04 0 l
0 11.57 l
0.87 0 l
0 0.84 l
0.35 0 l
0 -3.52 l
1.03 0 l
0 5.70 l
1.04 0 l
0 4.52 l
0.87 0 l
0 -3.02 l
0.17 0 l
0 -82.63 l
3.46 0 l
0 -18.60 l
1.39 0 l
0 103.58 l
1.56 0 l
0 -41.90 l
2.60 0 l
0 -58.00 l
0.69 0 l
0 100.40 l
0.34 0 l
0 0 l
2.60 0 l
471.94 513.79 lineto
0.69 0 l
0 -5.53 l
1.56 0 l
0 7.55 l
2.25 0 l
0 -142.64 l
0.52 0 l
0 142.64 l
3.12 0 l
0 -8.89 l
0.34 0 l
0 7.71 l
1.74 0 l
0 -30.34 l
2.59 0 l
0 30.68 l
2.60 0 l
0 1.34 l
0.35 0 l
0 -22.46 l
0.86 0 l
0 -32.52 l
0.35 0 l
0 -14.58 l
0.69 0 l
0 -82.13 l
1.39 0 l
0 20.45 l
0.69 0 l
0 126.04 l
0.52 0 l
0 5.03 l
1.73 0 l
0 -20.78 l
0.69 0 l
0 17.76 l
2.43 0 l
0 0.17 l
2.77 0 l
0 3.52 l
2.25 0 l
0 -171.63 l
2.59 0 l
0 153.03 l
1.91 0 l
0 13.41 l
0 0 l
0 4.69 l
0 0 l
0 -87.83 l
1.04 0 l
0 76.26 l
0 0 l
0 -120.51 l
1.38 0 l
0 92.69 l
0.18 0 l
0 37.38 l
2.07 0 l
0 -37.72 l
0.87 0 l
0 35.54 l
0.35 0 l
0 4.36 l
0.69 0 l
0 -10.56 l
3.63 0 l
0 6.37 l
0 0 l
0 -78.28 l
4.16 0 l
0 80.79 l
0 0 l
0 -95.20 l
0.35 0 l
0 -54.98 l
4.50 0 l
0 87.66 l
1.04 0 l
0 59.00 l
5.02 0 l
0 4.86 l
2.25 0 l
0 -33.35 l
0.69 0 l
0 -139.29 l
0.17 0 l
0 171.47 l
0 0 l
0 -1.34 l
1.04 0 l
0 1.00 l
3.29 0 l
0 -126.38 l
0 0 l
0 104.26 l
0.70 0 l
0 16.42 l
o
18.00 258.94 577.28 582.94 cl
0 0 0 srgb
0.75 setlinewidth
[] 0 setdash
1 setlinecap
1 setlinejoin
10.00 setmiterlimit
np
362.86 332.38 m
173.14 0 l
o
np
362.86 332.38 m
0 -7.20 l
o
np
397.49 332.38 m
0 -7.20 l
o
np
432.12 332.38 m
0 -7.20 l
o
np
466.75 332.38 m
0 -7.20 l
o
np
501.37 332.38 m
0 -7.20 l
o
np
536.00 332.38 m
0 -7.20 l
o
/Font1 findfont 12 s
362.86 306.46 (0) .5 0 t
397.49 306.46 (200) .5 0 t
432.12 306.46 (400) .5 0 t
466.75 306.46 (600) .5 0 t
501.37 306.46 (800) .5 0 t
536.00 306.46 (1000) .5 0 t
np
356.68 349.70 m
0 167.61 l
o
np
356.68 349.70 m
-7.20 0 l
o
np
356.68 383.22 m
-7.20 0 l
o
np
356.68 416.75 m
-7.20 0 l
o
np
356.68 450.27 m
-7.20 0 l
o
np
356.68 483.79 m
-7.20 0 l
o
np
356.68 517.31 m
-7.20 0 l
o
339.40 349.70 (-1000) .5 90 t
339.40 416.75 (-600) .5 90 t
339.40 483.79 (-200) .5 90 t
339.40 517.31 (0) .5 90 t
np
356.68 332.38 m
190.36 0 l
0 191.52 l
-190.36 0 l
0 -191.52 l
o
297.64 258.94 577.28 582.94 cl
/Font2 findfont 14 s
0 0 0 srgb
451.86 548.40 (tai150dD) .5 0 t
/Font1 findfont 12 s
451.86 263.26 (Requests time) .5 0 t
451.86 277.66 (Time) .5 0 t
310.60 428.14 (Requests) .5 90 t
ep
%%Page: 4 4
bp
77.04 332.38 267.40 523.90 cl
18.00 258.94 297.64 582.94 cl
/Font2 findfont 14 s
0 0 0 srgb
172.22 548.40 (tai150d) .5 0 t
/Font1 findfont 12 s
97.86 263.26 (Requests v) 0 ta
-0.300 (olume histogr) tb
-0.120 (am) tb gr
151.88 277.66 (V) 0 ta
-0.960 (olume) tb gr
30.96 387.46 (No) 90 ta
-0.480 (. of requests) tb gr
18.00 258.94 577.28 582.94 cl
0 0 0 srgb
0.75 setlinewidth
[] 0 setdash
1 setlinecap
1 setlinejoin
10.00 setmiterlimit
np
84.09 332.38 m
160.23 0 l
o
np
84.09 332.38 m
0 -7.20 l
o
np
116.14 332.38 m
0 -7.20 l
o
np
148.18 332.38 m
0 -7.20 l
o
np
180.23 332.38 m
0 -7.20 l
o
np
212.28 332.38 m
0 -7.20 l
o
np
244.32 332.38 m
0 -7.20 l
o
/Font1 findfont 12 s
84.09 306.46 (0) .5 0 t
116.14 306.46 (200) .5 0 t
148.18 306.46 (400) .5 0 t
180.23 306.46 (600) .5 0 t
212.28 306.46 (800) .5 0 t
np
77.04 339.48 m
0 182.82 l
o
np
77.04 339.48 m
-7.20 0 l
o
np
77.04 376.04 m
-7.20 0 l
o
np
77.04 412.61 m
-7.20 0 l
o
np
77.04 449.17 m
-7.20 0 l
o
np
77.04 485.73 m
-7.20 0 l
o
np
77.04 522.30 m
-7.20 0 l
o
59.76 339.48 (0) .5 90 t
59.76 376.04 (20) .5 90 t
59.76 412.61 (40) .5 90 t
59.76 449.17 (60) .5 90 t
59.76 485.73 (80) .5 90 t
59.76 522.30 (100) .5 90 t
77.04 332.38 267.40 523.90 cl
0 0 0 srgb
0.75 setlinewidth
[] 0 setdash
1 setlinecap
1 setlinejoin
10.00 setmiterlimit
84.09 339.48 16.02 177.33 r p1
100.11 339.48 16.02 31.08 r p1
116.14 339.48 16.02 14.63 r p1
132.16 339.48 16.02 9.14 r p1
148.18 339.48 16.02 5.48 r p1
164.21 339.48 16.02 9.14 r p1
180.23 339.48 16.02 5.48 r p1
196.25 339.48 16.02 7.31 r p1
212.28 339.48 16.02 3.66 r p1
228.30 339.48 16.02 3.66 r p1
244.32 339.48 16.02 7.31 r p1
356.68 332.38 547.04 523.90 cl
ep
%%Trailer
%%Pages: 4
%%EOF
