%!PS-Adobe-3.0
%%DocumentNeededResources: font Helvetica
%%+ font Helvetica-Bold
%%+ font Helvetica-Oblique
%%+ font Helvetica-BoldOblique
%%+ font Symbol
%%DocumentMedia: a4 595 841 0 () ()
%%Title: R Graphics Output
%%Creator: R Software
%%Pages: (atend)
%%Orientation: Portrait
%%BoundingBox: 18 259 577 583
%%EndComments
%%BeginProlog
/bp  { gs sRGB gs } def
% begin .ps.prolog
/gs  { gsave } bind def
/gr  { grestore } bind def
/ep  { showpage gr gr } bind def
/m   { moveto } bind def
/l  { rlineto } bind def
/np  { newpath } bind def
/cp  { closepath } bind def
/f   { fill } bind def
/o   { stroke } bind def
/c   { newpath 0 360 arc } bind def
/r   { 4 2 roll moveto 1 copy 3 -1 roll exch 0 exch rlineto 0 rlineto -1 mul 0 exch rlineto closepath } bind def
/p1  { stroke } bind def
/p2  { gsave bg fill grestore newpath } bind def
/p3  { gsave bg fill grestore stroke } bind def
/p6  { gsave bg eofill grestore newpath } bind def
/p7  { gsave bg eofill grestore stroke } bind def
/t   { 5 -2 roll moveto gsave rotate
       1 index stringwidth pop
       mul neg 0 rmoveto show grestore } bind def
/ta  { 4 -2 roll moveto gsave rotate show } bind def
/tb  { 2 -1 roll 0 rmoveto show } bind def
/cl  { grestore gsave newpath 3 index 3 index moveto 1 index
       4 -1 roll lineto  exch 1 index lineto lineto
       closepath clip newpath } bind def
/rgb { setrgbcolor } bind def
/s   { scalefont setfont } bind def
% end   .ps.prolog
/sRGB { [ /CIEBasedABC
          << /DecodeLMN
               [ { dup 0.03928 le
                        {12.92321 div}
                        {0.055 add 1.055 div 2.4 exp }
                     ifelse
                 } bind dup dup
               ]
             /MatrixLMN [0.412457 0.212673 0.019334
                         0.357576 0.715152 0.119192
                         0.180437 0.072175 0.950301]
             /WhitePoint [0.9505 1.0 1.0890]
           >>
         ] setcolorspace } bind def
/srgb { setcolor } bind def
% begin encoding
/WinAnsiEncoding [
 /.notdef /.notdef /.notdef /.notdef /.notdef /.notdef /.notdef /.notdef
 /.notdef /.notdef /.notdef /.notdef /.notdef /.notdef /.notdef /.notdef
 /.notdef /.notdef /.notdef /.notdef /.notdef /.notdef /.notdef /.notdef
 /.notdef /.notdef /.notdef /.notdef /.notdef /.notdef /.notdef /.notdef
 /space /exclam /quotedbl /numbersign /dollar /percent /ampersand /quoteright
 /parenleft /parenright /asterisk /plus /comma /minus /period /slash
 /zero /one /two /three /four /five /six /seven
 /eight /nine /colon /semicolon /less /equal /greater /question
 /at /A /B /C /D /E /F /G
 /H /I /J /K /L /M /N /O
 /P /Q /R /S /T /U /V /W
 /X /Y /Z /bracketleft /backslash /bracketright /asciicircum /underscore
 /grave /a /b /c /d /e /f /g
 /h /i /j /k /l /m /n /o
 /p /q /r /s /t /u /v /w
 /x /y /z /braceleft /bar /braceright /asciitilde /.notdef
 /Euro /.notdef /quotesinglbase /florin /quotedblbase /ellipsis /dagger /daggerdbl
 /circumflex /perthousand /Scaron /guilsinglleft /OE /.notdef /Zcaron /.notdef
 /.notdef /quoteleft /quoteright /quotedblleft /quotedblright /bullet /endash /emdash
 /tilde /trademark /scaron /guilsinglright /oe /.notdef /zcaron /Ydieresis
 /space /exclamdown /cent /sterling /currency /yen /brokenbar /section
 /dieresis /copyright /ordfeminine /guillemotleft /logicalnot /hyphen /registered /macron
 /degree /plusminus /twosuperior /threesuperior /acute /mu /paragraph /periodcentered
 /cedilla /onesuperior /ordmasculine /guillemotright /onequarter /onehalf /threequarters /questiondown
 /Agrave /Aacute /Acircumflex /Atilde /Adieresis /Aring /AE /Ccedilla
 /Egrave /Eacute /Ecircumflex /Edieresis /Igrave /Iacute /Icircumflex /Idieresis
 /Eth /Ntilde /Ograve /Oacute /Ocircumflex /Otilde /Odieresis /multiply
 /Oslash /Ugrave /Uacute /Ucircumflex /Udieresis /Yacute /Thorn /germandbls
 /agrave /aacute /acircumflex /atilde /adieresis /aring /ae /ccedilla
 /egrave /eacute /ecircumflex /edieresis /igrave /iacute /icircumflex /idieresis
 /eth /ntilde /ograve /oacute /ocircumflex /otilde /odieresis /divide
 /oslash /ugrave /uacute /ucircumflex /udieresis /yacute /thorn /ydieresis
]
 def
% end encoding
%%IncludeResource: font Helvetica
/Helvetica findfont
dup length dict begin
  {1 index /FID ne {def} {pop pop} ifelse} forall
  /Encoding WinAnsiEncoding def
  currentdict
  end
/Font1 exch definefont pop
%%IncludeResource: font Helvetica-Bold
/Helvetica-Bold findfont
dup length dict begin
  {1 index /FID ne {def} {pop pop} ifelse} forall
  /Encoding WinAnsiEncoding def
  currentdict
  end
/Font2 exch definefont pop
%%IncludeResource: font Helvetica-Oblique
/Helvetica-Oblique findfont
dup length dict begin
  {1 index /FID ne {def} {pop pop} ifelse} forall
  /Encoding WinAnsiEncoding def
  currentdict
  end
/Font3 exch definefont pop
%%IncludeResource: font Helvetica-BoldOblique
/Helvetica-BoldOblique findfont
dup length dict begin
  {1 index /FID ne {def} {pop pop} ifelse} forall
  /Encoding WinAnsiEncoding def
  currentdict
  end
/Font4 exch definefont pop
%%IncludeResource: font Symbol
/Symbol findfont
dup length dict begin
  {1 index /FID ne {def} {pop pop} ifelse} forall
  currentdict
  end
/Font5 exch definefont pop
%%EndProlog
%%Page: 1 1
bp
77.04 332.38 267.40 523.90 cl
0 0 0 srgb
0.75 setlinewidth
[] 0 setdash
1 setlinecap
1 setlinejoin
10.00 setmiterlimit
167.87 423.29 2.70 c p1
167.87 422.07 2.70 c p1
159.16 431.79 2.70 c p1
173.31 428.14 2.70 c p1
175.48 416.00 2.70 c p1
165.69 419.64 2.70 c p1
177.66 418.43 2.70 c p1
161.34 423.29 2.70 c p1
159.16 424.50 2.70 c p1
160.25 414.78 2.70 c p1
176.57 412.35 2.70 c p1
131.96 441.51 2.70 c p1
116.73 394.14 2.70 c p1
128.70 424.50 2.70 c p1
96.06 409.93 2.70 c p1
92.79 417.21 2.70 c p1
126.52 450.01 2.70 c p1
143.93 456.08 2.70 c p1
90.62 425.72 2.70 c p1
141.75 442.72 2.70 c p1
102.59 433.00 2.70 c p1
141.75 417.21 2.70 c p1
119.99 424.50 2.70 c p1
142.84 401.42 2.70 c p1
119.99 441.51 2.70 c p1
88.44 400.21 2.70 c p1
138.49 417.21 2.70 c p1
126.52 442.72 2.70 c p1
254.91 451.22 2.70 c p1
260.35 484.02 2.70 c p1
238.59 476.73 2.70 c p1
237.50 479.16 2.70 c p1
197.24 515.60 2.70 c p1
162.43 510.74 2.70 c p1
166.78 516.81 2.70 c p1
188.54 452.44 2.70 c p1
196.16 516.81 2.70 c p1
163.51 465.80 2.70 c p1
173.31 493.73 2.70 c p1
202.68 504.67 2.70 c p1
143.93 465.80 2.70 c p1
179.83 509.52 2.70 c p1
173.31 514.38 2.70 c p1
166.78 477.94 2.70 c p1
158.07 453.65 2.70 c p1
160.25 509.52 2.70 c p1
156.99 451.22 2.70 c p1
196.16 459.72 2.70 c p1
153.72 511.95 2.70 c p1
193.98 463.37 2.70 c p1
171.13 418.43 2.70 c p1
153.72 442.72 2.70 c p1
162.43 429.36 2.70 c p1
163.51 425.72 2.70 c p1
162.43 417.21 2.70 c p1
174.39 437.86 2.70 c p1
174.39 413.57 2.70 c p1
165.69 437.86 2.70 c p1
185.27 416.00 2.70 c p1
180.92 429.36 2.70 c p1
165.69 445.15 2.70 c p1
153.72 425.72 2.70 c p1
175.48 448.79 2.70 c p1
162.43 430.57 2.70 c p1
172.22 433.00 2.70 c p1
112.38 339.48 2.70 c p1
98.23 341.91 2.70 c p1
140.67 371.06 2.70 c p1
111.29 367.41 2.70 c p1
123.26 389.28 2.70 c p1
98.23 352.84 2.70 c p1
199.42 407.50 2.70 c p1
189.63 400.21 2.70 c p1
199.42 391.71 2.70 c p1
189.63 426.93 2.70 c p1
178.75 406.28 2.70 c p1
204.86 407.50 2.70 c p1
177.66 408.71 2.70 c p1
173.31 385.63 2.70 c p1
208.12 413.57 2.70 c p1
199.42 405.07 2.70 c p1
146.11 487.66 2.70 c p1
153.72 490.09 2.70 c p1
147.19 496.16 2.70 c p1
153.72 492.52 2.70 c p1
143.93 493.73 2.70 c p1
84.09 400.21 2.70 c p1
100.41 385.63 2.70 c p1
89.53 407.50 2.70 c p1
84.09 389.28 2.70 c p1
106.94 397.78 2.70 c p1
92.79 395.35 2.70 c p1
99.32 407.50 2.70 c p1
208.12 459.72 2.70 c p1
200.51 459.72 2.70 c p1
208.12 470.66 2.70 c p1
214.65 437.86 2.70 c p1
210.30 431.79 2.70 c p1
221.18 448.79 2.70 c p1
242.94 431.79 2.70 c p1
18.00 258.94 577.28 582.94 cl
0 0 0 srgb
0.75 setlinewidth
[] 0 setdash
1 setlinecap
1 setlinejoin
10.00 setmiterlimit
np
121.08 332.38 m
108.80 0 l
o
np
121.08 332.38 m
0 -7.20 l
o
np
175.48 332.38 m
0 -7.20 l
o
np
229.88 332.38 m
0 -7.20 l
o
/Font1 findfont 12 s
121.08 306.46 (-50) .5 0 t
175.48 306.46 (0) .5 0 t
229.88 306.46 (50) .5 0 t
np
77.04 351.62 m
0 121.47 l
o
np
77.04 351.62 m
-7.20 0 l
o
np
77.04 412.35 m
-7.20 0 l
o
np
77.04 473.09 m
-7.20 0 l
o
59.76 351.62 (-50) .5 90 t
59.76 412.35 (0) .5 90 t
59.76 473.09 (50) .5 90 t
np
77.04 332.38 m
190.36 0 l
0 191.52 l
-190.36 0 l
0 -191.52 l
o
18.00 258.94 297.64 582.94 cl
/Font2 findfont 14 s
0 0 0 srgb
172.22 548.40 (tai100d) .5 0 t
/Font1 findfont 12 s
172.22 263.26 (Locations plot) .5 0 t
172.22 277.66 (X) .5 0 t
30.96 428.14 (Y) .5 90 t
356.68 332.38 547.04 523.90 cl
356.68 332.38 547.04 523.90 cl
0 0 0 srgb
0.75 setlinewidth
[] 0 setdash
1 setlinecap
1 setlinejoin
10.00 setmiterlimit
np
363.73 501.56 m
1.60 0 l
0 13.74 l
2.06 0 l
0 -0.84 l
0.46 0 l
0 -100.90 l
0.46 0 l
0 93.53 l
2.06 0 l
0 9.72 l
0.68 0 l
0 -0.17 l
0.23 0 l
0 -1.50 l
2.29 0 l
0 -5.20 l
2.98 0 l
0 5.36 l
2.29 0 l
0 -3.85 l
2.06 0 l
0 -13.24 l
0 0 l
0 14.24 l
1.14 0 l
0 -7.87 l
0.46 0 l
0 -5.03 l
4.58 0 l
0 -8.55 l
0.45 0 l
0 19.11 l
0.92 0 l
0 6.53 l
2.98 0 l
0 -5.69 l
0 0 l
0 -29.17 l
0 0 l
0 28.49 l
0.91 0 l
0 5.37 l
1.37 0 l
0 -1.51 l
1.61 0 l
0 -140.29 l
2.52 0 l
0 141.30 l
0.91 0 l
0 -9.06 l
3.21 0 l
0 -12.90 l
0 0 l
0 -27.83 l
0.22 0 l
0 37.72 l
0 0 l
0 -163.59 l
1.84 0 l
0 120.18 l
1.14 0 l
0 53.97 l
3.66 0 l
0 1.17 l
0.46 0 l
0 -34.19 l
0.92 0 l
0 29.33 l
0.68 0 l
0 -54.64 l
0 0 l
0 49.61 l
0.92 0 l
0 -1.34 l
3.66 0 l
0 13.24 l
4.58 0 l
0 -6.03 l
0.46 0 l
0 -2.52 l
7.78 0 l
0 5.37 l
1.37 0 l
0 -24.98 l
7.10 0 l
0 17.77 l
0.23 0 l
0 -56.99 l
4.58 0 l
0 64.70 l
1.60 0 l
0 2.01 l
2.29 0 l
0 -97.05 l
3.20 0 l
0 95.71 l
4.12 0 l
0 -22.46 l
1.60 0 l
454.37 493.68 lineto
0.23 0 l
0 22.13 l
1.61 0 l
0 -42.24 l
1.14 0 l
0 43.07 l
0.92 0 l
0 -0.16 l
0.68 0 l
0 -2.69 l
0.69 0 l
0 -0.67 l
4.58 0 l
0 -10.22 l
2.06 0 l
0 0 l
0.23 0 l
0 -6.37 l
0 0 l
0 0.17 l
0.68 0 l
0 18.77 l
0.23 0 l
0 -5.03 l
2.52 0 l
0 -39.89 l
0.92 0 l
0 21.79 l
5.03 0 l
0 23.47 l
0.92 0 l
0 -9.39 l
1.60 0 l
0 -15.09 l
0.69 0 l
0 24.98 l
1.37 0 l
0 -12.91 l
3.89 0 l
0 12.07 l
1.37 0 l
0 -121.35 l
3.21 0 l
0 122.52 l
2.06 0 l
0 -8.71 l
1.60 0 l
0 5.03 l
5.95 0 l
0 3.52 l
0.23 0 l
0 -4.86 l
0 0 l
0 3.52 l
0.46 0 l
0 -168.29 l
2.29 0 l
0 156.22 l
2.52 0 l
0 12.57 l
3.66 0 l
0 0.50 l
1.37 0 l
0 0.17 l
0.92 0 l
0 -86.82 l
0 0 l
0 85.14 l
0.69 0 l
0 0.17 l
3.89 0 l
0 -17.10 l
1.83 0 l
0 11.57 l
3.89 0 l
0 0.84 l
1.60 0 l
0 -3.52 l
0.92 0 l
0 5.70 l
0.68 0 l
0 4.52 l
5.04 0 l
0 -3.02 l
2.98 0 l
0 -82.63 l
0.68 0 l
0 -18.60 l
0.23 0 l
0 103.58 l
1.37 0 l
0 -41.90 l
4.58 0 l
0 -58.00 l
0.46 0 l
0 100.40 l
1.15 0 l
0 0 l
o
18.00 258.94 577.28 582.94 cl
0 0 0 srgb
0.75 setlinewidth
[] 0 setdash
1 setlinecap
1 setlinejoin
10.00 setmiterlimit
np
362.13 332.38 m
183.12 0 l
o
np
362.13 332.38 m
0 -7.20 l
o
np
407.91 332.38 m
0 -7.20 l
o
np
453.69 332.38 m
0 -7.20 l
o
np
499.47 332.38 m
0 -7.20 l
o
np
545.25 332.38 m
0 -7.20 l
o
/Font1 findfont 12 s
362.13 306.46 (0) .5 0 t
407.91 306.46 (200) .5 0 t
453.69 306.46 (400) .5 0 t
499.47 306.46 (600) .5 0 t
545.25 306.46 (800) .5 0 t
np
356.68 349.70 m
0 167.61 l
o
np
356.68 349.70 m
-7.20 0 l
o
np
356.68 383.22 m
-7.20 0 l
o
np
356.68 416.75 m
-7.20 0 l
o
np
356.68 450.27 m
-7.20 0 l
o
np
356.68 483.79 m
-7.20 0 l
o
np
356.68 517.31 m
-7.20 0 l
o
339.40 349.70 (-1000) .5 90 t
339.40 416.75 (-600) .5 90 t
339.40 483.79 (-200) .5 90 t
339.40 517.31 (0) .5 90 t
np
356.68 332.38 m
190.36 0 l
0 191.52 l
-190.36 0 l
0 -191.52 l
o
297.64 258.94 577.28 582.94 cl
/Font2 findfont 14 s
0 0 0 srgb
451.86 548.40 (tai100dD) .5 0 t
/Font1 findfont 12 s
451.86 263.26 (Requests time) .5 0 t
451.86 277.66 (Time) .5 0 t
310.60 428.14 (Requests) .5 90 t
ep
%%Page: 2 2
bp
77.04 332.38 267.40 523.90 cl
18.00 258.94 297.64 582.94 cl
/Font2 findfont 14 s
0 0 0 srgb
172.22 548.40 (tai100d) .5 0 t
/Font1 findfont 12 s
97.86 263.26 (Requests v) 0 ta
-0.300 (olume histogr) tb
-0.120 (am) tb gr
151.88 277.66 (V) 0 ta
-0.960 (olume) tb gr
30.96 387.46 (No) 90 ta
-0.480 (. of requests) tb gr
18.00 258.94 577.28 582.94 cl
0 0 0 srgb
0.75 setlinewidth
[] 0 setdash
1 setlinecap
1 setlinejoin
10.00 setmiterlimit
np
84.09 332.38 m
160.23 0 l
o
np
84.09 332.38 m
0 -7.20 l
o
np
116.14 332.38 m
0 -7.20 l
o
np
148.18 332.38 m
0 -7.20 l
o
np
180.23 332.38 m
0 -7.20 l
o
np
212.28 332.38 m
0 -7.20 l
o
np
244.32 332.38 m
0 -7.20 l
o
/Font1 findfont 12 s
84.09 306.46 (0) .5 0 t
116.14 306.46 (200) .5 0 t
148.18 306.46 (400) .5 0 t
180.23 306.46 (600) .5 0 t
212.28 306.46 (800) .5 0 t
np
77.04 339.48 m
0 179.90 l
o
np
77.04 339.48 m
-7.20 0 l
o
np
77.04 365.18 m
-7.20 0 l
o
np
77.04 390.88 m
-7.20 0 l
o
np
77.04 416.58 m
-7.20 0 l
o
np
77.04 442.28 m
-7.20 0 l
o
np
77.04 467.98 m
-7.20 0 l
o
np
77.04 493.68 m
-7.20 0 l
o
np
77.04 519.38 m
-7.20 0 l
o
59.76 339.48 (0) .5 90 t
59.76 365.18 (10) .5 90 t
59.76 390.88 (20) .5 90 t
59.76 416.58 (30) .5 90 t
59.76 442.28 (40) .5 90 t
59.76 467.98 (50) .5 90 t
59.76 493.68 (60) .5 90 t
59.76 519.38 (70) .5 90 t
77.04 332.38 267.40 523.90 cl
0 0 0 srgb
0.75 setlinewidth
[] 0 setdash
1 setlinecap
1 setlinejoin
10.00 setmiterlimit
84.09 339.48 16.02 177.33 r p1
100.11 339.48 16.02 30.84 r p1
116.14 339.48 16.02 12.85 r p1
132.16 339.48 16.02 7.71 r p1
148.18 339.48 16.02 2.57 r p1
164.21 339.48 16.02 7.71 r p1
180.23 339.48 16.02 7.71 r p1
196.25 339.48 16.02 2.57 r p1
212.28 339.48 16.02 2.57 r p1
228.30 339.48 16.02 0.00 r p1
244.32 339.48 16.02 5.14 r p1
ep
%%Page: 3 3
bp
77.04 332.38 267.40 523.90 cl
77.04 332.38 267.40 523.90 cl
0 0 0 srgb
0.75 setlinewidth
[] 0 setdash
1 setlinecap
1 setlinejoin
10.00 setmiterlimit
155.24 495.95 2.70 c p1
149.58 495.95 2.70 c p1
148.77 505.34 2.70 c p1
161.71 513.68 2.70 c p1
164.13 503.25 2.70 c p1
147.96 515.77 2.70 c p1
149.58 494.91 2.70 c p1
164.94 496.99 2.70 c p1
163.33 501.16 2.70 c p1
158.47 515.77 2.70 c p1
164.94 508.47 2.70 c p1
161.71 504.29 2.70 c p1
158.47 503.25 2.70 c p1
154.43 499.08 2.70 c p1
149.58 502.21 2.70 c p1
163.33 495.95 2.70 c p1
149.58 513.68 2.70 c p1
153.62 516.81 2.70 c p1
179.50 350.95 2.70 c p1
185.96 345.74 2.70 c p1
179.50 339.48 2.70 c p1
181.11 347.82 2.70 c p1
182.73 344.69 2.70 c p1
194.05 353.04 2.70 c p1
193.24 357.21 2.70 c p1
194.86 362.43 2.70 c p1
188.39 339.48 2.70 c p1
184.35 361.38 2.70 c p1
186.77 342.61 2.70 c p1
197.28 357.21 2.70 c p1
191.62 348.87 2.70 c p1
194.86 342.61 2.70 c p1
193.24 347.82 2.70 c p1
185.96 345.74 2.70 c p1
193.24 361.38 2.70 c p1
184.35 342.61 2.70 c p1
185.16 360.34 2.70 c p1
197.28 358.25 2.70 c p1
240.94 474.04 2.70 c p1
231.24 457.35 2.70 c p1
235.28 477.17 2.70 c p1
222.35 462.57 2.70 c p1
220.73 478.22 2.70 c p1
238.52 469.87 2.70 c p1
238.52 468.83 2.70 c p1
223.96 473.00 2.70 c p1
220.73 457.35 2.70 c p1
228.01 474.04 2.70 c p1
224.77 478.22 2.70 c p1
228.01 475.09 2.70 c p1
226.39 476.13 2.70 c p1
177.07 399.98 2.70 c p1
168.98 389.55 2.70 c p1
168.98 392.68 2.70 c p1
171.41 387.46 2.70 c p1
172.22 384.33 2.70 c p1
171.41 388.51 2.70 c p1
168.98 395.81 2.70 c p1
177.07 396.85 2.70 c p1
170.60 390.59 2.70 c p1
172.22 384.33 2.70 c p1
167.37 385.38 2.70 c p1
173.84 386.42 2.70 c p1
169.79 388.51 2.70 c p1
173.03 382.25 2.70 c p1
253.88 393.72 2.70 c p1
238.52 407.28 2.70 c p1
244.18 380.16 2.70 c p1
258.73 393.72 2.70 c p1
242.56 388.51 2.70 c p1
260.35 389.55 2.70 c p1
251.45 392.68 2.70 c p1
247.41 382.25 2.70 c p1
237.71 379.12 2.70 c p1
248.22 398.94 2.70 c p1
104.30 479.26 2.70 c p1
113.20 485.52 2.70 c p1
113.20 486.56 2.70 c p1
112.39 489.69 2.70 c p1
114.81 490.73 2.70 c p1
118.05 485.52 2.70 c p1
106.73 492.82 2.70 c p1
107.54 492.82 2.70 c p1
112.39 489.69 2.70 c p1
115.62 495.95 2.70 c p1
112.39 485.52 2.70 c p1
104.30 486.56 2.70 c p1
109.15 487.60 2.70 c p1
105.11 484.47 2.70 c p1
117.24 493.86 2.70 c p1
108.35 484.47 2.70 c p1
104.30 495.95 2.70 c p1
117.24 491.78 2.70 c p1
88.94 476.13 2.70 c p1
92.18 466.74 2.70 c p1
84.09 475.09 2.70 c p1
88.94 466.74 2.70 c p1
163.33 455.27 2.70 c p1
168.98 446.92 2.70 c p1
175.45 454.22 2.70 c p1
164.94 446.92 2.70 c p1
174.64 458.40 2.70 c p1
159.28 450.05 2.70 c p1
173.84 444.84 2.70 c p1
170.60 458.40 2.70 c p1
174.64 442.75 2.70 c p1
164.94 438.58 2.70 c p1
160.90 441.71 2.70 c p1
173.03 456.31 2.70 c p1
168.18 440.66 2.70 c p1
160.90 453.18 2.70 c p1
161.71 450.05 2.70 c p1
173.84 439.62 2.70 c p1
232.86 356.17 2.70 c p1
232.86 358.25 2.70 c p1
223.16 356.17 2.70 c p1
232.05 366.60 2.70 c p1
233.67 360.34 2.70 c p1
219.92 369.73 2.70 c p1
229.62 350.95 2.70 c p1
225.58 356.17 2.70 c p1
228.01 361.38 2.70 c p1
232.86 364.51 2.70 c p1
224.77 355.13 2.70 c p1
229.62 355.13 2.70 c p1
224.77 357.21 2.70 c p1
229.62 371.82 2.70 c p1
225.58 355.13 2.70 c p1
231.24 367.64 2.70 c p1
198.09 381.20 2.70 c p1
205.37 379.12 2.70 c p1
210.22 378.07 2.70 c p1
202.13 369.73 2.70 c p1
211.84 382.25 2.70 c p1
211.03 371.82 2.70 c p1
204.56 364.51 2.70 c p1
189.20 383.29 2.70 c p1
122.90 477.17 2.70 c p1
129.37 489.69 2.70 c p1
128.56 487.60 2.70 c p1
126.94 500.12 2.70 c p1
130.98 501.16 2.70 c p1
120.47 501.16 2.70 c p1
135.84 494.91 2.70 c p1
127.75 487.60 2.70 c p1
132.60 480.30 2.70 c p1
138.26 486.56 2.70 c p1
121.28 501.16 2.70 c p1
129.37 496.99 2.70 c p1
130.18 481.34 2.70 c p1
18.00 258.94 577.28 582.94 cl
0 0 0 srgb
0.75 setlinewidth
[] 0 setdash
1 setlinecap
1 setlinejoin
10.00 setmiterlimit
np
77.62 332.38 m
161.71 0 l
o
np
77.62 332.38 m
0 -7.20 l
o
np
118.05 332.38 m
0 -7.20 l
o
np
158.47 332.38 m
0 -7.20 l
o
np
198.90 332.38 m
0 -7.20 l
o
np
239.33 332.38 m
0 -7.20 l
o
/Font1 findfont 12 s
77.62 306.46 (-100) .5 0 t
118.05 306.46 (-50) .5 0 t
158.47 306.46 (0) .5 0 t
198.90 306.46 (50) .5 0 t
239.33 306.46 (100) .5 0 t
np
77.04 333.22 m
0 156.47 l
o
np
77.04 333.22 m
-7.20 0 l
o
np
77.04 385.38 m
-7.20 0 l
o
np
77.04 437.53 m
-7.20 0 l
o
np
77.04 489.69 m
-7.20 0 l
o
59.76 333.22 (-50) .5 90 t
59.76 385.38 (0) .5 90 t
59.76 437.53 (50) .5 90 t
59.76 489.69 (100) .5 90 t
np
77.04 332.38 m
190.36 0 l
0 191.52 l
-190.36 0 l
0 -191.52 l
o
18.00 258.94 297.64 582.94 cl
/Font2 findfont 14 s
0 0 0 srgb
172.22 548.40 (tai150a) .5 0 t
/Font1 findfont 12 s
172.22 263.26 (Locations plot) .5 0 t
172.22 277.66 (X) .5 0 t
30.96 428.14 (Y) .5 90 t
356.68 332.38 547.04 523.90 cl
356.68 332.38 547.04 523.90 cl
0 0 0 srgb
0.75 setlinewidth
[] 0 setdash
1 setlinecap
1 setlinejoin
10.00 setmiterlimit
np
363.73 515.07 m
0.83 0 l
0 -18.95 l
0.34 0 l
0 16.00 l
0.67 0 l
0 4.69 l
3.01 0 l
0 -0.35 l
1.17 0 l
0 -72.49 l
0.33 0 l
0 71.10 l
1.17 0 l
0 -1.56 l
2.18 0 l
0 -26.25 l
1.00 0 l
0 22.95 l
0.34 0 l
0 5.73 l
0.66 0 l
0 0 l
0.34 0 l
0 -17.73 l
1.67 0 l
0 -15.30 l
0.84 0 l
0 -32.34 l
1.67 0 l
0 33.21 l
0.67 0 l
0 -7.82 l
1.67 0 l
0 -4.70 l
0.67 0 l
0 45.55 l
3.01 0 l
0 -81.02 l
0.17 0 l
0 80.33 l
0.33 0 l
0 0.17 l
0.34 0 l
0 -17.73 l
1.67 0 l
0 17.03 l
0 0 l
0 -5.21 l
0.33 0 l
0 -103.45 l
3.51 0 l
0 101.88 l
0.34 0 l
0 -17.38 l
1.34 0 l
0 -44.16 l
1.00 0 l
0 62.76 l
2.01 0 l
0 -4.87 l
0 0 l
0 -22.77 l
0.33 0 l
0 23.47 l
0.34 0 l
0 -79.98 l
2.50 0 l
0 90.41 l
2.01 0 l
0 -47.46 l
1.00 0 l
0 20.69 l
0.34 0 l
0 27.29 l
3.84 0 l
0 -0.17 l
1.68 0 l
0 -17.56 l
0 0 l
0 10.26 l
0.33 0 l
0 -74.41 l
1.67 0 l
0 81.19 l
1.68 0 l
0 0 l
4.18 0 l
0 -16.00 l
3.68 0 l
0 -4.69 l
0.50 0 l
0 1.21 l
1.33 0 l
0 12.70 l
1.68 0 l
0 -39.47 l
0 0 l
0 31.64 l
0.33 0 l
424.43 466.22 lineto
0.34 0 l
0 50.42 l
0 0 l
0 -13.39 l
1.00 0 l
0 -35.47 l
1.00 0 l
0 33.91 l
3.51 0 l
0 -64.68 l
4.02 0 l
0 69.02 l
1.00 0 l
0 10.26 l
1.00 0 l
0 0.35 l
1.18 0 l
0 -91.28 l
3.67 0 l
0 63.29 l
0.67 0 l
0 27.99 l
0 0 l
0 -67.81 l
0.84 0 l
0 67.98 l
1.34 0 l
0 -9.91 l
2.00 0 l
0 -145.86 l
0.34 0 l
0 126.91 l
0 0 l
0 27.64 l
1.67 0 l
0 -6.43 l
5.85 0 l
0 1.74 l
1.01 0 l
0 2.43 l
2.84 0 l
0 -0.34 l
2.01 0 l
0 -72.85 l
1.33 0 l
0 76.67 l
1.34 0 l
0 -16.69 l
0.67 0 l
0 7.13 l
0.34 0 l
0 8.87 l
0.66 0 l
0 -0.70 l
1.17 0 l
0 -0.69 l
0.67 0 l
0 -63.64 l
1.01 0 l
0 65.03 l
2.34 0 l
0 -5.57 l
0 0 l
0 -80.49 l
0.67 0 l
0 67.28 l
0 0 l
0 5.22 l
1.67 0 l
0 14.25 l
0 0 l
0 -23.12 l
0.67 0 l
0 4.35 l
1.50 0 l
0 7.82 l
0.67 0 l
0 2.78 l
0 0 l
0 -35.12 l
2.68 0 l
0 43.12 l
1.67 0 l
0 -20.00 l
0.50 0 l
0 -109.00 l
0.84 0 l
0 128.65 l
0.50 0 l
0 -7.82 l
1.17 0 l
0 -47.12 l
1.84 0 l
0 -121.87 l
0.33 0 l
0 176.98 l
0 0 l
0 -0.87 l
1.01 0 l
484.97 490.73 lineto
2.34 0 l
0 21.56 l
0.67 0 l
0 2.78 l
1.17 0 l
0 1.74 l
2.34 0 l
0 -0.17 l
0 0 l
0 -11.48 l
0.67 0 l
0 10.61 l
1.00 0 l
0 -23.99 l
1.67 0 l
0 25.03 l
0.17 0 l
0 -1.22 l
0.34 0 l
0 1.05 l
0.66 0 l
0 -75.63 l
0.17 0 l
0 73.89 l
2.18 0 l
0 -124.31 l
0.33 0 l
0 121.70 l
1.67 0 l
0 4.52 l
0 0 l
0 -16.51 l
1.34 0 l
0 -2.61 l
0.67 0 l
0 -1.57 l
0.84 0 l
0 19.30 l
0.33 0 l
0 -13.73 l
0.33 0 l
0 -121.53 l
1.01 0 l
0 136.13 l
2.67 0 l
0 -30.08 l
0.34 0 l
0 30.60 l
0 0 l
0 0 l
1.00 0 l
0 -3.13 l
1.67 0 l
0 -147.43 l
1.51 0 l
0 108.31 l
2.67 0 l
0 41.03 l
1.34 0 l
0 -4.52 l
1.67 0 l
0 3.83 l
0.84 0 l
0 -20.86 l
0.33 0 l
0 -7.13 l
1.01 0 l
0 24.86 l
2.00 0 l
0 2.09 l
0 0 l
0 -33.38 l
1.34 0 l
0 29.03 l
1.51 0 l
0 -22.25 l
5.01 0 l
0 -11.65 l
1.34 0 l
0 38.94 l
0.34 0 l
0 -1.91 l
1.50 0 l
0 -5.91 l
1.01 0 l
0 -24.69 l
1.00 0 l
0 34.42 l
0.33 0 l
0 -63.28 l
2.01 0 l
0 50.07 l
1.00 0 l
0 -8.17 l
1.68 0 l
0 -48.33 l
0 0 l
0 65.02 l
o
18.00 258.94 577.28 582.94 cl
0 0 0 srgb
0.75 setlinewidth
[] 0 setdash
1 setlinecap
1 setlinejoin
10.00 setmiterlimit
np
363.06 332.38 m
167.23 0 l
o
np
363.06 332.38 m
0 -7.20 l
o
np
396.50 332.38 m
0 -7.20 l
o
np
429.95 332.38 m
0 -7.20 l
o
np
463.40 332.38 m
0 -7.20 l
o
np
496.84 332.38 m
0 -7.20 l
o
np
530.29 332.38 m
0 -7.20 l
o
/Font1 findfont 12 s
363.06 306.46 (0) .5 0 t
396.50 306.46 (200) .5 0 t
429.95 306.46 (400) .5 0 t
463.40 306.46 (600) .5 0 t
496.84 306.46 (800) .5 0 t
530.29 306.46 (1000) .5 0 t
np
356.68 343.48 m
0 173.85 l
o
np
356.68 343.48 m
-7.20 0 l
o
np
356.68 378.25 m
-7.20 0 l
o
np
356.68 413.02 m
-7.20 0 l
o
np
356.68 447.79 m
-7.20 0 l
o
np
356.68 482.56 m
-7.20 0 l
o
np
356.68 517.33 m
-7.20 0 l
o
339.40 343.48 (-1000) .5 90 t
339.40 413.02 (-600) .5 90 t
339.40 482.56 (-200) .5 90 t
339.40 517.33 (0) .5 90 t
np
356.68 332.38 m
190.36 0 l
0 191.52 l
-190.36 0 l
0 -191.52 l
o
297.64 258.94 577.28 582.94 cl
/Font2 findfont 14 s
0 0 0 srgb
451.86 548.40 (tai150aD) .5 0 t
/Font1 findfont 12 s
451.86 263.26 (Requests time) .5 0 t
451.86 277.66 (Time) .5 0 t
310.60 428.14 (Requests) .5 90 t
ep
%%Page: 4 4
bp
77.04 332.38 267.40 523.90 cl
18.00 258.94 297.64 582.94 cl
/Font2 findfont 14 s
0 0 0 srgb
172.22 548.40 (tai150a) .5 0 t
/Font1 findfont 12 s
97.86 263.26 (Requests v) 0 ta
-0.300 (olume histogr) tb
-0.120 (am) tb gr
151.88 277.66 (V) 0 ta
-0.960 (olume) tb gr
30.96 387.46 (No) 90 ta
-0.480 (. of requests) tb gr
18.00 258.94 577.28 582.94 cl
0 0 0 srgb
0.75 setlinewidth
[] 0 setdash
1 setlinecap
1 setlinejoin
10.00 setmiterlimit
np
84.09 332.38 m
160.23 0 l
o
np
84.09 332.38 m
0 -7.20 l
o
np
116.14 332.38 m
0 -7.20 l
o
np
148.18 332.38 m
0 -7.20 l
o
np
180.23 332.38 m
0 -7.20 l
o
np
212.28 332.38 m
0 -7.20 l
o
np
244.32 332.38 m
0 -7.20 l
o
/Font1 findfont 12 s
84.09 306.46 (0) .5 0 t
116.14 306.46 (200) .5 0 t
148.18 306.46 (400) .5 0 t
180.23 306.46 (600) .5 0 t
212.28 306.46 (800) .5 0 t
np
77.04 339.48 m
0 159.40 l
o
np
77.04 339.48 m
-7.20 0 l
o
np
77.04 379.33 m
-7.20 0 l
o
np
77.04 419.18 m
-7.20 0 l
o
np
77.04 459.03 m
-7.20 0 l
o
np
77.04 498.88 m
-7.20 0 l
o
59.76 339.48 (0) .5 90 t
59.76 379.33 (20) .5 90 t
59.76 419.18 (40) .5 90 t
59.76 459.03 (60) .5 90 t
59.76 498.88 (80) .5 90 t
77.04 332.38 267.40 523.90 cl
0 0 0 srgb
0.75 setlinewidth
[] 0 setdash
1 setlinecap
1 setlinejoin
10.00 setmiterlimit
84.09 339.48 16.02 177.33 r p1
100.11 339.48 16.02 51.81 r p1
116.14 339.48 16.02 23.91 r p1
132.16 339.48 16.02 9.96 r p1
148.18 339.48 16.02 15.94 r p1
164.21 339.48 16.02 5.98 r p1
180.23 339.48 16.02 1.99 r p1
196.25 339.48 16.02 5.98 r p1
212.28 339.48 16.02 3.99 r p1
228.30 339.48 16.02 0.00 r p1
244.32 339.48 16.02 1.99 r p1
356.68 332.38 547.04 523.90 cl
ep
%%Trailer
%%Pages: 4
%%EOF
