%!PS-Adobe-3.0
%%DocumentNeededResources: font Helvetica
%%+ font Helvetica-Bold
%%+ font Helvetica-Oblique
%%+ font Helvetica-BoldOblique
%%+ font Symbol
%%DocumentMedia: a4 595 841 0 () ()
%%Title: R Graphics Output
%%Creator: R Software
%%Pages: (atend)
%%Orientation: Portrait
%%BoundingBox: 18 259 577 583
%%EndComments
%%BeginProlog
/bp  { gs sRGB gs } def
% begin .ps.prolog
/gs  { gsave } bind def
/gr  { grestore } bind def
/ep  { showpage gr gr } bind def
/m   { moveto } bind def
/l  { rlineto } bind def
/np  { newpath } bind def
/cp  { closepath } bind def
/f   { fill } bind def
/o   { stroke } bind def
/c   { newpath 0 360 arc } bind def
/r   { 4 2 roll moveto 1 copy 3 -1 roll exch 0 exch rlineto 0 rlineto -1 mul 0 exch rlineto closepath } bind def
/p1  { stroke } bind def
/p2  { gsave bg fill grestore newpath } bind def
/p3  { gsave bg fill grestore stroke } bind def
/p6  { gsave bg eofill grestore newpath } bind def
/p7  { gsave bg eofill grestore stroke } bind def
/t   { 5 -2 roll moveto gsave rotate
       1 index stringwidth pop
       mul neg 0 rmoveto show grestore } bind def
/ta  { 4 -2 roll moveto gsave rotate show } bind def
/tb  { 2 -1 roll 0 rmoveto show } bind def
/cl  { grestore gsave newpath 3 index 3 index moveto 1 index
       4 -1 roll lineto  exch 1 index lineto lineto
       closepath clip newpath } bind def
/rgb { setrgbcolor } bind def
/s   { scalefont setfont } bind def
% end   .ps.prolog
/sRGB { [ /CIEBasedABC
          << /DecodeLMN
               [ { dup 0.03928 le
                        {12.92321 div}
                        {0.055 add 1.055 div 2.4 exp }
                     ifelse
                 } bind dup dup
               ]
             /MatrixLMN [0.412457 0.212673 0.019334
                         0.357576 0.715152 0.119192
                         0.180437 0.072175 0.950301]
             /WhitePoint [0.9505 1.0 1.0890]
           >>
         ] setcolorspace } bind def
/srgb { setcolor } bind def
% begin encoding
/WinAnsiEncoding [
 /.notdef /.notdef /.notdef /.notdef /.notdef /.notdef /.notdef /.notdef
 /.notdef /.notdef /.notdef /.notdef /.notdef /.notdef /.notdef /.notdef
 /.notdef /.notdef /.notdef /.notdef /.notdef /.notdef /.notdef /.notdef
 /.notdef /.notdef /.notdef /.notdef /.notdef /.notdef /.notdef /.notdef
 /space /exclam /quotedbl /numbersign /dollar /percent /ampersand /quoteright
 /parenleft /parenright /asterisk /plus /comma /minus /period /slash
 /zero /one /two /three /four /five /six /seven
 /eight /nine /colon /semicolon /less /equal /greater /question
 /at /A /B /C /D /E /F /G
 /H /I /J /K /L /M /N /O
 /P /Q /R /S /T /U /V /W
 /X /Y /Z /bracketleft /backslash /bracketright /asciicircum /underscore
 /grave /a /b /c /d /e /f /g
 /h /i /j /k /l /m /n /o
 /p /q /r /s /t /u /v /w
 /x /y /z /braceleft /bar /braceright /asciitilde /.notdef
 /Euro /.notdef /quotesinglbase /florin /quotedblbase /ellipsis /dagger /daggerdbl
 /circumflex /perthousand /Scaron /guilsinglleft /OE /.notdef /Zcaron /.notdef
 /.notdef /quoteleft /quoteright /quotedblleft /quotedblright /bullet /endash /emdash
 /tilde /trademark /scaron /guilsinglright /oe /.notdef /zcaron /Ydieresis
 /space /exclamdown /cent /sterling /currency /yen /brokenbar /section
 /dieresis /copyright /ordfeminine /guillemotleft /logicalnot /hyphen /registered /macron
 /degree /plusminus /twosuperior /threesuperior /acute /mu /paragraph /periodcentered
 /cedilla /onesuperior /ordmasculine /guillemotright /onequarter /onehalf /threequarters /questiondown
 /Agrave /Aacute /Acircumflex /Atilde /Adieresis /Aring /AE /Ccedilla
 /Egrave /Eacute /Ecircumflex /Edieresis /Igrave /Iacute /Icircumflex /Idieresis
 /Eth /Ntilde /Ograve /Oacute /Ocircumflex /Otilde /Odieresis /multiply
 /Oslash /Ugrave /Uacute /Ucircumflex /Udieresis /Yacute /Thorn /germandbls
 /agrave /aacute /acircumflex /atilde /adieresis /aring /ae /ccedilla
 /egrave /eacute /ecircumflex /edieresis /igrave /iacute /icircumflex /idieresis
 /eth /ntilde /ograve /oacute /ocircumflex /otilde /odieresis /divide
 /oslash /ugrave /uacute /ucircumflex /udieresis /yacute /thorn /ydieresis
]
 def
% end encoding
%%IncludeResource: font Helvetica
/Helvetica findfont
dup length dict begin
  {1 index /FID ne {def} {pop pop} ifelse} forall
  /Encoding WinAnsiEncoding def
  currentdict
  end
/Font1 exch definefont pop
%%IncludeResource: font Helvetica-Bold
/Helvetica-Bold findfont
dup length dict begin
  {1 index /FID ne {def} {pop pop} ifelse} forall
  /Encoding WinAnsiEncoding def
  currentdict
  end
/Font2 exch definefont pop
%%IncludeResource: font Helvetica-Oblique
/Helvetica-Oblique findfont
dup length dict begin
  {1 index /FID ne {def} {pop pop} ifelse} forall
  /Encoding WinAnsiEncoding def
  currentdict
  end
/Font3 exch definefont pop
%%IncludeResource: font Helvetica-BoldOblique
/Helvetica-BoldOblique findfont
dup length dict begin
  {1 index /FID ne {def} {pop pop} ifelse} forall
  /Encoding WinAnsiEncoding def
  currentdict
  end
/Font4 exch definefont pop
%%IncludeResource: font Symbol
/Symbol findfont
dup length dict begin
  {1 index /FID ne {def} {pop pop} ifelse} forall
  currentdict
  end
/Font5 exch definefont pop
%%EndProlog
%%Page: 1 1
bp
77.04 332.38 267.40 523.90 cl
0 0 0 srgb
0.75 setlinewidth
[] 0 setdash
1 setlinecap
1 setlinejoin
10.00 setmiterlimit
229.34 433.36 2.70 c p1
237.50 436.84 2.70 c p1
229.34 443.79 2.70 c p1
237.50 437.71 2.70 c p1
244.03 435.10 2.70 c p1
224.44 436.84 2.70 c p1
227.71 437.71 2.70 c p1
232.60 435.10 2.70 c p1
239.13 438.58 2.70 c p1
239.13 433.36 2.70 c p1
229.34 434.23 2.70 c p1
240.76 433.36 2.70 c p1
226.08 438.58 2.70 c p1
229.34 440.31 2.70 c p1
244.03 439.45 2.70 c p1
211.39 507.25 2.70 c p1
222.81 514.20 2.70 c p1
206.49 509.86 2.70 c p1
209.76 504.64 2.70 c p1
190.17 514.20 2.70 c p1
193.44 506.38 2.70 c p1
191.80 505.51 2.70 c p1
214.65 507.25 2.70 c p1
224.44 514.20 2.70 c p1
198.33 515.94 2.70 c p1
224.44 508.99 2.70 c p1
199.96 507.25 2.70 c p1
222.81 516.81 2.70 c p1
191.80 515.07 2.70 c p1
191.80 502.03 2.70 c p1
219.55 514.20 2.70 c p1
198.33 502.03 2.70 c p1
195.07 502.03 2.70 c p1
224.44 513.33 2.70 c p1
219.55 516.81 2.70 c p1
227.71 430.75 2.70 c p1
183.64 450.75 2.70 c p1
209.76 458.57 2.70 c p1
213.02 447.27 2.70 c p1
230.97 443.79 2.70 c p1
235.87 449.88 2.70 c p1
190.17 450.75 2.70 c p1
173.85 439.45 2.70 c p1
185.27 443.79 2.70 c p1
230.97 462.05 2.70 c p1
221.18 452.48 2.70 c p1
216.28 464.65 2.70 c p1
199.96 435.97 2.70 c p1
178.75 455.09 2.70 c p1
190.17 437.71 2.70 c p1
211.39 445.53 2.70 c p1
219.55 448.14 2.70 c p1
175.48 430.75 2.70 c p1
178.75 457.70 2.70 c p1
248.92 376.86 2.70 c p1
245.66 355.13 2.70 c p1
213.02 349.91 2.70 c p1
242.40 339.48 2.70 c p1
204.86 371.64 2.70 c p1
195.07 349.04 2.70 c p1
250.56 347.30 2.70 c p1
201.60 354.26 2.70 c p1
211.39 369.03 2.70 c p1
146.11 409.89 2.70 c p1
105.31 435.97 2.70 c p1
90.62 384.68 2.70 c p1
134.68 409.89 2.70 c p1
222.81 427.28 2.70 c p1
248.92 423.80 2.70 c p1
221.18 428.14 2.70 c p1
232.60 440.31 2.70 c p1
248.92 439.45 2.70 c p1
230.97 424.67 2.70 c p1
234.24 435.10 2.70 c p1
257.08 435.97 2.70 c p1
248.92 441.18 2.70 c p1
245.66 440.31 2.70 c p1
137.95 465.52 2.70 c p1
88.99 470.74 2.70 c p1
108.57 467.26 2.70 c p1
97.15 481.17 2.70 c p1
123.26 475.09 2.70 c p1
110.20 467.26 2.70 c p1
84.09 475.96 2.70 c p1
193.44 438.58 2.70 c p1
199.96 441.18 2.70 c p1
204.86 434.23 2.70 c p1
191.80 436.84 2.70 c p1
204.86 439.45 2.70 c p1
193.44 439.45 2.70 c p1
213.02 435.97 2.70 c p1
209.76 438.58 2.70 c p1
203.23 439.45 2.70 c p1
199.96 442.05 2.70 c p1
209.76 441.18 2.70 c p1
195.07 445.53 2.70 c p1
196.70 435.10 2.70 c p1
196.70 435.97 2.70 c p1
260.35 438.58 2.70 c p1
240.76 443.79 2.70 c p1
18.00 258.94 577.28 582.94 cl
0 0 0 srgb
0.75 setlinewidth
[] 0 setdash
1 setlinecap
1 setlinejoin
10.00 setmiterlimit
np
102.04 332.38 m
163.20 0 l
o
np
102.04 332.38 m
0 -7.20 l
o
np
134.68 332.38 m
0 -7.20 l
o
np
167.32 332.38 m
0 -7.20 l
o
np
199.96 332.38 m
0 -7.20 l
o
np
232.60 332.38 m
0 -7.20 l
o
np
265.24 332.38 m
0 -7.20 l
o
/Font1 findfont 12 s
102.04 306.46 (-80) .5 0 t
134.68 306.46 (-60) .5 0 t
167.32 306.46 (-40) .5 0 t
199.96 306.46 (-20) .5 0 t
232.60 306.46 (0) .5 0 t
265.24 306.46 (20) .5 0 t
np
77.04 350.78 m
0 130.39 l
o
np
77.04 350.78 m
-7.20 0 l
o
np
77.04 394.24 m
-7.20 0 l
o
np
77.04 437.71 m
-7.20 0 l
o
np
77.04 481.17 m
-7.20 0 l
o
59.76 350.78 (-100) .5 90 t
59.76 394.24 (-50) .5 90 t
59.76 437.71 (0) .5 90 t
59.76 481.17 (50) .5 90 t
np
77.04 332.38 m
190.36 0 l
0 191.52 l
-190.36 0 l
0 -191.52 l
o
18.00 258.94 297.64 582.94 cl
/Font2 findfont 14 s
0 0 0 srgb
172.22 548.40 (tai100c) .5 0 t
/Font1 findfont 12 s
172.22 263.26 (Locations plot) .5 0 t
172.22 277.66 (X) .5 0 t
30.96 428.14 (Y) .5 90 t
356.68 332.38 547.04 523.90 cl
356.68 332.38 547.04 523.90 cl
0 0 0 srgb
0.75 setlinewidth
[] 0 setdash
1 setlinecap
1 setlinejoin
10.00 setmiterlimit
np
363.73 342.75 m
1.00 0 l
0 36.85 l
1.39 0 l
0 125.59 l
1.00 0 l
0 -100.38 l
0 0 l
0 83.84 l
1.39 0 l
0 -1.31 l
3.19 0 l
0 9.66 l
1.00 0 l
0 19.65 l
0.80 0 l
0 -12.61 l
6.18 0 l
0 4.09 l
5.38 0 l
0 4.42 l
0 0 l
0 0.99 l
1.60 0 l
0 3.11 l
1.79 0 l
0 -0.82 l
2.20 0 l
0 0.33 l
0 0 l
0 -28.49 l
2.99 0 l
0 20.79 l
0.79 0 l
0 -135.91 l
3.59 0 l
0 10.16 l
0 0 l
0 30.29 l
1.00 0 l
0 94.64 l
1.00 0 l
0 -13.26 l
3.98 0 l
0 -64.02 l
2.99 0 l
0 77.45 l
0 0 l
0 7.04 l
10.37 0 l
0 0.65 l
1.00 0 l
0 -28.49 l
2.59 0 l
0 4.26 l
2.39 0 l
0 -20.63 l
2.20 0 l
0 46.01 l
0.80 0 l
0 -0.98 l
4.18 0 l
0 1.14 l
0.80 0 l
0 -0.16 l
1.00 0 l
0 -1.15 l
0.20 0 l
0 -5.57 l
1.39 0 l
0 6.72 l
0.40 0 l
0 -36.19 l
4.19 0 l
0 -9.99 l
3.79 0 l
0 3.93 l
0.59 0 l
0 42.25 l
1.40 0 l
0 -63.37 l
1.00 0 l
0 55.18 l
1.99 0 l
0 -75.98 l
1.00 0 l
0 -48.63 l
0.60 0 l
0 129.36 l
1.39 0 l
0 -0.66 l
1.00 0 l
0 1.81 l
0.20 0 l
0 -93.34 l
0.99 0 l
0 85.15 l
2.40 0 l
0 -67.46 l
0 0 l
454.85 516.48 lineto
0.40 0 l
0 -1.80 l
3.19 0 l
0 -2.94 l
0 0 l
0 4.74 l
0.40 0 l
0 -0.65 l
0.59 0 l
0 -2.13 l
6.38 0 l
0 -16.05 l
2.00 0 l
0 -5.24 l
0.99 0 l
0 21.45 l
0.60 0 l
0 -3.76 l
0 0 l
0 -103.49 l
2.00 0 l
0 107.91 l
0.79 0 l
0 -122.32 l
2.99 0 l
0 122.97 l
0.60 0 l
0 1.15 l
0 0 l
0 -116.58 l
0.40 0 l
0 109.05 l
0.60 0 l
0 6.71 l
0.60 0 l
0 -13.43 l
4.78 0 l
0 -49.94 l
2.00 0 l
0 57.31 l
0.60 0 l
0 1.80 l
4.98 0 l
0 5.57 l
0.40 0 l
0 -0.82 l
2.59 0 l
0 -65.17 l
0 0 l
0 -111.34 l
4.99 0 l
0 177.33 l
0.99 0 l
0 -8.02 l
1.60 0 l
0 -5.90 l
6.78 0 l
0 9.83 l
0 0 l
0 -107.74 l
2.19 0 l
0 108.23 l
0.80 0 l
0 -12.45 l
0.60 0 l
0 15.89 l
0.39 0 l
0 -1.80 l
8.98 0 l
0 -70.41 l
0.99 0 l
0 72.21 l
3.99 0 l
0 -96.45 l
0.60 0 l
0 43.56 l
0.40 0 l
0 38.48 l
0.60 0 l
0 11.62 l
0.59 0 l
0 1.48 l
1.40 0 l
0 -5.24 l
2.19 0 l
0 -119.37 l
0.80 0 l
0 125.92 l
0.40 0 l
0 -1.64 l
0.20 0 l
0 -125.92 l
1.39 0 l
0 127.72 l
2.60 0 l
0 -81.38 l
3.79 0 l
0 18.01 l
o
18.00 258.94 577.28 582.94 cl
0 0 0 srgb
0.75 setlinewidth
[] 0 setdash
1 setlinecap
1 setlinejoin
10.00 setmiterlimit
np
360.54 332.38 m
159.51 0 l
o
np
360.54 332.38 m
0 -7.20 l
o
np
400.42 332.38 m
0 -7.20 l
o
np
440.29 332.38 m
0 -7.20 l
o
np
480.17 332.38 m
0 -7.20 l
o
np
520.05 332.38 m
0 -7.20 l
o
/Font1 findfont 12 s
360.54 306.46 (0) .5 0 t
400.42 306.46 (200) .5 0 t
440.29 306.46 (400) .5 0 t
480.17 306.46 (600) .5 0 t
520.05 306.46 (800) .5 0 t
np
356.68 353.56 m
0 163.74 l
o
np
356.68 353.56 m
-7.20 0 l
o
np
356.68 386.31 m
-7.20 0 l
o
np
356.68 419.06 m
-7.20 0 l
o
np
356.68 451.81 m
-7.20 0 l
o
np
356.68 484.55 m
-7.20 0 l
o
np
356.68 517.30 m
-7.20 0 l
o
339.40 353.56 (-1000) .5 90 t
339.40 419.06 (-600) .5 90 t
339.40 484.55 (-200) .5 90 t
339.40 517.30 (0) .5 90 t
np
356.68 332.38 m
190.36 0 l
0 191.52 l
-190.36 0 l
0 -191.52 l
o
297.64 258.94 577.28 582.94 cl
/Font2 findfont 14 s
0 0 0 srgb
451.86 548.40 (tai100cD) .5 0 t
/Font1 findfont 12 s
451.86 263.26 (Requests time) .5 0 t
451.86 277.66 (Time) .5 0 t
310.60 428.14 (Requests) .5 90 t
ep
%%Page: 2 2
bp
77.04 332.38 267.40 523.90 cl
18.00 258.94 297.64 582.94 cl
/Font2 findfont 14 s
0 0 0 srgb
172.22 548.40 (tai100c) .5 0 t
/Font1 findfont 12 s
97.86 263.26 (Requests v) 0 ta
-0.300 (olume histogr) tb
-0.120 (am) tb gr
151.88 277.66 (V) 0 ta
-0.960 (olume) tb gr
30.96 387.46 (No) 90 ta
-0.480 (. of requests) tb gr
18.00 258.94 577.28 582.94 cl
0 0 0 srgb
0.75 setlinewidth
[] 0 setdash
1 setlinecap
1 setlinejoin
10.00 setmiterlimit
np
84.09 332.38 m
160.23 0 l
o
np
84.09 332.38 m
0 -7.20 l
o
np
116.14 332.38 m
0 -7.20 l
o
np
148.18 332.38 m
0 -7.20 l
o
np
180.23 332.38 m
0 -7.20 l
o
np
212.28 332.38 m
0 -7.20 l
o
np
244.32 332.38 m
0 -7.20 l
o
/Font1 findfont 12 s
84.09 306.46 (0) .5 0 t
116.14 306.46 (200) .5 0 t
148.18 306.46 (400) .5 0 t
180.23 306.46 (600) .5 0 t
212.28 306.46 (800) .5 0 t
np
77.04 339.48 m
0 177.33 l
o
np
77.04 339.48 m
-7.20 0 l
o
np
77.04 369.03 m
-7.20 0 l
o
np
77.04 398.59 m
-7.20 0 l
o
np
77.04 428.14 m
-7.20 0 l
o
np
77.04 457.70 m
-7.20 0 l
o
np
77.04 487.26 m
-7.20 0 l
o
np
77.04 516.81 m
-7.20 0 l
o
59.76 339.48 (0) .5 90 t
59.76 369.03 (10) .5 90 t
59.76 398.59 (20) .5 90 t
59.76 428.14 (30) .5 90 t
59.76 457.70 (40) .5 90 t
59.76 487.26 (50) .5 90 t
59.76 516.81 (60) .5 90 t
77.04 332.38 267.40 523.90 cl
0 0 0 srgb
0.75 setlinewidth
[] 0 setdash
1 setlinecap
1 setlinejoin
10.00 setmiterlimit
84.09 339.48 16.02 177.33 r p1
100.11 339.48 16.02 29.56 r p1
116.14 339.48 16.02 11.82 r p1
132.16 339.48 16.02 11.82 r p1
148.18 339.48 16.02 11.82 r p1
164.21 339.48 16.02 11.82 r p1
180.23 339.48 16.02 11.82 r p1
196.25 339.48 16.02 11.82 r p1
212.28 339.48 16.02 11.82 r p1
228.30 339.48 16.02 0.00 r p1
244.32 339.48 16.02 5.91 r p1
ep
%%Page: 3 3
bp
77.04 332.38 267.40 523.90 cl
77.04 332.38 267.40 523.90 cl
0 0 0 srgb
0.75 setlinewidth
[] 0 setdash
1 setlinecap
1 setlinejoin
10.00 setmiterlimit
167.87 423.29 2.70 c p1
167.87 422.07 2.70 c p1
159.16 431.79 2.70 c p1
173.31 428.14 2.70 c p1
175.48 416.00 2.70 c p1
165.69 419.64 2.70 c p1
177.66 418.43 2.70 c p1
161.34 423.29 2.70 c p1
159.16 424.50 2.70 c p1
160.25 414.78 2.70 c p1
176.57 412.35 2.70 c p1
131.96 441.51 2.70 c p1
116.73 394.14 2.70 c p1
128.70 424.50 2.70 c p1
96.06 409.93 2.70 c p1
92.79 417.21 2.70 c p1
126.52 450.01 2.70 c p1
143.93 456.08 2.70 c p1
90.62 425.72 2.70 c p1
141.75 442.72 2.70 c p1
102.59 433.00 2.70 c p1
141.75 417.21 2.70 c p1
119.99 424.50 2.70 c p1
142.84 401.42 2.70 c p1
119.99 441.51 2.70 c p1
88.44 400.21 2.70 c p1
138.49 417.21 2.70 c p1
126.52 442.72 2.70 c p1
254.91 451.22 2.70 c p1
260.35 484.02 2.70 c p1
238.59 476.73 2.70 c p1
237.50 479.16 2.70 c p1
197.24 515.60 2.70 c p1
162.43 510.74 2.70 c p1
166.78 516.81 2.70 c p1
188.54 452.44 2.70 c p1
196.16 516.81 2.70 c p1
163.51 465.80 2.70 c p1
173.31 493.73 2.70 c p1
202.68 504.67 2.70 c p1
143.93 465.80 2.70 c p1
179.83 509.52 2.70 c p1
173.31 514.38 2.70 c p1
166.78 477.94 2.70 c p1
158.07 453.65 2.70 c p1
160.25 509.52 2.70 c p1
156.99 451.22 2.70 c p1
196.16 459.72 2.70 c p1
153.72 511.95 2.70 c p1
193.98 463.37 2.70 c p1
171.13 418.43 2.70 c p1
153.72 442.72 2.70 c p1
162.43 429.36 2.70 c p1
163.51 425.72 2.70 c p1
162.43 417.21 2.70 c p1
174.39 437.86 2.70 c p1
174.39 413.57 2.70 c p1
165.69 437.86 2.70 c p1
185.27 416.00 2.70 c p1
180.92 429.36 2.70 c p1
165.69 445.15 2.70 c p1
153.72 425.72 2.70 c p1
175.48 448.79 2.70 c p1
162.43 430.57 2.70 c p1
172.22 433.00 2.70 c p1
112.38 339.48 2.70 c p1
98.23 341.91 2.70 c p1
140.67 371.06 2.70 c p1
111.29 367.41 2.70 c p1
123.26 389.28 2.70 c p1
98.23 352.84 2.70 c p1
199.42 407.50 2.70 c p1
189.63 400.21 2.70 c p1
199.42 391.71 2.70 c p1
189.63 426.93 2.70 c p1
178.75 406.28 2.70 c p1
204.86 407.50 2.70 c p1
177.66 408.71 2.70 c p1
173.31 385.63 2.70 c p1
208.12 413.57 2.70 c p1
199.42 405.07 2.70 c p1
146.11 487.66 2.70 c p1
153.72 490.09 2.70 c p1
147.19 496.16 2.70 c p1
153.72 492.52 2.70 c p1
143.93 493.73 2.70 c p1
84.09 400.21 2.70 c p1
100.41 385.63 2.70 c p1
89.53 407.50 2.70 c p1
84.09 389.28 2.70 c p1
106.94 397.78 2.70 c p1
92.79 395.35 2.70 c p1
99.32 407.50 2.70 c p1
208.12 459.72 2.70 c p1
200.51 459.72 2.70 c p1
208.12 470.66 2.70 c p1
214.65 437.86 2.70 c p1
210.30 431.79 2.70 c p1
221.18 448.79 2.70 c p1
242.94 431.79 2.70 c p1
18.00 258.94 577.28 582.94 cl
0 0 0 srgb
0.75 setlinewidth
[] 0 setdash
1 setlinecap
1 setlinejoin
10.00 setmiterlimit
np
121.08 332.38 m
108.80 0 l
o
np
121.08 332.38 m
0 -7.20 l
o
np
175.48 332.38 m
0 -7.20 l
o
np
229.88 332.38 m
0 -7.20 l
o
/Font1 findfont 12 s
121.08 306.46 (-50) .5 0 t
175.48 306.46 (0) .5 0 t
229.88 306.46 (50) .5 0 t
np
77.04 351.62 m
0 121.47 l
o
np
77.04 351.62 m
-7.20 0 l
o
np
77.04 412.35 m
-7.20 0 l
o
np
77.04 473.09 m
-7.20 0 l
o
59.76 351.62 (-50) .5 90 t
59.76 412.35 (0) .5 90 t
59.76 473.09 (50) .5 90 t
np
77.04 332.38 m
190.36 0 l
0 191.52 l
-190.36 0 l
0 -191.52 l
o
18.00 258.94 297.64 582.94 cl
/Font2 findfont 14 s
0 0 0 srgb
172.22 548.40 (tai100d) .5 0 t
/Font1 findfont 12 s
172.22 263.26 (Locations plot) .5 0 t
172.22 277.66 (X) .5 0 t
30.96 428.14 (Y) .5 90 t
356.68 332.38 547.04 523.90 cl
356.68 332.38 547.04 523.90 cl
0 0 0 srgb
0.75 setlinewidth
[] 0 setdash
1 setlinecap
1 setlinejoin
10.00 setmiterlimit
np
363.73 501.56 m
1.60 0 l
0 13.74 l
2.06 0 l
0 -0.84 l
0.46 0 l
0 -100.90 l
0.46 0 l
0 93.53 l
2.06 0 l
0 9.72 l
0.68 0 l
0 -0.17 l
0.23 0 l
0 -1.50 l
2.29 0 l
0 -5.20 l
2.98 0 l
0 5.36 l
2.29 0 l
0 -3.85 l
2.06 0 l
0 -13.24 l
0 0 l
0 14.24 l
1.14 0 l
0 -7.87 l
0.46 0 l
0 -5.03 l
4.58 0 l
0 -8.55 l
0.45 0 l
0 19.11 l
0.92 0 l
0 6.53 l
2.98 0 l
0 -5.69 l
0 0 l
0 -29.17 l
0 0 l
0 28.49 l
0.91 0 l
0 5.37 l
1.37 0 l
0 -1.51 l
1.61 0 l
0 -140.29 l
2.52 0 l
0 141.30 l
0.91 0 l
0 -9.06 l
3.21 0 l
0 -12.90 l
0 0 l
0 -27.83 l
0.22 0 l
0 37.72 l
0 0 l
0 -163.59 l
1.84 0 l
0 120.18 l
1.14 0 l
0 53.97 l
3.66 0 l
0 1.17 l
0.46 0 l
0 -34.19 l
0.92 0 l
0 29.33 l
0.68 0 l
0 -54.64 l
0 0 l
0 49.61 l
0.92 0 l
0 -1.34 l
3.66 0 l
0 13.24 l
4.58 0 l
0 -6.03 l
0.46 0 l
0 -2.52 l
7.78 0 l
0 5.37 l
1.37 0 l
0 -24.98 l
7.10 0 l
0 17.77 l
0.23 0 l
0 -56.99 l
4.58 0 l
0 64.70 l
1.60 0 l
0 2.01 l
2.29 0 l
0 -97.05 l
3.20 0 l
0 95.71 l
4.12 0 l
0 -22.46 l
1.60 0 l
454.37 493.68 lineto
0.23 0 l
0 22.13 l
1.61 0 l
0 -42.24 l
1.14 0 l
0 43.07 l
0.92 0 l
0 -0.16 l
0.68 0 l
0 -2.69 l
0.69 0 l
0 -0.67 l
4.58 0 l
0 -10.22 l
2.06 0 l
0 0 l
0.23 0 l
0 -6.37 l
0 0 l
0 0.17 l
0.68 0 l
0 18.77 l
0.23 0 l
0 -5.03 l
2.52 0 l
0 -39.89 l
0.92 0 l
0 21.79 l
5.03 0 l
0 23.47 l
0.92 0 l
0 -9.39 l
1.60 0 l
0 -15.09 l
0.69 0 l
0 24.98 l
1.37 0 l
0 -12.91 l
3.89 0 l
0 12.07 l
1.37 0 l
0 -121.35 l
3.21 0 l
0 122.52 l
2.06 0 l
0 -8.71 l
1.60 0 l
0 5.03 l
5.95 0 l
0 3.52 l
0.23 0 l
0 -4.86 l
0 0 l
0 3.52 l
0.46 0 l
0 -168.29 l
2.29 0 l
0 156.22 l
2.52 0 l
0 12.57 l
3.66 0 l
0 0.50 l
1.37 0 l
0 0.17 l
0.92 0 l
0 -86.82 l
0 0 l
0 85.14 l
0.69 0 l
0 0.17 l
3.89 0 l
0 -17.10 l
1.83 0 l
0 11.57 l
3.89 0 l
0 0.84 l
1.60 0 l
0 -3.52 l
0.92 0 l
0 5.70 l
0.68 0 l
0 4.52 l
5.04 0 l
0 -3.02 l
2.98 0 l
0 -82.63 l
0.68 0 l
0 -18.60 l
0.23 0 l
0 103.58 l
1.37 0 l
0 -41.90 l
4.58 0 l
0 -58.00 l
0.46 0 l
0 100.40 l
1.15 0 l
0 0 l
o
18.00 258.94 577.28 582.94 cl
0 0 0 srgb
0.75 setlinewidth
[] 0 setdash
1 setlinecap
1 setlinejoin
10.00 setmiterlimit
np
362.13 332.38 m
183.12 0 l
o
np
362.13 332.38 m
0 -7.20 l
o
np
407.91 332.38 m
0 -7.20 l
o
np
453.69 332.38 m
0 -7.20 l
o
np
499.47 332.38 m
0 -7.20 l
o
np
545.25 332.38 m
0 -7.20 l
o
/Font1 findfont 12 s
362.13 306.46 (0) .5 0 t
407.91 306.46 (200) .5 0 t
453.69 306.46 (400) .5 0 t
499.47 306.46 (600) .5 0 t
545.25 306.46 (800) .5 0 t
np
356.68 349.70 m
0 167.61 l
o
np
356.68 349.70 m
-7.20 0 l
o
np
356.68 383.22 m
-7.20 0 l
o
np
356.68 416.75 m
-7.20 0 l
o
np
356.68 450.27 m
-7.20 0 l
o
np
356.68 483.79 m
-7.20 0 l
o
np
356.68 517.31 m
-7.20 0 l
o
339.40 349.70 (-1000) .5 90 t
339.40 416.75 (-600) .5 90 t
339.40 483.79 (-200) .5 90 t
339.40 517.31 (0) .5 90 t
np
356.68 332.38 m
190.36 0 l
0 191.52 l
-190.36 0 l
0 -191.52 l
o
297.64 258.94 577.28 582.94 cl
/Font2 findfont 14 s
0 0 0 srgb
451.86 548.40 (tai100dD) .5 0 t
/Font1 findfont 12 s
451.86 263.26 (Requests time) .5 0 t
451.86 277.66 (Time) .5 0 t
310.60 428.14 (Requests) .5 90 t
ep
%%Page: 4 4
bp
77.04 332.38 267.40 523.90 cl
18.00 258.94 297.64 582.94 cl
/Font2 findfont 14 s
0 0 0 srgb
172.22 548.40 (tai100d) .5 0 t
/Font1 findfont 12 s
97.86 263.26 (Requests v) 0 ta
-0.300 (olume histogr) tb
-0.120 (am) tb gr
151.88 277.66 (V) 0 ta
-0.960 (olume) tb gr
30.96 387.46 (No) 90 ta
-0.480 (. of requests) tb gr
18.00 258.94 577.28 582.94 cl
0 0 0 srgb
0.75 setlinewidth
[] 0 setdash
1 setlinecap
1 setlinejoin
10.00 setmiterlimit
np
84.09 332.38 m
160.23 0 l
o
np
84.09 332.38 m
0 -7.20 l
o
np
116.14 332.38 m
0 -7.20 l
o
np
148.18 332.38 m
0 -7.20 l
o
np
180.23 332.38 m
0 -7.20 l
o
np
212.28 332.38 m
0 -7.20 l
o
np
244.32 332.38 m
0 -7.20 l
o
/Font1 findfont 12 s
84.09 306.46 (0) .5 0 t
116.14 306.46 (200) .5 0 t
148.18 306.46 (400) .5 0 t
180.23 306.46 (600) .5 0 t
212.28 306.46 (800) .5 0 t
np
77.04 339.48 m
0 179.90 l
o
np
77.04 339.48 m
-7.20 0 l
o
np
77.04 365.18 m
-7.20 0 l
o
np
77.04 390.88 m
-7.20 0 l
o
np
77.04 416.58 m
-7.20 0 l
o
np
77.04 442.28 m
-7.20 0 l
o
np
77.04 467.98 m
-7.20 0 l
o
np
77.04 493.68 m
-7.20 0 l
o
np
77.04 519.38 m
-7.20 0 l
o
59.76 339.48 (0) .5 90 t
59.76 365.18 (10) .5 90 t
59.76 390.88 (20) .5 90 t
59.76 416.58 (30) .5 90 t
59.76 442.28 (40) .5 90 t
59.76 467.98 (50) .5 90 t
59.76 493.68 (60) .5 90 t
59.76 519.38 (70) .5 90 t
77.04 332.38 267.40 523.90 cl
0 0 0 srgb
0.75 setlinewidth
[] 0 setdash
1 setlinecap
1 setlinejoin
10.00 setmiterlimit
84.09 339.48 16.02 177.33 r p1
100.11 339.48 16.02 30.84 r p1
116.14 339.48 16.02 12.85 r p1
132.16 339.48 16.02 7.71 r p1
148.18 339.48 16.02 2.57 r p1
164.21 339.48 16.02 7.71 r p1
180.23 339.48 16.02 7.71 r p1
196.25 339.48 16.02 2.57 r p1
212.28 339.48 16.02 2.57 r p1
228.30 339.48 16.02 0.00 r p1
244.32 339.48 16.02 5.14 r p1
356.68 332.38 547.04 523.90 cl
ep
%%Trailer
%%Pages: 4
%%EOF
