%!PS-Adobe-3.0
%%DocumentNeededResources: font Helvetica
%%+ font Helvetica-Bold
%%+ font Helvetica-Oblique
%%+ font Helvetica-BoldOblique
%%+ font Symbol
%%DocumentMedia: a4 595 841 0 () ()
%%Title: R Graphics Output
%%Creator: R Software
%%Pages: (atend)
%%Orientation: Portrait
%%BoundingBox: 18 259 577 583
%%EndComments
%%BeginProlog
/bp  { gs sRGB gs } def
% begin .ps.prolog
/gs  { gsave } bind def
/gr  { grestore } bind def
/ep  { showpage gr gr } bind def
/m   { moveto } bind def
/l  { rlineto } bind def
/np  { newpath } bind def
/cp  { closepath } bind def
/f   { fill } bind def
/o   { stroke } bind def
/c   { newpath 0 360 arc } bind def
/r   { 4 2 roll moveto 1 copy 3 -1 roll exch 0 exch rlineto 0 rlineto -1 mul 0 exch rlineto closepath } bind def
/p1  { stroke } bind def
/p2  { gsave bg fill grestore newpath } bind def
/p3  { gsave bg fill grestore stroke } bind def
/p6  { gsave bg eofill grestore newpath } bind def
/p7  { gsave bg eofill grestore stroke } bind def
/t   { 5 -2 roll moveto gsave rotate
       1 index stringwidth pop
       mul neg 0 rmoveto show grestore } bind def
/ta  { 4 -2 roll moveto gsave rotate show } bind def
/tb  { 2 -1 roll 0 rmoveto show } bind def
/cl  { grestore gsave newpath 3 index 3 index moveto 1 index
       4 -1 roll lineto  exch 1 index lineto lineto
       closepath clip newpath } bind def
/rgb { setrgbcolor } bind def
/s   { scalefont setfont } bind def
% end   .ps.prolog
/sRGB { [ /CIEBasedABC
          << /DecodeLMN
               [ { dup 0.03928 le
                        {12.92321 div}
                        {0.055 add 1.055 div 2.4 exp }
                     ifelse
                 } bind dup dup
               ]
             /MatrixLMN [0.412457 0.212673 0.019334
                         0.357576 0.715152 0.119192
                         0.180437 0.072175 0.950301]
             /WhitePoint [0.9505 1.0 1.0890]
           >>
         ] setcolorspace } bind def
/srgb { setcolor } bind def
% begin encoding
/WinAnsiEncoding [
 /.notdef /.notdef /.notdef /.notdef /.notdef /.notdef /.notdef /.notdef
 /.notdef /.notdef /.notdef /.notdef /.notdef /.notdef /.notdef /.notdef
 /.notdef /.notdef /.notdef /.notdef /.notdef /.notdef /.notdef /.notdef
 /.notdef /.notdef /.notdef /.notdef /.notdef /.notdef /.notdef /.notdef
 /space /exclam /quotedbl /numbersign /dollar /percent /ampersand /quoteright
 /parenleft /parenright /asterisk /plus /comma /minus /period /slash
 /zero /one /two /three /four /five /six /seven
 /eight /nine /colon /semicolon /less /equal /greater /question
 /at /A /B /C /D /E /F /G
 /H /I /J /K /L /M /N /O
 /P /Q /R /S /T /U /V /W
 /X /Y /Z /bracketleft /backslash /bracketright /asciicircum /underscore
 /grave /a /b /c /d /e /f /g
 /h /i /j /k /l /m /n /o
 /p /q /r /s /t /u /v /w
 /x /y /z /braceleft /bar /braceright /asciitilde /.notdef
 /Euro /.notdef /quotesinglbase /florin /quotedblbase /ellipsis /dagger /daggerdbl
 /circumflex /perthousand /Scaron /guilsinglleft /OE /.notdef /Zcaron /.notdef
 /.notdef /quoteleft /quoteright /quotedblleft /quotedblright /bullet /endash /emdash
 /tilde /trademark /scaron /guilsinglright /oe /.notdef /zcaron /Ydieresis
 /space /exclamdown /cent /sterling /currency /yen /brokenbar /section
 /dieresis /copyright /ordfeminine /guillemotleft /logicalnot /hyphen /registered /macron
 /degree /plusminus /twosuperior /threesuperior /acute /mu /paragraph /periodcentered
 /cedilla /onesuperior /ordmasculine /guillemotright /onequarter /onehalf /threequarters /questiondown
 /Agrave /Aacute /Acircumflex /Atilde /Adieresis /Aring /AE /Ccedilla
 /Egrave /Eacute /Ecircumflex /Edieresis /Igrave /Iacute /Icircumflex /Idieresis
 /Eth /Ntilde /Ograve /Oacute /Ocircumflex /Otilde /Odieresis /multiply
 /Oslash /Ugrave /Uacute /Ucircumflex /Udieresis /Yacute /Thorn /germandbls
 /agrave /aacute /acircumflex /atilde /adieresis /aring /ae /ccedilla
 /egrave /eacute /ecircumflex /edieresis /igrave /iacute /icircumflex /idieresis
 /eth /ntilde /ograve /oacute /ocircumflex /otilde /odieresis /divide
 /oslash /ugrave /uacute /ucircumflex /udieresis /yacute /thorn /ydieresis
]
 def
% end encoding
%%IncludeResource: font Helvetica
/Helvetica findfont
dup length dict begin
  {1 index /FID ne {def} {pop pop} ifelse} forall
  /Encoding WinAnsiEncoding def
  currentdict
  end
/Font1 exch definefont pop
%%IncludeResource: font Helvetica-Bold
/Helvetica-Bold findfont
dup length dict begin
  {1 index /FID ne {def} {pop pop} ifelse} forall
  /Encoding WinAnsiEncoding def
  currentdict
  end
/Font2 exch definefont pop
%%IncludeResource: font Helvetica-Oblique
/Helvetica-Oblique findfont
dup length dict begin
  {1 index /FID ne {def} {pop pop} ifelse} forall
  /Encoding WinAnsiEncoding def
  currentdict
  end
/Font3 exch definefont pop
%%IncludeResource: font Helvetica-BoldOblique
/Helvetica-BoldOblique findfont
dup length dict begin
  {1 index /FID ne {def} {pop pop} ifelse} forall
  /Encoding WinAnsiEncoding def
  currentdict
  end
/Font4 exch definefont pop
%%IncludeResource: font Symbol
/Symbol findfont
dup length dict begin
  {1 index /FID ne {def} {pop pop} ifelse} forall
  currentdict
  end
/Font5 exch definefont pop
%%EndProlog
%%Page: 1 1
bp
77.04 332.38 267.40 523.90 cl
0 0 0 srgb
0.75 setlinewidth
[] 0 setdash
1 setlinecap
1 setlinejoin
10.00 setmiterlimit
220.34 352.06 2.70 c p1
260.35 349.77 2.70 c p1
258.18 340.62 2.70 c p1
231.15 370.37 2.70 c p1
224.66 370.37 2.70 c p1
247.37 358.93 2.70 c p1
227.91 348.63 2.70 c p1
216.01 363.50 2.70 c p1
230.07 349.77 2.70 c p1
231.15 339.48 2.70 c p1
257.10 363.50 2.70 c p1
208.44 416.13 2.70 c p1
195.47 411.56 2.70 c p1
183.57 392.11 2.70 c p1
185.74 449.31 2.70 c p1
203.04 401.26 2.70 c p1
196.55 400.11 2.70 c p1
209.52 428.72 2.70 c p1
208.44 442.45 2.70 c p1
185.74 424.14 2.70 c p1
207.36 437.87 2.70 c p1
184.65 408.12 2.70 c p1
187.90 442.45 2.70 c p1
217.09 421.85 2.70 c p1
197.63 444.73 2.70 c p1
165.19 411.56 2.70 c p1
208.44 435.58 2.70 c p1
182.49 408.12 2.70 c p1
102.47 390.96 2.70 c p1
113.29 388.67 2.70 c p1
105.72 394.39 2.70 c p1
84.09 398.97 2.70 c p1
112.20 400.11 2.70 c p1
84.09 386.39 2.70 c p1
100.31 408.12 2.70 c p1
111.12 411.56 2.70 c p1
88.42 404.69 2.70 c p1
103.55 406.98 2.70 c p1
94.90 414.99 2.70 c p1
93.82 388.67 2.70 c p1
88.42 387.53 2.70 c p1
100.31 387.53 2.70 c p1
101.39 409.27 2.70 c p1
106.80 412.70 2.70 c p1
113.29 390.96 2.70 c p1
111.12 410.41 2.70 c p1
104.64 404.69 2.70 c p1
86.25 412.70 2.70 c p1
89.50 412.70 2.70 c p1
120.86 405.84 2.70 c p1
158.70 374.94 2.70 c p1
134.91 437.87 2.70 c p1
159.78 423.00 2.70 c p1
129.51 411.56 2.70 c p1
108.96 408.12 2.70 c p1
137.08 428.72 2.70 c p1
107.88 419.56 2.70 c p1
129.51 426.43 2.70 c p1
108.96 394.39 2.70 c p1
120.86 408.12 2.70 c p1
116.53 377.23 2.70 c p1
143.56 434.44 2.70 c p1
121.94 418.42 2.70 c p1
110.04 416.13 2.70 c p1
164.11 400.11 2.70 c p1
164.11 393.25 2.70 c p1
152.21 386.39 2.70 c p1
106.80 392.11 2.70 c p1
132.75 400.11 2.70 c p1
126.26 457.32 2.70 c p1
146.81 487.07 2.70 c p1
125.18 472.19 2.70 c p1
140.32 483.63 2.70 c p1
218.18 499.65 2.70 c p1
223.58 516.81 2.70 c p1
18.00 258.94 577.28 582.94 cl
0 0 0 srgb
0.75 setlinewidth
[] 0 setdash
1 setlinecap
1 setlinejoin
10.00 setmiterlimit
np
128.42 332.38 m
108.14 0 l
o
np
128.42 332.38 m
0 -7.20 l
o
np
182.49 332.38 m
0 -7.20 l
o
np
236.56 332.38 m
0 -7.20 l
o
/Font1 findfont 12 s
128.42 306.46 (-50) .5 0 t
182.49 306.46 (0) .5 0 t
236.56 306.46 (50) .5 0 t
np
77.04 358.93 m
0 114.41 l
o
np
77.04 358.93 m
-7.20 0 l
o
np
77.04 416.13 m
-7.20 0 l
o
np
77.04 473.34 m
-7.20 0 l
o
59.76 358.93 (-50) .5 90 t
59.76 416.13 (0) .5 90 t
59.76 473.34 (50) .5 90 t
np
77.04 332.38 m
190.36 0 l
0 191.52 l
-190.36 0 l
0 -191.52 l
o
18.00 258.94 297.64 582.94 cl
/Font2 findfont 14 s
0 0 0 srgb
172.22 548.40 (tai75a) .5 0 t
/Font1 findfont 12 s
172.22 263.26 (Locations plot) .5 0 t
172.22 277.66 (X) .5 0 t
30.96 428.14 (Y) .5 90 t
356.68 332.38 547.04 523.90 cl
356.68 332.38 547.04 523.90 cl
0 0 0 srgb
0.75 setlinewidth
[] 0 setdash
1 setlinecap
1 setlinejoin
10.00 setmiterlimit
np
363.73 509.11 m
6.25 0 l
0 0 l
3.94 0 l
0 -19.67 l
0.46 0 l
0 -20.81 l
0.70 0 l
0 47.20 l
0.69 0 l
0 -101.78 l
0.47 0 l
0 73.92 l
5.09 0 l
0 0 l
0.23 0 l
0 -6.07 l
1.39 0 l
0 34.75 l
0.47 0 l
0 -0.82 l
0.69 0 l
0 -23.77 l
2.32 0 l
0 6.07 l
0.69 0 l
0 8.85 l
5.33 0 l
0 -61.13 l
0.23 0 l
0 -76.87 l
0.46 0 l
0 146.03 l
1.62 0 l
0 1.80 l
1.86 0 l
0 -1.15 l
6.02 0 l
0 -25.56 l
2.55 0 l
0 -7.38 l
2.31 0 l
0 33.27 l
0.23 0 l
0 -2.78 l
0 0 l
0 -18.69 l
0.47 0 l
0 -12.13 l
7.18 0 l
0 -89.32 l
1.62 0 l
0 53.92 l
1.62 0 l
0 69.49 l
0.46 0 l
0 -21.47 l
1.86 0 l
0 -59.82 l
1.39 0 l
0 66.87 l
0.23 0 l
0 11.80 l
1.39 0 l
0 -24.25 l
1.16 0 l
0 24.09 l
0.69 0 l
0 3.11 l
6.72 0 l
0 -43.92 l
3.47 0 l
0 -26.55 l
7.18 0 l
0 70.47 l
0.70 0 l
0 -176.35 l
0.69 0 l
0 138.66 l
4.63 0 l
0 36.38 l
1.16 0 l
0 0.16 l
1.16 0 l
0 -11.14 l
4.40 0 l
0 2.46 l
1.16 0 l
0 9.67 l
4.63 0 l
0 -9.02 l
0.23 0 l
0 8.36 l
0.93 0 l
0 -4.26 l
4.63 0 l
0 -32.78 l
0.23 0 l
0 33.44 l
2.78 0 l
470.50 510.75 lineto
0.70 0 l
0 -13.61 l
6.48 0 l
0 19.02 l
0.93 0 l
0 -4.27 l
0.46 0 l
0 -55.06 l
0 0 l
0 58.67 l
1.16 0 l
0 -1.97 l
2.32 0 l
0 -30.32 l
4.63 0 l
0 33.44 l
1.39 0 l
0 -0.66 l
11.11 0 l
0 -4.59 l
0.70 0 l
0 -76.70 l
13.66 0 l
0 79.98 l
4.41 0 l
0 -91.45 l
0.92 0 l
0 90.96 l
2.32 0 l
0 -35.40 l
1.16 0 l
0 -34.42 l
1.85 0 l
0 71.95 l
4.86 0 l
0 -6.06 l
2.78 0 l
0 -27.37 l
0.23 0 l
0 -9.51 l
4.87 0 l
0 -23.27 l
0.92 0 l
0 46.87 l
0 0 l
0 18.52 l
1.63 0 l
0 -176.02 l
o
18.00 258.94 577.28 582.94 cl
0 0 0 srgb
0.75 setlinewidth
[] 0 setdash
1 setlinecap
1 setlinejoin
10.00 setmiterlimit
np
362.34 332.38 m
138.97 0 l
o
np
362.34 332.38 m
0 -7.20 l
o
np
408.66 332.38 m
0 -7.20 l
o
np
454.98 332.38 m
0 -7.20 l
o
np
501.31 332.38 m
0 -7.20 l
o
/Font1 findfont 12 s
362.34 306.46 (0) .5 0 t
408.66 306.46 (200) .5 0 t
454.98 306.46 (400) .5 0 t
501.31 306.46 (600) .5 0 t
np
356.68 353.41 m
0 163.89 l
o
np
356.68 353.41 m
-7.20 0 l
o
np
356.68 386.19 m
-7.20 0 l
o
np
356.68 418.97 m
-7.20 0 l
o
np
356.68 451.75 m
-7.20 0 l
o
np
356.68 484.52 m
-7.20 0 l
o
np
356.68 517.30 m
-7.20 0 l
o
339.40 353.41 (-1000) .5 90 t
339.40 418.97 (-600) .5 90 t
339.40 484.52 (-200) .5 90 t
339.40 517.30 (0) .5 90 t
np
356.68 332.38 m
190.36 0 l
0 191.52 l
-190.36 0 l
0 -191.52 l
o
297.64 258.94 577.28 582.94 cl
/Font2 findfont 14 s
0 0 0 srgb
451.86 548.40 (tai75aD) .5 0 t
/Font1 findfont 12 s
451.86 263.26 (Requests time) .5 0 t
451.86 277.66 (Time) .5 0 t
310.60 428.14 (Requests) .5 90 t
ep
%%Page: 2 2
bp
77.04 332.38 267.40 523.90 cl
18.00 258.94 297.64 582.94 cl
/Font2 findfont 14 s
0 0 0 srgb
172.22 548.40 (tai75a) .5 0 t
/Font1 findfont 12 s
97.86 263.26 (Requests v) 0 ta
-0.300 (olume histogr) tb
-0.120 (am) tb gr
151.88 277.66 (V) 0 ta
-0.960 (olume) tb gr
30.96 387.46 (No) 90 ta
-0.480 (. of requests) tb gr
18.00 258.94 577.28 582.94 cl
0 0 0 srgb
0.75 setlinewidth
[] 0 setdash
1 setlinecap
1 setlinejoin
10.00 setmiterlimit
np
84.09 332.38 m
160.23 0 l
o
np
84.09 332.38 m
0 -7.20 l
o
np
116.14 332.38 m
0 -7.20 l
o
np
148.18 332.38 m
0 -7.20 l
o
np
180.23 332.38 m
0 -7.20 l
o
np
212.28 332.38 m
0 -7.20 l
o
np
244.32 332.38 m
0 -7.20 l
o
/Font1 findfont 12 s
84.09 306.46 (0) .5 0 t
116.14 306.46 (200) .5 0 t
148.18 306.46 (400) .5 0 t
180.23 306.46 (600) .5 0 t
212.28 306.46 (800) .5 0 t
np
77.04 339.48 m
0 181.88 l
o
np
77.04 339.48 m
-7.20 0 l
o
np
77.04 384.95 m
-7.20 0 l
o
np
77.04 430.42 m
-7.20 0 l
o
np
77.04 475.89 m
-7.20 0 l
o
np
77.04 521.36 m
-7.20 0 l
o
59.76 339.48 (0) .5 90 t
59.76 384.95 (10) .5 90 t
59.76 430.42 (20) .5 90 t
59.76 475.89 (30) .5 90 t
59.76 521.36 (40) .5 90 t
77.04 332.38 267.40 523.90 cl
0 0 0 srgb
0.75 setlinewidth
[] 0 setdash
1 setlinecap
1 setlinejoin
10.00 setmiterlimit
84.09 339.48 16.02 177.33 r p1
100.11 339.48 16.02 50.02 r p1
116.14 339.48 16.02 50.02 r p1
132.16 339.48 16.02 4.55 r p1
148.18 339.48 16.02 22.74 r p1
164.21 339.48 16.02 13.64 r p1
180.23 339.48 16.02 4.55 r p1
196.25 339.48 16.02 4.55 r p1
212.28 339.48 16.02 0.00 r p1
228.30 339.48 16.02 4.55 r p1
244.32 339.48 16.02 9.09 r p1
ep
%%Page: 3 3
bp
77.04 332.38 267.40 523.90 cl
77.04 332.38 267.40 523.90 cl
0 0 0 srgb
0.75 setlinewidth
[] 0 setdash
1 setlinecap
1 setlinejoin
10.00 setmiterlimit
230.97 433.36 2.70 c p1
239.61 436.84 2.70 c p1
230.97 443.79 2.70 c p1
239.61 437.71 2.70 c p1
246.52 435.10 2.70 c p1
225.79 436.84 2.70 c p1
229.24 437.71 2.70 c p1
234.43 435.10 2.70 c p1
241.34 438.58 2.70 c p1
241.34 433.36 2.70 c p1
230.97 434.23 2.70 c p1
243.07 433.36 2.70 c p1
227.52 438.58 2.70 c p1
230.97 440.31 2.70 c p1
246.52 439.45 2.70 c p1
211.96 507.25 2.70 c p1
224.06 514.20 2.70 c p1
206.78 509.86 2.70 c p1
210.24 504.64 2.70 c p1
189.50 514.20 2.70 c p1
192.96 506.38 2.70 c p1
191.23 505.51 2.70 c p1
215.42 507.25 2.70 c p1
225.79 514.20 2.70 c p1
198.14 515.94 2.70 c p1
225.79 508.99 2.70 c p1
199.87 507.25 2.70 c p1
224.06 516.81 2.70 c p1
191.23 515.07 2.70 c p1
191.23 502.03 2.70 c p1
220.60 514.20 2.70 c p1
198.14 502.03 2.70 c p1
194.68 502.03 2.70 c p1
225.79 513.33 2.70 c p1
220.60 516.81 2.70 c p1
229.24 430.75 2.70 c p1
182.59 450.75 2.70 c p1
210.24 458.57 2.70 c p1
213.69 447.27 2.70 c p1
232.70 443.79 2.70 c p1
237.88 449.88 2.70 c p1
189.50 450.75 2.70 c p1
172.22 439.45 2.70 c p1
184.31 443.79 2.70 c p1
232.70 462.05 2.70 c p1
222.33 452.48 2.70 c p1
217.15 464.65 2.70 c p1
199.87 435.97 2.70 c p1
177.40 455.09 2.70 c p1
189.50 437.71 2.70 c p1
211.96 445.53 2.70 c p1
220.60 448.14 2.70 c p1
173.95 430.75 2.70 c p1
177.40 457.70 2.70 c p1
251.71 376.86 2.70 c p1
248.25 355.13 2.70 c p1
213.69 349.91 2.70 c p1
244.80 339.48 2.70 c p1
205.05 371.64 2.70 c p1
194.68 349.04 2.70 c p1
253.44 347.30 2.70 c p1
201.60 354.26 2.70 c p1
211.96 369.03 2.70 c p1
142.84 409.89 2.70 c p1
99.64 435.97 2.70 c p1
84.09 384.68 2.70 c p1
130.75 409.89 2.70 c p1
224.06 427.28 2.70 c p1
251.71 423.80 2.70 c p1
222.33 428.14 2.70 c p1
234.43 440.31 2.70 c p1
251.71 439.45 2.70 c p1
232.70 424.67 2.70 c p1
236.16 435.10 2.70 c p1
260.35 435.97 2.70 c p1
18.00 258.94 577.28 582.94 cl
0 0 0 srgb
0.75 setlinewidth
[] 0 setdash
1 setlinecap
1 setlinejoin
10.00 setmiterlimit
np
96.19 332.38 m
138.24 0 l
o
np
96.19 332.38 m
0 -7.20 l
o
np
130.75 332.38 m
0 -7.20 l
o
np
165.31 332.38 m
0 -7.20 l
o
np
199.87 332.38 m
0 -7.20 l
o
np
234.43 332.38 m
0 -7.20 l
o
/Font1 findfont 12 s
96.19 306.46 (-80) .5 0 t
130.75 306.46 (-60) .5 0 t
165.31 306.46 (-40) .5 0 t
199.87 306.46 (-20) .5 0 t
234.43 306.46 (0) .5 0 t
np
77.04 350.78 m
0 130.39 l
o
np
77.04 350.78 m
-7.20 0 l
o
np
77.04 394.24 m
-7.20 0 l
o
np
77.04 437.71 m
-7.20 0 l
o
np
77.04 481.17 m
-7.20 0 l
o
59.76 350.78 (-100) .5 90 t
59.76 394.24 (-50) .5 90 t
59.76 437.71 (0) .5 90 t
59.76 481.17 (50) .5 90 t
np
77.04 332.38 m
190.36 0 l
0 191.52 l
-190.36 0 l
0 -191.52 l
o
18.00 258.94 297.64 582.94 cl
/Font2 findfont 14 s
0 0 0 srgb
172.22 548.40 (tai75b) .5 0 t
/Font1 findfont 12 s
172.22 263.26 (Locations plot) .5 0 t
172.22 277.66 (X) .5 0 t
30.96 428.14 (Y) .5 90 t
356.68 332.38 547.04 523.90 cl
356.68 332.38 547.04 523.90 cl
0 0 0 srgb
0.75 setlinewidth
[] 0 setdash
1 setlinecap
1 setlinejoin
10.00 setmiterlimit
np
363.73 339.48 m
6.10 0 l
0 37.53 l
3.94 0 l
0 127.96 l
0.40 0 l
0 -102.27 l
0.59 0 l
0 85.42 l
0.78 0 l
0 -1.34 l
0.60 0 l
0 9.85 l
4.92 0 l
0 20.01 l
0.39 0 l
0 -12.84 l
1.38 0 l
0 4.17 l
0.59 0 l
0 4.50 l
0.59 0 l
0 1.01 l
2.37 0 l
0 3.16 l
0.59 0 l
0 -0.83 l
5.31 0 l
0 0.33 l
0.20 0 l
0 -29.02 l
0.39 0 l
0 21.18 l
1.58 0 l
0 -138.46 l
1.97 0 l
0 10.34 l
6.10 0 l
0 30.87 l
2.56 0 l
0 96.42 l
2.17 0 l
0 -13.51 l
0.39 0 l
0 -65.23 l
0 0 l
0 78.91 l
0.40 0 l
0 7.17 l
7.09 0 l
0 0.67 l
1.77 0 l
0 -29.03 l
1.58 0 l
0 4.34 l
0.39 0 l
0 -21.02 l
1.97 0 l
0 46.87 l
1.38 0 l
0 -1.00 l
0.19 0 l
0 1.17 l
1.38 0 l
0 -0.17 l
1.38 0 l
0 -1.16 l
0.59 0 l
0 -5.68 l
6.50 0 l
0 6.84 l
3.55 0 l
0 -36.86 l
7.28 0 l
0 -10.18 l
0.79 0 l
0 4.00 l
0.59 0 l
0 43.04 l
4.53 0 l
0 -64.56 l
1.38 0 l
0 56.22 l
0.98 0 l
0 -77.40 l
4.53 0 l
0 -49.55 l
0.99 0 l
0 131.79 l
4.53 0 l
0 -0.67 l
0.39 0 l
0 1.84 l
0.99 0 l
0 -95.09 l
4.53 0 l
0 86.75 l
0.39 0 l
0 -68.73 l
2.56 0 l
470.27 516.48 lineto
0.79 0 l
0 -1.84 l
6.50 0 l
0 -3.00 l
0.98 0 l
0 4.84 l
0.40 0 l
0 -0.67 l
0 0 l
0 -2.17 l
1.18 0 l
0 -16.35 l
2.36 0 l
0 -5.34 l
4.73 0 l
0 21.86 l
1.18 0 l
0 -3.84 l
11.22 0 l
0 -105.43 l
0.59 0 l
0 109.94 l
13.79 0 l
0 -124.62 l
4.33 0 l
0 125.28 l
0.99 0 l
0 1.17 l
2.36 0 l
0 -118.78 l
1.18 0 l
0 111.11 l
1.58 0 l
0 6.84 l
4.92 0 l
0 -13.68 l
2.95 0 l
0 -50.88 l
0.20 0 l
0 58.38 l
4.73 0 l
0 1.84 l
0.98 0 l
0 5.67 l
0.20 0 l
0 -0.83 l
1.58 0 l
0 -66.40 l
o
18.00 258.94 577.28 582.94 cl
0 0 0 srgb
0.75 setlinewidth
[] 0 setdash
1 setlinecap
1 setlinejoin
10.00 setmiterlimit
np
362.15 332.38 m
157.55 0 l
o
np
362.15 332.38 m
0 -7.20 l
o
np
401.54 332.38 m
0 -7.20 l
o
np
440.93 332.38 m
0 -7.20 l
o
np
480.31 332.38 m
0 -7.20 l
o
np
519.70 332.38 m
0 -7.20 l
o
/Font1 findfont 12 s
362.15 306.46 (0) .5 0 t
401.54 306.46 (200) .5 0 t
440.93 306.46 (400) .5 0 t
480.31 306.46 (600) .5 0 t
519.70 306.46 (800) .5 0 t
np
356.68 350.49 m
0 166.82 l
o
np
356.68 350.49 m
-7.20 0 l
o
np
356.68 383.85 m
-7.20 0 l
o
np
356.68 417.22 m
-7.20 0 l
o
np
356.68 450.58 m
-7.20 0 l
o
np
356.68 483.95 m
-7.20 0 l
o
np
356.68 517.31 m
-7.20 0 l
o
339.40 350.49 (-1000) .5 90 t
339.40 417.22 (-600) .5 90 t
339.40 483.95 (-200) .5 90 t
339.40 517.31 (0) .5 90 t
np
356.68 332.38 m
190.36 0 l
0 191.52 l
-190.36 0 l
0 -191.52 l
o
297.64 258.94 577.28 582.94 cl
/Font2 findfont 14 s
0 0 0 srgb
451.86 548.40 (tai75bD) .5 0 t
/Font1 findfont 12 s
451.86 263.26 (Requests time) .5 0 t
451.86 277.66 (Time) .5 0 t
310.60 428.14 (Requests) .5 90 t
ep
%%Page: 4 4
bp
77.04 332.38 267.40 523.90 cl
18.00 258.94 297.64 582.94 cl
/Font2 findfont 14 s
0 0 0 srgb
172.22 548.40 (tai75b) .5 0 t
/Font1 findfont 12 s
97.86 263.26 (Requests v) 0 ta
-0.300 (olume histogr) tb
-0.120 (am) tb gr
151.88 277.66 (V) 0 ta
-0.960 (olume) tb gr
30.96 387.46 (No) 90 ta
-0.480 (. of requests) tb gr
18.00 258.94 577.28 582.94 cl
0 0 0 srgb
0.75 setlinewidth
[] 0 setdash
1 setlinecap
1 setlinejoin
10.00 setmiterlimit
np
84.09 332.38 m
160.23 0 l
o
np
84.09 332.38 m
0 -7.20 l
o
np
116.14 332.38 m
0 -7.20 l
o
np
148.18 332.38 m
0 -7.20 l
o
np
180.23 332.38 m
0 -7.20 l
o
np
212.28 332.38 m
0 -7.20 l
o
np
244.32 332.38 m
0 -7.20 l
o
/Font1 findfont 12 s
84.09 306.46 (0) .5 0 t
116.14 306.46 (200) .5 0 t
148.18 306.46 (400) .5 0 t
180.23 306.46 (600) .5 0 t
212.28 306.46 (800) .5 0 t
np
77.04 339.48 m
0 157.63 l
o
np
77.04 339.48 m
-7.20 0 l
o
np
77.04 378.89 m
-7.20 0 l
o
np
77.04 418.29 m
-7.20 0 l
o
np
77.04 457.70 m
-7.20 0 l
o
np
77.04 497.11 m
-7.20 0 l
o
59.76 339.48 (0) .5 90 t
59.76 378.89 (10) .5 90 t
59.76 418.29 (20) .5 90 t
59.76 457.70 (30) .5 90 t
59.76 497.11 (40) .5 90 t
77.04 332.38 267.40 523.90 cl
0 0 0 srgb
0.75 setlinewidth
[] 0 setdash
1 setlinecap
1 setlinejoin
10.00 setmiterlimit
84.09 339.48 16.02 177.33 r p1
100.11 339.48 16.02 35.47 r p1
116.14 339.48 16.02 15.76 r p1
132.16 339.48 16.02 7.88 r p1
148.18 339.48 16.02 7.88 r p1
164.21 339.48 16.02 11.82 r p1
180.23 339.48 16.02 11.82 r p1
196.25 339.48 16.02 7.88 r p1
212.28 339.48 16.02 15.76 r p1
228.30 339.48 16.02 0.00 r p1
244.32 339.48 16.02 3.94 r p1
356.68 332.38 547.04 523.90 cl
ep
%%Trailer
%%Pages: 4
%%EOF
