%!PS-Adobe-3.0
%%DocumentNeededResources: font Helvetica
%%+ font Helvetica-Bold
%%+ font Helvetica-Oblique
%%+ font Helvetica-BoldOblique
%%+ font Symbol
%%DocumentMedia: a4 595 841 0 () ()
%%Title: R Graphics Output
%%Creator: R Software
%%Pages: (atend)
%%Orientation: Portrait
%%BoundingBox: 18 259 577 583
%%EndComments
%%BeginProlog
/bp  { gs sRGB gs } def
% begin .ps.prolog
/gs  { gsave } bind def
/gr  { grestore } bind def
/ep  { showpage gr gr } bind def
/m   { moveto } bind def
/l  { rlineto } bind def
/np  { newpath } bind def
/cp  { closepath } bind def
/f   { fill } bind def
/o   { stroke } bind def
/c   { newpath 0 360 arc } bind def
/r   { 4 2 roll moveto 1 copy 3 -1 roll exch 0 exch rlineto 0 rlineto -1 mul 0 exch rlineto closepath } bind def
/p1  { stroke } bind def
/p2  { gsave bg fill grestore newpath } bind def
/p3  { gsave bg fill grestore stroke } bind def
/p6  { gsave bg eofill grestore newpath } bind def
/p7  { gsave bg eofill grestore stroke } bind def
/t   { 5 -2 roll moveto gsave rotate
       1 index stringwidth pop
       mul neg 0 rmoveto show grestore } bind def
/ta  { 4 -2 roll moveto gsave rotate show } bind def
/tb  { 2 -1 roll 0 rmoveto show } bind def
/cl  { grestore gsave newpath 3 index 3 index moveto 1 index
       4 -1 roll lineto  exch 1 index lineto lineto
       closepath clip newpath } bind def
/rgb { setrgbcolor } bind def
/s   { scalefont setfont } bind def
% end   .ps.prolog
/sRGB { [ /CIEBasedABC
          << /DecodeLMN
               [ { dup 0.03928 le
                        {12.92321 div}
                        {0.055 add 1.055 div 2.4 exp }
                     ifelse
                 } bind dup dup
               ]
             /MatrixLMN [0.412457 0.212673 0.019334
                         0.357576 0.715152 0.119192
                         0.180437 0.072175 0.950301]
             /WhitePoint [0.9505 1.0 1.0890]
           >>
         ] setcolorspace } bind def
/srgb { setcolor } bind def
% begin encoding
/WinAnsiEncoding [
 /.notdef /.notdef /.notdef /.notdef /.notdef /.notdef /.notdef /.notdef
 /.notdef /.notdef /.notdef /.notdef /.notdef /.notdef /.notdef /.notdef
 /.notdef /.notdef /.notdef /.notdef /.notdef /.notdef /.notdef /.notdef
 /.notdef /.notdef /.notdef /.notdef /.notdef /.notdef /.notdef /.notdef
 /space /exclam /quotedbl /numbersign /dollar /percent /ampersand /quoteright
 /parenleft /parenright /asterisk /plus /comma /minus /period /slash
 /zero /one /two /three /four /five /six /seven
 /eight /nine /colon /semicolon /less /equal /greater /question
 /at /A /B /C /D /E /F /G
 /H /I /J /K /L /M /N /O
 /P /Q /R /S /T /U /V /W
 /X /Y /Z /bracketleft /backslash /bracketright /asciicircum /underscore
 /grave /a /b /c /d /e /f /g
 /h /i /j /k /l /m /n /o
 /p /q /r /s /t /u /v /w
 /x /y /z /braceleft /bar /braceright /asciitilde /.notdef
 /Euro /.notdef /quotesinglbase /florin /quotedblbase /ellipsis /dagger /daggerdbl
 /circumflex /perthousand /Scaron /guilsinglleft /OE /.notdef /Zcaron /.notdef
 /.notdef /quoteleft /quoteright /quotedblleft /quotedblright /bullet /endash /emdash
 /tilde /trademark /scaron /guilsinglright /oe /.notdef /zcaron /Ydieresis
 /space /exclamdown /cent /sterling /currency /yen /brokenbar /section
 /dieresis /copyright /ordfeminine /guillemotleft /logicalnot /hyphen /registered /macron
 /degree /plusminus /twosuperior /threesuperior /acute /mu /paragraph /periodcentered
 /cedilla /onesuperior /ordmasculine /guillemotright /onequarter /onehalf /threequarters /questiondown
 /Agrave /Aacute /Acircumflex /Atilde /Adieresis /Aring /AE /Ccedilla
 /Egrave /Eacute /Ecircumflex /Edieresis /Igrave /Iacute /Icircumflex /Idieresis
 /Eth /Ntilde /Ograve /Oacute /Ocircumflex /Otilde /Odieresis /multiply
 /Oslash /Ugrave /Uacute /Ucircumflex /Udieresis /Yacute /Thorn /germandbls
 /agrave /aacute /acircumflex /atilde /adieresis /aring /ae /ccedilla
 /egrave /eacute /ecircumflex /edieresis /igrave /iacute /icircumflex /idieresis
 /eth /ntilde /ograve /oacute /ocircumflex /otilde /odieresis /divide
 /oslash /ugrave /uacute /ucircumflex /udieresis /yacute /thorn /ydieresis
]
 def
% end encoding
%%IncludeResource: font Helvetica
/Helvetica findfont
dup length dict begin
  {1 index /FID ne {def} {pop pop} ifelse} forall
  /Encoding WinAnsiEncoding def
  currentdict
  end
/Font1 exch definefont pop
%%IncludeResource: font Helvetica-Bold
/Helvetica-Bold findfont
dup length dict begin
  {1 index /FID ne {def} {pop pop} ifelse} forall
  /Encoding WinAnsiEncoding def
  currentdict
  end
/Font2 exch definefont pop
%%IncludeResource: font Helvetica-Oblique
/Helvetica-Oblique findfont
dup length dict begin
  {1 index /FID ne {def} {pop pop} ifelse} forall
  /Encoding WinAnsiEncoding def
  currentdict
  end
/Font3 exch definefont pop
%%IncludeResource: font Helvetica-BoldOblique
/Helvetica-BoldOblique findfont
dup length dict begin
  {1 index /FID ne {def} {pop pop} ifelse} forall
  /Encoding WinAnsiEncoding def
  currentdict
  end
/Font4 exch definefont pop
%%IncludeResource: font Symbol
/Symbol findfont
dup length dict begin
  {1 index /FID ne {def} {pop pop} ifelse} forall
  currentdict
  end
/Font5 exch definefont pop
%%EndProlog
%%Page: 1 1
bp
77.04 332.38 267.40 523.90 cl
0 0 0 srgb
0.75 setlinewidth
[] 0 setdash
1 setlinecap
1 setlinejoin
10.00 setmiterlimit
165.53 423.29 2.70 c p1
165.53 422.07 2.70 c p1
156.60 431.79 2.70 c p1
171.10 428.14 2.70 c p1
173.33 416.00 2.70 c p1
163.29 419.64 2.70 c p1
175.57 418.43 2.70 c p1
158.83 423.29 2.70 c p1
156.60 424.50 2.70 c p1
157.72 414.78 2.70 c p1
174.45 412.35 2.70 c p1
128.71 441.51 2.70 c p1
113.09 394.14 2.70 c p1
125.37 424.50 2.70 c p1
91.90 409.93 2.70 c p1
88.55 417.21 2.70 c p1
123.13 450.01 2.70 c p1
140.98 456.08 2.70 c p1
86.32 425.72 2.70 c p1
138.75 442.72 2.70 c p1
98.59 433.00 2.70 c p1
138.75 417.21 2.70 c p1
116.44 424.50 2.70 c p1
139.87 401.42 2.70 c p1
116.44 441.51 2.70 c p1
84.09 400.21 2.70 c p1
135.41 417.21 2.70 c p1
123.13 442.72 2.70 c p1
254.77 451.22 2.70 c p1
260.35 484.02 2.70 c p1
238.04 476.73 2.70 c p1
236.92 479.16 2.70 c p1
195.65 515.60 2.70 c p1
159.95 510.74 2.70 c p1
164.41 516.81 2.70 c p1
186.72 452.44 2.70 c p1
194.53 516.81 2.70 c p1
161.06 465.80 2.70 c p1
171.10 493.73 2.70 c p1
201.22 504.67 2.70 c p1
140.98 465.80 2.70 c p1
177.80 509.52 2.70 c p1
171.10 514.38 2.70 c p1
164.41 477.94 2.70 c p1
155.49 453.65 2.70 c p1
157.72 509.52 2.70 c p1
154.37 451.22 2.70 c p1
194.53 459.72 2.70 c p1
151.02 511.95 2.70 c p1
192.30 463.37 2.70 c p1
168.87 418.43 2.70 c p1
151.02 442.72 2.70 c p1
159.95 429.36 2.70 c p1
161.06 425.72 2.70 c p1
159.95 417.21 2.70 c p1
172.22 437.86 2.70 c p1
172.22 413.57 2.70 c p1
163.29 437.86 2.70 c p1
183.37 416.00 2.70 c p1
178.91 429.36 2.70 c p1
163.29 445.15 2.70 c p1
151.02 425.72 2.70 c p1
173.33 448.79 2.70 c p1
159.95 430.57 2.70 c p1
169.99 433.00 2.70 c p1
108.63 339.48 2.70 c p1
94.13 341.91 2.70 c p1
137.64 371.06 2.70 c p1
107.52 367.41 2.70 c p1
119.79 389.28 2.70 c p1
94.13 352.84 2.70 c p1
197.88 407.50 2.70 c p1
187.84 400.21 2.70 c p1
197.88 391.71 2.70 c p1
187.84 426.93 2.70 c p1
18.00 258.94 577.28 582.94 cl
0 0 0 srgb
0.75 setlinewidth
[] 0 setdash
1 setlinecap
1 setlinejoin
10.00 setmiterlimit
np
117.56 332.38 m
111.55 0 l
o
np
117.56 332.38 m
0 -7.20 l
o
np
173.33 332.38 m
0 -7.20 l
o
np
229.11 332.38 m
0 -7.20 l
o
/Font1 findfont 12 s
117.56 306.46 (-50) .5 0 t
173.33 306.46 (0) .5 0 t
229.11 306.46 (50) .5 0 t
np
77.04 351.62 m
0 121.47 l
o
np
77.04 351.62 m
-7.20 0 l
o
np
77.04 412.35 m
-7.20 0 l
o
np
77.04 473.09 m
-7.20 0 l
o
59.76 351.62 (-50) .5 90 t
59.76 412.35 (0) .5 90 t
59.76 473.09 (50) .5 90 t
np
77.04 332.38 m
190.36 0 l
0 191.52 l
-190.36 0 l
0 -191.52 l
o
18.00 258.94 297.64 582.94 cl
/Font2 findfont 14 s
0 0 0 srgb
172.22 548.40 (tai75c) .5 0 t
/Font1 findfont 12 s
172.22 263.26 (Locations plot) .5 0 t
172.22 277.66 (X) .5 0 t
30.96 428.14 (Y) .5 90 t
356.68 332.38 547.04 523.90 cl
356.68 332.38 547.04 523.90 cl
0 0 0 srgb
0.75 setlinewidth
[] 0 setdash
1 setlinecap
1 setlinejoin
10.00 setmiterlimit
np
363.73 501.56 m
0 0 l
0 13.74 l
6.14 0 l
0 -0.84 l
1.36 0 l
0 -100.90 l
2.05 0 l
0 93.53 l
2.27 0 l
0 9.72 l
1.60 0 l
0 -0.17 l
1.59 0 l
0 -1.50 l
1.59 0 l
0 -5.20 l
2.73 0 l
0 5.36 l
0.23 0 l
0 -3.85 l
3.41 0 l
0 -13.24 l
2.50 0 l
0 14.24 l
1.82 0 l
0 -7.87 l
5.46 0 l
0 -5.03 l
0.91 0 l
0 -8.55 l
0.45 0 l
0 19.11 l
2.50 0 l
0 6.53 l
0.46 0 l
0 -5.69 l
4.09 0 l
0 -29.17 l
2.05 0 l
0 28.49 l
4.32 0 l
0 5.37 l
0.91 0 l
0 -1.51 l
2.05 0 l
0 -140.29 l
1.36 0 l
0 141.30 l
2.50 0 l
0 -9.06 l
6.60 0 l
0 -12.90 l
3.87 0 l
0 -27.83 l
0 0 l
0 37.72 l
2.04 0 l
0 -163.59 l
0.23 0 l
0 120.18 l
2.05 0 l
0 53.97 l
1.59 0 l
0 1.17 l
1.36 0 l
0 -34.19 l
1.82 0 l
0 29.33 l
1.37 0 l
0 -54.64 l
1.82 0 l
0 49.61 l
0.91 0 l
0 -1.34 l
1.82 0 l
0 13.24 l
2.04 0 l
0 -6.03 l
3.87 0 l
0 -2.52 l
2.05 0 l
0 5.37 l
3.86 0 l
0 -24.98 l
5.01 0 l
0 17.77 l
20.01 0 l
0 -56.99 l
0.91 0 l
0 64.70 l
2.96 0 l
0 2.01 l
2.50 0 l
0 -97.05 l
1.13 0 l
0 95.71 l
1.37 0 l
0 -22.46 l
0 0 l
489.27 493.68 lineto
0.23 0 l
0 22.13 l
7.27 0 l
0 -42.24 l
1.14 0 l
0 43.07 l
0 0 l
0 -0.16 l
2.96 0 l
0 -2.69 l
1.13 0 l
0 -0.67 l
1.14 0 l
0 -10.22 l
0.23 0 l
0 0 l
0.45 0 l
0 -6.37 l
6.60 0 l
0 0.17 l
0 0 l
0 18.77 l
0.91 0 l
0 -5.03 l
2.05 0 l
0 -39.89 l
1.36 0 l
0 21.79 l
0.68 0 l
0 23.47 l
5.92 0 l
0 -9.39 l
5.45 0 l
0 -15.09 l
0.91 0 l
0 24.98 l
0.69 0 l
0 -12.91 l
0.45 0 l
0 12.07 l
6.82 0 l
0 -121.35 l
0.23 0 l
0 122.52 l
3.41 0 l
0 -8.71 l
0.69 0 l
0 5.03 l
o
18.00 258.94 577.28 582.94 cl
0 0 0 srgb
0.75 setlinewidth
[] 0 setdash
1 setlinecap
1 setlinejoin
10.00 setmiterlimit
np
363.50 332.38 m
181.94 0 l
o
np
363.50 332.38 m
0 -7.20 l
o
np
408.99 332.38 m
0 -7.20 l
o
np
454.47 332.38 m
0 -7.20 l
o
np
499.96 332.38 m
0 -7.20 l
o
np
545.44 332.38 m
0 -7.20 l
o
/Font1 findfont 12 s
363.50 306.46 (0) .5 0 t
408.99 306.46 (200) .5 0 t
454.47 306.46 (400) .5 0 t
499.96 306.46 (600) .5 0 t
545.44 306.46 (800) .5 0 t
np
356.68 349.70 m
0 167.61 l
o
np
356.68 349.70 m
-7.20 0 l
o
np
356.68 383.22 m
-7.20 0 l
o
np
356.68 416.75 m
-7.20 0 l
o
np
356.68 450.27 m
-7.20 0 l
o
np
356.68 483.79 m
-7.20 0 l
o
np
356.68 517.31 m
-7.20 0 l
o
339.40 349.70 (-1000) .5 90 t
339.40 416.75 (-600) .5 90 t
339.40 483.79 (-200) .5 90 t
339.40 517.31 (0) .5 90 t
np
356.68 332.38 m
190.36 0 l
0 191.52 l
-190.36 0 l
0 -191.52 l
o
297.64 258.94 577.28 582.94 cl
/Font2 findfont 14 s
0 0 0 srgb
451.86 548.40 (tai75cD) .5 0 t
/Font1 findfont 12 s
451.86 263.26 (Requests time) .5 0 t
451.86 277.66 (Time) .5 0 t
310.60 428.14 (Requests) .5 90 t
ep
%%Page: 2 2
bp
77.04 332.38 267.40 523.90 cl
18.00 258.94 297.64 582.94 cl
/Font2 findfont 14 s
0 0 0 srgb
172.22 548.40 (tai75c) .5 0 t
/Font1 findfont 12 s
97.86 263.26 (Requests v) 0 ta
-0.300 (olume histogr) tb
-0.120 (am) tb gr
151.88 277.66 (V) 0 ta
-0.960 (olume) tb gr
30.96 387.46 (No) 90 ta
-0.480 (. of requests) tb gr
18.00 258.94 577.28 582.94 cl
0 0 0 srgb
0.75 setlinewidth
[] 0 setdash
1 setlinecap
1 setlinejoin
10.00 setmiterlimit
np
84.09 332.38 m
160.23 0 l
o
np
84.09 332.38 m
0 -7.20 l
o
np
116.14 332.38 m
0 -7.20 l
o
np
148.18 332.38 m
0 -7.20 l
o
np
180.23 332.38 m
0 -7.20 l
o
np
212.28 332.38 m
0 -7.20 l
o
np
244.32 332.38 m
0 -7.20 l
o
/Font1 findfont 12 s
84.09 306.46 (0) .5 0 t
116.14 306.46 (200) .5 0 t
148.18 306.46 (400) .5 0 t
180.23 306.46 (600) .5 0 t
212.28 306.46 (800) .5 0 t
np
77.04 339.48 m
0 173.85 l
o
np
77.04 339.48 m
-7.20 0 l
o
np
77.04 374.25 m
-7.20 0 l
o
np
77.04 409.02 m
-7.20 0 l
o
np
77.04 443.79 m
-7.20 0 l
o
np
77.04 478.56 m
-7.20 0 l
o
np
77.04 513.33 m
-7.20 0 l
o
59.76 339.48 (0) .5 90 t
59.76 374.25 (10) .5 90 t
59.76 409.02 (20) .5 90 t
59.76 443.79 (30) .5 90 t
59.76 478.56 (40) .5 90 t
59.76 513.33 (50) .5 90 t
77.04 332.38 267.40 523.90 cl
0 0 0 srgb
0.75 setlinewidth
[] 0 setdash
1 setlinecap
1 setlinejoin
10.00 setmiterlimit
84.09 339.48 16.02 177.33 r p1
100.11 339.48 16.02 38.25 r p1
116.14 339.48 16.02 13.91 r p1
132.16 339.48 16.02 10.43 r p1
148.18 339.48 16.02 3.48 r p1
164.21 339.48 16.02 3.48 r p1
180.23 339.48 16.02 3.48 r p1
196.25 339.48 16.02 3.48 r p1
212.28 339.48 16.02 3.48 r p1
228.30 339.48 16.02 0.00 r p1
244.32 339.48 16.02 3.48 r p1
ep
%%Page: 3 3
bp
77.04 332.38 267.40 523.90 cl
77.04 332.38 267.40 523.90 cl
0 0 0 srgb
0.75 setlinewidth
[] 0 setdash
1 setlinecap
1 setlinejoin
10.00 setmiterlimit
165.53 423.29 2.70 c p1
165.53 422.07 2.70 c p1
156.60 431.79 2.70 c p1
171.10 428.14 2.70 c p1
173.33 416.00 2.70 c p1
163.29 419.64 2.70 c p1
175.57 418.43 2.70 c p1
158.83 423.29 2.70 c p1
156.60 424.50 2.70 c p1
157.72 414.78 2.70 c p1
174.45 412.35 2.70 c p1
128.71 441.51 2.70 c p1
113.09 394.14 2.70 c p1
125.37 424.50 2.70 c p1
91.90 409.93 2.70 c p1
88.55 417.21 2.70 c p1
123.13 450.01 2.70 c p1
140.98 456.08 2.70 c p1
86.32 425.72 2.70 c p1
138.75 442.72 2.70 c p1
98.59 433.00 2.70 c p1
138.75 417.21 2.70 c p1
116.44 424.50 2.70 c p1
139.87 401.42 2.70 c p1
116.44 441.51 2.70 c p1
84.09 400.21 2.70 c p1
135.41 417.21 2.70 c p1
123.13 442.72 2.70 c p1
254.77 451.22 2.70 c p1
260.35 484.02 2.70 c p1
238.04 476.73 2.70 c p1
236.92 479.16 2.70 c p1
195.65 515.60 2.70 c p1
159.95 510.74 2.70 c p1
164.41 516.81 2.70 c p1
186.72 452.44 2.70 c p1
194.53 516.81 2.70 c p1
161.06 465.80 2.70 c p1
171.10 493.73 2.70 c p1
201.22 504.67 2.70 c p1
140.98 465.80 2.70 c p1
177.80 509.52 2.70 c p1
171.10 514.38 2.70 c p1
164.41 477.94 2.70 c p1
155.49 453.65 2.70 c p1
157.72 509.52 2.70 c p1
154.37 451.22 2.70 c p1
194.53 459.72 2.70 c p1
151.02 511.95 2.70 c p1
192.30 463.37 2.70 c p1
168.87 418.43 2.70 c p1
151.02 442.72 2.70 c p1
159.95 429.36 2.70 c p1
161.06 425.72 2.70 c p1
159.95 417.21 2.70 c p1
172.22 437.86 2.70 c p1
172.22 413.57 2.70 c p1
163.29 437.86 2.70 c p1
183.37 416.00 2.70 c p1
178.91 429.36 2.70 c p1
163.29 445.15 2.70 c p1
151.02 425.72 2.70 c p1
173.33 448.79 2.70 c p1
159.95 430.57 2.70 c p1
169.99 433.00 2.70 c p1
108.63 339.48 2.70 c p1
94.13 341.91 2.70 c p1
137.64 371.06 2.70 c p1
107.52 367.41 2.70 c p1
119.79 389.28 2.70 c p1
94.13 352.84 2.70 c p1
197.88 407.50 2.70 c p1
187.84 400.21 2.70 c p1
197.88 391.71 2.70 c p1
187.84 426.93 2.70 c p1
18.00 258.94 577.28 582.94 cl
0 0 0 srgb
0.75 setlinewidth
[] 0 setdash
1 setlinecap
1 setlinejoin
10.00 setmiterlimit
np
117.56 332.38 m
111.55 0 l
o
np
117.56 332.38 m
0 -7.20 l
o
np
173.33 332.38 m
0 -7.20 l
o
np
229.11 332.38 m
0 -7.20 l
o
/Font1 findfont 12 s
117.56 306.46 (-50) .5 0 t
173.33 306.46 (0) .5 0 t
229.11 306.46 (50) .5 0 t
np
77.04 351.62 m
0 121.47 l
o
np
77.04 351.62 m
-7.20 0 l
o
np
77.04 412.35 m
-7.20 0 l
o
np
77.04 473.09 m
-7.20 0 l
o
59.76 351.62 (-50) .5 90 t
59.76 412.35 (0) .5 90 t
59.76 473.09 (50) .5 90 t
np
77.04 332.38 m
190.36 0 l
0 191.52 l
-190.36 0 l
0 -191.52 l
o
18.00 258.94 297.64 582.94 cl
/Font2 findfont 14 s
0 0 0 srgb
172.22 548.40 (tai75cD_1) .5 0 t
/Font1 findfont 12 s
172.22 263.26 (Locations plot) .5 0 t
172.22 277.66 (X) .5 0 t
30.96 428.14 (Y) .5 90 t
356.68 332.38 547.04 523.90 cl
356.68 332.38 547.04 523.90 cl
0 0 0 srgb
0.75 setlinewidth
[] 0 setdash
1 setlinecap
1 setlinejoin
10.00 setmiterlimit
np
363.73 346.30 m
0 0 l
0 150.05 l
6.14 0 l
0 3.41 l
1.36 0 l
0 -129.59 l
2.05 0 l
0 13.64 l
2.27 0 l
0 37.51 l
1.60 0 l
0 44.34 l
1.59 0 l
0 -23.87 l
1.59 0 l
0 0 l
2.73 0 l
0 -81.85 l
0.23 0 l
0 -20.46 l
3.41 0 l
0 105.72 l
2.50 0 l
0 6.82 l
1.82 0 l
0 -23.88 l
5.46 0 l
0 -44.33 l
0.91 0 l
0 -13.64 l
0.45 0 l
0 129.59 l
2.50 0 l
0 -37.51 l
0.46 0 l
0 -102.31 l
4.09 0 l
0 133.00 l
2.05 0 l
0 -95.49 l
4.32 0 l
0 3.41 l
0.91 0 l
0 30.70 l
2.05 0 l
0 3.41 l
1.36 0 l
0 -3.41 l
2.50 0 l
0 -20.47 l
6.60 0 l
0 78.44 l
3.87 0 l
0 -37.51 l
0 0 l
0 -37.52 l
2.04 0 l
0 -23.87 l
0.23 0 l
0 -13.64 l
2.05 0 l
0 133.00 l
1.59 0 l
0 -109.13 l
1.36 0 l
0 -6.82 l
1.82 0 l
0 27.28 l
1.37 0 l
0 30.70 l
1.82 0 l
0 -68.21 l
0.91 0 l
0 -20.46 l
1.82 0 l
0 27.28 l
2.04 0 l
0 61.39 l
3.87 0 l
0 -6.82 l
2.05 0 l
0 -68.21 l
3.86 0 l
0 20.46 l
5.01 0 l
0 102.31 l
20.01 0 l
0 -30.69 l
0.91 0 l
0 -40.93 l
2.96 0 l
0 -34.10 l
2.50 0 l
0 122.77 l
1.13 0 l
0 -88.67 l
1.37 0 l
0 -54.56 l
0 0 l
489.27 434.97 lineto
0.23 0 l
0 -51.16 l
7.27 0 l
0 0 l
1.14 0 l
0 57.98 l
0 0 l
0 0 l
2.96 0 l
0 -3.41 l
1.13 0 l
0 17.05 l
1.14 0 l
0 51.15 l
0.23 0 l
0 -122.77 l
0.45 0 l
0 17.05 l
6.60 0 l
0 -17.05 l
0 0 l
0 -17.05 l
0.91 0 l
0 34.10 l
2.05 0 l
0 68.21 l
1.36 0 l
0 -68.21 l
0.68 0 l
0 -37.51 l
5.92 0 l
0 57.97 l
5.45 0 l
0 -3.41 l
0.91 0 l
0 75.03 l
0.69 0 l
0 -95.49 l
0.45 0 l
0 -3.41 l
6.82 0 l
0 -3.41 l
0.23 0 l
0 30.69 l
3.41 0 l
0 10.24 l
0.69 0 l
0 0 l
o
18.00 258.94 577.28 582.94 cl
0 0 0 srgb
0.75 setlinewidth
[] 0 setdash
1 setlinecap
1 setlinejoin
10.00 setmiterlimit
np
363.50 332.38 m
181.94 0 l
o
np
363.50 332.38 m
0 -7.20 l
o
np
408.99 332.38 m
0 -7.20 l
o
np
454.47 332.38 m
0 -7.20 l
o
np
499.96 332.38 m
0 -7.20 l
o
np
545.44 332.38 m
0 -7.20 l
o
/Font1 findfont 12 s
363.50 306.46 (0) .5 0 t
408.99 306.46 (200) .5 0 t
454.47 306.46 (400) .5 0 t
499.96 306.46 (600) .5 0 t
545.44 306.46 (800) .5 0 t
np
356.68 342.89 m
0 170.51 l
o
np
356.68 342.89 m
-7.20 0 l
o
np
356.68 376.99 m
-7.20 0 l
o
np
356.68 411.09 m
-7.20 0 l
o
np
356.68 445.20 m
-7.20 0 l
o
np
356.68 479.30 m
-7.20 0 l
o
np
356.68 513.40 m
-7.20 0 l
o
339.40 342.89 (-150) .5 90 t
339.40 411.09 (-130) .5 90 t
339.40 479.30 (-110) .5 90 t
np
356.68 332.38 m
190.36 0 l
0 191.52 l
-190.36 0 l
0 -191.52 l
o
297.64 258.94 577.28 582.94 cl
/Font2 findfont 14 s
0 0 0 srgb
451.86 548.40 (tai75cD_12) .5 0 t
/Font1 findfont 12 s
451.86 263.26 (Requests time) .5 0 t
451.86 277.66 (Time) .5 0 t
310.60 428.14 (Requests) .5 90 t
ep
%%Page: 4 4
bp
77.04 332.38 267.40 523.90 cl
18.00 258.94 297.64 582.94 cl
/Font2 findfont 14 s
0 0 0 srgb
172.22 548.40 (tai75cD_1) .5 0 t
/Font1 findfont 12 s
97.86 263.26 (Requests v) 0 ta
-0.300 (olume histogr) tb
-0.120 (am) tb gr
151.88 277.66 (V) 0 ta
-0.960 (olume) tb gr
30.96 387.46 (No) 90 ta
-0.480 (. of requests) tb gr
18.00 258.94 577.28 582.94 cl
0 0 0 srgb
0.75 setlinewidth
[] 0 setdash
1 setlinecap
1 setlinejoin
10.00 setmiterlimit
np
98.78 332.38 m
146.88 0 l
o
np
98.78 332.38 m
0 -7.20 l
o
np
128.15 332.38 m
0 -7.20 l
o
np
157.53 332.38 m
0 -7.20 l
o
np
186.91 332.38 m
0 -7.20 l
o
np
216.28 332.38 m
0 -7.20 l
o
np
245.66 332.38 m
0 -7.20 l
o
/Font1 findfont 12 s
98.78 306.46 (100) .5 0 t
157.53 306.46 (120) .5 0 t
216.28 306.46 (140) .5 0 t
np
77.04 339.48 m
0 177.33 l
o
np
77.04 339.48 m
-7.20 0 l
o
np
77.04 364.81 m
-7.20 0 l
o
np
77.04 390.14 m
-7.20 0 l
o
np
77.04 415.48 m
-7.20 0 l
o
np
77.04 440.81 m
-7.20 0 l
o
np
77.04 466.14 m
-7.20 0 l
o
np
77.04 491.48 m
-7.20 0 l
o
np
77.04 516.81 m
-7.20 0 l
o
59.76 339.48 (0) .5 90 t
59.76 364.81 (2) .5 90 t
59.76 390.14 (4) .5 90 t
59.76 415.48 (6) .5 90 t
59.76 440.81 (8) .5 90 t
59.76 466.14 (10) .5 90 t
59.76 491.48 (12) .5 90 t
59.76 516.81 (14) .5 90 t
77.04 332.38 267.40 523.90 cl
0 0 0 srgb
0.75 setlinewidth
[] 0 setdash
1 setlinecap
1 setlinejoin
10.00 setmiterlimit
84.09 339.48 14.69 12.67 r p1
98.78 339.48 14.69 76.00 r p1
113.47 339.48 14.69 38.00 r p1
128.15 339.48 14.69 50.67 r p1
142.84 339.48 14.69 88.67 r p1
157.53 339.48 14.69 177.33 r p1
172.22 339.48 14.69 88.67 r p1
186.91 339.48 14.69 139.33 r p1
201.60 339.48 14.69 152.00 r p1
216.28 339.48 14.69 101.33 r p1
230.97 339.48 14.69 12.67 r p1
245.66 339.48 14.69 12.67 r p1
356.68 332.38 547.04 523.90 cl
ep
%%Trailer
%%Pages: 4
%%EOF
