%!PS-Adobe-3.0
%%DocumentNeededResources: font Helvetica
%%+ font Helvetica-Bold
%%+ font Helvetica-Oblique
%%+ font Helvetica-BoldOblique
%%+ font Symbol
%%DocumentMedia: a4 595 841 0 () ()
%%Title: R Graphics Output
%%Creator: R Software
%%Pages: (atend)
%%Orientation: Portrait
%%BoundingBox: 18 259 577 583
%%EndComments
%%BeginProlog
/bp  { gs sRGB gs } def
% begin .ps.prolog
/gs  { gsave } bind def
/gr  { grestore } bind def
/ep  { showpage gr gr } bind def
/m   { moveto } bind def
/l  { rlineto } bind def
/np  { newpath } bind def
/cp  { closepath } bind def
/f   { fill } bind def
/o   { stroke } bind def
/c   { newpath 0 360 arc } bind def
/r   { 4 2 roll moveto 1 copy 3 -1 roll exch 0 exch rlineto 0 rlineto -1 mul 0 exch rlineto closepath } bind def
/p1  { stroke } bind def
/p2  { gsave bg fill grestore newpath } bind def
/p3  { gsave bg fill grestore stroke } bind def
/p6  { gsave bg eofill grestore newpath } bind def
/p7  { gsave bg eofill grestore stroke } bind def
/t   { 5 -2 roll moveto gsave rotate
       1 index stringwidth pop
       mul neg 0 rmoveto show grestore } bind def
/ta  { 4 -2 roll moveto gsave rotate show } bind def
/tb  { 2 -1 roll 0 rmoveto show } bind def
/cl  { grestore gsave newpath 3 index 3 index moveto 1 index
       4 -1 roll lineto  exch 1 index lineto lineto
       closepath clip newpath } bind def
/rgb { setrgbcolor } bind def
/s   { scalefont setfont } bind def
% end   .ps.prolog
/sRGB { [ /CIEBasedABC
          << /DecodeLMN
               [ { dup 0.03928 le
                        {12.92321 div}
                        {0.055 add 1.055 div 2.4 exp }
                     ifelse
                 } bind dup dup
               ]
             /MatrixLMN [0.412457 0.212673 0.019334
                         0.357576 0.715152 0.119192
                         0.180437 0.072175 0.950301]
             /WhitePoint [0.9505 1.0 1.0890]
           >>
         ] setcolorspace } bind def
/srgb { setcolor } bind def
% begin encoding
/WinAnsiEncoding [
 /.notdef /.notdef /.notdef /.notdef /.notdef /.notdef /.notdef /.notdef
 /.notdef /.notdef /.notdef /.notdef /.notdef /.notdef /.notdef /.notdef
 /.notdef /.notdef /.notdef /.notdef /.notdef /.notdef /.notdef /.notdef
 /.notdef /.notdef /.notdef /.notdef /.notdef /.notdef /.notdef /.notdef
 /space /exclam /quotedbl /numbersign /dollar /percent /ampersand /quoteright
 /parenleft /parenright /asterisk /plus /comma /minus /period /slash
 /zero /one /two /three /four /five /six /seven
 /eight /nine /colon /semicolon /less /equal /greater /question
 /at /A /B /C /D /E /F /G
 /H /I /J /K /L /M /N /O
 /P /Q /R /S /T /U /V /W
 /X /Y /Z /bracketleft /backslash /bracketright /asciicircum /underscore
 /grave /a /b /c /d /e /f /g
 /h /i /j /k /l /m /n /o
 /p /q /r /s /t /u /v /w
 /x /y /z /braceleft /bar /braceright /asciitilde /.notdef
 /Euro /.notdef /quotesinglbase /florin /quotedblbase /ellipsis /dagger /daggerdbl
 /circumflex /perthousand /Scaron /guilsinglleft /OE /.notdef /Zcaron /.notdef
 /.notdef /quoteleft /quoteright /quotedblleft /quotedblright /bullet /endash /emdash
 /tilde /trademark /scaron /guilsinglright /oe /.notdef /zcaron /Ydieresis
 /space /exclamdown /cent /sterling /currency /yen /brokenbar /section
 /dieresis /copyright /ordfeminine /guillemotleft /logicalnot /hyphen /registered /macron
 /degree /plusminus /twosuperior /threesuperior /acute /mu /paragraph /periodcentered
 /cedilla /onesuperior /ordmasculine /guillemotright /onequarter /onehalf /threequarters /questiondown
 /Agrave /Aacute /Acircumflex /Atilde /Adieresis /Aring /AE /Ccedilla
 /Egrave /Eacute /Ecircumflex /Edieresis /Igrave /Iacute /Icircumflex /Idieresis
 /Eth /Ntilde /Ograve /Oacute /Ocircumflex /Otilde /Odieresis /multiply
 /Oslash /Ugrave /Uacute /Ucircumflex /Udieresis /Yacute /Thorn /germandbls
 /agrave /aacute /acircumflex /atilde /adieresis /aring /ae /ccedilla
 /egrave /eacute /ecircumflex /edieresis /igrave /iacute /icircumflex /idieresis
 /eth /ntilde /ograve /oacute /ocircumflex /otilde /odieresis /divide
 /oslash /ugrave /uacute /ucircumflex /udieresis /yacute /thorn /ydieresis
]
 def
% end encoding
%%IncludeResource: font Helvetica
/Helvetica findfont
dup length dict begin
  {1 index /FID ne {def} {pop pop} ifelse} forall
  /Encoding WinAnsiEncoding def
  currentdict
  end
/Font1 exch definefont pop
%%IncludeResource: font Helvetica-Bold
/Helvetica-Bold findfont
dup length dict begin
  {1 index /FID ne {def} {pop pop} ifelse} forall
  /Encoding WinAnsiEncoding def
  currentdict
  end
/Font2 exch definefont pop
%%IncludeResource: font Helvetica-Oblique
/Helvetica-Oblique findfont
dup length dict begin
  {1 index /FID ne {def} {pop pop} ifelse} forall
  /Encoding WinAnsiEncoding def
  currentdict
  end
/Font3 exch definefont pop
%%IncludeResource: font Helvetica-BoldOblique
/Helvetica-BoldOblique findfont
dup length dict begin
  {1 index /FID ne {def} {pop pop} ifelse} forall
  /Encoding WinAnsiEncoding def
  currentdict
  end
/Font4 exch definefont pop
%%IncludeResource: font Symbol
/Symbol findfont
dup length dict begin
  {1 index /FID ne {def} {pop pop} ifelse} forall
  currentdict
  end
/Font5 exch definefont pop
%%EndProlog
%%Page: 1 1
bp
77.04 332.38 267.40 523.90 cl
0 0 0 srgb
0.75 setlinewidth
[] 0 setdash
1 setlinecap
1 setlinejoin
10.00 setmiterlimit
260.35 403.32 2.70 c p1
242.50 401.90 2.70 c p1
253.65 413.25 2.70 c p1
252.54 404.74 2.70 c p1
245.85 406.16 2.70 c p1
246.96 416.09 2.70 c p1
248.08 420.34 2.70 c p1
259.23 413.25 2.70 c p1
258.12 401.90 2.70 c p1
255.89 401.90 2.70 c p1
241.38 414.67 2.70 c p1
216.84 458.65 2.70 c p1
188.95 475.67 2.70 c p1
202.34 479.93 2.70 c p1
205.69 488.44 2.70 c p1
187.84 465.74 2.70 c p1
220.19 458.65 2.70 c p1
196.76 484.18 2.70 c p1
196.76 465.74 2.70 c p1
195.65 461.48 2.70 c p1
193.41 457.23 2.70 c p1
203.45 461.48 2.70 c p1
194.53 457.23 2.70 c p1
213.49 468.58 2.70 c p1
95.25 482.76 2.70 c p1
103.05 499.79 2.70 c p1
100.82 479.93 2.70 c p1
99.71 465.74 2.70 c p1
95.25 485.60 2.70 c p1
117.56 484.18 2.70 c p1
95.25 471.41 2.70 c p1
113.09 494.11 2.70 c p1
104.17 516.81 2.70 c p1
125.37 481.34 2.70 c p1
110.86 475.67 2.70 c p1
105.29 515.39 2.70 c p1
126.48 477.09 2.70 c p1
124.25 516.81 2.70 c p1
84.09 492.69 2.70 c p1
138.75 414.67 2.70 c p1
130.94 426.02 2.70 c p1
130.94 433.11 2.70 c p1
129.83 433.11 2.70 c p1
126.48 413.25 2.70 c p1
128.71 430.27 2.70 c p1
128.71 414.67 2.70 c p1
138.75 416.09 2.70 c p1
135.41 423.18 2.70 c p1
127.60 411.83 2.70 c p1
129.83 421.76 2.70 c p1
125.37 431.69 2.70 c p1
128.71 411.83 2.70 c p1
128.71 414.67 2.70 c p1
133.17 430.27 2.70 c p1
129.83 417.50 2.70 c p1
128.71 420.34 2.70 c p1
137.64 427.44 2.70 c p1
139.87 424.60 2.70 c p1
126.48 430.27 2.70 c p1
229.11 342.32 2.70 c p1
244.73 355.08 2.70 c p1
243.61 342.32 2.70 c p1
248.08 339.48 2.70 c p1
229.11 339.48 2.70 c p1
232.46 339.48 2.70 c p1
229.11 352.25 2.70 c p1
241.38 350.83 2.70 c p1
232.46 345.15 2.70 c p1
230.23 340.90 2.70 c p1
225.77 455.81 2.70 c p1
215.73 450.13 2.70 c p1
217.96 445.88 2.70 c p1
228.00 441.62 2.70 c p1
220.19 447.30 2.70 c p1
226.88 455.81 2.70 c p1
18.00 258.94 577.28 582.94 cl
0 0 0 srgb
0.75 setlinewidth
[] 0 setdash
1 setlinecap
1 setlinejoin
10.00 setmiterlimit
np
107.52 332.38 m
111.55 0 l
o
np
107.52 332.38 m
0 -7.20 l
o
np
163.29 332.38 m
0 -7.20 l
o
np
219.07 332.38 m
0 -7.20 l
o
/Font1 findfont 12 s
107.52 306.46 (-50) .5 0 t
163.29 306.46 (0) .5 0 t
219.07 306.46 (50) .5 0 t
np
77.04 343.73 m
0 170.24 l
o
np
77.04 343.73 m
-7.20 0 l
o
np
77.04 372.11 m
-7.20 0 l
o
np
77.04 400.48 m
-7.20 0 l
o
np
77.04 428.85 m
-7.20 0 l
o
np
77.04 457.23 m
-7.20 0 l
o
np
77.04 485.60 m
-7.20 0 l
o
np
77.04 513.97 m
-7.20 0 l
o
59.76 343.73 (-60) .5 90 t
59.76 400.48 (-20) .5 90 t
59.76 428.85 (0) .5 90 t
59.76 457.23 (20) .5 90 t
59.76 485.60 (40) .5 90 t
59.76 513.97 (60) .5 90 t
np
77.04 332.38 m
190.36 0 l
0 191.52 l
-190.36 0 l
0 -191.52 l
o
18.00 258.94 297.64 582.94 cl
/Font2 findfont 14 s
0 0 0 srgb
172.22 548.40 (tai75d) .5 0 t
/Font1 findfont 12 s
172.22 263.26 (Locations plot) .5 0 t
172.22 277.66 (X) .5 0 t
30.96 428.14 (Y) .5 90 t
356.68 332.38 547.04 523.90 cl
356.68 332.38 547.04 523.90 cl
0 0 0 srgb
0.75 setlinewidth
[] 0 setdash
1 setlinecap
1 setlinejoin
10.00 setmiterlimit
np
363.73 403.43 m
2.03 0 l
0 3.72 l
1.35 0 l
0 -18.60 l
0.22 0 l
0 119.94 l
0.46 0 l
0 -32.78 l
3.15 0 l
0 36.32 l
5.86 0 l
0 4.43 l
6.54 0 l
0 -6.73 l
2.03 0 l
0 -62.90 l
9.24 0 l
0 56.16 l
3.15 0 l
0 11.87 l
4.74 0 l
0 -27.81 l
2.93 0 l
0 -6.73 l
11.04 0 l
0 33.48 l
1.35 0 l
0 1.24 l
0.45 0 l
0 -14.17 l
0 0 l
0 13.64 l
1.58 0 l
0 2.30 l
4.51 0 l
0 -68.74 l
4.51 0 l
0 60.06 l
1.12 0 l
0 -151.11 l
1.58 0 l
0 150.40 l
1.35 0 l
0 -26.04 l
2.26 0 l
0 20.55 l
4.28 0 l
0 -162.45 l
6.76 0 l
0 157.67 l
0.45 0 l
0 -73.17 l
0.23 0 l
0 92.65 l
4.73 0 l
0 -4.25 l
0.68 0 l
0 -11.69 l
1.12 0 l
0 15.24 l
1.13 0 l
0 -23.21 l
2.26 0 l
0 17.36 l
2.47 0 l
0 6.02 l
3.39 0 l
0 -85.56 l
1.35 0 l
0 86.27 l
2.70 0 l
0 -12.75 l
0.90 0 l
0 5.31 l
2.93 0 l
0 7.44 l
2.48 0 l
0 -72.10 l
1.36 0 l
0 64.84 l
0.45 0 l
0 -112.32 l
3.83 0 l
0 115.86 l
0.67 0 l
0 2.48 l
0.68 0 l
0 -0.35 l
4.51 0 l
0 -45.35 l
3.15 0 l
0 46.23 l
1.81 0 l
0 -7.79 l
1.80 0 l
0 -70.33 l
0.23 0 l
0 -1.95 l
0.22 0 l
491.75 516.63 lineto
0.68 0 l
0 -2.83 l
1.80 0 l
0 -69.62 l
2.25 0 l
0 -45.71 l
3.61 0 l
0 84.33 l
0.23 0 l
0 31.71 l
4.05 0 l
0 -118.16 l
0 0 l
0 120.28 l
0 0 l
0 -6.90 l
3.83 0 l
0 -0.36 l
0.91 0 l
0 -3.01 l
0 0 l
0 8.50 l
5.41 0 l
0 -10.98 l
0.22 0 l
0 -4.43 l
1.58 0 l
0 -131.98 l
3.61 0 l
0 122.06 l
2.02 0 l
0 27.28 l
1.36 0 l
0 -1.77 l
2.25 0 l
0 -68.03 l
0.23 0 l
0 66.26 l
2.02 0 l
0 -11.34 l
2.71 0 l
0 14.35 l
1.58 0 l
0 0.53 l
1.57 0 l
0 0 l
6.32 0 l
0 -40.21 l
o
18.00 258.94 577.28 582.94 cl
0 0 0 srgb
0.75 setlinewidth
[] 0 setdash
1 setlinecap
1 setlinejoin
10.00 setmiterlimit
np
362.60 332.38 m
180.32 0 l
o
np
362.60 332.38 m
0 -7.20 l
o
np
407.68 332.38 m
0 -7.20 l
o
np
452.76 332.38 m
0 -7.20 l
o
np
497.84 332.38 m
0 -7.20 l
o
np
542.92 332.38 m
0 -7.20 l
o
/Font1 findfont 12 s
362.60 306.46 (0) .5 0 t
407.68 306.46 (200) .5 0 t
452.76 306.46 (400) .5 0 t
497.84 306.46 (600) .5 0 t
542.92 306.46 (800) .5 0 t
np
356.68 340.19 m
0 177.15 l
o
np
356.68 340.19 m
-7.20 0 l
o
np
356.68 375.62 m
-7.20 0 l
o
np
356.68 411.05 m
-7.20 0 l
o
np
356.68 446.48 m
-7.20 0 l
o
np
356.68 481.91 m
-7.20 0 l
o
np
356.68 517.34 m
-7.20 0 l
o
339.40 340.19 (-1000) .5 90 t
339.40 411.05 (-600) .5 90 t
339.40 481.91 (-200) .5 90 t
339.40 517.34 (0) .5 90 t
np
356.68 332.38 m
190.36 0 l
0 191.52 l
-190.36 0 l
0 -191.52 l
o
297.64 258.94 577.28 582.94 cl
/Font2 findfont 14 s
0 0 0 srgb
451.86 548.40 (tai75dD) .5 0 t
/Font1 findfont 12 s
451.86 263.26 (Requests time) .5 0 t
451.86 277.66 (Time) .5 0 t
310.60 428.14 (Requests) .5 90 t
ep
%%Page: 2 2
bp
77.04 332.38 267.40 523.90 cl
18.00 258.94 297.64 582.94 cl
/Font2 findfont 14 s
0 0 0 srgb
172.22 548.40 (tai75d) .5 0 t
/Font1 findfont 12 s
97.86 263.26 (Requests v) 0 ta
-0.300 (olume histogr) tb
-0.120 (am) tb gr
151.88 277.66 (V) 0 ta
-0.960 (olume) tb gr
30.96 387.46 (No) 90 ta
-0.480 (. of requests) tb gr
18.00 258.94 577.28 582.94 cl
0 0 0 srgb
0.75 setlinewidth
[] 0 setdash
1 setlinecap
1 setlinejoin
10.00 setmiterlimit
np
84.09 332.38 m
160.23 0 l
o
np
84.09 332.38 m
0 -7.20 l
o
np
116.14 332.38 m
0 -7.20 l
o
np
148.18 332.38 m
0 -7.20 l
o
np
180.23 332.38 m
0 -7.20 l
o
np
212.28 332.38 m
0 -7.20 l
o
np
244.32 332.38 m
0 -7.20 l
o
/Font1 findfont 12 s
84.09 306.46 (0) .5 0 t
116.14 306.46 (200) .5 0 t
148.18 306.46 (400) .5 0 t
180.23 306.46 (600) .5 0 t
212.28 306.46 (800) .5 0 t
np
77.04 339.48 m
0 154.20 l
o
np
77.04 339.48 m
-7.20 0 l
o
np
77.04 378.03 m
-7.20 0 l
o
np
77.04 416.58 m
-7.20 0 l
o
np
77.04 455.13 m
-7.20 0 l
o
np
77.04 493.68 m
-7.20 0 l
o
59.76 339.48 (0) .5 90 t
59.76 378.03 (10) .5 90 t
59.76 416.58 (20) .5 90 t
59.76 455.13 (30) .5 90 t
59.76 493.68 (40) .5 90 t
77.04 332.38 267.40 523.90 cl
0 0 0 srgb
0.75 setlinewidth
[] 0 setdash
1 setlinecap
1 setlinejoin
10.00 setmiterlimit
84.09 339.48 16.02 177.33 r p1
100.11 339.48 16.02 23.13 r p1
116.14 339.48 16.02 19.28 r p1
132.16 339.48 16.02 11.57 r p1
148.18 339.48 16.02 19.28 r p1
164.21 339.48 16.02 3.86 r p1
180.23 339.48 16.02 19.28 r p1
196.25 339.48 16.02 3.86 r p1
212.28 339.48 16.02 3.86 r p1
228.30 339.48 16.02 3.86 r p1
244.32 339.48 16.02 3.86 r p1
ep
%%Page: 3 3
bp
77.04 332.38 267.40 523.90 cl
77.04 332.38 267.40 523.90 cl
0 0 0 srgb
0.75 setlinewidth
[] 0 setdash
1 setlinecap
1 setlinejoin
10.00 setmiterlimit
167.58 479.13 2.70 c p1
167.58 483.56 2.70 c p1
162.01 474.69 2.70 c p1
162.01 479.13 2.70 c p1
162.01 472.48 2.70 c p1
158.30 481.34 2.70 c p1
158.30 474.69 2.70 c p1
154.59 479.13 2.70 c p1
154.59 483.56 2.70 c p1
149.03 474.69 2.70 c p1
149.03 481.34 2.70 c p1
130.47 516.81 2.70 c p1
124.91 494.64 2.70 c p1
124.91 516.81 2.70 c p1
121.20 505.73 2.70 c p1
121.20 516.81 2.70 c p1
117.49 494.64 2.70 c p1
111.92 494.64 2.70 c p1
111.92 505.73 2.70 c p1
139.75 439.23 2.70 c p1
139.75 443.66 2.70 c p1
136.04 443.66 2.70 c p1
136.04 450.31 2.70 c p1
130.47 439.23 2.70 c p1
130.47 443.66 2.70 c p1
130.47 450.31 2.70 c p1
126.76 443.66 2.70 c p1
126.76 450.31 2.70 c p1
121.20 439.23 2.70 c p1
121.20 450.31 2.70 c p1
102.64 405.98 2.70 c p1
102.64 417.06 2.70 c p1
98.93 417.06 2.70 c p1
98.93 428.14 2.70 c p1
93.37 405.98 2.70 c p1
93.37 428.14 2.70 c p1
87.80 417.06 2.70 c p1
84.09 417.06 2.70 c p1
84.09 428.14 2.70 c p1
149.03 394.89 2.70 c p1
149.03 399.33 2.70 c p1
145.32 399.33 2.70 c p1
145.32 405.98 2.70 c p1
143.46 394.89 2.70 c p1
139.75 394.89 2.70 c p1
139.75 399.33 2.70 c p1
139.75 405.98 2.70 c p1
136.04 394.89 2.70 c p1
136.04 405.98 2.70 c p1
132.33 399.33 2.70 c p1
130.47 394.89 2.70 c p1
130.47 405.98 2.70 c p1
165.73 339.48 2.70 c p1
162.01 350.56 2.70 c p1
162.01 361.64 2.70 c p1
158.30 339.48 2.70 c p1
158.30 361.64 2.70 c p1
154.59 339.48 2.70 c p1
154.59 361.64 2.70 c p1
149.03 339.48 2.70 c p1
176.86 394.89 2.70 c p1
176.86 405.98 2.70 c p1
176.86 417.06 2.70 c p1
173.15 394.89 2.70 c p1
173.15 417.06 2.70 c p1
171.29 405.98 2.70 c p1
171.29 417.06 2.70 c p1
167.58 394.89 2.70 c p1
167.58 405.98 2.70 c p1
260.35 394.89 2.70 c p1
260.35 405.98 2.70 c p1
182.42 394.89 2.70 c p1
254.78 394.89 2.70 c p1
182.42 405.98 2.70 c p1
167.58 472.48 2.70 c p1
251.07 405.98 2.70 c p1
247.36 394.89 2.70 c p1
247.36 405.98 2.70 c p1
245.50 394.89 2.70 c p1
241.79 383.81 2.70 c p1
241.79 405.98 2.70 c p1
223.24 450.31 2.70 c p1
217.67 450.31 2.70 c p1
213.96 456.96 2.70 c p1
210.25 461.39 2.70 c p1
206.54 450.31 2.70 c p1
204.69 450.31 2.70 c p1
204.69 461.39 2.70 c p1
200.98 456.96 2.70 c p1
195.41 450.31 2.70 c p1
195.41 461.39 2.70 c p1
208.40 516.81 2.70 c p1
204.69 516.81 2.70 c p1
204.69 510.16 2.70 c p1
199.12 505.73 2.70 c p1
195.41 505.73 2.70 c p1
195.41 516.81 2.70 c p1
191.70 494.64 2.70 c p1
186.13 505.73 2.70 c p1
186.13 516.81 2.70 c p1
18.00 258.94 577.28 582.94 cl
0 0 0 srgb
0.75 setlinewidth
[] 0 setdash
1 setlinecap
1 setlinejoin
10.00 setmiterlimit
np
84.09 332.38 m
148.43 0 l
o
np
84.09 332.38 m
0 -7.20 l
o
np
121.20 332.38 m
0 -7.20 l
o
np
158.30 332.38 m
0 -7.20 l
o
np
195.41 332.38 m
0 -7.20 l
o
np
232.52 332.38 m
0 -7.20 l
o
/Font1 findfont 12 s
84.09 306.46 (0) .5 0 t
121.20 306.46 (20) .5 0 t
158.30 306.46 (40) .5 0 t
195.41 306.46 (60) .5 0 t
232.52 306.46 (80) .5 0 t
np
77.04 372.73 m
0 133.00 l
o
np
77.04 372.73 m
-7.20 0 l
o
np
77.04 417.06 m
-7.20 0 l
o
np
77.04 461.39 m
-7.20 0 l
o
np
77.04 505.73 m
-7.20 0 l
o
59.76 372.73 (20) .5 90 t
59.76 417.06 (40) .5 90 t
59.76 461.39 (60) .5 90 t
59.76 505.73 (80) .5 90 t
np
77.04 332.38 m
190.36 0 l
0 191.52 l
-190.36 0 l
0 -191.52 l
o
18.00 258.94 297.64 582.94 cl
/Font2 findfont 14 s
0 0 0 srgb
172.22 548.40 (c100b) .5 0 t
/Font1 findfont 12 s
172.22 263.26 (Locations plot) .5 0 t
172.22 277.66 (X) .5 0 t
30.96 428.14 (Y) .5 90 t
356.68 332.38 547.04 523.90 cl
356.68 332.38 547.04 523.90 cl
0 0 0 srgb
0.75 setlinewidth
[] 0 setdash
1 setlinecap
1 setlinejoin
10.00 setmiterlimit
np
363.73 516.81 m
3.63 0 l
0 -88.67 l
0 0 l
0 88.67 l
2.82 0 l
0 0 l
0.81 0 l
0 0 l
2.01 0 l
0 -44.33 l
3.23 0 l
0 0 l
3.63 0 l
0 0 l
2.42 0 l
0 44.33 l
3.23 0 l
0 0 l
0 0 l
0 0 l
0.80 0 l
0 -44.33 l
3.63 0 l
0 -44.34 l
0 0 l
0 88.67 l
0.81 0 l
0 -133.00 l
0 0 l
0 0 l
0.40 0 l
0 88.67 l
2.02 0 l
0 0 l
0 0 l
0 44.33 l
4.44 0 l
0 0 l
0.80 0 l
0 -44.33 l
0 0 l
0 0 l
3.63 0 l
0 44.33 l
0 0 l
0 0 l
0.41 0 l
0 -133.00 l
0.80 0 l
0 133.00 l
2.02 0 l
0 0 l
2.02 0 l
0 -44.33 l
0 0 l
0 44.33 l
1.61 0 l
0 0 l
2.42 0 l
0 -44.33 l
1.61 0 l
0 -44.34 l
0 0 l
0 -44.33 l
1.21 0 l
0 88.67 l
1.21 0 l
0 44.33 l
1.62 0 l
0 0 l
2.42 0 l
0 -44.33 l
2.01 0 l
0 -44.34 l
1.21 0 l
0 44.34 l
6.86 0 l
0 44.33 l
2.82 0 l
0 0 l
0.41 0 l
0 -44.33 l
0.40 0 l
0 44.33 l
0 0 l
0 0 l
2.42 0 l
0 0 l
2.82 0 l
0 -88.67 l
0.41 0 l
0 88.67 l
0.40 0 l
0 0 l
0.81 0 l
0 0 l
2.01 0 l
0 0 l
0 0 l
441.97 516.81 lineto
0 0 l
0 0 l
1.21 0 l
0 -44.33 l
0.81 0 l
0 -88.67 l
1.62 0 l
0 133.00 l
0 0 l
0 -88.67 l
0.40 0 l
0 -44.33 l
0.40 0 l
0 44.33 l
4.04 0 l
0 88.67 l
10.48 0 l
0 -44.33 l
4.04 0 l
0 44.33 l
0.40 0 l
0 -44.33 l
0.81 0 l
0 -133.00 l
3.63 0 l
0 177.33 l
0.80 0 l
0 0 l
1.62 0 l
0 0 l
5.64 0 l
0 0 l
3.63 0 l
0 0 l
0.41 0 l
0 0 l
3.63 0 l
0 -88.67 l
0.40 0 l
0 44.34 l
2.02 0 l
0 44.33 l
1.61 0 l
0 0 l
1.21 0 l
0 -177.33 l
2.02 0 l
0 133.00 l
2.01 0 l
0 44.33 l
3.63 0 l
0 0 l
0 0 l
0 -44.33 l
0.41 0 l
0 44.33 l
1.61 0 l
0 0 l
1.61 0 l
0 -88.67 l
0.81 0 l
0 44.34 l
0.81 0 l
0 44.33 l
0.80 0 l
0 -44.33 l
3.63 0 l
0 -44.34 l
1.21 0 l
0 88.67 l
3.23 0 l
0 -44.33 l
1.21 0 l
0 -44.34 l
1.61 0 l
0 88.67 l
1.62 0 l
0 0 l
1.21 0 l
0 0 l
0.40 0 l
0 -44.33 l
9.68 0 l
0 -88.67 l
4.44 0 l
0 133.00 l
0 0 l
0 -88.67 l
0.80 0 l
0 88.67 l
0.41 0 l
0 -88.67 l
4.03 0 l
0 44.34 l
1.61 0 l
0 44.33 l
0.41 0 l
0 -44.33 l
o
18.00 258.94 577.28 582.94 cl
0 0 0 srgb
0.75 setlinewidth
[] 0 setdash
1 setlinecap
1 setlinejoin
10.00 setmiterlimit
np
362.92 332.38 m
161.34 0 l
o
np
362.92 332.38 m
0 -7.20 l
o
np
403.25 332.38 m
0 -7.20 l
o
np
443.59 332.38 m
0 -7.20 l
o
np
483.92 332.38 m
0 -7.20 l
o
np
524.26 332.38 m
0 -7.20 l
o
/Font1 findfont 12 s
362.92 306.46 (0) .5 0 t
403.25 306.46 (100) .5 0 t
443.59 306.46 (200) .5 0 t
483.92 306.46 (300) .5 0 t
524.26 306.46 (400) .5 0 t
np
356.68 339.48 m
0 177.33 l
o
np
356.68 339.48 m
-7.20 0 l
o
np
356.68 383.81 m
-7.20 0 l
o
np
356.68 428.14 m
-7.20 0 l
o
np
356.68 472.48 m
-7.20 0 l
o
np
356.68 516.81 m
-7.20 0 l
o
339.40 339.48 (-50) .5 90 t
339.40 383.81 (-40) .5 90 t
339.40 428.14 (-30) .5 90 t
339.40 472.48 (-20) .5 90 t
339.40 516.81 (-10) .5 90 t
np
356.68 332.38 m
190.36 0 l
0 191.52 l
-190.36 0 l
0 -191.52 l
o
297.64 258.94 577.28 582.94 cl
/Font2 findfont 14 s
0 0 0 srgb
451.86 548.40 (c100bD) .5 0 t
/Font1 findfont 12 s
451.86 263.26 (Requests time) .5 0 t
451.86 277.66 (Time) .5 0 t
310.60 428.14 (Requests) .5 90 t
ep
%%Page: 4 4
bp
77.04 332.38 267.40 523.90 cl
18.00 258.94 297.64 582.94 cl
/Font2 findfont 14 s
0 0 0 srgb
172.22 548.40 (c100b) .5 0 t
/Font1 findfont 12 s
97.86 263.26 (Requests v) 0 ta
-0.300 (olume histogr) tb
-0.120 (am) tb gr
151.88 277.66 (V) 0 ta
-0.960 (olume) tb gr
30.96 387.46 (No) 90 ta
-0.480 (. of requests) tb gr
18.00 258.94 577.28 582.94 cl
0 0 0 srgb
0.75 setlinewidth
[] 0 setdash
1 setlinecap
1 setlinejoin
10.00 setmiterlimit
np
84.09 332.38 m
176.26 0 l
o
np
84.09 332.38 m
0 -7.20 l
o
np
128.15 332.38 m
0 -7.20 l
o
np
172.22 332.38 m
0 -7.20 l
o
np
216.28 332.38 m
0 -7.20 l
o
np
260.35 332.38 m
0 -7.20 l
o
/Font1 findfont 12 s
84.09 306.46 (10) .5 0 t
128.15 306.46 (20) .5 0 t
172.22 306.46 (30) .5 0 t
216.28 306.46 (40) .5 0 t
260.35 306.46 (50) .5 0 t
np
77.04 339.48 m
0 170.51 l
o
np
77.04 339.48 m
-7.20 0 l
o
np
77.04 373.58 m
-7.20 0 l
o
np
77.04 407.68 m
-7.20 0 l
o
np
77.04 441.79 m
-7.20 0 l
o
np
77.04 475.89 m
-7.20 0 l
o
np
77.04 509.99 m
-7.20 0 l
o
59.76 339.48 (0) .5 90 t
59.76 373.58 (10) .5 90 t
59.76 407.68 (20) .5 90 t
59.76 441.79 (30) .5 90 t
59.76 475.89 (40) .5 90 t
59.76 509.99 (50) .5 90 t
77.04 332.38 267.40 523.90 cl
0 0 0 srgb
0.75 setlinewidth
[] 0 setdash
1 setlinecap
1 setlinejoin
10.00 setmiterlimit
84.09 339.48 22.03 177.33 r p1
106.12 339.48 22.03 88.67 r p1
128.15 339.48 22.03 0.00 r p1
150.19 339.48 22.03 44.33 r p1
172.22 339.48 22.03 0.00 r p1
194.25 339.48 22.03 23.87 r p1
216.28 339.48 22.03 0.00 r p1
238.32 339.48 22.03 6.82 r p1
356.68 332.38 547.04 523.90 cl
ep
%%Page: 5 5
bp
77.04 332.38 267.40 523.90 cl
77.04 332.38 267.40 523.90 cl
0 0 0 srgb
0.75 setlinewidth
[] 0 setdash
1 setlinecap
1 setlinejoin
10.00 setmiterlimit
189.84 449.71 2.70 c p1
173.57 373.03 2.70 c p1
227.81 440.13 2.70 c p1
227.81 380.22 2.70 c p1
119.34 404.18 2.70 c p1
146.46 404.18 2.70 c p1
132.90 452.11 2.70 c p1
105.78 435.33 2.70 c p1
227.81 476.07 2.70 c p1
160.02 476.07 2.70 c p1
132.90 488.05 2.70 c p1
214.25 416.16 2.70 c p1
160.02 392.20 2.70 c p1
119.34 356.25 2.70 c p1
160.02 344.27 2.70 c p1
105.78 380.22 2.70 c p1
92.23 404.18 2.70 c p1
132.90 428.14 2.70 c p1
119.34 476.07 2.70 c p1
200.69 488.05 2.70 c p1
200.69 380.22 2.70 c p1
200.69 356.25 2.70 c p1
227.81 344.27 2.70 c p1
254.92 416.16 2.70 c p1
254.92 380.22 2.70 c p1
200.69 404.18 2.70 c p1
173.57 428.14 2.70 c p1
189.84 420.96 2.70 c p1
252.21 432.94 2.70 c p1
187.13 476.07 2.70 c p1
162.73 456.90 2.70 c p1
173.57 497.64 2.70 c p1
222.38 456.90 2.70 c p1
254.92 464.09 2.70 c p1
249.50 488.05 2.70 c p1
84.09 476.07 2.70 c p1
132.90 380.22 2.70 c p1
92.23 344.27 2.70 c p1
241.37 361.05 2.70 c p1
187.13 392.20 2.70 c p1
192.56 349.06 2.70 c p1
143.75 361.05 2.70 c p1
141.03 339.48 2.70 c p1
108.50 365.84 2.70 c p1
94.94 423.35 2.70 c p1
84.09 447.32 2.70 c p1
100.36 466.49 2.70 c p1
113.92 456.90 2.70 c p1
94.94 495.24 2.70 c p1
206.11 444.92 2.70 c p1
211.54 471.28 2.70 c p1
151.88 435.33 2.70 c p1
179.00 406.58 2.70 c p1
233.23 401.78 2.70 c p1
249.50 387.41 2.70 c p1
222.38 361.05 2.70 c p1
165.44 361.05 2.70 c p1
176.29 394.60 2.70 c p1
135.61 389.80 2.70 c p1
124.77 413.77 2.70 c p1
111.21 389.80 2.70 c p1
143.75 471.28 2.70 c p1
151.88 497.64 2.70 c p1
119.34 516.81 2.70 c p1
246.79 516.81 2.70 c p1
211.54 507.23 2.70 c p1
260.35 344.27 2.70 c p1
230.52 425.75 2.70 c p1
179.00 444.92 2.70 c p1
179.00 466.49 2.70 c p1
233.23 495.24 2.70 c p1
206.11 370.63 2.70 c p1
197.98 373.03 2.70 c p1
203.40 363.44 2.70 c p1
211.54 358.65 2.70 c p1
211.54 432.94 2.70 c p1
222.38 435.33 2.70 c p1
244.08 456.90 2.70 c p1
233.23 447.32 2.70 c p1
230.52 420.96 2.70 c p1
227.81 461.69 2.70 c p1
119.34 444.92 2.70 c p1
116.63 420.96 2.70 c p1
108.50 406.58 2.70 c p1
122.05 385.01 2.70 c p1
89.51 375.42 2.70 c p1
154.59 375.42 2.70 c p1
149.17 456.90 2.70 c p1
149.17 416.16 2.70 c p1
162.73 492.85 2.70 c p1
119.34 377.82 2.70 c p1
138.32 385.01 2.70 c p1
127.48 389.80 2.70 c p1
149.17 396.99 2.70 c p1
146.46 389.80 2.70 c p1
138.32 396.99 2.70 c p1
146.46 382.61 2.70 c p1
130.19 382.61 2.70 c p1
132.90 394.60 2.70 c p1
127.48 375.42 2.70 c p1
18.00 258.94 577.28 582.94 cl
0 0 0 srgb
0.75 setlinewidth
[] 0 setdash
1 setlinecap
1 setlinejoin
10.00 setmiterlimit
np
78.67 332.38 m
162.70 0 l
o
np
78.67 332.38 m
0 -7.20 l
o
np
105.78 332.38 m
0 -7.20 l
o
np
132.90 332.38 m
0 -7.20 l
o
np
160.02 332.38 m
0 -7.20 l
o
np
187.13 332.38 m
0 -7.20 l
o
np
214.25 332.38 m
0 -7.20 l
o
np
241.37 332.38 m
0 -7.20 l
o
/Font1 findfont 12 s
78.67 306.46 (0) .5 0 t
105.78 306.46 (10) .5 0 t
132.90 306.46 (20) .5 0 t
160.02 306.46 (30) .5 0 t
187.13 306.46 (40) .5 0 t
214.25 306.46 (50) .5 0 t
241.37 306.46 (60) .5 0 t
np
77.04 380.22 m
0 95.85 l
o
np
77.04 380.22 m
-7.20 0 l
o
np
77.04 428.14 m
-7.20 0 l
o
np
77.04 476.07 m
-7.20 0 l
o
59.76 380.22 (20) .5 90 t
59.76 428.14 (40) .5 90 t
59.76 476.07 (60) .5 90 t
np
77.04 332.38 m
190.36 0 l
0 191.52 l
-190.36 0 l
0 -191.52 l
o
18.00 258.94 297.64 582.94 cl
/Font2 findfont 14 s
0 0 0 srgb
172.22 548.40 (c100) .5 0 t
/Font1 findfont 12 s
172.22 263.26 (Locations plot) .5 0 t
172.22 277.66 (X) .5 0 t
30.96 428.14 (Y) .5 90 t
356.68 332.38 547.04 523.90 cl
356.68 332.38 547.04 523.90 cl
0 0 0 srgb
0.75 setlinewidth
[] 0 setdash
1 setlinecap
1 setlinejoin
10.00 setmiterlimit
np
363.73 476.91 m
3.31 0 l
0 13.30 l
0 0 l
0 -26.60 l
3.32 0 l
0 -26.60 l
0.48 0 l
0 -31.03 l
2.36 0 l
0 101.96 l
2.85 0 l
0 -8.86 l
3.31 0 l
0 -17.74 l
2.85 0 l
0 -31.03 l
2.84 0 l
0 0 l
0.47 0 l
0 17.73 l
0.48 0 l
0 -31.03 l
3.79 0 l
0 -17.73 l
0 0 l
0 13.30 l
0.95 0 l
0 53.20 l
0 0 l
0 -48.77 l
0.47 0 l
0 75.37 l
1.89 0 l
0 -44.34 l
0 0 l
0 -22.16 l
4.27 0 l
0 35.46 l
0.95 0 l
0 -8.86 l
0 0 l
0 -31.04 l
3.31 0 l
0 -48.76 l
0.48 0 l
0 115.26 l
0 0 l
0 -13.30 l
1.42 0 l
0 -48.76 l
1.42 0 l
0 4.43 l
2.37 0 l
0 0 l
0 0 l
0 31.03 l
1.42 0 l
0 -53.20 l
2.37 0 l
0 -26.60 l
1.42 0 l
0 17.74 l
0.47 0 l
0 53.20 l
0.95 0 l
0 -13.30 l
1.42 0 l
0 26.60 l
1.42 0 l
0 13.30 l
2.37 0 l
0 -13.30 l
2.37 0 l
0 -35.47 l
0.95 0 l
0 -66.50 l
7.11 0 l
0 97.53 l
2.37 0 l
0 17.74 l
0.47 0 l
0 0 l
0.95 0 l
0 -8.87 l
0 0 l
0 -48.77 l
1.89 0 l
0 8.87 l
2.85 0 l
0 66.50 l
0.47 0 l
0 -115.27 l
0.47 0 l
0 -39.90 l
0.95 0 l
0 26.60 l
1.90 0 l
0 75.37 l
0 0 l
441.91 476.91 lineto
0 0 l
0 4.43 l
0.94 0 l
0 -22.16 l
0.95 0 l
0 -17.74 l
1.42 0 l
0 70.94 l
0.48 0 l
0 -17.74 l
0.47 0 l
0 -4.43 l
0.47 0 l
0 -48.77 l
3.80 0 l
0 -44.33 l
10.42 0 l
0 110.83 l
4.26 0 l
0 -44.33 l
0 0 l
0 -26.60 l
0.95 0 l
0 39.90 l
3.79 0 l
0 4.43 l
0.48 0 l
0 -48.76 l
1.89 0 l
0 -22.17 l
5.69 0 l
0 0 l
3.79 0 l
0 -48.77 l
0.47 0 l
0 133.00 l
3.32 0 l
0 4.44 l
0.47 0 l
0 -44.34 l
1.90 0 l
0 -44.33 l
1.89 0 l
0 70.93 l
0.95 0 l
0 4.44 l
1.89 0 l
0 -44.34 l
2.37 0 l
0 22.17 l
3.32 0 l
0 -4.43 l
0.47 0 l
0 48.76 l
0.48 0 l
0 -88.66 l
1.42 0 l
0 75.36 l
1.42 0 l
0 -88.66 l
0.95 0 l
0 44.33 l
0.47 0 l
0 22.17 l
0.95 0 l
0 17.73 l
3.79 0 l
0 -150.73 l
1.42 0 l
0 26.60 l
2.84 0 l
0 39.90 l
1.43 0 l
0 75.36 l
1.42 0 l
0 -26.60 l
1.89 0 l
0 53.20 l
0.95 0 l
0 8.87 l
0.47 0 l
0 -4.43 l
9.48 0 l
0 -88.67 l
4.74 0 l
0 -22.17 l
0 0 l
0 31.04 l
0.47 0 l
0 39.90 l
0.95 0 l
0 -4.44 l
3.79 0 l
0 8.87 l
1.90 0 l
0 4.43 l
0 0 l
0 -35.46 l
o
18.00 258.94 577.28 582.94 cl
0 0 0 srgb
0.75 setlinewidth
[] 0 setdash
1 setlinecap
1 setlinejoin
10.00 setmiterlimit
np
362.78 332.38 m
142.14 0 l
o
np
362.78 332.38 m
0 -7.20 l
o
np
410.16 332.38 m
0 -7.20 l
o
np
457.54 332.38 m
0 -7.20 l
o
np
504.92 332.38 m
0 -7.20 l
o
/Font1 findfont 12 s
362.78 306.46 (0) .5 0 t
410.16 306.46 (100) .5 0 t
457.54 306.46 (200) .5 0 t
504.92 306.46 (300) .5 0 t
np
356.68 343.91 m
0 177.33 l
o
np
356.68 343.91 m
-7.20 0 l
o
np
356.68 388.24 m
-7.20 0 l
o
np
356.68 432.58 m
-7.20 0 l
o
np
356.68 476.91 m
-7.20 0 l
o
np
356.68 521.24 m
-7.20 0 l
o
339.40 343.91 (-40) .5 90 t
339.40 388.24 (-30) .5 90 t
339.40 432.58 (-20) .5 90 t
339.40 476.91 (-10) .5 90 t
339.40 521.24 (0) .5 90 t
np
356.68 332.38 m
190.36 0 l
0 191.52 l
-190.36 0 l
0 -191.52 l
o
297.64 258.94 577.28 582.94 cl
/Font2 findfont 14 s
0 0 0 srgb
451.86 548.40 (c100D) .5 0 t
/Font1 findfont 12 s
451.86 263.26 (Requests time) .5 0 t
451.86 277.66 (Time) .5 0 t
310.60 428.14 (Requests) .5 90 t
ep
%%Page: 6 6
bp
77.04 332.38 267.40 523.90 cl
18.00 258.94 297.64 582.94 cl
/Font2 findfont 14 s
0 0 0 srgb
172.22 548.40 (c100) .5 0 t
/Font1 findfont 12 s
97.86 263.26 (Requests v) 0 ta
-0.300 (olume histogr) tb
-0.120 (am) tb gr
151.88 277.66 (V) 0 ta
-0.960 (olume) tb gr
30.96 387.46 (No) 90 ta
-0.480 (. of requests) tb gr
18.00 258.94 577.28 582.94 cl
0 0 0 srgb
0.75 setlinewidth
[] 0 setdash
1 setlinecap
1 setlinejoin
10.00 setmiterlimit
np
84.09 332.38 m
156.67 0 l
o
np
84.09 332.38 m
0 -7.20 l
o
np
123.26 332.38 m
0 -7.20 l
o
np
162.43 332.38 m
0 -7.20 l
o
np
201.60 332.38 m
0 -7.20 l
o
np
240.76 332.38 m
0 -7.20 l
o
/Font1 findfont 12 s
84.09 306.46 (0) .5 0 t
123.26 306.46 (10) .5 0 t
162.43 306.46 (20) .5 0 t
201.60 306.46 (30) .5 0 t
240.76 306.46 (40) .5 0 t
np
77.04 339.48 m
0 177.33 l
o
np
77.04 339.48 m
-7.20 0 l
o
np
77.04 374.94 m
-7.20 0 l
o
np
77.04 410.41 m
-7.20 0 l
o
np
77.04 445.88 m
-7.20 0 l
o
np
77.04 481.34 m
-7.20 0 l
o
np
77.04 516.81 m
-7.20 0 l
o
59.76 339.48 (0) .5 90 t
59.76 374.94 (5) .5 90 t
59.76 410.41 (10) .5 90 t
59.76 445.88 (15) .5 90 t
59.76 481.34 (20) .5 90 t
59.76 516.81 (25) .5 90 t
77.04 332.38 267.40 523.90 cl
0 0 0 srgb
0.75 setlinewidth
[] 0 setdash
1 setlinecap
1 setlinejoin
10.00 setmiterlimit
84.09 339.48 19.58 106.40 r p1
103.67 339.48 19.58 177.33 r p1
123.26 339.48 19.58 113.49 r p1
142.84 339.48 19.58 156.05 r p1
162.43 339.48 19.58 56.75 r p1
182.01 339.48 19.58 63.84 r p1
201.60 339.48 19.58 14.19 r p1
221.18 339.48 19.58 14.19 r p1
240.76 339.48 19.58 7.09 r p1
356.68 332.38 547.04 523.90 cl
ep
%%Trailer
%%Pages: 6
%%EOF
