%!PS-Adobe-3.0
%%DocumentNeededResources: font Helvetica
%%+ font Helvetica-Bold
%%+ font Helvetica-Oblique
%%+ font Helvetica-BoldOblique
%%+ font Symbol
%%DocumentMedia: a4 595 841 0 () ()
%%Title: R Graphics Output
%%Creator: R Software
%%Pages: (atend)
%%Orientation: Portrait
%%BoundingBox: 18 259 577 583
%%EndComments
%%BeginProlog
/bp  { gs sRGB gs } def
% begin .ps.prolog
/gs  { gsave } bind def
/gr  { grestore } bind def
/ep  { showpage gr gr } bind def
/m   { moveto } bind def
/l  { rlineto } bind def
/np  { newpath } bind def
/cp  { closepath } bind def
/f   { fill } bind def
/o   { stroke } bind def
/c   { newpath 0 360 arc } bind def
/r   { 4 2 roll moveto 1 copy 3 -1 roll exch 0 exch rlineto 0 rlineto -1 mul 0 exch rlineto closepath } bind def
/p1  { stroke } bind def
/p2  { gsave bg fill grestore newpath } bind def
/p3  { gsave bg fill grestore stroke } bind def
/p6  { gsave bg eofill grestore newpath } bind def
/p7  { gsave bg eofill grestore stroke } bind def
/t   { 5 -2 roll moveto gsave rotate
       1 index stringwidth pop
       mul neg 0 rmoveto show grestore } bind def
/ta  { 4 -2 roll moveto gsave rotate show } bind def
/tb  { 2 -1 roll 0 rmoveto show } bind def
/cl  { grestore gsave newpath 3 index 3 index moveto 1 index
       4 -1 roll lineto  exch 1 index lineto lineto
       closepath clip newpath } bind def
/rgb { setrgbcolor } bind def
/s   { scalefont setfont } bind def
% end   .ps.prolog
/sRGB { [ /CIEBasedABC
          << /DecodeLMN
               [ { dup 0.03928 le
                        {12.92321 div}
                        {0.055 add 1.055 div 2.4 exp }
                     ifelse
                 } bind dup dup
               ]
             /MatrixLMN [0.412457 0.212673 0.019334
                         0.357576 0.715152 0.119192
                         0.180437 0.072175 0.950301]
             /WhitePoint [0.9505 1.0 1.0890]
           >>
         ] setcolorspace } bind def
/srgb { setcolor } bind def
% begin encoding
/WinAnsiEncoding [
 /.notdef /.notdef /.notdef /.notdef /.notdef /.notdef /.notdef /.notdef
 /.notdef /.notdef /.notdef /.notdef /.notdef /.notdef /.notdef /.notdef
 /.notdef /.notdef /.notdef /.notdef /.notdef /.notdef /.notdef /.notdef
 /.notdef /.notdef /.notdef /.notdef /.notdef /.notdef /.notdef /.notdef
 /space /exclam /quotedbl /numbersign /dollar /percent /ampersand /quoteright
 /parenleft /parenright /asterisk /plus /comma /minus /period /slash
 /zero /one /two /three /four /five /six /seven
 /eight /nine /colon /semicolon /less /equal /greater /question
 /at /A /B /C /D /E /F /G
 /H /I /J /K /L /M /N /O
 /P /Q /R /S /T /U /V /W
 /X /Y /Z /bracketleft /backslash /bracketright /asciicircum /underscore
 /grave /a /b /c /d /e /f /g
 /h /i /j /k /l /m /n /o
 /p /q /r /s /t /u /v /w
 /x /y /z /braceleft /bar /braceright /asciitilde /.notdef
 /Euro /.notdef /quotesinglbase /florin /quotedblbase /ellipsis /dagger /daggerdbl
 /circumflex /perthousand /Scaron /guilsinglleft /OE /.notdef /Zcaron /.notdef
 /.notdef /quoteleft /quoteright /quotedblleft /quotedblright /bullet /endash /emdash
 /tilde /trademark /scaron /guilsinglright /oe /.notdef /zcaron /Ydieresis
 /space /exclamdown /cent /sterling /currency /yen /brokenbar /section
 /dieresis /copyright /ordfeminine /guillemotleft /logicalnot /hyphen /registered /macron
 /degree /plusminus /twosuperior /threesuperior /acute /mu /paragraph /periodcentered
 /cedilla /onesuperior /ordmasculine /guillemotright /onequarter /onehalf /threequarters /questiondown
 /Agrave /Aacute /Acircumflex /Atilde /Adieresis /Aring /AE /Ccedilla
 /Egrave /Eacute /Ecircumflex /Edieresis /Igrave /Iacute /Icircumflex /Idieresis
 /Eth /Ntilde /Ograve /Oacute /Ocircumflex /Otilde /Odieresis /multiply
 /Oslash /Ugrave /Uacute /Ucircumflex /Udieresis /Yacute /Thorn /germandbls
 /agrave /aacute /acircumflex /atilde /adieresis /aring /ae /ccedilla
 /egrave /eacute /ecircumflex /edieresis /igrave /iacute /icircumflex /idieresis
 /eth /ntilde /ograve /oacute /ocircumflex /otilde /odieresis /divide
 /oslash /ugrave /uacute /ucircumflex /udieresis /yacute /thorn /ydieresis
]
 def
% end encoding
%%IncludeResource: font Helvetica
/Helvetica findfont
dup length dict begin
  {1 index /FID ne {def} {pop pop} ifelse} forall
  /Encoding WinAnsiEncoding def
  currentdict
  end
/Font1 exch definefont pop
%%IncludeResource: font Helvetica-Bold
/Helvetica-Bold findfont
dup length dict begin
  {1 index /FID ne {def} {pop pop} ifelse} forall
  /Encoding WinAnsiEncoding def
  currentdict
  end
/Font2 exch definefont pop
%%IncludeResource: font Helvetica-Oblique
/Helvetica-Oblique findfont
dup length dict begin
  {1 index /FID ne {def} {pop pop} ifelse} forall
  /Encoding WinAnsiEncoding def
  currentdict
  end
/Font3 exch definefont pop
%%IncludeResource: font Helvetica-BoldOblique
/Helvetica-BoldOblique findfont
dup length dict begin
  {1 index /FID ne {def} {pop pop} ifelse} forall
  /Encoding WinAnsiEncoding def
  currentdict
  end
/Font4 exch definefont pop
%%IncludeResource: font Symbol
/Symbol findfont
dup length dict begin
  {1 index /FID ne {def} {pop pop} ifelse} forall
  currentdict
  end
/Font5 exch definefont pop
%%EndProlog
%%Page: 1 1
bp
77.04 332.38 267.40 523.90 cl
0 0 0 srgb
0.75 setlinewidth
[] 0 setdash
1 setlinecap
1 setlinejoin
10.00 setmiterlimit
165.53 423.29 2.70 c p1
165.53 422.07 2.70 c p1
156.60 431.79 2.70 c p1
171.10 428.14 2.70 c p1
173.33 416.00 2.70 c p1
163.29 419.64 2.70 c p1
175.57 418.43 2.70 c p1
158.83 423.29 2.70 c p1
156.60 424.50 2.70 c p1
157.72 414.78 2.70 c p1
174.45 412.35 2.70 c p1
128.71 441.51 2.70 c p1
113.09 394.14 2.70 c p1
125.37 424.50 2.70 c p1
91.90 409.93 2.70 c p1
88.55 417.21 2.70 c p1
123.13 450.01 2.70 c p1
140.98 456.08 2.70 c p1
86.32 425.72 2.70 c p1
138.75 442.72 2.70 c p1
98.59 433.00 2.70 c p1
138.75 417.21 2.70 c p1
116.44 424.50 2.70 c p1
139.87 401.42 2.70 c p1
116.44 441.51 2.70 c p1
84.09 400.21 2.70 c p1
135.41 417.21 2.70 c p1
123.13 442.72 2.70 c p1
254.77 451.22 2.70 c p1
260.35 484.02 2.70 c p1
238.04 476.73 2.70 c p1
236.92 479.16 2.70 c p1
195.65 515.60 2.70 c p1
159.95 510.74 2.70 c p1
164.41 516.81 2.70 c p1
186.72 452.44 2.70 c p1
194.53 516.81 2.70 c p1
161.06 465.80 2.70 c p1
171.10 493.73 2.70 c p1
201.22 504.67 2.70 c p1
140.98 465.80 2.70 c p1
177.80 509.52 2.70 c p1
171.10 514.38 2.70 c p1
164.41 477.94 2.70 c p1
155.49 453.65 2.70 c p1
157.72 509.52 2.70 c p1
154.37 451.22 2.70 c p1
194.53 459.72 2.70 c p1
151.02 511.95 2.70 c p1
192.30 463.37 2.70 c p1
168.87 418.43 2.70 c p1
151.02 442.72 2.70 c p1
159.95 429.36 2.70 c p1
161.06 425.72 2.70 c p1
159.95 417.21 2.70 c p1
172.22 437.86 2.70 c p1
172.22 413.57 2.70 c p1
163.29 437.86 2.70 c p1
183.37 416.00 2.70 c p1
178.91 429.36 2.70 c p1
163.29 445.15 2.70 c p1
151.02 425.72 2.70 c p1
173.33 448.79 2.70 c p1
159.95 430.57 2.70 c p1
169.99 433.00 2.70 c p1
108.63 339.48 2.70 c p1
94.13 341.91 2.70 c p1
137.64 371.06 2.70 c p1
107.52 367.41 2.70 c p1
119.79 389.28 2.70 c p1
94.13 352.84 2.70 c p1
197.88 407.50 2.70 c p1
187.84 400.21 2.70 c p1
197.88 391.71 2.70 c p1
187.84 426.93 2.70 c p1
18.00 258.94 577.28 582.94 cl
0 0 0 srgb
0.75 setlinewidth
[] 0 setdash
1 setlinecap
1 setlinejoin
10.00 setmiterlimit
np
117.56 332.38 m
111.55 0 l
o
np
117.56 332.38 m
0 -7.20 l
o
np
173.33 332.38 m
0 -7.20 l
o
np
229.11 332.38 m
0 -7.20 l
o
/Font1 findfont 12 s
117.56 306.46 (-50) .5 0 t
173.33 306.46 (0) .5 0 t
229.11 306.46 (50) .5 0 t
np
77.04 351.62 m
0 121.47 l
o
np
77.04 351.62 m
-7.20 0 l
o
np
77.04 412.35 m
-7.20 0 l
o
np
77.04 473.09 m
-7.20 0 l
o
59.76 351.62 (-50) .5 90 t
59.76 412.35 (0) .5 90 t
59.76 473.09 (50) .5 90 t
np
77.04 332.38 m
190.36 0 l
0 191.52 l
-190.36 0 l
0 -191.52 l
o
18.00 258.94 297.64 582.94 cl
/Font2 findfont 14 s
0 0 0 srgb
172.22 548.40 (tai75cD_) .5 0 t
/Font1 findfont 12 s
172.22 263.26 (Locations plot) .5 0 t
172.22 277.66 (X) .5 0 t
30.96 428.14 (Y) .5 90 t
356.68 332.38 547.04 523.90 cl
356.68 332.38 547.04 523.90 cl
0 0 0 srgb
0.75 setlinewidth
[] 0 setdash
1 setlinecap
1 setlinejoin
10.00 setmiterlimit
np
363.73 422.60 m
0 0 l
0 -55.41 l
6.14 0 l
0 16.62 l
1.36 0 l
0 44.33 l
2.05 0 l
0 -33.25 l
2.27 0 l
0 22.17 l
1.60 0 l
0 -16.62 l
1.59 0 l
0 5.54 l
1.59 0 l
0 -22.17 l
2.73 0 l
0 0 l
0.23 0 l
0 33.25 l
3.41 0 l
0 16.63 l
2.50 0 l
0 16.62 l
1.82 0 l
0 -16.62 l
5.46 0 l
0 -11.09 l
0.91 0 l
0 -22.16 l
0.45 0 l
0 22.16 l
2.50 0 l
0 -16.62 l
0.46 0 l
0 -11.09 l
4.09 0 l
0 22.17 l
2.05 0 l
0 60.96 l
4.32 0 l
0 33.25 l
0.91 0 l
0 -49.88 l
2.05 0 l
0 -16.62 l
1.36 0 l
0 -22.17 l
2.50 0 l
0 -22.16 l
6.60 0 l
0 38.79 l
3.87 0 l
0 -22.17 l
0 0 l
0 0 l
2.04 0 l
0 33.25 l
0.23 0 l
0 -33.25 l
2.05 0 l
0 22.17 l
1.59 0 l
0 -55.42 l
1.36 0 l
0 -16.62 l
1.82 0 l
0 33.25 l
1.37 0 l
0 83.12 l
1.82 0 l
0 -121.92 l
0.91 0 l
0 49.88 l
1.82 0 l
0 -16.63 l
2.04 0 l
0 16.63 l
3.87 0 l
0 22.17 l
2.05 0 l
0 -60.96 l
3.86 0 l
0 5.54 l
5.01 0 l
0 105.29 l
20.01 0 l
0 -77.58 l
0.91 0 l
0 27.71 l
2.96 0 l
0 -22.17 l
2.50 0 l
0 -22.17 l
1.13 0 l
0 127.46 l
1.37 0 l
0 -133.00 l
0 0 l
489.27 411.52 lineto
0.23 0 l
0 16.62 l
7.27 0 l
0 38.80 l
1.14 0 l
0 -127.46 l
0 0 l
0 72.04 l
2.96 0 l
0 -22.17 l
1.13 0 l
0 -16.62 l
1.14 0 l
0 44.33 l
0.23 0 l
0 5.54 l
0.45 0 l
0 16.63 l
6.60 0 l
0 -44.34 l
0 0 l
0 -38.79 l
0.91 0 l
0 88.67 l
2.05 0 l
0 -49.88 l
1.36 0 l
0 5.55 l
0.68 0 l
0 55.41 l
5.92 0 l
0 0 l
5.45 0 l
0 -33.25 l
0.91 0 l
0 0 l
0.69 0 l
0 -16.62 l
0.45 0 l
0 16.62 l
6.82 0 l
0 -22.16 l
0.23 0 l
0 16.62 l
3.41 0 l
0 -5.54 l
0.69 0 l
0 33.25 l
o
18.00 258.94 577.28 582.94 cl
0 0 0 srgb
0.75 setlinewidth
[] 0 setdash
1 setlinecap
1 setlinejoin
10.00 setmiterlimit
np
363.50 332.38 m
181.94 0 l
o
np
363.50 332.38 m
0 -7.20 l
o
np
408.99 332.38 m
0 -7.20 l
o
np
454.47 332.38 m
0 -7.20 l
o
np
499.96 332.38 m
0 -7.20 l
o
np
545.44 332.38 m
0 -7.20 l
o
/Font1 findfont 12 s
363.50 306.46 (0) .5 0 t
408.99 306.46 (200) .5 0 t
454.47 306.46 (400) .5 0 t
499.96 306.46 (600) .5 0 t
545.44 306.46 (800) .5 0 t
np
356.68 345.02 m
0 166.25 l
o
np
356.68 345.02 m
-7.20 0 l
o
np
356.68 372.73 m
-7.20 0 l
o
np
356.68 400.44 m
-7.20 0 l
o
np
356.68 428.14 m
-7.20 0 l
o
np
356.68 455.85 m
-7.20 0 l
o
np
356.68 483.56 m
-7.20 0 l
o
np
356.68 511.27 m
-7.20 0 l
o
339.40 345.02 (-140) .5 90 t
339.40 400.44 (-130) .5 90 t
339.40 455.85 (-120) .5 90 t
339.40 511.27 (-110) .5 90 t
np
356.68 332.38 m
190.36 0 l
0 191.52 l
-190.36 0 l
0 -191.52 l
o
297.64 258.94 577.28 582.94 cl
/Font2 findfont 14 s
0 0 0 srgb
451.86 548.40 (tai75cD_6) .5 0 t
/Font1 findfont 12 s
451.86 263.26 (Requests time) .5 0 t
451.86 277.66 (Time) .5 0 t
310.60 428.14 (Requests) .5 90 t
ep
%%Page: 2 2
bp
77.04 332.38 267.40 523.90 cl
18.00 258.94 297.64 582.94 cl
/Font2 findfont 14 s
0 0 0 srgb
172.22 548.40 (tai75cD_) .5 0 t
/Font1 findfont 12 s
97.86 263.26 (Requests v) 0 ta
-0.300 (olume histogr) tb
-0.120 (am) tb gr
151.88 277.66 (V) 0 ta
-0.960 (olume) tb gr
30.96 387.46 (No) 90 ta
-0.480 (. of requests) tb gr
18.00 258.94 577.28 582.94 cl
0 0 0 srgb
0.75 setlinewidth
[] 0 setdash
1 setlinecap
1 setlinejoin
10.00 setmiterlimit
np
106.12 332.38 m
132.20 0 l
o
np
106.12 332.38 m
0 -7.20 l
o
np
150.19 332.38 m
0 -7.20 l
o
np
194.25 332.38 m
0 -7.20 l
o
np
238.32 332.38 m
0 -7.20 l
o
/Font1 findfont 12 s
106.12 306.46 (110) .5 0 t
150.19 306.46 (120) .5 0 t
194.25 306.46 (130) .5 0 t
238.32 306.46 (140) .5 0 t
np
77.04 339.48 m
0 166.25 l
o
np
77.04 339.48 m
-7.20 0 l
o
np
77.04 367.19 m
-7.20 0 l
o
np
77.04 394.89 m
-7.20 0 l
o
np
77.04 422.60 m
-7.20 0 l
o
np
77.04 450.31 m
-7.20 0 l
o
np
77.04 478.02 m
-7.20 0 l
o
np
77.04 505.73 m
-7.20 0 l
o
59.76 339.48 (0) .5 90 t
59.76 367.19 (5) .5 90 t
59.76 394.89 (10) .5 90 t
59.76 422.60 (15) .5 90 t
59.76 450.31 (20) .5 90 t
59.76 478.02 (25) .5 90 t
59.76 505.73 (30) .5 90 t
77.04 332.38 267.40 523.90 cl
0 0 0 srgb
0.75 setlinewidth
[] 0 setdash
1 setlinecap
1 setlinejoin
10.00 setmiterlimit
84.09 339.48 22.03 11.08 r p1
106.12 339.48 22.03 11.08 r p1
128.15 339.48 22.03 27.71 r p1
150.19 339.48 22.03 77.58 r p1
172.22 339.48 22.03 177.33 r p1
194.25 339.48 22.03 83.13 r p1
216.28 339.48 22.03 22.17 r p1
238.32 339.48 22.03 5.54 r p1
ep
%%Page: 3 3
bp
77.04 332.38 267.40 523.90 cl
77.04 332.38 267.40 523.90 cl
0 0 0 srgb
0.75 setlinewidth
[] 0 setdash
1 setlinecap
1 setlinejoin
10.00 setmiterlimit
260.35 403.32 2.70 c p1
242.50 401.90 2.70 c p1
253.65 413.25 2.70 c p1
252.54 404.74 2.70 c p1
245.85 406.16 2.70 c p1
246.96 416.09 2.70 c p1
248.08 420.34 2.70 c p1
259.23 413.25 2.70 c p1
258.12 401.90 2.70 c p1
255.89 401.90 2.70 c p1
241.38 414.67 2.70 c p1
216.84 458.65 2.70 c p1
188.95 475.67 2.70 c p1
202.34 479.93 2.70 c p1
205.69 488.44 2.70 c p1
187.84 465.74 2.70 c p1
220.19 458.65 2.70 c p1
196.76 484.18 2.70 c p1
196.76 465.74 2.70 c p1
195.65 461.48 2.70 c p1
193.41 457.23 2.70 c p1
203.45 461.48 2.70 c p1
194.53 457.23 2.70 c p1
213.49 468.58 2.70 c p1
95.25 482.76 2.70 c p1
103.05 499.79 2.70 c p1
100.82 479.93 2.70 c p1
99.71 465.74 2.70 c p1
95.25 485.60 2.70 c p1
117.56 484.18 2.70 c p1
95.25 471.41 2.70 c p1
113.09 494.11 2.70 c p1
104.17 516.81 2.70 c p1
125.37 481.34 2.70 c p1
110.86 475.67 2.70 c p1
105.29 515.39 2.70 c p1
126.48 477.09 2.70 c p1
124.25 516.81 2.70 c p1
84.09 492.69 2.70 c p1
138.75 414.67 2.70 c p1
130.94 426.02 2.70 c p1
130.94 433.11 2.70 c p1
129.83 433.11 2.70 c p1
126.48 413.25 2.70 c p1
128.71 430.27 2.70 c p1
128.71 414.67 2.70 c p1
138.75 416.09 2.70 c p1
135.41 423.18 2.70 c p1
127.60 411.83 2.70 c p1
129.83 421.76 2.70 c p1
125.37 431.69 2.70 c p1
128.71 411.83 2.70 c p1
128.71 414.67 2.70 c p1
133.17 430.27 2.70 c p1
129.83 417.50 2.70 c p1
128.71 420.34 2.70 c p1
137.64 427.44 2.70 c p1
139.87 424.60 2.70 c p1
126.48 430.27 2.70 c p1
229.11 342.32 2.70 c p1
244.73 355.08 2.70 c p1
243.61 342.32 2.70 c p1
248.08 339.48 2.70 c p1
229.11 339.48 2.70 c p1
232.46 339.48 2.70 c p1
229.11 352.25 2.70 c p1
241.38 350.83 2.70 c p1
232.46 345.15 2.70 c p1
230.23 340.90 2.70 c p1
225.77 455.81 2.70 c p1
215.73 450.13 2.70 c p1
217.96 445.88 2.70 c p1
228.00 441.62 2.70 c p1
220.19 447.30 2.70 c p1
226.88 455.81 2.70 c p1
18.00 258.94 577.28 582.94 cl
0 0 0 srgb
0.75 setlinewidth
[] 0 setdash
1 setlinecap
1 setlinejoin
10.00 setmiterlimit
np
107.52 332.38 m
111.55 0 l
o
np
107.52 332.38 m
0 -7.20 l
o
np
163.29 332.38 m
0 -7.20 l
o
np
219.07 332.38 m
0 -7.20 l
o
/Font1 findfont 12 s
107.52 306.46 (-50) .5 0 t
163.29 306.46 (0) .5 0 t
219.07 306.46 (50) .5 0 t
np
77.04 343.73 m
0 170.24 l
o
np
77.04 343.73 m
-7.20 0 l
o
np
77.04 372.11 m
-7.20 0 l
o
np
77.04 400.48 m
-7.20 0 l
o
np
77.04 428.85 m
-7.20 0 l
o
np
77.04 457.23 m
-7.20 0 l
o
np
77.04 485.60 m
-7.20 0 l
o
np
77.04 513.97 m
-7.20 0 l
o
59.76 343.73 (-60) .5 90 t
59.76 400.48 (-20) .5 90 t
59.76 428.85 (0) .5 90 t
59.76 457.23 (20) .5 90 t
59.76 485.60 (40) .5 90 t
59.76 513.97 (60) .5 90 t
np
77.04 332.38 m
190.36 0 l
0 191.52 l
-190.36 0 l
0 -191.52 l
o
18.00 258.94 297.64 582.94 cl
/Font2 findfont 14 s
0 0 0 srgb
172.22 548.40 (tai75d) .5 0 t
/Font1 findfont 12 s
172.22 263.26 (Locations plot) .5 0 t
172.22 277.66 (X) .5 0 t
30.96 428.14 (Y) .5 90 t
356.68 332.38 547.04 523.90 cl
356.68 332.38 547.04 523.90 cl
0 0 0 srgb
0.75 setlinewidth
[] 0 setdash
1 setlinecap
1 setlinejoin
10.00 setmiterlimit
np
363.73 403.43 m
2.03 0 l
0 3.72 l
1.35 0 l
0 -18.60 l
0.22 0 l
0 119.94 l
0.46 0 l
0 -32.78 l
3.15 0 l
0 36.32 l
5.86 0 l
0 4.43 l
6.54 0 l
0 -6.73 l
2.03 0 l
0 -62.90 l
9.24 0 l
0 56.16 l
3.15 0 l
0 11.87 l
4.74 0 l
0 -27.81 l
2.93 0 l
0 -6.73 l
11.04 0 l
0 33.48 l
1.35 0 l
0 1.24 l
0.45 0 l
0 -14.17 l
0 0 l
0 13.64 l
1.58 0 l
0 2.30 l
4.51 0 l
0 -68.74 l
4.51 0 l
0 60.06 l
1.12 0 l
0 -151.11 l
1.58 0 l
0 150.40 l
1.35 0 l
0 -26.04 l
2.26 0 l
0 20.55 l
4.28 0 l
0 -162.45 l
6.76 0 l
0 157.67 l
0.45 0 l
0 -73.17 l
0.23 0 l
0 92.65 l
4.73 0 l
0 -4.25 l
0.68 0 l
0 -11.69 l
1.12 0 l
0 15.24 l
1.13 0 l
0 -23.21 l
2.26 0 l
0 17.36 l
2.47 0 l
0 6.02 l
3.39 0 l
0 -85.56 l
1.35 0 l
0 86.27 l
2.70 0 l
0 -12.75 l
0.90 0 l
0 5.31 l
2.93 0 l
0 7.44 l
2.48 0 l
0 -72.10 l
1.36 0 l
0 64.84 l
0.45 0 l
0 -112.32 l
3.83 0 l
0 115.86 l
0.67 0 l
0 2.48 l
0.68 0 l
0 -0.35 l
4.51 0 l
0 -45.35 l
3.15 0 l
0 46.23 l
1.81 0 l
0 -7.79 l
1.80 0 l
0 -70.33 l
0.23 0 l
0 -1.95 l
0.22 0 l
491.75 516.63 lineto
0.68 0 l
0 -2.83 l
1.80 0 l
0 -69.62 l
2.25 0 l
0 -45.71 l
3.61 0 l
0 84.33 l
0.23 0 l
0 31.71 l
4.05 0 l
0 -118.16 l
0 0 l
0 120.28 l
0 0 l
0 -6.90 l
3.83 0 l
0 -0.36 l
0.91 0 l
0 -3.01 l
0 0 l
0 8.50 l
5.41 0 l
0 -10.98 l
0.22 0 l
0 -4.43 l
1.58 0 l
0 -131.98 l
3.61 0 l
0 122.06 l
2.02 0 l
0 27.28 l
1.36 0 l
0 -1.77 l
2.25 0 l
0 -68.03 l
0.23 0 l
0 66.26 l
2.02 0 l
0 -11.34 l
2.71 0 l
0 14.35 l
1.58 0 l
0 0.53 l
1.57 0 l
0 0 l
6.32 0 l
0 -40.21 l
o
18.00 258.94 577.28 582.94 cl
0 0 0 srgb
0.75 setlinewidth
[] 0 setdash
1 setlinecap
1 setlinejoin
10.00 setmiterlimit
np
362.60 332.38 m
180.32 0 l
o
np
362.60 332.38 m
0 -7.20 l
o
np
407.68 332.38 m
0 -7.20 l
o
np
452.76 332.38 m
0 -7.20 l
o
np
497.84 332.38 m
0 -7.20 l
o
np
542.92 332.38 m
0 -7.20 l
o
/Font1 findfont 12 s
362.60 306.46 (0) .5 0 t
407.68 306.46 (200) .5 0 t
452.76 306.46 (400) .5 0 t
497.84 306.46 (600) .5 0 t
542.92 306.46 (800) .5 0 t
np
356.68 340.19 m
0 177.15 l
o
np
356.68 340.19 m
-7.20 0 l
o
np
356.68 375.62 m
-7.20 0 l
o
np
356.68 411.05 m
-7.20 0 l
o
np
356.68 446.48 m
-7.20 0 l
o
np
356.68 481.91 m
-7.20 0 l
o
np
356.68 517.34 m
-7.20 0 l
o
339.40 340.19 (-1000) .5 90 t
339.40 411.05 (-600) .5 90 t
339.40 481.91 (-200) .5 90 t
339.40 517.34 (0) .5 90 t
np
356.68 332.38 m
190.36 0 l
0 191.52 l
-190.36 0 l
0 -191.52 l
o
297.64 258.94 577.28 582.94 cl
/Font2 findfont 14 s
0 0 0 srgb
451.86 548.40 (tai75dD) .5 0 t
/Font1 findfont 12 s
451.86 263.26 (Requests time) .5 0 t
451.86 277.66 (Time) .5 0 t
310.60 428.14 (Requests) .5 90 t
ep
%%Page: 4 4
bp
77.04 332.38 267.40 523.90 cl
18.00 258.94 297.64 582.94 cl
/Font2 findfont 14 s
0 0 0 srgb
172.22 548.40 (tai75d) .5 0 t
/Font1 findfont 12 s
97.86 263.26 (Requests v) 0 ta
-0.300 (olume histogr) tb
-0.120 (am) tb gr
151.88 277.66 (V) 0 ta
-0.960 (olume) tb gr
30.96 387.46 (No) 90 ta
-0.480 (. of requests) tb gr
18.00 258.94 577.28 582.94 cl
0 0 0 srgb
0.75 setlinewidth
[] 0 setdash
1 setlinecap
1 setlinejoin
10.00 setmiterlimit
np
84.09 332.38 m
160.23 0 l
o
np
84.09 332.38 m
0 -7.20 l
o
np
116.14 332.38 m
0 -7.20 l
o
np
148.18 332.38 m
0 -7.20 l
o
np
180.23 332.38 m
0 -7.20 l
o
np
212.28 332.38 m
0 -7.20 l
o
np
244.32 332.38 m
0 -7.20 l
o
/Font1 findfont 12 s
84.09 306.46 (0) .5 0 t
116.14 306.46 (200) .5 0 t
148.18 306.46 (400) .5 0 t
180.23 306.46 (600) .5 0 t
212.28 306.46 (800) .5 0 t
np
77.04 339.48 m
0 154.20 l
o
np
77.04 339.48 m
-7.20 0 l
o
np
77.04 378.03 m
-7.20 0 l
o
np
77.04 416.58 m
-7.20 0 l
o
np
77.04 455.13 m
-7.20 0 l
o
np
77.04 493.68 m
-7.20 0 l
o
59.76 339.48 (0) .5 90 t
59.76 378.03 (10) .5 90 t
59.76 416.58 (20) .5 90 t
59.76 455.13 (30) .5 90 t
59.76 493.68 (40) .5 90 t
77.04 332.38 267.40 523.90 cl
0 0 0 srgb
0.75 setlinewidth
[] 0 setdash
1 setlinecap
1 setlinejoin
10.00 setmiterlimit
84.09 339.48 16.02 177.33 r p1
100.11 339.48 16.02 23.13 r p1
116.14 339.48 16.02 19.28 r p1
132.16 339.48 16.02 11.57 r p1
148.18 339.48 16.02 19.28 r p1
164.21 339.48 16.02 3.86 r p1
180.23 339.48 16.02 19.28 r p1
196.25 339.48 16.02 3.86 r p1
212.28 339.48 16.02 3.86 r p1
228.30 339.48 16.02 3.86 r p1
244.32 339.48 16.02 3.86 r p1
356.68 332.38 547.04 523.90 cl
ep
%%Trailer
%%Pages: 4
%%EOF
