VRPTEST okul17d
COMMENT: 
COMMENT: Best known objective: 925.82
NAME: okul17d
NUM_DEPOTS: 1
NUM_CAPACITIES: 1
NUM_VISITS: 17
NUM_LOCATIONS: 18
NUM_VEHICLES: 17
CAPACITIES: 100
DATA_SECTION
DEPOTS
  0
DEMAND_SECTION
  1 -20
  2 -40
  3 -31
  4 -38
  5 -6
  6 -18
  7 -7
  8 -19
  9 -22
  10 -8
  11 -17
  12 -31
  13 -25
  14 -14
  15 -25
  16 -18
  17 -28
LOCATION_COORD_SECTION
  0 0 0
  1 -3 -49
  2 -28 36
  3 -90 33
  4 21 -73
  5 11 -22
  6 30 3
  7 -63 36
  8 -54 -25
  9 10 -96
  10 -1 -37
  11 -70 79
  12 -60 59
  13 -75 -56
  14 -16 -78
  15 -90 10
  16 -44 -43
  17 52 -33
DEPOT_LOCATION_SECTION
  0 0
VISIT_LOCATION_SECTION
  1 1
  2 2
  3 3
  4 4
  5 5
  6 6
  7 7
  8 8
  9 9
  10 10
  11 11
  12 12
  13 13
  14 14
  15 15
  16 16
  17 17
DURATION_SECTION
  1 20
  2 20
  3 20
  4 20
  5 20
  6 20
  7 20
  8 20
  9 20
  10 20
  11 20
  12 20
  13 20
  14 20
  15 20
  16 20
  17 20
DEPOT_TIME_WINDOW_SECTION
  0 0 740
COMMENT: TIMESTEP: 7
TIME_AVAIL_SECTION
  1 55
  2 200
  3 405
  4 415
  5 704
  6 498
  7 227
  8 650
  9 687
  10 423
  11 592
  12 311
  13 56
  14 211
  15 175
  16 637
  17 391
EOF