VRPTEST okul17c
COMMENT: 
COMMENT: Best known objective: 1117.79
NAME: okul17c
NUM_DEPOTS: 1
NUM_CAPACITIES: 1
NUM_VISITS: 17
NUM_LOCATIONS: 18
NUM_VEHICLES: 17
CAPACITIES: 100
DATA_SECTION
DEPOTS
  0
DEMAND_SECTION
  1 -14
  2 -40
  3 -26
  4 -25
  5 -5
  6 -25
  7 -28
  8 -37
  9 -21
  10 -18
  11 -17
  12 -45
  13 -14
  14 -25
  15 -23
  16 -30
  17 -25
LOCATION_COORD_SECTION
  0 0 0
  1 -88 -59
  2 19 90
  3 77 32
  4 77 40
  5 -81 45
  6 -11 20
  7 42 -69
  8 -65 73
  9 23 36
  10 -78 -23
  11 50 62
  12 44 29
  13 -65 -95
  14 68 15
  15 21 -10
  16 30 50
  17 -95 28
DEPOT_LOCATION_SECTION
  0 0
VISIT_LOCATION_SECTION
  1 1
  2 2
  3 3
  4 4
  5 5
  6 6
  7 7
  8 8
  9 9
  10 10
  11 11
  12 12
  13 13
  14 14
  15 15
  16 16
  17 17
DURATION_SECTION
  1 20
  2 20
  3 20
  4 20
  5 20
  6 20
  7 20
  8 20
  9 20
  10 20
  11 20
  12 20
  13 20
  14 20
  15 20
  16 20
  17 20
DEPOT_TIME_WINDOW_SECTION
  0 0 740
COMMENT: TIMESTEP: 7
TIME_AVAIL_SECTION
  1 422
  2 18
  3 266
  4 233
  5 238
  6 234
  7 641
  8 718
  9 46
  10 22
  11 432
  12 180
  13 168
  14 379
  15 598
  16 447
  17 181
EOF