%!PS-Adobe-3.0
%%DocumentNeededResources: font Helvetica
%%+ font Helvetica-Bold
%%+ font Helvetica-Oblique
%%+ font Helvetica-BoldOblique
%%+ font Symbol
%%DocumentMedia: a4 595 841 0 () ()
%%Title: R Graphics Output
%%Creator: R Software
%%Pages: (atend)
%%Orientation: Portrait
%%BoundingBox: 18 277 577 565
%%EndComments
%%BeginProlog
/bp  { gs sRGB gs } def
% begin .ps.prolog
/gs  { gsave } bind def
/gr  { grestore } bind def
/ep  { showpage gr gr } bind def
/m   { moveto } bind def
/l  { rlineto } bind def
/np  { newpath } bind def
/cp  { closepath } bind def
/f   { fill } bind def
/o   { stroke } bind def
/c   { newpath 0 360 arc } bind def
/r   { 4 2 roll moveto 1 copy 3 -1 roll exch 0 exch rlineto 0 rlineto -1 mul 0 exch rlineto closepath } bind def
/p1  { stroke } bind def
/p2  { gsave bg fill grestore newpath } bind def
/p3  { gsave bg fill grestore stroke } bind def
/p6  { gsave bg eofill grestore newpath } bind def
/p7  { gsave bg eofill grestore stroke } bind def
/t   { 5 -2 roll moveto gsave rotate
       1 index stringwidth pop
       mul neg 0 rmoveto show grestore } bind def
/ta  { 4 -2 roll moveto gsave rotate show } bind def
/tb  { 2 -1 roll 0 rmoveto show } bind def
/cl  { grestore gsave newpath 3 index 3 index moveto 1 index
       4 -1 roll lineto  exch 1 index lineto lineto
       closepath clip newpath } bind def
/rgb { setrgbcolor } bind def
/s   { scalefont setfont } bind def
% end   .ps.prolog
/sRGB { [ /CIEBasedABC
          << /DecodeLMN
               [ { dup 0.03928 le
                        {12.92321 div}
                        {0.055 add 1.055 div 2.4 exp }
                     ifelse
                 } bind dup dup
               ]
             /MatrixLMN [0.412457 0.212673 0.019334
                         0.357576 0.715152 0.119192
                         0.180437 0.072175 0.950301]
             /WhitePoint [0.9505 1.0 1.0890]
           >>
         ] setcolorspace } bind def
/srgb { setcolor } bind def
% begin encoding
/WinAnsiEncoding [
 /.notdef /.notdef /.notdef /.notdef /.notdef /.notdef /.notdef /.notdef
 /.notdef /.notdef /.notdef /.notdef /.notdef /.notdef /.notdef /.notdef
 /.notdef /.notdef /.notdef /.notdef /.notdef /.notdef /.notdef /.notdef
 /.notdef /.notdef /.notdef /.notdef /.notdef /.notdef /.notdef /.notdef
 /space /exclam /quotedbl /numbersign /dollar /percent /ampersand /quoteright
 /parenleft /parenright /asterisk /plus /comma /minus /period /slash
 /zero /one /two /three /four /five /six /seven
 /eight /nine /colon /semicolon /less /equal /greater /question
 /at /A /B /C /D /E /F /G
 /H /I /J /K /L /M /N /O
 /P /Q /R /S /T /U /V /W
 /X /Y /Z /bracketleft /backslash /bracketright /asciicircum /underscore
 /grave /a /b /c /d /e /f /g
 /h /i /j /k /l /m /n /o
 /p /q /r /s /t /u /v /w
 /x /y /z /braceleft /bar /braceright /asciitilde /.notdef
 /Euro /.notdef /quotesinglbase /florin /quotedblbase /ellipsis /dagger /daggerdbl
 /circumflex /perthousand /Scaron /guilsinglleft /OE /.notdef /Zcaron /.notdef
 /.notdef /quoteleft /quoteright /quotedblleft /quotedblright /bullet /endash /emdash
 /tilde /trademark /scaron /guilsinglright /oe /.notdef /zcaron /Ydieresis
 /space /exclamdown /cent /sterling /currency /yen /brokenbar /section
 /dieresis /copyright /ordfeminine /guillemotleft /logicalnot /hyphen /registered /macron
 /degree /plusminus /twosuperior /threesuperior /acute /mu /paragraph /periodcentered
 /cedilla /onesuperior /ordmasculine /guillemotright /onequarter /onehalf /threequarters /questiondown
 /Agrave /Aacute /Acircumflex /Atilde /Adieresis /Aring /AE /Ccedilla
 /Egrave /Eacute /Ecircumflex /Edieresis /Igrave /Iacute /Icircumflex /Idieresis
 /Eth /Ntilde /Ograve /Oacute /Ocircumflex /Otilde /Odieresis /multiply
 /Oslash /Ugrave /Uacute /Ucircumflex /Udieresis /Yacute /Thorn /germandbls
 /agrave /aacute /acircumflex /atilde /adieresis /aring /ae /ccedilla
 /egrave /eacute /ecircumflex /edieresis /igrave /iacute /icircumflex /idieresis
 /eth /ntilde /ograve /oacute /ocircumflex /otilde /odieresis /divide
 /oslash /ugrave /uacute /ucircumflex /udieresis /yacute /thorn /ydieresis
]
 def
% end encoding
%%IncludeResource: font Helvetica
/Helvetica findfont
dup length dict begin
  {1 index /FID ne {def} {pop pop} ifelse} forall
  /Encoding WinAnsiEncoding def
  currentdict
  end
/Font1 exch definefont pop
%%IncludeResource: font Helvetica-Bold
/Helvetica-Bold findfont
dup length dict begin
  {1 index /FID ne {def} {pop pop} ifelse} forall
  /Encoding WinAnsiEncoding def
  currentdict
  end
/Font2 exch definefont pop
%%IncludeResource: font Helvetica-Oblique
/Helvetica-Oblique findfont
dup length dict begin
  {1 index /FID ne {def} {pop pop} ifelse} forall
  /Encoding WinAnsiEncoding def
  currentdict
  end
/Font3 exch definefont pop
%%IncludeResource: font Helvetica-BoldOblique
/Helvetica-BoldOblique findfont
dup length dict begin
  {1 index /FID ne {def} {pop pop} ifelse} forall
  /Encoding WinAnsiEncoding def
  currentdict
  end
/Font4 exch definefont pop
%%IncludeResource: font Symbol
/Symbol findfont
dup length dict begin
  {1 index /FID ne {def} {pop pop} ifelse} forall
  currentdict
  end
/Font5 exch definefont pop
%%EndProlog
%%Page: 1 1
bp
18.00 276.94 577.28 564.94 cl
0 0 0 srgb
0.75 setlinewidth
[] 0 setdash
1 setlinecap
1 setlinejoin
10.00 setmiterlimit
np
46.80 327.61 m
0 200.00 l
o
np
46.80 327.61 m
-7.20 0 l
o
np
46.80 360.94 m
-7.20 0 l
o
np
46.80 394.28 m
-7.20 0 l
o
np
46.80 427.61 m
-7.20 0 l
o
np
46.80 460.94 m
-7.20 0 l
o
np
46.80 494.28 m
-7.20 0 l
o
np
46.80 527.61 m
-7.20 0 l
o
/Font1 findfont 12 s
29.52 327.61 (1.00) .5 90 t
29.52 394.28 (1.10) .5 90 t
29.52 460.94 (1.20) .5 90 t
29.52 527.61 (1.30) .5 90 t
np
46.80 305.74 m
516.08 0 l
0 230.40 l
-516.08 0 l
0 -230.40 l
o
18.00 276.94 577.28 564.94 cl
18.00 276.94 577.28 564.94 cl
0 0 0 srgb
0.75 setlinewidth
[] 0 setdash
1 setlinecap
1 setlinejoin
10.00 setmiterlimit
np
145.56 305.74 m
318.56 0 l
o
np
145.56 305.74 m
0 -7.20 l
o
np
304.84 305.74 m
0 -7.20 l
o
np
464.12 305.74 m
0 -7.20 l
o
/Font1 findfont 12 s
145.56 279.82 (10^3) .5 0 t
304.84 279.82 (10^4) .5 0 t
464.12 279.82 (10^5) .5 0 t
46.80 305.74 562.88 536.14 cl
0 0 0 srgb
0.75 setlinewidth
[ 2.25 3.75] 0 setdash
1 setlinecap
1 setlinejoin
10.00 setmiterlimit
np
18.00 360.79 m
127.56 0 l
159.28 0 l
159.28 0 l
113.16 0 l
o
0.75 setlinewidth
[] 0 setdash
np
18.00 387.50 m
127.56 0 l
159.28 0 l
159.28 0 l
113.16 0 l
o
2.25 setlinewidth
[] 0 setdash
0 setlinecap
np
113.70 394.36 m
63.71 0 l
o
0.75 setlinewidth
[ 2.25 3.75] 0 setdash
1 setlinecap
np
145.56 327.61 m
0 46.49 l
o
np
145.56 488.03 m
0 -67.30 l
o
0.75 setlinewidth
[] 0 setdash
np
129.63 327.61 m
31.85 0 l
o
np
129.63 488.03 m
31.85 0 l
o
np
113.70 374.10 m
63.71 0 l
0 46.63 l
-63.71 0 l
0 -46.63 l
o
145.56 499.28 2.70 c p1
145.56 520.57 2.70 c p1
145.56 525.77 2.70 c p1
145.56 508.55 2.70 c p1
145.56 506.41 2.70 c p1
145.56 515.86 2.70 c p1
145.56 500.68 2.70 c p1
145.56 494.72 2.70 c p1
145.56 497.73 2.70 c p1
145.56 491.97 2.70 c p1
145.56 526.81 2.70 c p1
145.56 496.16 2.70 c p1
145.56 503.66 2.70 c p1
145.56 502.63 2.70 c p1
145.56 514.71 2.70 c p1
145.56 516.53 2.70 c p1
145.56 493.16 2.70 c p1
145.56 494.13 2.70 c p1
145.56 502.55 2.70 c p1
145.56 498.28 2.70 c p1
145.56 493.20 2.70 c p1
145.56 502.45 2.70 c p1
145.56 515.82 2.70 c p1
145.56 536.32 2.70 c p1
145.56 514.04 2.70 c p1
18.00 276.94 577.28 564.94 cl
0 0 0 srgb
0.75 setlinewidth
[] 0 setdash
1 setlinecap
1 setlinejoin
10.00 setmiterlimit
np
46.80 327.61 m
0 200.00 l
o
np
46.80 327.61 m
-7.20 0 l
o
np
46.80 360.94 m
-7.20 0 l
o
np
46.80 394.28 m
-7.20 0 l
o
np
46.80 427.61 m
-7.20 0 l
o
np
46.80 460.94 m
-7.20 0 l
o
np
46.80 494.28 m
-7.20 0 l
o
np
46.80 527.61 m
-7.20 0 l
o
/Font1 findfont 12 s
29.52 327.61 (1.00) .5 90 t
29.52 394.28 (1.10) .5 90 t
29.52 460.94 (1.20) .5 90 t
29.52 527.61 (1.30) .5 90 t
np
46.80 305.74 m
516.08 0 l
0 230.40 l
-516.08 0 l
0 -230.40 l
o
46.80 305.74 562.88 536.14 cl
0.4000 0.4000 0.4000 srgb
1.50 setlinewidth
[] 0 setdash
1 setlinecap
1 setlinejoin
10.00 setmiterlimit
np
145.56 353.33 m
3.63 -6.30 l
-7.27 0 l
3.64 6.30 l
o
0 0 0 srgb
2.25 setlinewidth
[] 0 setdash
0 setlinecap
np
272.98 364.83 m
63.71 0 l
o
0.75 setlinewidth
[ 2.25 3.75] 0 setdash
1 setlinecap
np
304.84 327.61 m
0 24.60 l
o
np
304.84 418.23 m
0 -39.21 l
o
0.75 setlinewidth
[] 0 setdash
np
288.91 327.61 m
31.86 0 l
o
np
288.91 418.23 m
31.86 0 l
o
np
272.98 352.21 m
63.71 0 l
0 26.81 l
-63.71 0 l
0 -26.81 l
o
304.84 429.48 2.70 c p1
304.84 467.63 2.70 c p1
304.84 430.72 2.70 c p1
304.84 441.06 2.70 c p1
304.84 462.52 2.70 c p1
304.84 445.41 2.70 c p1
304.84 426.93 2.70 c p1
304.84 436.62 2.70 c p1
304.84 421.91 2.70 c p1
304.84 487.94 2.70 c p1
304.84 428.87 2.70 c p1
304.84 423.06 2.70 c p1
304.84 449.63 2.70 c p1
304.84 420.32 2.70 c p1
18.00 276.94 577.28 564.94 cl
0 0 0 srgb
0.75 setlinewidth
[] 0 setdash
1 setlinecap
1 setlinejoin
10.00 setmiterlimit
np
46.80 327.61 m
0 200.00 l
o
np
46.80 327.61 m
-7.20 0 l
o
np
46.80 360.94 m
-7.20 0 l
o
np
46.80 394.28 m
-7.20 0 l
o
np
46.80 427.61 m
-7.20 0 l
o
np
46.80 460.94 m
-7.20 0 l
o
np
46.80 494.28 m
-7.20 0 l
o
np
46.80 527.61 m
-7.20 0 l
o
/Font1 findfont 12 s
29.52 327.61 (1.00) .5 90 t
29.52 394.28 (1.10) .5 90 t
29.52 460.94 (1.20) .5 90 t
29.52 527.61 (1.30) .5 90 t
np
46.80 305.74 m
516.08 0 l
0 230.40 l
-516.08 0 l
0 -230.40 l
o
46.80 305.74 562.88 536.14 cl
0.4000 0.4000 0.4000 srgb
1.50 setlinewidth
[] 0 setdash
1 setlinecap
1 setlinejoin
10.00 setmiterlimit
np
304.84 338.29 m
3.63 -6.30 l
-7.27 0 l
3.64 6.30 l
o
0 0 0 srgb
2.25 setlinewidth
[] 0 setdash
0 setlinecap
np
432.26 353.48 m
63.72 0 l
o
0.75 setlinewidth
[ 2.25 3.75] 0 setdash
1 setlinecap
np
464.12 327.61 m
0 14.45 l
o
np
464.12 413.91 m
0 -42.94 l
o
0.75 setlinewidth
[] 0 setdash
np
448.19 327.61 m
31.86 0 l
o
np
448.19 413.91 m
31.86 0 l
o
np
432.26 342.06 m
63.72 0 l
0 28.91 l
-63.72 0 l
0 -28.91 l
o
464.12 424.69 2.70 c p1
464.12 420.51 2.70 c p1
464.12 425.05 2.70 c p1
464.12 454.00 2.70 c p1
464.12 449.24 2.70 c p1
464.12 417.28 2.70 c p1
464.12 417.32 2.70 c p1
464.12 501.77 2.70 c p1
464.12 435.35 2.70 c p1
464.12 482.33 2.70 c p1
464.12 455.45 2.70 c p1
464.12 415.16 2.70 c p1
18.00 276.94 577.28 564.94 cl
0 0 0 srgb
0.75 setlinewidth
[] 0 setdash
1 setlinecap
1 setlinejoin
10.00 setmiterlimit
np
46.80 327.61 m
0 200.00 l
o
np
46.80 327.61 m
-7.20 0 l
o
np
46.80 360.94 m
-7.20 0 l
o
np
46.80 394.28 m
-7.20 0 l
o
np
46.80 427.61 m
-7.20 0 l
o
np
46.80 460.94 m
-7.20 0 l
o
np
46.80 494.28 m
-7.20 0 l
o
np
46.80 527.61 m
-7.20 0 l
o
/Font1 findfont 12 s
29.52 327.61 (1.00) .5 90 t
29.52 394.28 (1.10) .5 90 t
29.52 460.94 (1.20) .5 90 t
29.52 527.61 (1.30) .5 90 t
np
46.80 305.74 m
516.08 0 l
0 230.40 l
-516.08 0 l
0 -230.40 l
o
46.80 305.74 562.88 536.14 cl
0.4000 0.4000 0.4000 srgb
1.50 setlinewidth
[] 0 setdash
1 setlinecap
1 setlinejoin
10.00 setmiterlimit
np
464.12 334.69 m
3.64 -6.29 l
-7.28 0 l
3.64 6.29 l
o
ep
%%Trailer
%%Pages: 1
%%EOF
