%!PS-Adobe-3.0
%%DocumentNeededResources: font Helvetica
%%+ font Helvetica-Bold
%%+ font Helvetica-Oblique
%%+ font Helvetica-BoldOblique
%%+ font Symbol
%%DocumentMedia: a4 595 841 0 () ()
%%Title: R Graphics Output
%%Creator: R Software
%%Pages: (atend)
%%Orientation: Portrait
%%BoundingBox: 190 241 406 601
%%EndComments
%%BeginProlog
/bp  { gs sRGB gs } def
% begin .ps.prolog
/gs  { gsave } bind def
/gr  { grestore } bind def
/ep  { showpage gr gr } bind def
/m   { moveto } bind def
/l  { rlineto } bind def
/np  { newpath } bind def
/cp  { closepath } bind def
/f   { fill } bind def
/o   { stroke } bind def
/c   { newpath 0 360 arc } bind def
/r   { 4 2 roll moveto 1 copy 3 -1 roll exch 0 exch rlineto 0 rlineto -1 mul 0 exch rlineto closepath } bind def
/p1  { stroke } bind def
/p2  { gsave bg fill grestore newpath } bind def
/p3  { gsave bg fill grestore stroke } bind def
/p6  { gsave bg eofill grestore newpath } bind def
/p7  { gsave bg eofill grestore stroke } bind def
/t   { 5 -2 roll moveto gsave rotate
       1 index stringwidth pop
       mul neg 0 rmoveto show grestore } bind def
/ta  { 4 -2 roll moveto gsave rotate show } bind def
/tb  { 2 -1 roll 0 rmoveto show } bind def
/cl  { grestore gsave newpath 3 index 3 index moveto 1 index
       4 -1 roll lineto  exch 1 index lineto lineto
       closepath clip newpath } bind def
/rgb { setrgbcolor } bind def
/s   { scalefont setfont } bind def
% end   .ps.prolog
/sRGB { [ /CIEBasedABC
          << /DecodeLMN
               [ { dup 0.03928 le
                        {12.92321 div}
                        {0.055 add 1.055 div 2.4 exp }
                     ifelse
                 } bind dup dup
               ]
             /MatrixLMN [0.412457 0.212673 0.019334
                         0.357576 0.715152 0.119192
                         0.180437 0.072175 0.950301]
             /WhitePoint [0.9505 1.0 1.0890]
           >>
         ] setcolorspace } bind def
/srgb { setcolor } bind def
% begin encoding
/WinAnsiEncoding [
 /.notdef /.notdef /.notdef /.notdef /.notdef /.notdef /.notdef /.notdef
 /.notdef /.notdef /.notdef /.notdef /.notdef /.notdef /.notdef /.notdef
 /.notdef /.notdef /.notdef /.notdef /.notdef /.notdef /.notdef /.notdef
 /.notdef /.notdef /.notdef /.notdef /.notdef /.notdef /.notdef /.notdef
 /space /exclam /quotedbl /numbersign /dollar /percent /ampersand /quoteright
 /parenleft /parenright /asterisk /plus /comma /minus /period /slash
 /zero /one /two /three /four /five /six /seven
 /eight /nine /colon /semicolon /less /equal /greater /question
 /at /A /B /C /D /E /F /G
 /H /I /J /K /L /M /N /O
 /P /Q /R /S /T /U /V /W
 /X /Y /Z /bracketleft /backslash /bracketright /asciicircum /underscore
 /grave /a /b /c /d /e /f /g
 /h /i /j /k /l /m /n /o
 /p /q /r /s /t /u /v /w
 /x /y /z /braceleft /bar /braceright /asciitilde /.notdef
 /Euro /.notdef /quotesinglbase /florin /quotedblbase /ellipsis /dagger /daggerdbl
 /circumflex /perthousand /Scaron /guilsinglleft /OE /.notdef /Zcaron /.notdef
 /.notdef /quoteleft /quoteright /quotedblleft /quotedblright /bullet /endash /emdash
 /tilde /trademark /scaron /guilsinglright /oe /.notdef /zcaron /Ydieresis
 /space /exclamdown /cent /sterling /currency /yen /brokenbar /section
 /dieresis /copyright /ordfeminine /guillemotleft /logicalnot /hyphen /registered /macron
 /degree /plusminus /twosuperior /threesuperior /acute /mu /paragraph /periodcentered
 /cedilla /onesuperior /ordmasculine /guillemotright /onequarter /onehalf /threequarters /questiondown
 /Agrave /Aacute /Acircumflex /Atilde /Adieresis /Aring /AE /Ccedilla
 /Egrave /Eacute /Ecircumflex /Edieresis /Igrave /Iacute /Icircumflex /Idieresis
 /Eth /Ntilde /Ograve /Oacute /Ocircumflex /Otilde /Odieresis /multiply
 /Oslash /Ugrave /Uacute /Ucircumflex /Udieresis /Yacute /Thorn /germandbls
 /agrave /aacute /acircumflex /atilde /adieresis /aring /ae /ccedilla
 /egrave /eacute /ecircumflex /edieresis /igrave /iacute /icircumflex /idieresis
 /eth /ntilde /ograve /oacute /ocircumflex /otilde /odieresis /divide
 /oslash /ugrave /uacute /ucircumflex /udieresis /yacute /thorn /ydieresis
]
 def
% end encoding
%%IncludeResource: font Helvetica
/Helvetica findfont
dup length dict begin
  {1 index /FID ne {def} {pop pop} ifelse} forall
  /Encoding WinAnsiEncoding def
  currentdict
  end
/Font1 exch definefont pop
%%IncludeResource: font Helvetica-Bold
/Helvetica-Bold findfont
dup length dict begin
  {1 index /FID ne {def} {pop pop} ifelse} forall
  /Encoding WinAnsiEncoding def
  currentdict
  end
/Font2 exch definefont pop
%%IncludeResource: font Helvetica-Oblique
/Helvetica-Oblique findfont
dup length dict begin
  {1 index /FID ne {def} {pop pop} ifelse} forall
  /Encoding WinAnsiEncoding def
  currentdict
  end
/Font3 exch definefont pop
%%IncludeResource: font Helvetica-BoldOblique
/Helvetica-BoldOblique findfont
dup length dict begin
  {1 index /FID ne {def} {pop pop} ifelse} forall
  /Encoding WinAnsiEncoding def
  currentdict
  end
/Font4 exch definefont pop
%%IncludeResource: font Symbol
/Symbol findfont
dup length dict begin
  {1 index /FID ne {def} {pop pop} ifelse} forall
  currentdict
  end
/Font5 exch definefont pop
%%EndProlog
%%Page: 1 1
bp
189.64 240.94 405.64 600.94 cl
0 0 0 srgb
0.75 setlinewidth
[] 0 setdash
1 setlinecap
1 setlinejoin
10.00 setmiterlimit
np
218.15 524.94 m
0 54.66 l
o
np
218.15 524.94 m
-4.75 0 l
o
np
218.15 534.05 m
-4.75 0 l
o
np
218.15 543.16 m
-4.75 0 l
o
np
218.15 552.27 m
-4.75 0 l
o
np
218.15 561.38 m
-4.75 0 l
o
np
218.15 570.49 m
-4.75 0 l
o
np
218.15 579.60 m
-4.75 0 l
o
/Font1 findfont 8 s
206.74 524.94 (1.00) .5 90 t
206.74 552.27 (1.15) .5 90 t
206.74 579.60 (1.30) .5 90 t
np
218.15 518.96 m
168.48 0 l
0 62.98 l
-168.48 0 l
0 -62.98 l
o
189.64 480.94 405.64 600.94 cl
/Font2 findfont 10 s
0 0 0 srgb
274.05 587.85 (c) 0 ta
-0.100 (hristofides) tb gr
/Font1 findfont 8 s
283.05 492.35 (T) 0 ta
-0.960 (est cases) tb gr
197.24 525.11 (Relativ) 90 ta
-0.200 (e result) tb gr
189.64 240.94 405.64 600.94 cl
0 0 0 srgb
0.75 setlinewidth
[] 0 setdash
1 setlinecap
1 setlinejoin
10.00 setmiterlimit
np
250.39 518.96 m
104.00 0 l
o
np
250.39 518.96 m
0 -4.75 l
o
np
302.39 518.96 m
0 -4.75 l
o
np
354.39 518.96 m
0 -4.75 l
o
/Font1 findfont 8 s
250.39 501.85 (2MPSO) .5 0 t
302.39 501.85 (2MPSOv2) .5 0 t
354.39 501.85 (2PSO) .5 0 t
218.15 518.96 386.63 581.94 cl
0 0 0 srgb
0.75 setlinewidth
[ 2.25 3.75] 0 setdash
1 setlinecap
1 setlinejoin
10.00 setmiterlimit
np
198.39 538.63 m
52.00 0 l
52.00 0 l
52.00 0 l
51.25 0 l
o
0.75 setlinewidth
[] 0 setdash
np
198.39 546.44 m
52.00 0 l
52.00 0 l
52.00 0 l
51.25 0 l
o
2.25 setlinewidth
[] 0 setdash
0 setlinecap
np
239.99 536.93 m
20.80 0 l
o
0.75 setlinewidth
[ 2.25 3.75] 0 setdash
1 setlinecap
np
250.39 524.94 m
0 7.08 l
o
np
250.39 563.71 m
0 -17.53 l
o
0.75 setlinewidth
[] 0 setdash
np
245.19 524.94 m
10.40 0 l
o
np
245.19 563.71 m
10.40 0 l
o
np
239.99 532.02 m
20.80 0 l
0 14.16 l
-20.80 0 l
0 -14.16 l
o
250.39 576.68 1.18 c p1
189.64 240.94 405.64 600.94 cl
0 0 0 srgb
0.75 setlinewidth
[] 0 setdash
1 setlinecap
1 setlinejoin
10.00 setmiterlimit
np
218.15 524.94 m
0 54.66 l
o
np
218.15 524.94 m
-4.75 0 l
o
np
218.15 534.05 m
-4.75 0 l
o
np
218.15 543.16 m
-4.75 0 l
o
np
218.15 552.27 m
-4.75 0 l
o
np
218.15 561.38 m
-4.75 0 l
o
np
218.15 570.49 m
-4.75 0 l
o
np
218.15 579.60 m
-4.75 0 l
o
/Font1 findfont 8 s
206.74 524.94 (1.00) .5 90 t
206.74 552.27 (1.15) .5 90 t
206.74 579.60 (1.30) .5 90 t
np
218.15 518.96 m
168.48 0 l
0 62.98 l
-168.48 0 l
0 -62.98 l
o
218.15 518.96 386.63 581.94 cl
0.4000 0.4000 0.4000 srgb
1.50 setlinewidth
[] 0 setdash
1 setlinecap
1 setlinejoin
10.00 setmiterlimit
np
250.39 531.37 m
2.40 -4.16 l
-4.80 0 l
2.40 4.16 l
o
0 0 0 srgb
2.25 setlinewidth
[] 0 setdash
0 setlinecap
np
291.99 533.98 m
20.80 0 l
o
0.75 setlinewidth
[ 2.25 3.75] 0 setdash
1 setlinecap
np
302.39 524.94 m
0 5.96 l
o
np
302.39 550.82 m
0 -11.79 l
o
0.75 setlinewidth
[] 0 setdash
np
297.19 524.94 m
10.40 0 l
o
np
297.19 550.82 m
10.40 0 l
o
np
291.99 530.90 m
20.80 0 l
0 8.13 l
-20.80 0 l
0 -8.13 l
o
302.39 552.93 1.18 c p1
302.39 562.57 1.18 c p1
302.39 552.51 1.18 c p1
302.39 555.33 1.18 c p1
302.39 561.18 1.18 c p1
302.39 556.52 1.18 c p1
302.39 551.48 1.18 c p1
189.64 240.94 405.64 600.94 cl
0 0 0 srgb
0.75 setlinewidth
[] 0 setdash
1 setlinecap
1 setlinejoin
10.00 setmiterlimit
np
218.15 524.94 m
0 54.66 l
o
np
218.15 524.94 m
-4.75 0 l
o
np
218.15 534.05 m
-4.75 0 l
o
np
218.15 543.16 m
-4.75 0 l
o
np
218.15 552.27 m
-4.75 0 l
o
np
218.15 561.38 m
-4.75 0 l
o
np
218.15 570.49 m
-4.75 0 l
o
np
218.15 579.60 m
-4.75 0 l
o
/Font1 findfont 8 s
206.74 524.94 (1.00) .5 90 t
206.74 552.27 (1.15) .5 90 t
206.74 579.60 (1.30) .5 90 t
np
218.15 518.96 m
168.48 0 l
0 62.98 l
-168.48 0 l
0 -62.98 l
o
218.15 518.96 386.63 581.94 cl
0.4000 0.4000 0.4000 srgb
1.50 setlinewidth
[] 0 setdash
1 setlinecap
1 setlinejoin
10.00 setmiterlimit
np
302.39 527.84 m
2.40 -4.15 l
-4.80 0 l
2.40 4.15 l
o
0 0 0 srgb
2.25 setlinewidth
[] 0 setdash
0 setlinecap
np
343.99 549.61 m
20.80 0 l
o
0.75 setlinewidth
[ 2.25 3.75] 0 setdash
1 setlinecap
np
354.39 524.94 m
0 14.24 l
o
np
354.39 591.98 m
0 -31.66 l
o
0.75 setlinewidth
[] 0 setdash
np
349.19 524.94 m
10.40 0 l
o
np
349.19 591.98 m
10.40 0 l
o
np
343.99 539.18 m
20.80 0 l
0 21.14 l
-20.80 0 l
0 -21.14 l
o
354.39 592.10 1.18 c p1
354.39 593.11 1.18 c p1
354.39 593.28 1.18 c p1
354.39 593.28 1.18 c p1
354.39 598.25 1.18 c p1
354.39 600.71 1.18 c p1
354.39 594.25 1.18 c p1
354.39 594.25 1.18 c p1
354.39 594.37 1.18 c p1
354.39 595.70 1.18 c p1
189.64 240.94 405.64 600.94 cl
0 0 0 srgb
0.75 setlinewidth
[] 0 setdash
1 setlinecap
1 setlinejoin
10.00 setmiterlimit
np
218.15 524.94 m
0 54.66 l
o
np
218.15 524.94 m
-4.75 0 l
o
np
218.15 534.05 m
-4.75 0 l
o
np
218.15 543.16 m
-4.75 0 l
o
np
218.15 552.27 m
-4.75 0 l
o
np
218.15 561.38 m
-4.75 0 l
o
np
218.15 570.49 m
-4.75 0 l
o
np
218.15 579.60 m
-4.75 0 l
o
/Font1 findfont 8 s
206.74 524.94 (1.00) .5 90 t
206.74 552.27 (1.15) .5 90 t
206.74 579.60 (1.30) .5 90 t
np
218.15 518.96 m
168.48 0 l
0 62.98 l
-168.48 0 l
0 -62.98 l
o
218.15 518.96 386.63 581.94 cl
0.4000 0.4000 0.4000 srgb
1.50 setlinewidth
[] 0 setdash
1 setlinecap
1 setlinejoin
10.00 setmiterlimit
np
354.39 532.34 m
2.40 -4.15 l
-4.80 0 l
2.40 4.15 l
o
218.15 398.96 386.63 461.94 cl
189.64 240.94 405.64 600.94 cl
0 0 0 srgb
0.75 setlinewidth
[] 0 setdash
1 setlinecap
1 setlinejoin
10.00 setmiterlimit
np
218.15 404.94 m
0 54.66 l
o
np
218.15 404.94 m
-4.75 0 l
o
np
218.15 414.05 m
-4.75 0 l
o
np
218.15 423.16 m
-4.75 0 l
o
np
218.15 432.27 m
-4.75 0 l
o
np
218.15 441.38 m
-4.75 0 l
o
np
218.15 450.49 m
-4.75 0 l
o
np
218.15 459.60 m
-4.75 0 l
o
/Font1 findfont 8 s
206.74 404.94 (1.00) .5 90 t
206.74 432.27 (1.15) .5 90 t
206.74 459.60 (1.30) .5 90 t
np
218.15 398.96 m
168.48 0 l
0 62.98 l
-168.48 0 l
0 -62.98 l
o
189.64 360.94 405.64 480.94 cl
/Font2 findfont 10 s
0 0 0 srgb
302.39 467.85 (fisher) .5 0 t
/Font1 findfont 8 s
283.05 372.35 (T) 0 ta
-0.960 (est cases) tb gr
197.24 405.11 (Relativ) 90 ta
-0.200 (e result) tb gr
189.64 240.94 405.64 600.94 cl
0 0 0 srgb
0.75 setlinewidth
[] 0 setdash
1 setlinecap
1 setlinejoin
10.00 setmiterlimit
np
250.39 398.96 m
104.00 0 l
o
np
250.39 398.96 m
0 -4.75 l
o
np
302.39 398.96 m
0 -4.75 l
o
np
354.39 398.96 m
0 -4.75 l
o
/Font1 findfont 8 s
250.39 381.85 (2MPSO) .5 0 t
302.39 381.85 (2MPSOv2) .5 0 t
354.39 381.85 (2PSO) .5 0 t
218.15 398.96 386.63 461.94 cl
0 0 0 srgb
0.75 setlinewidth
[ 2.25 3.75] 0 setdash
1 setlinecap
1 setlinejoin
10.00 setmiterlimit
np
198.39 427.59 m
52.00 0 l
52.00 0 l
52.00 0 l
51.25 0 l
o
0.75 setlinewidth
[] 0 setdash
np
198.39 438.39 m
52.00 0 l
52.00 0 l
52.00 0 l
51.25 0 l
o
2.25 setlinewidth
[] 0 setdash
0 setlinecap
np
239.99 414.11 m
20.80 0 l
o
0.75 setlinewidth
[ 2.25 3.75] 0 setdash
1 setlinecap
np
250.39 406.13 m
0 5.99 l
o
np
250.39 428.06 m
0 -7.87 l
o
0.75 setlinewidth
[] 0 setdash
np
245.19 406.13 m
10.40 0 l
o
np
245.19 428.06 m
10.40 0 l
o
np
239.99 412.12 m
20.80 0 l
0 8.07 l
-20.80 0 l
0 -8.07 l
o
250.39 450.66 1.18 c p1
250.39 434.54 1.18 c p1
250.39 433.27 1.18 c p1
250.39 435.87 1.18 c p1
250.39 439.99 1.18 c p1
189.64 240.94 405.64 600.94 cl
0 0 0 srgb
0.75 setlinewidth
[] 0 setdash
1 setlinecap
1 setlinejoin
10.00 setmiterlimit
np
218.15 404.94 m
0 54.66 l
o
np
218.15 404.94 m
-4.75 0 l
o
np
218.15 414.05 m
-4.75 0 l
o
np
218.15 423.16 m
-4.75 0 l
o
np
218.15 432.27 m
-4.75 0 l
o
np
218.15 441.38 m
-4.75 0 l
o
np
218.15 450.49 m
-4.75 0 l
o
np
218.15 459.60 m
-4.75 0 l
o
/Font1 findfont 8 s
206.74 404.94 (1.00) .5 90 t
206.74 432.27 (1.15) .5 90 t
206.74 459.60 (1.30) .5 90 t
np
218.15 398.96 m
168.48 0 l
0 62.98 l
-168.48 0 l
0 -62.98 l
o
218.15 398.96 386.63 461.94 cl
0.4000 0.4000 0.4000 srgb
1.50 setlinewidth
[] 0 setdash
1 setlinecap
1 setlinejoin
10.00 setmiterlimit
np
250.39 410.52 m
2.40 -4.16 l
-4.80 0 l
2.40 4.16 l
o
0 0 0 srgb
2.25 setlinewidth
[] 0 setdash
0 setlinecap
np
291.99 414.04 m
20.80 0 l
o
0.75 setlinewidth
[ 2.25 3.75] 0 setdash
1 setlinecap
np
302.39 404.94 m
0 6.29 l
o
np
302.39 432.62 m
0 -12.24 l
o
0.75 setlinewidth
[] 0 setdash
np
297.19 404.94 m
10.40 0 l
o
np
297.19 432.62 m
10.40 0 l
o
np
291.99 411.23 m
20.80 0 l
0 9.15 l
-20.80 0 l
0 -9.15 l
o
302.39 448.76 1.18 c p1
189.64 240.94 405.64 600.94 cl
0 0 0 srgb
0.75 setlinewidth
[] 0 setdash
1 setlinecap
1 setlinejoin
10.00 setmiterlimit
np
218.15 404.94 m
0 54.66 l
o
np
218.15 404.94 m
-4.75 0 l
o
np
218.15 414.05 m
-4.75 0 l
o
np
218.15 423.16 m
-4.75 0 l
o
np
218.15 432.27 m
-4.75 0 l
o
np
218.15 441.38 m
-4.75 0 l
o
np
218.15 450.49 m
-4.75 0 l
o
np
218.15 459.60 m
-4.75 0 l
o
/Font1 findfont 8 s
206.74 404.94 (1.00) .5 90 t
206.74 432.27 (1.15) .5 90 t
206.74 459.60 (1.30) .5 90 t
np
218.15 398.96 m
168.48 0 l
0 62.98 l
-168.48 0 l
0 -62.98 l
o
218.15 398.96 386.63 461.94 cl
0.4000 0.4000 0.4000 srgb
1.50 setlinewidth
[] 0 setdash
1 setlinecap
1 setlinejoin
10.00 setmiterlimit
np
302.39 407.71 m
2.40 -4.16 l
-4.80 0 l
2.40 4.16 l
o
0 0 0 srgb
2.25 setlinewidth
[] 0 setdash
0 setlinecap
np
343.99 431.62 m
20.80 0 l
o
0.75 setlinewidth
[ 2.25 3.75] 0 setdash
1 setlinecap
np
354.39 417.10 m
0 9.40 l
o
np
354.39 475.59 m
0 -29.13 l
o
0.75 setlinewidth
[] 0 setdash
np
349.19 417.10 m
10.40 0 l
o
np
349.19 475.59 m
10.40 0 l
o
np
343.99 426.50 m
20.80 0 l
0 19.96 l
-20.80 0 l
0 -19.96 l
o
354.39 476.59 1.18 c p1
354.39 477.52 1.18 c p1
354.39 479.95 1.18 c p1
354.39 489.44 1.18 c p1
354.39 498.56 1.18 c p1
354.39 519.94 1.18 c p1
189.64 240.94 405.64 600.94 cl
0 0 0 srgb
0.75 setlinewidth
[] 0 setdash
1 setlinecap
1 setlinejoin
10.00 setmiterlimit
np
218.15 404.94 m
0 54.66 l
o
np
218.15 404.94 m
-4.75 0 l
o
np
218.15 414.05 m
-4.75 0 l
o
np
218.15 423.16 m
-4.75 0 l
o
np
218.15 432.27 m
-4.75 0 l
o
np
218.15 441.38 m
-4.75 0 l
o
np
218.15 450.49 m
-4.75 0 l
o
np
218.15 459.60 m
-4.75 0 l
o
/Font1 findfont 8 s
206.74 404.94 (1.00) .5 90 t
206.74 432.27 (1.15) .5 90 t
206.74 459.60 (1.30) .5 90 t
np
218.15 398.96 m
168.48 0 l
0 62.98 l
-168.48 0 l
0 -62.98 l
o
218.15 398.96 386.63 461.94 cl
0.4000 0.4000 0.4000 srgb
1.50 setlinewidth
[] 0 setdash
1 setlinecap
1 setlinejoin
10.00 setmiterlimit
np
354.39 421.23 m
2.40 -4.15 l
-4.80 0 l
2.40 4.15 l
o
218.15 278.96 386.63 341.94 cl
189.64 240.94 405.64 600.94 cl
0 0 0 srgb
0.75 setlinewidth
[] 0 setdash
1 setlinecap
1 setlinejoin
10.00 setmiterlimit
np
218.15 284.94 m
0 54.66 l
o
np
218.15 284.94 m
-4.75 0 l
o
np
218.15 294.05 m
-4.75 0 l
o
np
218.15 303.16 m
-4.75 0 l
o
np
218.15 312.27 m
-4.75 0 l
o
np
218.15 321.38 m
-4.75 0 l
o
np
218.15 330.49 m
-4.75 0 l
o
np
218.15 339.60 m
-4.75 0 l
o
/Font1 findfont 8 s
206.74 284.94 (1.00) .5 90 t
206.74 312.27 (1.15) .5 90 t
206.74 339.60 (1.30) .5 90 t
np
218.15 278.96 m
168.48 0 l
0 62.98 l
-168.48 0 l
0 -62.98 l
o
189.64 240.94 405.64 360.94 cl
/Font2 findfont 10 s
0 0 0 srgb
285.99 347.85 (taillar) 0 ta
-0.200 (d) tb gr
/Font1 findfont 8 s
283.05 252.35 (T) 0 ta
-0.960 (est cases) tb gr
197.24 285.11 (Relativ) 90 ta
-0.200 (e result) tb gr
189.64 240.94 405.64 600.94 cl
0 0 0 srgb
0.75 setlinewidth
[] 0 setdash
1 setlinecap
1 setlinejoin
10.00 setmiterlimit
np
250.39 278.96 m
104.00 0 l
o
np
250.39 278.96 m
0 -4.75 l
o
np
302.39 278.96 m
0 -4.75 l
o
np
354.39 278.96 m
0 -4.75 l
o
/Font1 findfont 8 s
250.39 261.85 (2MPSO) .5 0 t
302.39 261.85 (2MPSOv2) .5 0 t
354.39 261.85 (2PSO) .5 0 t
218.15 278.96 386.63 341.94 cl
0 0 0 srgb
0.75 setlinewidth
[ 2.25 3.75] 0 setdash
1 setlinecap
1 setlinejoin
10.00 setmiterlimit
np
198.39 285.95 m
52.00 0 l
52.00 0 l
52.00 0 l
51.25 0 l
o
0.75 setlinewidth
[] 0 setdash
np
198.39 292.24 m
52.00 0 l
52.00 0 l
52.00 0 l
51.25 0 l
o
2.25 setlinewidth
[] 0 setdash
0 setlinecap
np
239.99 301.26 m
20.80 0 l
o
0.75 setlinewidth
[ 2.25 3.75] 0 setdash
1 setlinecap
np
250.39 284.94 m
0 11.53 l
o
np
250.39 321.07 m
0 -14.59 l
o
0.75 setlinewidth
[] 0 setdash
np
245.19 284.94 m
10.40 0 l
o
np
245.19 321.07 m
10.40 0 l
o
np
239.99 296.47 m
20.80 0 l
0 10.01 l
-20.80 0 l
0 -10.01 l
o
250.39 322.61 1.18 c p1
250.39 337.91 1.18 c p1
250.39 322.09 1.18 c p1
250.39 324.54 1.18 c p1
250.39 336.64 1.18 c p1
250.39 333.59 1.18 c p1
250.39 340.61 1.18 c p1
250.39 335.73 1.18 c p1
189.64 240.94 405.64 600.94 cl
0 0 0 srgb
0.75 setlinewidth
[] 0 setdash
1 setlinecap
1 setlinejoin
10.00 setmiterlimit
np
218.15 284.94 m
0 54.66 l
o
np
218.15 284.94 m
-4.75 0 l
o
np
218.15 294.05 m
-4.75 0 l
o
np
218.15 303.16 m
-4.75 0 l
o
np
218.15 312.27 m
-4.75 0 l
o
np
218.15 321.38 m
-4.75 0 l
o
np
218.15 330.49 m
-4.75 0 l
o
np
218.15 339.60 m
-4.75 0 l
o
/Font1 findfont 8 s
206.74 284.94 (1.00) .5 90 t
206.74 312.27 (1.15) .5 90 t
206.74 339.60 (1.30) .5 90 t
np
218.15 278.96 m
168.48 0 l
0 62.98 l
-168.48 0 l
0 -62.98 l
o
218.15 278.96 386.63 341.94 cl
0.4000 0.4000 0.4000 srgb
1.50 setlinewidth
[] 0 setdash
1 setlinecap
1 setlinejoin
10.00 setmiterlimit
np
250.39 294.58 m
2.40 -4.16 l
-4.80 0 l
2.40 4.16 l
o
0 0 0 srgb
2.25 setlinewidth
[] 0 setdash
0 setlinecap
np
291.99 292.20 m
20.80 0 l
o
0.75 setlinewidth
[ 2.25 3.75] 0 setdash
1 setlinecap
np
302.39 284.94 m
0 4.17 l
o
np
302.39 306.20 m
0 -10.08 l
o
0.75 setlinewidth
[] 0 setdash
np
297.19 284.94 m
10.40 0 l
o
np
297.19 306.20 m
10.40 0 l
o
np
291.99 289.11 m
20.80 0 l
0 7.01 l
-20.80 0 l
0 -7.01 l
o
302.39 307.21 1.18 c p1
302.39 309.28 1.18 c p1
302.39 308.66 1.18 c p1
302.39 307.99 1.18 c p1
302.39 316.50 1.18 c p1
302.39 307.96 1.18 c p1
302.39 308.56 1.18 c p1
302.39 306.95 1.18 c p1
302.39 307.29 1.18 c p1
189.64 240.94 405.64 600.94 cl
0 0 0 srgb
0.75 setlinewidth
[] 0 setdash
1 setlinecap
1 setlinejoin
10.00 setmiterlimit
np
218.15 284.94 m
0 54.66 l
o
np
218.15 284.94 m
-4.75 0 l
o
np
218.15 294.05 m
-4.75 0 l
o
np
218.15 303.16 m
-4.75 0 l
o
np
218.15 312.27 m
-4.75 0 l
o
np
218.15 321.38 m
-4.75 0 l
o
np
218.15 330.49 m
-4.75 0 l
o
np
218.15 339.60 m
-4.75 0 l
o
/Font1 findfont 8 s
206.74 284.94 (1.00) .5 90 t
206.74 312.27 (1.15) .5 90 t
206.74 339.60 (1.30) .5 90 t
np
218.15 278.96 m
168.48 0 l
0 62.98 l
-168.48 0 l
0 -62.98 l
o
218.15 278.96 386.63 341.94 cl
0.4000 0.4000 0.4000 srgb
1.50 setlinewidth
[] 0 setdash
1 setlinecap
1 setlinejoin
10.00 setmiterlimit
np
302.39 287.71 m
2.40 -4.16 l
-4.80 0 l
2.40 4.16 l
o
0 0 0 srgb
2.25 setlinewidth
[] 0 setdash
0 setlinecap
np
343.99 316.84 m
20.80 0 l
o
0.75 setlinewidth
[ 2.25 3.75] 0 setdash
1 setlinecap
np
354.39 289.74 m
0 17.90 l
o
np
354.39 361.61 m
0 -32.37 l
o
0.75 setlinewidth
[] 0 setdash
np
349.19 289.74 m
10.40 0 l
o
np
349.19 361.61 m
10.40 0 l
o
np
343.99 307.64 m
20.80 0 l
0 21.60 l
-20.80 0 l
0 -21.60 l
o
354.39 361.95 1.18 c p1
354.39 362.52 1.18 c p1
354.39 362.54 1.18 c p1
354.39 364.62 1.18 c p1
354.39 367.18 1.18 c p1
354.39 370.02 1.18 c p1
354.39 372.11 1.18 c p1
354.39 373.06 1.18 c p1
354.39 363.07 1.18 c p1
354.39 364.33 1.18 c p1
354.39 364.34 1.18 c p1
354.39 373.02 1.18 c p1
354.39 375.70 1.18 c p1
354.39 362.33 1.18 c p1
354.39 362.60 1.18 c p1
354.39 363.84 1.18 c p1
354.39 364.44 1.18 c p1
354.39 365.22 1.18 c p1
354.39 366.33 1.18 c p1
354.39 371.29 1.18 c p1
354.39 385.30 1.18 c p1
354.39 363.99 1.18 c p1
354.39 364.32 1.18 c p1
354.39 370.77 1.18 c p1
354.39 370.77 1.18 c p1
354.39 380.91 1.18 c p1
354.39 384.13 1.18 c p1
354.39 390.93 1.18 c p1
354.39 364.90 1.18 c p1
354.39 366.17 1.18 c p1
354.39 366.17 1.18 c p1
354.39 366.52 1.18 c p1
354.39 368.86 1.18 c p1
354.39 374.10 1.18 c p1
354.39 376.40 1.18 c p1
354.39 393.81 1.18 c p1
354.39 363.70 1.18 c p1
354.39 362.69 1.18 c p1
354.39 362.73 1.18 c p1
354.39 364.92 1.18 c p1
354.39 367.27 1.18 c p1
354.39 371.47 1.18 c p1
354.39 371.47 1.18 c p1
354.39 371.73 1.18 c p1
354.39 373.91 1.18 c p1
354.39 375.70 1.18 c p1
189.64 240.94 405.64 600.94 cl
0 0 0 srgb
0.75 setlinewidth
[] 0 setdash
1 setlinecap
1 setlinejoin
10.00 setmiterlimit
np
218.15 284.94 m
0 54.66 l
o
np
218.15 284.94 m
-4.75 0 l
o
np
218.15 294.05 m
-4.75 0 l
o
np
218.15 303.16 m
-4.75 0 l
o
np
218.15 312.27 m
-4.75 0 l
o
np
218.15 321.38 m
-4.75 0 l
o
np
218.15 330.49 m
-4.75 0 l
o
np
218.15 339.60 m
-4.75 0 l
o
/Font1 findfont 8 s
206.74 284.94 (1.00) .5 90 t
206.74 312.27 (1.15) .5 90 t
206.74 339.60 (1.30) .5 90 t
np
218.15 278.96 m
168.48 0 l
0 62.98 l
-168.48 0 l
0 -62.98 l
o
218.15 278.96 386.63 341.94 cl
0.4000 0.4000 0.4000 srgb
1.50 setlinewidth
[] 0 setdash
1 setlinecap
1 setlinejoin
10.00 setmiterlimit
np
354.39 298.82 m
2.40 -4.16 l
-4.80 0 l
2.40 4.16 l
o
ep
%%Trailer
%%Pages: 1
%%EOF
