%!PS-Adobe-3.0 EPSF-3.0
%%DocumentNeededResources: font Helvetica
%%+ font Helvetica-Bold
%%+ font Helvetica-Oblique
%%+ font Helvetica-BoldOblique
%%+ font Symbol
%%Title: R Graphics Output
%%Creator: R Software
%%Pages: (atend)
%%BoundingBox: 0 0 618 403
%%EndComments
%%BeginProlog
/bp  { gs sRGB gs } def
% begin .ps.prolog
/gs  { gsave } bind def
/gr  { grestore } bind def
/ep  { showpage gr gr } bind def
/m   { moveto } bind def
/l  { rlineto } bind def
/np  { newpath } bind def
/cp  { closepath } bind def
/f   { fill } bind def
/o   { stroke } bind def
/c   { newpath 0 360 arc } bind def
/r   { 4 2 roll moveto 1 copy 3 -1 roll exch 0 exch rlineto 0 rlineto -1 mul 0 exch rlineto closepath } bind def
/p1  { stroke } bind def
/p2  { gsave bg fill grestore newpath } bind def
/p3  { gsave bg fill grestore stroke } bind def
/p6  { gsave bg eofill grestore newpath } bind def
/p7  { gsave bg eofill grestore stroke } bind def
/t   { 5 -2 roll moveto gsave rotate
       1 index stringwidth pop
       mul neg 0 rmoveto show grestore } bind def
/ta  { 4 -2 roll moveto gsave rotate show } bind def
/tb  { 2 -1 roll 0 rmoveto show } bind def
/cl  { grestore gsave newpath 3 index 3 index moveto 1 index
       4 -1 roll lineto  exch 1 index lineto lineto
       closepath clip newpath } bind def
/rgb { setrgbcolor } bind def
/s   { scalefont setfont } bind def
% end   .ps.prolog
/sRGB { [ /CIEBasedABC
          << /DecodeLMN
               [ { dup 0.03928 le
                        {12.92321 div}
                        {0.055 add 1.055 div 2.4 exp }
                     ifelse
                 } bind dup dup
               ]
             /MatrixLMN [0.412457 0.212673 0.019334
                         0.357576 0.715152 0.119192
                         0.180437 0.072175 0.950301]
             /WhitePoint [0.9505 1.0 1.0890]
           >>
         ] setcolorspace } bind def
/srgb { setcolor } bind def
% begin encoding
/WinAnsiEncoding [
 /.notdef /.notdef /.notdef /.notdef /.notdef /.notdef /.notdef /.notdef
 /.notdef /.notdef /.notdef /.notdef /.notdef /.notdef /.notdef /.notdef
 /.notdef /.notdef /.notdef /.notdef /.notdef /.notdef /.notdef /.notdef
 /.notdef /.notdef /.notdef /.notdef /.notdef /.notdef /.notdef /.notdef
 /space /exclam /quotedbl /numbersign /dollar /percent /ampersand /quoteright
 /parenleft /parenright /asterisk /plus /comma /minus /period /slash
 /zero /one /two /three /four /five /six /seven
 /eight /nine /colon /semicolon /less /equal /greater /question
 /at /A /B /C /D /E /F /G
 /H /I /J /K /L /M /N /O
 /P /Q /R /S /T /U /V /W
 /X /Y /Z /bracketleft /backslash /bracketright /asciicircum /underscore
 /grave /a /b /c /d /e /f /g
 /h /i /j /k /l /m /n /o
 /p /q /r /s /t /u /v /w
 /x /y /z /braceleft /bar /braceright /asciitilde /.notdef
 /Euro /.notdef /quotesinglbase /florin /quotedblbase /ellipsis /dagger /daggerdbl
 /circumflex /perthousand /Scaron /guilsinglleft /OE /.notdef /Zcaron /.notdef
 /.notdef /quoteleft /quoteright /quotedblleft /quotedblright /bullet /endash /emdash
 /tilde /trademark /scaron /guilsinglright /oe /.notdef /zcaron /Ydieresis
 /space /exclamdown /cent /sterling /currency /yen /brokenbar /section
 /dieresis /copyright /ordfeminine /guillemotleft /logicalnot /hyphen /registered /macron
 /degree /plusminus /twosuperior /threesuperior /acute /mu /paragraph /periodcentered
 /cedilla /onesuperior /ordmasculine /guillemotright /onequarter /onehalf /threequarters /questiondown
 /Agrave /Aacute /Acircumflex /Atilde /Adieresis /Aring /AE /Ccedilla
 /Egrave /Eacute /Ecircumflex /Edieresis /Igrave /Iacute /Icircumflex /Idieresis
 /Eth /Ntilde /Ograve /Oacute /Ocircumflex /Otilde /Odieresis /multiply
 /Oslash /Ugrave /Uacute /Ucircumflex /Udieresis /Yacute /Thorn /germandbls
 /agrave /aacute /acircumflex /atilde /adieresis /aring /ae /ccedilla
 /egrave /eacute /ecircumflex /edieresis /igrave /iacute /icircumflex /idieresis
 /eth /ntilde /ograve /oacute /ocircumflex /otilde /odieresis /divide
 /oslash /ugrave /uacute /ucircumflex /udieresis /yacute /thorn /ydieresis
]
 def
% end encoding
%%IncludeResource: font Helvetica
/Helvetica findfont
dup length dict begin
  {1 index /FID ne {def} {pop pop} ifelse} forall
  /Encoding WinAnsiEncoding def
  currentdict
  end
/Font1 exch definefont pop
%%IncludeResource: font Helvetica-Bold
/Helvetica-Bold findfont
dup length dict begin
  {1 index /FID ne {def} {pop pop} ifelse} forall
  /Encoding WinAnsiEncoding def
  currentdict
  end
/Font2 exch definefont pop
%%IncludeResource: font Helvetica-Oblique
/Helvetica-Oblique findfont
dup length dict begin
  {1 index /FID ne {def} {pop pop} ifelse} forall
  /Encoding WinAnsiEncoding def
  currentdict
  end
/Font3 exch definefont pop
%%IncludeResource: font Helvetica-BoldOblique
/Helvetica-BoldOblique findfont
dup length dict begin
  {1 index /FID ne {def} {pop pop} ifelse} forall
  /Encoding WinAnsiEncoding def
  currentdict
  end
/Font4 exch definefont pop
%%IncludeResource: font Symbol
/Symbol findfont
dup length dict begin
  {1 index /FID ne {def} {pop pop} ifelse} forall
  currentdict
  end
/Font5 exch definefont pop
%%EndProlog
%%Page: 1 1
bp
/bg { 1 1 1 srgb } def
0.00 0.00 618.00 402.75 r p2
23.90 225.28 297.05 378.85 cl
0.00 0.00 618.00 402.75 cl
0 0 0 srgb
0.75 setlinewidth
[] 0 setdash
1 setlinecap
1 setlinejoin
10.00 setmiterlimit
np
34.02 225.28 m
252.91 0 l
o
np
34.02 225.28 m
0 -5.98 l
o
np
97.25 225.28 m
0 -5.98 l
o
np
160.48 225.28 m
0 -5.98 l
o
np
223.70 225.28 m
0 -5.98 l
o
np
286.93 225.28 m
0 -5.98 l
o
/Font1 findfont 13 s
34.02 203.77 (1) .5 0 t
97.25 203.77 (2) .5 0 t
160.48 203.77 (3) .5 0 t
223.70 203.77 (4) .5 0 t
286.93 203.77 (5) .5 0 t
np
23.90 239.85 m
0 133.31 l
o
np
23.90 239.85 m
-5.97 0 l
o
np
23.90 262.07 m
-5.97 0 l
o
np
23.90 284.29 m
-5.97 0 l
o
np
23.90 306.51 m
-5.97 0 l
o
np
23.90 328.72 m
-5.97 0 l
o
np
23.90 350.94 m
-5.97 0 l
o
np
23.90 373.16 m
-5.97 0 l
o
9.56 239.85 (1.00) .5 90 t
9.56 284.29 (1.10) .5 90 t
9.56 328.72 (1.20) .5 90 t
9.56 373.16 (1.30) .5 90 t
np
23.90 225.28 m
273.15 0 l
0 153.57 l
-273.15 0 l
0 -153.57 l
o
0.00 201.38 309.00 402.75 cl
/Font2 findfont 16 s
0 0 0 srgb
115.13 385.05 (c) 0 ta
-0.160 (hristofides) tb gr
/Font1 findfont 13 s
160.48 179.86 (1:n) .5 0 t
23.90 225.28 297.05 378.85 cl
0 0 0 srgb
0.75 setlinewidth
[ 2.25 3.75] 0 setdash
1 setlinecap
1 setlinejoin
10.00 setmiterlimit
np
0.00 272.84 m
34.02 0 l
63.23 0 l
63.23 0 l
63.22 0 l
63.23 0 l
63.23 0 l
o
0.75 setlinewidth
[] 0 setdash
np
0.00 291.83 m
34.02 0 l
63.23 0 l
63.23 0 l
63.22 0 l
63.23 0 l
63.23 0 l
o
0.4000 0.2000 0.2000 srgb
34.02 274.24 2.24 c p1
1.50 setlinewidth
[] 0 setdash
np
34.02 255.67 m
0 37.14 l
o
np
31.97 255.67 m
4.10 0 l
o
np
31.97 292.81 m
4.10 0 l
o
34.02 248.26 2.24 c p1
0.3608 0.4000 0.2000 srgb
0.75 setlinewidth
[] 0 setdash
np
97.25 265.07 m
3.02 -5.23 l
-6.04 0 l
3.02 5.23 l
o
1.50 setlinewidth
[] 0 setdash
np
97.25 247.87 m
0 27.43 l
o
np
95.20 247.87 m
4.10 0 l
o
np
95.20 275.30 m
4.10 0 l
o
np
97.25 246.86 m
3.02 -5.23 l
-6.04 0 l
3.02 5.23 l
o
0.2000 0.4000 0.2784 srgb
0.75 setlinewidth
[] 0 setdash
np
157.31 269.19 m
6.34 0 l
o
np
160.48 266.02 m
0 6.34 l
o
1.50 setlinewidth
[] 0 setdash
np
160.48 254.40 m
0 29.59 l
o
np
158.43 254.40 m
4.09 0 l
o
np
158.43 283.99 m
4.09 0 l
o
np
157.31 250.05 m
6.34 0 l
o
np
160.48 246.88 m
0 6.34 l
o
0.2000 0.2784 0.4000 srgb
0.75 setlinewidth
[] 0 setdash
np
221.46 266.84 m
4.48 4.49 l
o
np
221.46 271.33 m
4.48 -4.49 l
o
1.50 setlinewidth
[] 0 setdash
np
223.70 255.58 m
0 27.01 l
o
np
221.66 255.58 m
4.09 0 l
o
np
221.66 282.59 m
4.09 0 l
o
np
221.46 253.15 m
4.48 4.49 l
o
np
221.46 257.64 m
4.48 -4.49 l
o
0.3608 0.2000 0.4000 srgb
0.75 setlinewidth
[] 0 setdash
np
283.76 264.75 m
3.17 3.17 l
3.17 -3.17 l
-3.17 -3.17 l
-3.17 3.17 l
o
1.50 setlinewidth
[] 0 setdash
np
286.93 249.42 m
0 30.66 l
o
np
284.88 249.42 m
4.10 0 l
o
np
284.88 280.08 m
4.10 0 l
o
np
283.76 244.61 m
3.17 3.17 l
3.17 -3.17 l
-3.17 -3.16 l
-3.17 3.16 l
o
332.90 225.28 606.05 378.85 cl
0.00 0.00 618.00 402.75 cl
0 0 0 srgb
0.75 setlinewidth
[] 0 setdash
1 setlinecap
1 setlinejoin
10.00 setmiterlimit
np
343.02 225.28 m
252.91 0 l
o
np
343.02 225.28 m
0 -5.98 l
o
np
406.25 225.28 m
0 -5.98 l
o
np
469.48 225.28 m
0 -5.98 l
o
np
532.70 225.28 m
0 -5.98 l
o
np
595.93 225.28 m
0 -5.98 l
o
/Font1 findfont 13 s
343.02 203.77 (1) .5 0 t
406.25 203.77 (2) .5 0 t
469.48 203.77 (3) .5 0 t
532.70 203.77 (4) .5 0 t
595.93 203.77 (5) .5 0 t
np
332.90 239.85 m
0 133.31 l
o
np
332.90 239.85 m
-5.97 0 l
o
np
332.90 262.07 m
-5.97 0 l
o
np
332.90 284.29 m
-5.97 0 l
o
np
332.90 306.51 m
-5.97 0 l
o
np
332.90 328.72 m
-5.97 0 l
o
np
332.90 350.94 m
-5.97 0 l
o
np
332.90 373.16 m
-5.97 0 l
o
318.56 239.85 (1.00) .5 90 t
318.56 284.29 (1.10) .5 90 t
318.56 328.72 (1.20) .5 90 t
318.56 373.16 (1.30) .5 90 t
np
332.90 225.28 m
273.15 0 l
0 153.57 l
-273.15 0 l
0 -153.57 l
o
309.00 201.38 618.00 402.75 cl
/Font2 findfont 16 s
0 0 0 srgb
469.48 385.05 (fisher) .5 0 t
/Font1 findfont 13 s
469.48 179.86 (1:n) .5 0 t
294.66 302.06 (1:n) .5 90 t
332.90 225.28 606.05 378.85 cl
0 0 0 srgb
0.75 setlinewidth
[ 2.25 3.75] 0 setdash
1 setlinecap
1 setlinejoin
10.00 setmiterlimit
np
279.79 295.09 m
63.23 0 l
63.23 0 l
63.23 0 l
63.22 0 l
63.23 0 l
22.07 0 l
o
0.75 setlinewidth
[] 0 setdash
np
279.79 321.43 m
63.23 0 l
63.23 0 l
63.23 0 l
63.22 0 l
63.23 0 l
22.07 0 l
o
0.4000 0.2000 0.2000 srgb
343.02 270.31 2.24 c p1
1.50 setlinewidth
[] 0 setdash
np
343.02 251.83 m
0 36.95 l
o
np
340.97 251.83 m
4.10 0 l
o
np
340.97 288.78 m
4.10 0 l
o
343.02 246.71 2.24 c p1
0.3608 0.4000 0.2000 srgb
0.75 setlinewidth
[] 0 setdash
np
406.25 262.19 m
3.02 -5.23 l
-6.04 0 l
3.02 5.23 l
o
1.50 setlinewidth
[] 0 setdash
np
406.25 243.51 m
0 30.39 l
o
np
404.20 243.51 m
4.10 0 l
o
np
404.20 273.90 m
4.10 0 l
o
np
406.25 243.34 m
3.02 -5.23 l
-6.04 0 l
3.02 5.23 l
o
0.2000 0.4000 0.2784 srgb
0.75 setlinewidth
[] 0 setdash
np
466.31 276.12 m
6.34 0 l
o
np
469.48 272.95 m
0 6.34 l
o
1.50 setlinewidth
[] 0 setdash
np
469.48 254.47 m
0 43.30 l
o
np
467.43 254.47 m
4.09 0 l
o
np
467.43 297.77 m
4.09 0 l
o
np
466.31 256.24 m
6.34 0 l
o
np
469.48 253.07 m
0 6.34 l
o
0.2000 0.2784 0.4000 srgb
0.75 setlinewidth
[] 0 setdash
np
530.46 271.80 m
4.48 4.48 l
o
np
530.46 276.28 m
4.48 -4.48 l
o
1.50 setlinewidth
[] 0 setdash
np
532.70 253.72 m
0 40.64 l
o
np
530.65 253.72 m
4.10 0 l
o
np
530.65 294.36 m
4.10 0 l
o
np
530.46 248.44 m
4.48 4.48 l
o
np
530.46 252.92 m
4.48 -4.48 l
o
0.3608 0.2000 0.4000 srgb
0.75 setlinewidth
[] 0 setdash
np
592.76 271.56 m
3.17 3.17 l
3.17 -3.17 l
-3.17 -3.17 l
-3.17 3.17 l
o
1.50 setlinewidth
[] 0 setdash
np
595.93 257.86 m
0 27.41 l
o
np
593.88 257.86 m
4.10 0 l
o
np
593.88 285.27 m
4.10 0 l
o
np
592.76 252.60 m
3.17 3.17 l
3.17 -3.17 l
-3.17 -3.17 l
-3.17 3.17 l
o
23.90 23.90 297.05 177.47 cl
0.00 0.00 618.00 402.75 cl
0 0 0 srgb
0.75 setlinewidth
[] 0 setdash
1 setlinecap
1 setlinejoin
10.00 setmiterlimit
np
34.02 23.90 m
252.91 0 l
o
np
34.02 23.90 m
0 -5.97 l
o
np
97.25 23.90 m
0 -5.97 l
o
np
160.48 23.90 m
0 -5.97 l
o
np
223.70 23.90 m
0 -5.97 l
o
np
286.93 23.90 m
0 -5.97 l
o
/Font1 findfont 13 s
34.02 2.39 (1) .5 0 t
97.25 2.39 (2) .5 0 t
160.48 2.39 (3) .5 0 t
223.70 2.39 (4) .5 0 t
286.93 2.39 (5) .5 0 t
np
23.90 38.48 m
0 133.30 l
o
np
23.90 38.48 m
-5.97 0 l
o
np
23.90 60.70 m
-5.97 0 l
o
np
23.90 82.91 m
-5.97 0 l
o
np
23.90 105.13 m
-5.97 0 l
o
np
23.90 127.35 m
-5.97 0 l
o
np
23.90 149.57 m
-5.97 0 l
o
np
23.90 171.78 m
-5.97 0 l
o
9.56 38.48 (1.00) .5 90 t
9.56 82.91 (1.10) .5 90 t
9.56 127.35 (1.20) .5 90 t
9.56 171.78 (1.30) .5 90 t
np
23.90 23.90 m
273.15 0 l
0 153.57 l
-273.15 0 l
0 -153.57 l
o
0.00 0.00 309.00 201.38 cl
/Font2 findfont 16 s
0 0 0 srgb
134.24 183.68 (taillar) 0 ta
-0.320 (d) tb gr
23.90 23.90 297.05 177.47 cl
0 0 0 srgb
0.75 setlinewidth
[ 2.25 3.75] 0 setdash
1 setlinecap
1 setlinejoin
10.00 setmiterlimit
np
0.00 41.18 m
34.02 0 l
63.23 0 l
63.23 0 l
63.22 0 l
63.23 0 l
63.23 0 l
o
0.75 setlinewidth
[] 0 setdash
np
0.00 56.54 m
34.02 0 l
63.23 0 l
63.23 0 l
63.22 0 l
63.23 0 l
63.23 0 l
o
0.4000 0.2000 0.2000 srgb
34.02 81.30 2.24 c p1
1.50 setlinewidth
[] 0 setdash
np
34.02 64.29 m
0 34.01 l
o
np
31.97 64.29 m
4.10 0 l
o
np
31.97 98.30 m
4.10 0 l
o
34.02 55.45 2.24 c p1
0.3608 0.4000 0.2000 srgb
0.75 setlinewidth
[] 0 setdash
np
97.25 60.77 m
3.02 -5.22 l
-6.04 0 l
3.02 5.22 l
o
1.50 setlinewidth
[] 0 setdash
np
97.25 46.63 m
0 21.32 l
o
np
95.20 46.63 m
4.10 0 l
o
np
95.20 67.95 m
4.10 0 l
o
np
97.25 45.24 m
3.02 -5.22 l
-6.04 0 l
3.02 5.22 l
o
0.2000 0.4000 0.2784 srgb
0.75 setlinewidth
[] 0 setdash
np
157.31 60.08 m
6.34 0 l
o
np
160.48 56.91 m
0 6.34 l
o
1.50 setlinewidth
[] 0 setdash
np
160.48 45.56 m
0 29.03 l
o
np
158.43 45.56 m
4.09 0 l
o
np
158.43 74.59 m
4.09 0 l
o
np
157.31 43.44 m
6.34 0 l
o
np
160.48 40.27 m
0 6.34 l
o
0.2000 0.2784 0.4000 srgb
0.75 setlinewidth
[] 0 setdash
np
221.46 59.43 m
4.48 4.48 l
o
np
221.46 63.91 m
4.48 -4.48 l
o
1.50 setlinewidth
[] 0 setdash
np
223.70 46.26 m
0 30.82 l
o
np
221.66 46.26 m
4.09 0 l
o
np
221.66 77.08 m
4.09 0 l
o
np
221.46 44.30 m
4.48 4.48 l
o
np
221.46 48.78 m
4.48 -4.48 l
o
0.3608 0.2000 0.4000 srgb
0.75 setlinewidth
[] 0 setdash
np
283.76 59.27 m
3.17 3.17 l
3.17 -3.17 l
-3.17 -3.17 l
-3.17 3.17 l
o
1.50 setlinewidth
[] 0 setdash
np
286.93 46.05 m
0 26.44 l
o
np
284.88 46.05 m
4.10 0 l
o
np
284.88 72.49 m
4.10 0 l
o
np
283.76 44.00 m
3.17 3.16 l
3.17 -3.16 l
-3.17 -3.17 l
-3.17 3.17 l
o
332.90 23.90 606.05 177.47 cl
309.00 0.00 618.00 201.38 cl
/Font1 findfont 13 s
0 0 0 srgb
294.66 100.69 (1:10) .5 90 t
332.90 23.90 606.05 177.47 cl
/bg { 1 1 1 srgb } def
0 0 0 srgb
0.75 setlinewidth
[] 0 setdash
1 setlinecap
1 setlinejoin
10.00 setmiterlimit
430.98 177.47 175.06 -95.62 r p3
0.4000 0.2000 0.2000 srgb
1.50 setlinewidth
[] 0 setdash
np
433.67 165.52 m
17.93 0 l
o
0.3608 0.4000 0.2000 srgb
np
433.67 153.57 m
17.93 0 l
o
0.2000 0.4000 0.2784 srgb
np
433.67 141.62 m
17.93 0 l
o
0.2000 0.2784 0.4000 srgb
np
433.67 129.66 m
17.93 0 l
o
0.3608 0.2000 0.4000 srgb
np
433.67 117.71 m
17.93 0 l
o
0 0 0 srgb
np
433.67 105.76 m
17.93 0 l
o
np
433.67 93.81 m
17.93 0 l
o
0.4000 0.2000 0.2000 srgb
442.64 165.52 2.24 c p1
0.3608 0.4000 0.2000 srgb
np
442.64 157.05 m
3.02 -5.23 l
-6.04 0 l
3.02 5.23 l
o
0.2000 0.4000 0.2784 srgb
np
439.47 141.62 m
6.34 0 l
o
np
442.64 138.45 m
0 6.33 l
o
0.2000 0.2784 0.4000 srgb
np
440.40 127.42 m
4.48 4.48 l
o
np
440.40 131.90 m
4.48 -4.48 l
o
0.3608 0.2000 0.4000 srgb
np
439.47 117.71 m
3.17 3.17 l
3.17 -3.17 l
-3.17 -3.17 l
-3.17 3.17 l
o
0 0 0 srgb
np
442.64 102.27 m
3.02 5.23 l
-6.04 0 l
3.02 -5.23 l
o
440.40 91.57 4.48 4.48 r p1
np
440.40 91.57 m
4.48 4.48 l
o
np
440.40 96.05 m
4.48 -4.48 l
o
/Font1 findfont 13 s
460.57 160.85 (2MPSO 2OPT 8/40/250/800) 0 0 t
460.57 148.90 (2MPSOv2 2OPT 8/40/250/800) 0 0 t
460.57 136.95 (2MPSOv2x1 2OPT 8/40/250/800) 0 0 t
460.57 125.00 (2MPSOv2x2 2OPT 8/40/250/800) 0 0 t
460.57 113.04 (2MPSOv2x3 2OPT 8/40/250/800) 0 0 t
460.57 101.09 (MAPSO min) 0 0 t
460.57 89.14 (MAPSO a) 0 ta
-0.260 (vg) tb gr
ep
%%Trailer
%%Pages: 1
%%EOF
