%!PS-Adobe-3.0 EPSF-3.0
%%DocumentNeededResources: font Helvetica
%%+ font Helvetica-Bold
%%+ font Helvetica-Oblique
%%+ font Helvetica-BoldOblique
%%+ font Symbol
%%Title: R Graphics Output
%%Creator: R Software
%%Pages: (atend)
%%BoundingBox: 0 0 618 403
%%EndComments
%%BeginProlog
/bp  { gs sRGB gs } def
% begin .ps.prolog
/gs  { gsave } bind def
/gr  { grestore } bind def
/ep  { showpage gr gr } bind def
/m   { moveto } bind def
/l  { rlineto } bind def
/np  { newpath } bind def
/cp  { closepath } bind def
/f   { fill } bind def
/o   { stroke } bind def
/c   { newpath 0 360 arc } bind def
/r   { 4 2 roll moveto 1 copy 3 -1 roll exch 0 exch rlineto 0 rlineto -1 mul 0 exch rlineto closepath } bind def
/p1  { stroke } bind def
/p2  { gsave bg fill grestore newpath } bind def
/p3  { gsave bg fill grestore stroke } bind def
/p6  { gsave bg eofill grestore newpath } bind def
/p7  { gsave bg eofill grestore stroke } bind def
/t   { 5 -2 roll moveto gsave rotate
       1 index stringwidth pop
       mul neg 0 rmoveto show grestore } bind def
/ta  { 4 -2 roll moveto gsave rotate show } bind def
/tb  { 2 -1 roll 0 rmoveto show } bind def
/cl  { grestore gsave newpath 3 index 3 index moveto 1 index
       4 -1 roll lineto  exch 1 index lineto lineto
       closepath clip newpath } bind def
/rgb { setrgbcolor } bind def
/s   { scalefont setfont } bind def
% end   .ps.prolog
/sRGB { [ /CIEBasedABC
          << /DecodeLMN
               [ { dup 0.03928 le
                        {12.92321 div}
                        {0.055 add 1.055 div 2.4 exp }
                     ifelse
                 } bind dup dup
               ]
             /MatrixLMN [0.412457 0.212673 0.019334
                         0.357576 0.715152 0.119192
                         0.180437 0.072175 0.950301]
             /WhitePoint [0.9505 1.0 1.0890]
           >>
         ] setcolorspace } bind def
/srgb { setcolor } bind def
% begin encoding
/WinAnsiEncoding [
 /.notdef /.notdef /.notdef /.notdef /.notdef /.notdef /.notdef /.notdef
 /.notdef /.notdef /.notdef /.notdef /.notdef /.notdef /.notdef /.notdef
 /.notdef /.notdef /.notdef /.notdef /.notdef /.notdef /.notdef /.notdef
 /.notdef /.notdef /.notdef /.notdef /.notdef /.notdef /.notdef /.notdef
 /space /exclam /quotedbl /numbersign /dollar /percent /ampersand /quoteright
 /parenleft /parenright /asterisk /plus /comma /minus /period /slash
 /zero /one /two /three /four /five /six /seven
 /eight /nine /colon /semicolon /less /equal /greater /question
 /at /A /B /C /D /E /F /G
 /H /I /J /K /L /M /N /O
 /P /Q /R /S /T /U /V /W
 /X /Y /Z /bracketleft /backslash /bracketright /asciicircum /underscore
 /grave /a /b /c /d /e /f /g
 /h /i /j /k /l /m /n /o
 /p /q /r /s /t /u /v /w
 /x /y /z /braceleft /bar /braceright /asciitilde /.notdef
 /Euro /.notdef /quotesinglbase /florin /quotedblbase /ellipsis /dagger /daggerdbl
 /circumflex /perthousand /Scaron /guilsinglleft /OE /.notdef /Zcaron /.notdef
 /.notdef /quoteleft /quoteright /quotedblleft /quotedblright /bullet /endash /emdash
 /tilde /trademark /scaron /guilsinglright /oe /.notdef /zcaron /Ydieresis
 /space /exclamdown /cent /sterling /currency /yen /brokenbar /section
 /dieresis /copyright /ordfeminine /guillemotleft /logicalnot /hyphen /registered /macron
 /degree /plusminus /twosuperior /threesuperior /acute /mu /paragraph /periodcentered
 /cedilla /onesuperior /ordmasculine /guillemotright /onequarter /onehalf /threequarters /questiondown
 /Agrave /Aacute /Acircumflex /Atilde /Adieresis /Aring /AE /Ccedilla
 /Egrave /Eacute /Ecircumflex /Edieresis /Igrave /Iacute /Icircumflex /Idieresis
 /Eth /Ntilde /Ograve /Oacute /Ocircumflex /Otilde /Odieresis /multiply
 /Oslash /Ugrave /Uacute /Ucircumflex /Udieresis /Yacute /Thorn /germandbls
 /agrave /aacute /acircumflex /atilde /adieresis /aring /ae /ccedilla
 /egrave /eacute /ecircumflex /edieresis /igrave /iacute /icircumflex /idieresis
 /eth /ntilde /ograve /oacute /ocircumflex /otilde /odieresis /divide
 /oslash /ugrave /uacute /ucircumflex /udieresis /yacute /thorn /ydieresis
]
 def
% end encoding
%%IncludeResource: font Helvetica
/Helvetica findfont
dup length dict begin
  {1 index /FID ne {def} {pop pop} ifelse} forall
  /Encoding WinAnsiEncoding def
  currentdict
  end
/Font1 exch definefont pop
%%IncludeResource: font Helvetica-Bold
/Helvetica-Bold findfont
dup length dict begin
  {1 index /FID ne {def} {pop pop} ifelse} forall
  /Encoding WinAnsiEncoding def
  currentdict
  end
/Font2 exch definefont pop
%%IncludeResource: font Helvetica-Oblique
/Helvetica-Oblique findfont
dup length dict begin
  {1 index /FID ne {def} {pop pop} ifelse} forall
  /Encoding WinAnsiEncoding def
  currentdict
  end
/Font3 exch definefont pop
%%IncludeResource: font Helvetica-BoldOblique
/Helvetica-BoldOblique findfont
dup length dict begin
  {1 index /FID ne {def} {pop pop} ifelse} forall
  /Encoding WinAnsiEncoding def
  currentdict
  end
/Font4 exch definefont pop
%%IncludeResource: font Symbol
/Symbol findfont
dup length dict begin
  {1 index /FID ne {def} {pop pop} ifelse} forall
  currentdict
  end
/Font5 exch definefont pop
%%EndProlog
%%Page: 1 1
bp
/bg { 1 1 1 srgb } def
0.00 0.00 618.00 402.75 r p2
19.01 364.22 196.50 383.74 cl
0.00 0.00 618.00 402.75 cl
0 0 0 srgb
0.75 setlinewidth
[] 0 setdash
1 setlinecap
1 setlinejoin
10.00 setmiterlimit
np
25.58 364.22 m
164.34 0 l
o
np
25.58 364.22 m
0 -4.75 l
o
np
66.67 364.22 m
0 -4.75 l
o
np
107.75 364.22 m
0 -4.75 l
o
np
148.84 364.22 m
0 -4.75 l
o
np
189.92 364.22 m
0 -4.75 l
o
/Font1 findfont 11 s
25.58 347.12 (1) .5 0 t
66.67 347.12 (2) .5 0 t
107.75 347.12 (3) .5 0 t
148.84 347.12 (4) .5 0 t
189.92 347.12 (5) .5 0 t
np
19.01 366.07 m
0 16.95 l
o
np
19.01 366.07 m
-4.75 0 l
o
np
19.01 368.90 m
-4.75 0 l
o
np
19.01 371.72 m
-4.75 0 l
o
np
19.01 374.55 m
-4.75 0 l
o
np
19.01 377.37 m
-4.75 0 l
o
np
19.01 380.20 m
-4.75 0 l
o
np
19.01 383.02 m
-4.75 0 l
o
7.60 366.07 (1.00) .5 90 t
np
19.01 364.22 m
177.49 0 l
0 19.52 l
-177.49 0 l
0 -19.52 l
o
0.00 345.21 206.00 402.75 cl
/Font2 findfont 13 s
0 0 0 srgb
107.75 388.58 (c100bD.vrp) .5 0 t
/Font1 findfont 11 s
107.75 328.11 (1:n) .5 0 t
19.01 364.22 196.50 383.74 cl
0 0 0 srgb
0.75 setlinewidth
[ 2.25 3.75] 0 setdash
1 setlinecap
1 setlinejoin
10.00 setmiterlimit
np
0.00 368.71 m
25.58 0 l
41.09 0 l
41.08 0 l
41.09 0 l
41.08 0 l
41.09 0 l
o
0.75 setlinewidth
[] 0 setdash
np
0.00 369.80 m
25.58 0 l
41.09 0 l
41.08 0 l
41.09 0 l
41.08 0 l
41.09 0 l
o
0.4000 0.2000 0.2000 srgb
25.58 367.64 1.78 c p1
1.50 setlinewidth
[] 0 setdash
np
25.58 366.02 m
0 3.23 l
o
np
24.25 366.02 m
2.66 0 l
o
np
24.25 369.25 m
2.66 0 l
o
25.58 366.15 1.78 c p1
0.3608 0.4000 0.2000 srgb
0.75 setlinewidth
[] 0 setdash
np
66.67 374.10 m
2.40 -4.15 l
-4.80 0 l
2.40 4.15 l
o
1.50 setlinewidth
[] 0 setdash
np
66.67 367.56 m
0 7.55 l
o
np
65.34 367.56 m
2.66 0 l
o
np
65.34 375.11 m
2.66 0 l
o
np
66.67 368.85 m
2.40 -4.16 l
-4.80 0 l
2.40 4.16 l
o
0.2000 0.4000 0.2784 srgb
0.75 setlinewidth
[] 0 setdash
np
105.23 371.22 m
5.04 0 l
o
np
107.75 368.70 m
0 5.04 l
o
1.50 setlinewidth
[] 0 setdash
np
107.75 367.18 m
0 8.08 l
o
np
106.42 367.18 m
2.66 0 l
o
np
106.42 375.26 m
2.66 0 l
o
np
105.23 366.48 m
5.04 0 l
o
np
107.75 363.96 m
0 5.04 l
o
0.2000 0.2784 0.4000 srgb
0.75 setlinewidth
[] 0 setdash
np
147.06 370.04 m
3.56 3.57 l
o
np
147.06 373.61 m
3.56 -3.57 l
o
1.50 setlinewidth
[] 0 setdash
np
148.84 367.74 m
0 8.16 l
o
np
147.51 367.74 m
2.66 0 l
o
np
147.51 375.90 m
2.66 0 l
o
np
147.06 366.95 m
3.56 3.57 l
o
np
147.06 370.52 m
3.56 -3.57 l
o
0.3608 0.2000 0.4000 srgb
0.75 setlinewidth
[] 0 setdash
np
187.40 370.29 m
2.52 2.52 l
2.52 -2.52 l
-2.52 -2.52 l
-2.52 2.52 l
o
1.50 setlinewidth
[] 0 setdash
np
189.92 367.55 m
0 5.49 l
o
np
188.59 367.55 m
2.66 0 l
o
np
188.59 373.04 m
2.66 0 l
o
np
187.40 367.93 m
2.52 2.52 l
2.52 -2.52 l
-2.52 -2.52 l
-2.52 2.52 l
o
225.01 364.22 402.50 383.74 cl
0.00 0.00 618.00 402.75 cl
0 0 0 srgb
0.75 setlinewidth
[] 0 setdash
1 setlinecap
1 setlinejoin
10.00 setmiterlimit
np
231.58 364.22 m
164.34 0 l
o
np
231.58 364.22 m
0 -4.75 l
o
np
272.67 364.22 m
0 -4.75 l
o
np
313.75 364.22 m
0 -4.75 l
o
np
354.84 364.22 m
0 -4.75 l
o
np
395.92 364.22 m
0 -4.75 l
o
/Font1 findfont 11 s
231.58 347.12 (1) .5 0 t
272.67 347.12 (2) .5 0 t
313.75 347.12 (3) .5 0 t
354.84 347.12 (4) .5 0 t
395.92 347.12 (5) .5 0 t
np
225.01 366.07 m
0 16.95 l
o
np
225.01 366.07 m
-4.75 0 l
o
np
225.01 368.90 m
-4.75 0 l
o
np
225.01 371.72 m
-4.75 0 l
o
np
225.01 374.55 m
-4.75 0 l
o
np
225.01 377.37 m
-4.75 0 l
o
np
225.01 380.20 m
-4.75 0 l
o
np
225.01 383.02 m
-4.75 0 l
o
213.60 366.07 (1.00) .5 90 t
np
225.01 364.22 m
177.49 0 l
0 19.52 l
-177.49 0 l
0 -19.52 l
o
206.00 345.21 412.00 402.75 cl
/Font2 findfont 13 s
0 0 0 srgb
313.75 388.58 (c100D.vrp) .5 0 t
/Font1 findfont 11 s
313.75 328.11 (1:n) .5 0 t
194.60 373.98 (1:n) .5 90 t
225.01 364.22 402.50 383.74 cl
0 0 0 srgb
0.75 setlinewidth
[ 2.25 3.75] 0 setdash
1 setlinecap
1 setlinejoin
10.00 setmiterlimit
np
190.50 367.83 m
41.08 0 l
41.09 0 l
41.08 0 l
41.09 0 l
41.08 0 l
41.09 0 l
o
0.75 setlinewidth
[] 0 setdash
np
190.50 369.00 m
41.08 0 l
41.09 0 l
41.08 0 l
41.09 0 l
41.08 0 l
41.09 0 l
o
0.4000 0.2000 0.2000 srgb
231.58 379.77 1.78 c p1
1.50 setlinewidth
[] 0 setdash
np
231.58 374.90 m
0 9.75 l
o
np
230.25 374.90 m
2.66 0 l
o
np
230.25 384.65 m
2.66 0 l
o
231.58 370.43 1.78 c p1
0.3608 0.4000 0.2000 srgb
0.75 setlinewidth
[] 0 setdash
np
272.67 374.76 m
2.40 -4.16 l
-4.80 0 l
2.40 4.16 l
o
1.50 setlinewidth
[] 0 setdash
np
272.67 370.19 m
0 3.60 l
o
np
271.34 370.19 m
2.66 0 l
o
np
271.34 373.79 m
2.66 0 l
o
np
272.67 371.18 m
2.40 -4.16 l
-4.80 0 l
2.40 4.16 l
o
0.2000 0.4000 0.2784 srgb
0.75 setlinewidth
[] 0 setdash
np
311.23 372.19 m
5.04 0 l
o
np
313.75 369.67 m
0 5.04 l
o
1.50 setlinewidth
[] 0 setdash
np
313.75 366.45 m
0 11.48 l
o
np
312.42 366.45 m
2.66 0 l
o
np
312.42 377.93 m
2.66 0 l
o
np
311.23 366.34 m
5.04 0 l
o
np
313.75 363.82 m
0 5.04 l
o
0.2000 0.2784 0.4000 srgb
0.75 setlinewidth
[] 0 setdash
np
353.06 369.12 m
3.56 3.56 l
o
np
353.06 372.68 m
3.56 -3.56 l
o
1.50 setlinewidth
[] 0 setdash
np
354.84 366.06 m
0 9.68 l
o
np
353.51 366.06 m
2.66 0 l
o
np
353.51 375.74 m
2.66 0 l
o
np
353.06 364.80 m
3.56 3.57 l
o
np
353.06 368.37 m
3.56 -3.57 l
o
0.3608 0.2000 0.4000 srgb
0.75 setlinewidth
[] 0 setdash
np
393.40 368.99 m
2.52 2.52 l
2.52 -2.52 l
-2.52 -2.52 l
-2.52 2.52 l
o
1.50 setlinewidth
[] 0 setdash
np
395.92 367.11 m
0 3.75 l
o
np
394.59 367.11 m
2.66 0 l
o
np
394.59 370.86 m
2.66 0 l
o
np
393.40 366.07 m
2.52 2.52 l
2.52 -2.52 l
-2.52 -2.52 l
-2.52 2.52 l
o
431.01 364.22 608.50 383.74 cl
0.00 0.00 618.00 402.75 cl
0 0 0 srgb
0.75 setlinewidth
[] 0 setdash
1 setlinecap
1 setlinejoin
10.00 setmiterlimit
np
437.58 364.22 m
164.34 0 l
o
np
437.58 364.22 m
0 -4.75 l
o
np
478.67 364.22 m
0 -4.75 l
o
np
519.75 364.22 m
0 -4.75 l
o
np
560.84 364.22 m
0 -4.75 l
o
np
601.92 364.22 m
0 -4.75 l
o
/Font1 findfont 11 s
437.58 347.12 (1) .5 0 t
478.67 347.12 (2) .5 0 t
519.75 347.12 (3) .5 0 t
560.84 347.12 (4) .5 0 t
601.92 347.12 (5) .5 0 t
np
431.01 366.07 m
0 16.95 l
o
np
431.01 366.07 m
-4.75 0 l
o
np
431.01 368.90 m
-4.75 0 l
o
np
431.01 371.72 m
-4.75 0 l
o
np
431.01 374.55 m
-4.75 0 l
o
np
431.01 377.37 m
-4.75 0 l
o
np
431.01 380.20 m
-4.75 0 l
o
np
431.01 383.02 m
-4.75 0 l
o
419.60 366.07 (1.00) .5 90 t
np
431.01 364.22 m
177.49 0 l
0 19.52 l
-177.49 0 l
0 -19.52 l
o
412.00 345.21 618.00 402.75 cl
/Font2 findfont 13 s
0 0 0 srgb
519.75 388.58 (c120D.vrp) .5 0 t
/Font1 findfont 11 s
519.75 328.11 (1:n) .5 0 t
400.60 373.98 (1:n) .5 90 t
431.01 364.22 608.50 383.74 cl
0 0 0 srgb
0.75 setlinewidth
[ 2.25 3.75] 0 setdash
1 setlinecap
1 setlinejoin
10.00 setmiterlimit
np
396.50 374.59 m
41.08 0 l
41.09 0 l
41.08 0 l
41.09 0 l
41.08 0 l
16.08 0 l
o
0.75 setlinewidth
[] 0 setdash
np
396.50 378.44 m
41.08 0 l
41.09 0 l
41.08 0 l
41.09 0 l
41.08 0 l
16.08 0 l
o
0.4000 0.2000 0.2000 srgb
437.58 374.00 1.78 c p1
1.50 setlinewidth
[] 0 setdash
np
437.58 368.33 m
0 11.35 l
o
np
436.25 368.33 m
2.66 0 l
o
np
436.25 379.68 m
2.66 0 l
o
437.58 367.35 1.78 c p1
0.3608 0.4000 0.2000 srgb
0.75 setlinewidth
[] 0 setdash
np
478.67 375.61 m
2.40 -4.15 l
-4.80 0 l
2.40 4.15 l
o
1.50 setlinewidth
[] 0 setdash
np
478.67 369.47 m
0 6.75 l
o
np
477.34 369.47 m
2.66 0 l
o
np
477.34 376.22 m
2.66 0 l
o
np
478.67 369.86 m
2.40 -4.16 l
-4.80 0 l
2.40 4.16 l
o
0.2000 0.4000 0.2784 srgb
0.75 setlinewidth
[] 0 setdash
np
517.23 373.87 m
5.04 0 l
o
np
519.75 371.35 m
0 5.04 l
o
1.50 setlinewidth
[] 0 setdash
np
519.75 370.71 m
0 6.33 l
o
np
518.42 370.71 m
2.66 0 l
o
np
518.42 377.04 m
2.66 0 l
o
np
517.23 368.88 m
5.04 0 l
o
np
519.75 366.36 m
0 5.04 l
o
0.2000 0.2784 0.4000 srgb
0.75 setlinewidth
[] 0 setdash
np
559.05 371.47 m
3.57 3.57 l
o
np
559.05 375.04 m
3.57 -3.57 l
o
1.50 setlinewidth
[] 0 setdash
np
560.84 368.72 m
0 9.07 l
o
np
559.51 368.72 m
2.66 0 l
o
np
559.51 377.79 m
2.66 0 l
o
np
559.05 366.76 m
3.57 3.57 l
o
np
559.05 370.33 m
3.57 -3.57 l
o
0.3608 0.2000 0.4000 srgb
0.75 setlinewidth
[] 0 setdash
np
599.40 371.57 m
2.52 2.52 l
2.52 -2.52 l
-2.52 -2.52 l
-2.52 2.52 l
o
1.50 setlinewidth
[] 0 setdash
np
601.92 367.64 m
0 7.86 l
o
np
600.59 367.64 m
2.66 0 l
o
np
600.59 375.50 m
2.66 0 l
o
np
599.40 366.07 m
2.52 2.52 l
2.52 -2.52 l
-2.52 -2.52 l
-2.52 2.52 l
o
19.01 306.69 196.50 326.21 cl
0.00 0.00 618.00 402.75 cl
0 0 0 srgb
0.75 setlinewidth
[] 0 setdash
1 setlinecap
1 setlinejoin
10.00 setmiterlimit
np
25.58 306.69 m
164.34 0 l
o
np
25.58 306.69 m
0 -4.76 l
o
np
66.67 306.69 m
0 -4.76 l
o
np
107.75 306.69 m
0 -4.76 l
o
np
148.84 306.69 m
0 -4.76 l
o
np
189.92 306.69 m
0 -4.76 l
o
/Font1 findfont 11 s
25.58 289.58 (1) .5 0 t
66.67 289.58 (2) .5 0 t
107.75 289.58 (3) .5 0 t
148.84 289.58 (4) .5 0 t
189.92 289.58 (5) .5 0 t
np
19.01 308.54 m
0 16.94 l
o
np
19.01 308.54 m
-4.75 0 l
o
np
19.01 311.36 m
-4.75 0 l
o
np
19.01 314.19 m
-4.75 0 l
o
np
19.01 317.01 m
-4.75 0 l
o
np
19.01 319.84 m
-4.75 0 l
o
np
19.01 322.66 m
-4.75 0 l
o
np
19.01 325.48 m
-4.75 0 l
o
7.60 308.54 (1.00) .5 90 t
np
19.01 306.69 m
177.49 0 l
0 19.52 l
-177.49 0 l
0 -19.52 l
o
0.00 287.68 206.00 345.21 cl
/Font2 findfont 13 s
0 0 0 srgb
107.75 331.04 (c150D.vrp) .5 0 t
/Font1 findfont 11 s
107.75 270.57 (1:n) .5 0 t
19.01 306.69 196.50 326.21 cl
0 0 0 srgb
0.75 setlinewidth
[ 2.25 3.75] 0 setdash
1 setlinecap
1 setlinejoin
10.00 setmiterlimit
np
0.00 318.25 m
25.58 0 l
41.09 0 l
41.08 0 l
41.09 0 l
41.08 0 l
41.09 0 l
o
0.75 setlinewidth
[] 0 setdash
np
0.00 321.16 m
25.58 0 l
41.09 0 l
41.08 0 l
41.09 0 l
41.08 0 l
41.09 0 l
o
0.4000 0.2000 0.2000 srgb
25.58 320.10 1.78 c p1
1.50 setlinewidth
[] 0 setdash
np
25.58 316.91 m
0 6.38 l
o
np
24.25 316.91 m
2.66 0 l
o
np
24.25 323.29 m
2.66 0 l
o
25.58 311.81 1.78 c p1
0.3608 0.4000 0.2000 srgb
0.75 setlinewidth
[] 0 setdash
np
66.67 317.02 m
2.40 -4.15 l
-4.80 0 l
2.40 4.15 l
o
1.50 setlinewidth
[] 0 setdash
np
66.67 311.04 m
0 6.43 l
o
np
65.34 311.04 m
2.66 0 l
o
np
65.34 317.47 m
2.66 0 l
o
np
66.67 311.31 m
2.40 -4.16 l
-4.80 0 l
2.40 4.16 l
o
0.2000 0.4000 0.2784 srgb
0.75 setlinewidth
[] 0 setdash
np
105.23 316.04 m
5.04 0 l
o
np
107.75 313.52 m
0 5.04 l
o
1.50 setlinewidth
[] 0 setdash
np
107.75 313.21 m
0 5.67 l
o
np
106.42 313.21 m
2.66 0 l
o
np
106.42 318.88 m
2.66 0 l
o
np
105.23 311.66 m
5.04 0 l
o
np
107.75 309.14 m
0 5.04 l
o
0.2000 0.2784 0.4000 srgb
0.75 setlinewidth
[] 0 setdash
np
147.06 321.69 m
3.56 3.57 l
o
np
147.06 325.26 m
3.56 -3.57 l
o
1.50 setlinewidth
[] 0 setdash
np
148.84 316.51 m
0 13.93 l
o
np
147.51 316.51 m
2.66 0 l
o
np
147.51 330.44 m
2.66 0 l
o
np
147.06 314.82 m
3.56 3.56 l
o
np
147.06 318.38 m
3.56 -3.56 l
o
0.3608 0.2000 0.4000 srgb
0.75 setlinewidth
[] 0 setdash
np
187.40 316.26 m
2.52 2.52 l
2.52 -2.52 l
-2.52 -2.52 l
-2.52 2.52 l
o
1.50 setlinewidth
[] 0 setdash
np
189.92 312.61 m
0 7.30 l
o
np
188.59 312.61 m
2.66 0 l
o
np
188.59 319.91 m
2.66 0 l
o
np
187.40 311.40 m
2.52 2.52 l
2.52 -2.52 l
-2.52 -2.52 l
-2.52 2.52 l
o
225.01 306.69 402.50 326.21 cl
0.00 0.00 618.00 402.75 cl
0 0 0 srgb
0.75 setlinewidth
[] 0 setdash
1 setlinecap
1 setlinejoin
10.00 setmiterlimit
np
231.58 306.69 m
164.34 0 l
o
np
231.58 306.69 m
0 -4.76 l
o
np
272.67 306.69 m
0 -4.76 l
o
np
313.75 306.69 m
0 -4.76 l
o
np
354.84 306.69 m
0 -4.76 l
o
np
395.92 306.69 m
0 -4.76 l
o
/Font1 findfont 11 s
231.58 289.58 (1) .5 0 t
272.67 289.58 (2) .5 0 t
313.75 289.58 (3) .5 0 t
354.84 289.58 (4) .5 0 t
395.92 289.58 (5) .5 0 t
np
225.01 308.54 m
0 16.94 l
o
np
225.01 308.54 m
-4.75 0 l
o
np
225.01 311.36 m
-4.75 0 l
o
np
225.01 314.19 m
-4.75 0 l
o
np
225.01 317.01 m
-4.75 0 l
o
np
225.01 319.84 m
-4.75 0 l
o
np
225.01 322.66 m
-4.75 0 l
o
np
225.01 325.48 m
-4.75 0 l
o
213.60 308.54 (1.00) .5 90 t
np
225.01 306.69 m
177.49 0 l
0 19.52 l
-177.49 0 l
0 -19.52 l
o
206.00 287.68 412.00 345.21 cl
/Font2 findfont 13 s
0 0 0 srgb
313.75 331.04 (c199D.vrp) .5 0 t
/Font1 findfont 11 s
313.75 270.57 (1:n) .5 0 t
194.60 316.45 (1:n) .5 90 t
225.01 306.69 402.50 326.21 cl
0 0 0 srgb
0.75 setlinewidth
[ 2.25 3.75] 0 setdash
1 setlinecap
1 setlinejoin
10.00 setmiterlimit
np
190.50 316.68 m
41.08 0 l
41.09 0 l
41.08 0 l
41.09 0 l
41.08 0 l
41.09 0 l
o
0.75 setlinewidth
[] 0 setdash
np
190.50 318.72 m
41.08 0 l
41.09 0 l
41.08 0 l
41.09 0 l
41.08 0 l
41.09 0 l
o
0.4000 0.2000 0.2000 srgb
231.58 315.99 1.78 c p1
1.50 setlinewidth
[] 0 setdash
np
231.58 313.11 m
0 5.77 l
o
np
230.25 313.11 m
2.66 0 l
o
np
230.25 318.88 m
2.66 0 l
o
231.58 310.65 1.78 c p1
0.3608 0.4000 0.2000 srgb
0.75 setlinewidth
[] 0 setdash
np
272.67 315.71 m
2.40 -4.16 l
-4.80 0 l
2.40 4.16 l
o
1.50 setlinewidth
[] 0 setdash
np
272.67 309.29 m
0 7.29 l
o
np
271.34 309.29 m
2.66 0 l
o
np
271.34 316.58 m
2.66 0 l
o
np
272.67 312.14 m
2.40 -4.16 l
-4.80 0 l
2.40 4.16 l
o
0.2000 0.4000 0.2784 srgb
0.75 setlinewidth
[] 0 setdash
np
311.23 317.64 m
5.04 0 l
o
np
313.75 315.12 m
0 5.04 l
o
1.50 setlinewidth
[] 0 setdash
np
313.75 312.96 m
0 9.35 l
o
np
312.42 312.96 m
2.66 0 l
o
np
312.42 322.31 m
2.66 0 l
o
np
311.23 312.83 m
5.04 0 l
o
np
313.75 310.31 m
0 5.04 l
o
0.2000 0.2784 0.4000 srgb
0.75 setlinewidth
[] 0 setdash
np
353.06 315.67 m
3.56 3.57 l
o
np
353.06 319.24 m
3.56 -3.57 l
o
1.50 setlinewidth
[] 0 setdash
np
354.84 312.53 m
0 9.84 l
o
np
353.51 312.53 m
2.66 0 l
o
np
353.51 322.37 m
2.66 0 l
o
np
353.06 309.88 m
3.56 3.57 l
o
np
353.06 313.45 m
3.56 -3.57 l
o
0.3608 0.2000 0.4000 srgb
0.75 setlinewidth
[] 0 setdash
np
393.40 310.67 m
2.52 2.52 l
2.52 -2.52 l
-2.52 -2.52 l
-2.52 2.52 l
o
1.50 setlinewidth
[] 0 setdash
np
395.92 309.22 m
0 2.90 l
o
np
394.59 309.22 m
2.66 0 l
o
np
394.59 312.12 m
2.66 0 l
o
np
393.40 308.54 m
2.52 2.52 l
2.52 -2.52 l
-2.52 -2.52 l
-2.52 2.52 l
o
431.01 306.69 608.50 326.21 cl
0.00 0.00 618.00 402.75 cl
0 0 0 srgb
0.75 setlinewidth
[] 0 setdash
1 setlinecap
1 setlinejoin
10.00 setmiterlimit
np
437.58 306.69 m
164.34 0 l
o
np
437.58 306.69 m
0 -4.76 l
o
np
478.67 306.69 m
0 -4.76 l
o
np
519.75 306.69 m
0 -4.76 l
o
np
560.84 306.69 m
0 -4.76 l
o
np
601.92 306.69 m
0 -4.76 l
o
/Font1 findfont 11 s
437.58 289.58 (1) .5 0 t
478.67 289.58 (2) .5 0 t
519.75 289.58 (3) .5 0 t
560.84 289.58 (4) .5 0 t
601.92 289.58 (5) .5 0 t
np
431.01 308.54 m
0 16.94 l
o
np
431.01 308.54 m
-4.75 0 l
o
np
431.01 311.36 m
-4.75 0 l
o
np
431.01 314.19 m
-4.75 0 l
o
np
431.01 317.01 m
-4.75 0 l
o
np
431.01 319.84 m
-4.75 0 l
o
np
431.01 322.66 m
-4.75 0 l
o
np
431.01 325.48 m
-4.75 0 l
o
419.60 308.54 (1.00) .5 90 t
np
431.01 306.69 m
177.49 0 l
0 19.52 l
-177.49 0 l
0 -19.52 l
o
412.00 287.68 618.00 345.21 cl
/Font2 findfont 13 s
0 0 0 srgb
519.75 331.04 (c50D.vrp) .5 0 t
/Font1 findfont 11 s
519.75 270.57 (1:n) .5 0 t
400.60 316.45 (1:n) .5 90 t
431.01 306.69 608.50 326.21 cl
0 0 0 srgb
0.75 setlinewidth
[ 2.25 3.75] 0 setdash
1 setlinecap
1 setlinejoin
10.00 setmiterlimit
np
396.50 308.46 m
41.08 0 l
41.09 0 l
41.08 0 l
41.09 0 l
41.08 0 l
16.08 0 l
o
0.75 setlinewidth
[] 0 setdash
np
396.50 312.35 m
41.08 0 l
41.09 0 l
41.08 0 l
41.09 0 l
41.08 0 l
16.08 0 l
o
0.4000 0.2000 0.2000 srgb
437.58 318.71 1.78 c p1
1.50 setlinewidth
[] 0 setdash
np
437.58 314.70 m
0 8.02 l
o
np
436.25 314.70 m
2.66 0 l
o
np
436.25 322.72 m
2.66 0 l
o
437.58 309.60 1.78 c p1
0.3608 0.4000 0.2000 srgb
0.75 setlinewidth
[] 0 setdash
np
478.67 315.83 m
2.40 -4.15 l
-4.80 0 l
2.40 4.15 l
o
1.50 setlinewidth
[] 0 setdash
np
478.67 310.84 m
0 4.44 l
o
np
477.34 310.84 m
2.66 0 l
o
np
477.34 315.28 m
2.66 0 l
o
np
478.67 313.37 m
2.40 -4.16 l
-4.80 0 l
2.40 4.16 l
o
0.2000 0.4000 0.2784 srgb
0.75 setlinewidth
[] 0 setdash
np
517.23 314.63 m
5.04 0 l
o
np
519.75 312.11 m
0 5.04 l
o
1.50 setlinewidth
[] 0 setdash
np
519.75 308.68 m
0 11.90 l
o
np
518.42 308.68 m
2.66 0 l
o
np
518.42 320.58 m
2.66 0 l
o
np
517.23 311.09 m
5.04 0 l
o
np
519.75 308.57 m
0 5.04 l
o
0.2000 0.2784 0.4000 srgb
0.75 setlinewidth
[] 0 setdash
np
559.05 311.50 m
3.57 3.57 l
o
np
559.05 315.07 m
3.57 -3.57 l
o
1.50 setlinewidth
[] 0 setdash
np
560.84 310.52 m
0 5.53 l
o
np
559.51 310.52 m
2.66 0 l
o
np
559.51 316.05 m
2.66 0 l
o
np
559.05 308.78 m
3.57 3.56 l
o
np
559.05 312.34 m
3.57 -3.56 l
o
0.3608 0.2000 0.4000 srgb
0.75 setlinewidth
[] 0 setdash
np
599.40 313.24 m
2.52 2.52 l
2.52 -2.52 l
-2.52 -2.52 l
-2.52 2.52 l
o
1.50 setlinewidth
[] 0 setdash
np
601.92 310.15 m
0 6.19 l
o
np
600.59 310.15 m
2.66 0 l
o
np
600.59 316.34 m
2.66 0 l
o
np
599.40 308.54 m
2.52 2.52 l
2.52 -2.52 l
-2.52 -2.52 l
-2.52 2.52 l
o
19.01 249.15 196.50 268.67 cl
0.00 0.00 618.00 402.75 cl
0 0 0 srgb
0.75 setlinewidth
[] 0 setdash
1 setlinecap
1 setlinejoin
10.00 setmiterlimit
np
25.58 249.15 m
164.34 0 l
o
np
25.58 249.15 m
0 -4.75 l
o
np
66.67 249.15 m
0 -4.75 l
o
np
107.75 249.15 m
0 -4.75 l
o
np
148.84 249.15 m
0 -4.75 l
o
np
189.92 249.15 m
0 -4.75 l
o
/Font1 findfont 11 s
25.58 232.04 (1) .5 0 t
66.67 232.04 (2) .5 0 t
107.75 232.04 (3) .5 0 t
148.84 232.04 (4) .5 0 t
189.92 232.04 (5) .5 0 t
np
19.01 251.00 m
0 16.95 l
o
np
19.01 251.00 m
-4.75 0 l
o
np
19.01 253.83 m
-4.75 0 l
o
np
19.01 256.65 m
-4.75 0 l
o
np
19.01 259.48 m
-4.75 0 l
o
np
19.01 262.30 m
-4.75 0 l
o
np
19.01 265.12 m
-4.75 0 l
o
np
19.01 267.95 m
-4.75 0 l
o
7.60 251.00 (1.00) .5 90 t
np
19.01 249.15 m
177.49 0 l
0 19.52 l
-177.49 0 l
0 -19.52 l
o
0.00 230.14 206.00 287.68 cl
/Font2 findfont 13 s
0 0 0 srgb
107.75 273.51 (c75D.vrp) .5 0 t
/Font1 findfont 11 s
107.75 213.04 (1:n) .5 0 t
19.01 249.15 196.50 268.67 cl
0 0 0 srgb
0.75 setlinewidth
[ 2.25 3.75] 0 setdash
1 setlinecap
1 setlinejoin
10.00 setmiterlimit
np
0.00 252.63 m
25.58 0 l
41.09 0 l
41.08 0 l
41.09 0 l
41.08 0 l
41.09 0 l
o
0.75 setlinewidth
[] 0 setdash
np
0.00 254.75 m
25.58 0 l
41.09 0 l
41.08 0 l
41.09 0 l
41.08 0 l
41.09 0 l
o
0.4000 0.2000 0.2000 srgb
25.58 257.85 1.78 c p1
1.50 setlinewidth
[] 0 setdash
np
25.58 254.64 m
0 6.41 l
o
np
24.25 254.64 m
2.66 0 l
o
np
24.25 261.05 m
2.66 0 l
o
25.58 251.43 1.78 c p1
0.3608 0.4000 0.2000 srgb
0.75 setlinewidth
[] 0 setdash
np
66.67 256.63 m
2.40 -4.15 l
-4.80 0 l
2.40 4.15 l
o
1.50 setlinewidth
[] 0 setdash
np
66.67 252.57 m
0 2.59 l
o
np
65.34 252.57 m
2.66 0 l
o
np
65.34 255.16 m
2.66 0 l
o
np
66.67 255.25 m
2.40 -4.16 l
-4.80 0 l
2.40 4.16 l
o
0.2000 0.4000 0.2784 srgb
0.75 setlinewidth
[] 0 setdash
np
105.23 254.69 m
5.04 0 l
o
np
107.75 252.17 m
0 5.04 l
o
1.50 setlinewidth
[] 0 setdash
np
107.75 252.54 m
0 4.29 l
o
np
106.42 252.54 m
2.66 0 l
o
np
106.42 256.83 m
2.66 0 l
o
np
105.23 251.39 m
5.04 0 l
o
np
107.75 248.87 m
0 5.04 l
o
0.2000 0.2784 0.4000 srgb
0.75 setlinewidth
[] 0 setdash
np
147.06 251.61 m
3.56 3.56 l
o
np
147.06 255.17 m
3.56 -3.56 l
o
1.50 setlinewidth
[] 0 setdash
np
148.84 252.58 m
0 1.62 l
o
np
147.51 252.58 m
2.66 0 l
o
np
147.51 254.20 m
2.66 0 l
o
np
147.06 250.79 m
3.56 3.57 l
o
np
147.06 254.36 m
3.56 -3.57 l
o
0.3608 0.2000 0.4000 srgb
0.75 setlinewidth
[] 0 setdash
np
187.40 253.37 m
2.52 2.52 l
2.52 -2.52 l
-2.52 -2.52 l
-2.52 2.52 l
o
1.50 setlinewidth
[] 0 setdash
np
189.92 251.57 m
0 3.61 l
o
np
188.59 251.57 m
2.66 0 l
o
np
188.59 255.18 m
2.66 0 l
o
np
187.40 251.00 m
2.52 2.52 l
2.52 -2.52 l
-2.52 -2.52 l
-2.52 2.52 l
o
225.01 249.15 402.50 268.67 cl
0.00 0.00 618.00 402.75 cl
0 0 0 srgb
0.75 setlinewidth
[] 0 setdash
1 setlinecap
1 setlinejoin
10.00 setmiterlimit
np
231.58 249.15 m
164.34 0 l
o
np
231.58 249.15 m
0 -4.75 l
o
np
272.67 249.15 m
0 -4.75 l
o
np
313.75 249.15 m
0 -4.75 l
o
np
354.84 249.15 m
0 -4.75 l
o
np
395.92 249.15 m
0 -4.75 l
o
/Font1 findfont 11 s
231.58 232.04 (1) .5 0 t
272.67 232.04 (2) .5 0 t
313.75 232.04 (3) .5 0 t
354.84 232.04 (4) .5 0 t
395.92 232.04 (5) .5 0 t
np
225.01 251.00 m
0 16.95 l
o
np
225.01 251.00 m
-4.75 0 l
o
np
225.01 253.83 m
-4.75 0 l
o
np
225.01 256.65 m
-4.75 0 l
o
np
225.01 259.48 m
-4.75 0 l
o
np
225.01 262.30 m
-4.75 0 l
o
np
225.01 265.12 m
-4.75 0 l
o
np
225.01 267.95 m
-4.75 0 l
o
213.60 251.00 (1.00) .5 90 t
np
225.01 249.15 m
177.49 0 l
0 19.52 l
-177.49 0 l
0 -19.52 l
o
206.00 230.14 412.00 287.68 cl
/Font2 findfont 13 s
0 0 0 srgb
313.75 273.51 (f134D.vrp) .5 0 t
/Font1 findfont 11 s
313.75 213.04 (1:n) .5 0 t
194.60 258.91 (1:n) .5 90 t
225.01 249.15 402.50 268.67 cl
0 0 0 srgb
0.75 setlinewidth
[ 2.25 3.75] 0 setdash
1 setlinecap
1 setlinejoin
10.00 setmiterlimit
np
190.50 264.88 m
41.08 0 l
41.09 0 l
41.08 0 l
41.09 0 l
41.08 0 l
41.09 0 l
o
0.75 setlinewidth
[] 0 setdash
np
190.50 269.72 m
41.08 0 l
41.09 0 l
41.08 0 l
41.09 0 l
41.08 0 l
41.09 0 l
o
0.4000 0.2000 0.2000 srgb
231.58 257.17 1.78 c p1
1.50 setlinewidth
[] 0 setdash
np
231.58 255.69 m
0 2.97 l
o
np
230.25 255.69 m
2.66 0 l
o
np
230.25 258.66 m
2.66 0 l
o
231.58 254.02 1.78 c p1
0.3608 0.4000 0.2000 srgb
0.75 setlinewidth
[] 0 setdash
np
272.67 258.75 m
2.40 -4.15 l
-4.80 0 l
2.40 4.15 l
o
1.50 setlinewidth
[] 0 setdash
np
272.67 253.49 m
0 4.99 l
o
np
271.34 253.49 m
2.66 0 l
o
np
271.34 258.48 m
2.66 0 l
o
np
272.67 254.82 m
2.40 -4.16 l
-4.80 0 l
2.40 4.16 l
o
0.2000 0.4000 0.2784 srgb
0.75 setlinewidth
[] 0 setdash
np
311.23 259.92 m
5.04 0 l
o
np
313.75 257.40 m
0 5.04 l
o
1.50 setlinewidth
[] 0 setdash
np
313.75 254.45 m
0 10.95 l
o
np
312.42 254.45 m
2.66 0 l
o
np
312.42 265.40 m
2.66 0 l
o
np
311.23 253.81 m
5.04 0 l
o
np
313.75 251.29 m
0 5.04 l
o
0.2000 0.2784 0.4000 srgb
0.75 setlinewidth
[] 0 setdash
np
353.06 253.21 m
3.56 3.56 l
o
np
353.06 256.77 m
3.56 -3.56 l
o
1.50 setlinewidth
[] 0 setdash
np
354.84 252.54 m
0 4.90 l
o
np
353.51 252.54 m
2.66 0 l
o
np
353.51 257.44 m
2.66 0 l
o
np
353.06 249.22 m
3.56 3.57 l
o
np
353.06 252.79 m
3.56 -3.57 l
o
0.3608 0.2000 0.4000 srgb
0.75 setlinewidth
[] 0 setdash
np
393.40 257.32 m
2.52 2.52 l
2.52 -2.52 l
-2.52 -2.52 l
-2.52 2.52 l
o
1.50 setlinewidth
[] 0 setdash
np
395.92 254.51 m
0 5.62 l
o
np
394.59 254.51 m
2.66 0 l
o
np
394.59 260.13 m
2.66 0 l
o
np
393.40 254.12 m
2.52 2.52 l
2.52 -2.52 l
-2.52 -2.52 l
-2.52 2.52 l
o
431.01 249.15 608.50 268.67 cl
0.00 0.00 618.00 402.75 cl
0 0 0 srgb
0.75 setlinewidth
[] 0 setdash
1 setlinecap
1 setlinejoin
10.00 setmiterlimit
np
437.58 249.15 m
164.34 0 l
o
np
437.58 249.15 m
0 -4.75 l
o
np
478.67 249.15 m
0 -4.75 l
o
np
519.75 249.15 m
0 -4.75 l
o
np
560.84 249.15 m
0 -4.75 l
o
np
601.92 249.15 m
0 -4.75 l
o
/Font1 findfont 11 s
437.58 232.04 (1) .5 0 t
478.67 232.04 (2) .5 0 t
519.75 232.04 (3) .5 0 t
560.84 232.04 (4) .5 0 t
601.92 232.04 (5) .5 0 t
np
431.01 251.00 m
0 16.95 l
o
np
431.01 251.00 m
-4.75 0 l
o
np
431.01 253.83 m
-4.75 0 l
o
np
431.01 256.65 m
-4.75 0 l
o
np
431.01 259.48 m
-4.75 0 l
o
np
431.01 262.30 m
-4.75 0 l
o
np
431.01 265.12 m
-4.75 0 l
o
np
431.01 267.95 m
-4.75 0 l
o
419.60 251.00 (1.00) .5 90 t
np
431.01 249.15 m
177.49 0 l
0 19.52 l
-177.49 0 l
0 -19.52 l
o
412.00 230.14 618.00 287.68 cl
/Font2 findfont 13 s
0 0 0 srgb
519.75 273.51 (f71D.vrp) .5 0 t
/Font1 findfont 11 s
519.75 213.04 (1:n) .5 0 t
400.60 258.91 (1:n) .5 90 t
431.01 249.15 608.50 268.67 cl
0 0 0 srgb
0.75 setlinewidth
[ 2.25 3.75] 0 setdash
1 setlinecap
1 setlinejoin
10.00 setmiterlimit
np
396.50 250.36 m
41.08 0 l
41.09 0 l
41.08 0 l
41.09 0 l
41.08 0 l
16.08 0 l
o
0.75 setlinewidth
[] 0 setdash
np
396.50 252.16 m
41.08 0 l
41.09 0 l
41.08 0 l
41.09 0 l
41.08 0 l
16.08 0 l
o
0.4000 0.2000 0.2000 srgb
437.58 263.81 1.78 c p1
1.50 setlinewidth
[] 0 setdash
np
437.58 259.20 m
0 9.21 l
o
np
436.25 259.20 m
2.66 0 l
o
np
436.25 268.41 m
2.66 0 l
o
437.58 255.70 1.78 c p1
0.3608 0.4000 0.2000 srgb
0.75 setlinewidth
[] 0 setdash
np
478.67 259.51 m
2.40 -4.16 l
-4.80 0 l
2.40 4.16 l
o
1.50 setlinewidth
[] 0 setdash
np
478.67 252.64 m
0 8.18 l
o
np
477.34 252.64 m
2.66 0 l
o
np
477.34 260.82 m
2.66 0 l
o
np
478.67 253.77 m
2.40 -4.15 l
-4.80 0 l
2.40 4.15 l
o
0.2000 0.4000 0.2784 srgb
0.75 setlinewidth
[] 0 setdash
np
517.23 260.72 m
5.04 0 l
o
np
519.75 258.20 m
0 5.04 l
o
1.50 setlinewidth
[] 0 setdash
np
519.75 257.05 m
0 7.35 l
o
np
518.42 257.05 m
2.66 0 l
o
np
518.42 264.40 m
2.66 0 l
o
np
517.23 253.51 m
5.04 0 l
o
np
519.75 250.99 m
0 5.04 l
o
0.2000 0.2784 0.4000 srgb
0.75 setlinewidth
[] 0 setdash
np
559.05 258.06 m
3.57 3.56 l
o
np
559.05 261.62 m
3.57 -3.56 l
o
1.50 setlinewidth
[] 0 setdash
np
560.84 255.38 m
0 8.92 l
o
np
559.51 255.38 m
2.66 0 l
o
np
559.51 264.30 m
2.66 0 l
o
np
559.05 252.11 m
3.57 3.57 l
o
np
559.05 255.68 m
3.57 -3.57 l
o
0.3608 0.2000 0.4000 srgb
0.75 setlinewidth
[] 0 setdash
np
599.40 259.39 m
2.52 2.52 l
2.52 -2.52 l
-2.52 -2.52 l
-2.52 2.52 l
o
1.50 setlinewidth
[] 0 setdash
np
601.92 254.98 m
0 8.81 l
o
np
600.59 254.98 m
2.66 0 l
o
np
600.59 263.79 m
2.66 0 l
o
np
599.40 254.05 m
2.52 2.52 l
2.52 -2.52 l
-2.52 -2.52 l
-2.52 2.52 l
o
19.01 191.62 196.50 211.13 cl
0.00 0.00 618.00 402.75 cl
0 0 0 srgb
0.75 setlinewidth
[] 0 setdash
1 setlinecap
1 setlinejoin
10.00 setmiterlimit
np
25.58 191.62 m
164.34 0 l
o
np
25.58 191.62 m
0 -4.76 l
o
np
66.67 191.62 m
0 -4.76 l
o
np
107.75 191.62 m
0 -4.76 l
o
np
148.84 191.62 m
0 -4.76 l
o
np
189.92 191.62 m
0 -4.76 l
o
/Font1 findfont 11 s
25.58 174.51 (1) .5 0 t
66.67 174.51 (2) .5 0 t
107.75 174.51 (3) .5 0 t
148.84 174.51 (4) .5 0 t
189.92 174.51 (5) .5 0 t
np
19.01 193.47 m
0 16.94 l
o
np
19.01 193.47 m
-4.75 0 l
o
np
19.01 196.29 m
-4.75 0 l
o
np
19.01 199.12 m
-4.75 0 l
o
np
19.01 201.94 m
-4.75 0 l
o
np
19.01 204.76 m
-4.75 0 l
o
np
19.01 207.59 m
-4.75 0 l
o
np
19.01 210.41 m
-4.75 0 l
o
7.60 193.47 (1.00) .5 90 t
np
19.01 191.62 m
177.49 0 l
0 19.51 l
-177.49 0 l
0 -19.51 l
o
0.00 172.61 206.00 230.14 cl
/Font2 findfont 13 s
0 0 0 srgb
107.75 215.97 (tai100aD.vrp) .5 0 t
/Font1 findfont 11 s
107.75 155.50 (1:n) .5 0 t
19.01 191.62 196.50 211.13 cl
0 0 0 srgb
0.75 setlinewidth
[ 2.25 3.75] 0 setdash
1 setlinecap
1 setlinejoin
10.00 setmiterlimit
np
0.00 192.18 m
25.58 0 l
41.09 0 l
41.08 0 l
41.09 0 l
41.08 0 l
41.09 0 l
o
0.75 setlinewidth
[] 0 setdash
np
0.00 193.09 m
25.58 0 l
41.09 0 l
41.08 0 l
41.09 0 l
41.08 0 l
41.09 0 l
o
0.4000 0.2000 0.2000 srgb
25.58 205.58 1.78 c p1
1.50 setlinewidth
[] 0 setdash
np
25.58 200.44 m
0 10.27 l
o
np
24.25 200.44 m
2.66 0 l
o
np
24.25 210.71 m
2.66 0 l
o
25.58 195.70 1.78 c p1
0.3608 0.4000 0.2000 srgb
0.75 setlinewidth
[] 0 setdash
np
66.67 199.36 m
2.40 -4.15 l
-4.80 0 l
2.40 4.15 l
o
1.50 setlinewidth
[] 0 setdash
np
66.67 194.53 m
0 4.12 l
o
np
65.34 194.53 m
2.66 0 l
o
np
65.34 198.65 m
2.66 0 l
o
np
66.67 197.42 m
2.40 -4.15 l
-4.80 0 l
2.40 4.15 l
o
0.2000 0.4000 0.2784 srgb
0.75 setlinewidth
[] 0 setdash
np
105.23 200.95 m
5.04 0 l
o
np
107.75 198.43 m
0 5.04 l
o
1.50 setlinewidth
[] 0 setdash
np
107.75 196.55 m
0 8.80 l
o
np
106.42 196.55 m
2.66 0 l
o
np
106.42 205.35 m
2.66 0 l
o
np
105.23 195.42 m
5.04 0 l
o
np
107.75 192.90 m
0 5.04 l
o
0.2000 0.2784 0.4000 srgb
0.75 setlinewidth
[] 0 setdash
np
147.06 199.27 m
3.56 3.57 l
o
np
147.06 202.84 m
3.56 -3.57 l
o
1.50 setlinewidth
[] 0 setdash
np
148.84 197.81 m
0 6.49 l
o
np
147.51 197.81 m
2.66 0 l
o
np
147.51 204.30 m
2.66 0 l
o
np
147.06 195.36 m
3.56 3.56 l
o
np
147.06 198.92 m
3.56 -3.56 l
o
0.3608 0.2000 0.4000 srgb
0.75 setlinewidth
[] 0 setdash
np
187.40 196.49 m
2.52 2.52 l
2.52 -2.52 l
-2.52 -2.52 l
-2.52 2.52 l
o
1.50 setlinewidth
[] 0 setdash
np
189.92 193.61 m
0 5.76 l
o
np
188.59 193.61 m
2.66 0 l
o
np
188.59 199.37 m
2.66 0 l
o
np
187.40 193.47 m
2.52 2.52 l
2.52 -2.52 l
-2.52 -2.52 l
-2.52 2.52 l
o
225.01 191.62 402.50 211.13 cl
0.00 0.00 618.00 402.75 cl
0 0 0 srgb
0.75 setlinewidth
[] 0 setdash
1 setlinecap
1 setlinejoin
10.00 setmiterlimit
np
231.58 191.62 m
164.34 0 l
o
np
231.58 191.62 m
0 -4.76 l
o
np
272.67 191.62 m
0 -4.76 l
o
np
313.75 191.62 m
0 -4.76 l
o
np
354.84 191.62 m
0 -4.76 l
o
np
395.92 191.62 m
0 -4.76 l
o
/Font1 findfont 11 s
231.58 174.51 (1) .5 0 t
272.67 174.51 (2) .5 0 t
313.75 174.51 (3) .5 0 t
354.84 174.51 (4) .5 0 t
395.92 174.51 (5) .5 0 t
np
225.01 193.47 m
0 16.94 l
o
np
225.01 193.47 m
-4.75 0 l
o
np
225.01 196.29 m
-4.75 0 l
o
np
225.01 199.12 m
-4.75 0 l
o
np
225.01 201.94 m
-4.75 0 l
o
np
225.01 204.76 m
-4.75 0 l
o
np
225.01 207.59 m
-4.75 0 l
o
np
225.01 210.41 m
-4.75 0 l
o
213.60 193.47 (1.00) .5 90 t
np
225.01 191.62 m
177.49 0 l
0 19.51 l
-177.49 0 l
0 -19.51 l
o
206.00 172.61 412.00 230.14 cl
/Font2 findfont 13 s
0 0 0 srgb
313.75 215.97 (tai100bD.vrp) .5 0 t
/Font1 findfont 11 s
313.75 155.50 (1:n) .5 0 t
194.60 201.38 (1:n) .5 90 t
225.01 191.62 402.50 211.13 cl
0 0 0 srgb
0.75 setlinewidth
[ 2.25 3.75] 0 setdash
1 setlinecap
1 setlinejoin
10.00 setmiterlimit
np
190.50 195.93 m
41.08 0 l
41.09 0 l
41.08 0 l
41.09 0 l
41.08 0 l
41.09 0 l
o
0.75 setlinewidth
[] 0 setdash
np
190.50 198.08 m
41.08 0 l
41.09 0 l
41.08 0 l
41.09 0 l
41.08 0 l
41.09 0 l
o
0.4000 0.2000 0.2000 srgb
231.58 206.12 1.78 c p1
1.50 setlinewidth
[] 0 setdash
np
231.58 201.50 m
0 9.25 l
o
np
230.25 201.50 m
2.66 0 l
o
np
230.25 210.75 m
2.66 0 l
o
231.58 197.24 1.78 c p1
0.3608 0.4000 0.2000 srgb
0.75 setlinewidth
[] 0 setdash
np
272.67 201.09 m
2.40 -4.15 l
-4.80 0 l
2.40 4.15 l
o
1.50 setlinewidth
[] 0 setdash
np
272.67 197.04 m
0 2.56 l
o
np
271.34 197.04 m
2.66 0 l
o
np
271.34 199.60 m
2.66 0 l
o
np
272.67 199.80 m
2.40 -4.15 l
-4.80 0 l
2.40 4.15 l
o
0.2000 0.4000 0.2784 srgb
0.75 setlinewidth
[] 0 setdash
np
311.23 197.95 m
5.04 0 l
o
np
313.75 195.43 m
0 5.04 l
o
1.50 setlinewidth
[] 0 setdash
np
313.75 194.56 m
0 6.79 l
o
np
312.42 194.56 m
2.66 0 l
o
np
312.42 201.35 m
2.66 0 l
o
np
311.23 194.20 m
5.04 0 l
o
np
313.75 191.68 m
0 5.04 l
o
0.2000 0.2784 0.4000 srgb
0.75 setlinewidth
[] 0 setdash
np
353.06 195.39 m
3.56 3.57 l
o
np
353.06 198.96 m
3.56 -3.57 l
o
1.50 setlinewidth
[] 0 setdash
np
354.84 194.92 m
0 4.51 l
o
np
353.51 194.92 m
2.66 0 l
o
np
353.51 199.43 m
2.66 0 l
o
np
353.06 191.69 m
3.56 3.56 l
o
np
353.06 195.25 m
3.56 -3.56 l
o
0.3608 0.2000 0.4000 srgb
0.75 setlinewidth
[] 0 setdash
np
393.40 196.36 m
2.52 2.52 l
2.52 -2.52 l
-2.52 -2.52 l
-2.52 2.52 l
o
1.50 setlinewidth
[] 0 setdash
np
395.92 194.52 m
0 3.69 l
o
np
394.59 194.52 m
2.66 0 l
o
np
394.59 198.21 m
2.66 0 l
o
np
393.40 193.65 m
2.52 2.52 l
2.52 -2.52 l
-2.52 -2.52 l
-2.52 2.52 l
o
431.01 191.62 608.50 211.13 cl
0.00 0.00 618.00 402.75 cl
0 0 0 srgb
0.75 setlinewidth
[] 0 setdash
1 setlinecap
1 setlinejoin
10.00 setmiterlimit
np
437.58 191.62 m
164.34 0 l
o
np
437.58 191.62 m
0 -4.76 l
o
np
478.67 191.62 m
0 -4.76 l
o
np
519.75 191.62 m
0 -4.76 l
o
np
560.84 191.62 m
0 -4.76 l
o
np
601.92 191.62 m
0 -4.76 l
o
/Font1 findfont 11 s
437.58 174.51 (1) .5 0 t
478.67 174.51 (2) .5 0 t
519.75 174.51 (3) .5 0 t
560.84 174.51 (4) .5 0 t
601.92 174.51 (5) .5 0 t
np
431.01 193.47 m
0 16.94 l
o
np
431.01 193.47 m
-4.75 0 l
o
np
431.01 196.29 m
-4.75 0 l
o
np
431.01 199.12 m
-4.75 0 l
o
np
431.01 201.94 m
-4.75 0 l
o
np
431.01 204.76 m
-4.75 0 l
o
np
431.01 207.59 m
-4.75 0 l
o
np
431.01 210.41 m
-4.75 0 l
o
419.60 193.47 (1.00) .5 90 t
np
431.01 191.62 m
177.49 0 l
0 19.51 l
-177.49 0 l
0 -19.51 l
o
412.00 172.61 618.00 230.14 cl
/Font2 findfont 13 s
0 0 0 srgb
519.75 215.97 (tai100cD.vrp) .5 0 t
/Font1 findfont 11 s
519.75 155.50 (1:n) .5 0 t
400.60 201.38 (1:n) .5 90 t
431.01 191.62 608.50 211.13 cl
0 0 0 srgb
0.75 setlinewidth
[ 2.25 3.75] 0 setdash
1 setlinecap
1 setlinejoin
10.00 setmiterlimit
np
396.50 193.22 m
41.08 0 l
41.09 0 l
41.08 0 l
41.09 0 l
41.08 0 l
16.08 0 l
o
0.75 setlinewidth
[] 0 setdash
np
396.50 195.50 m
41.08 0 l
41.09 0 l
41.08 0 l
41.09 0 l
41.08 0 l
16.08 0 l
o
0.4000 0.2000 0.2000 srgb
437.58 200.09 1.78 c p1
1.50 setlinewidth
[] 0 setdash
np
437.58 197.49 m
0 5.19 l
o
np
436.25 197.49 m
2.66 0 l
o
np
436.25 202.68 m
2.66 0 l
o
437.58 196.01 1.78 c p1
0.3608 0.4000 0.2000 srgb
0.75 setlinewidth
[] 0 setdash
np
478.67 200.18 m
2.40 -4.16 l
-4.80 0 l
2.40 4.16 l
o
1.50 setlinewidth
[] 0 setdash
np
478.67 193.80 m
0 7.21 l
o
np
477.34 193.80 m
2.66 0 l
o
np
477.34 201.01 m
2.66 0 l
o
np
478.67 198.00 m
2.40 -4.16 l
-4.80 0 l
2.40 4.16 l
o
0.2000 0.4000 0.2784 srgb
0.75 setlinewidth
[] 0 setdash
np
517.23 198.83 m
5.04 0 l
o
np
519.75 196.31 m
0 5.04 l
o
1.50 setlinewidth
[] 0 setdash
np
519.75 195.51 m
0 6.64 l
o
np
518.42 195.51 m
2.66 0 l
o
np
518.42 202.15 m
2.66 0 l
o
np
517.23 195.89 m
5.04 0 l
o
np
519.75 193.37 m
0 5.04 l
o
0.2000 0.2784 0.4000 srgb
0.75 setlinewidth
[] 0 setdash
np
559.05 195.88 m
3.57 3.56 l
o
np
559.05 199.44 m
3.57 -3.56 l
o
1.50 setlinewidth
[] 0 setdash
np
560.84 195.43 m
0 4.47 l
o
np
559.51 195.43 m
2.66 0 l
o
np
559.51 199.90 m
2.66 0 l
o
np
559.05 192.92 m
3.57 3.56 l
o
np
559.05 196.48 m
3.57 -3.56 l
o
0.3608 0.2000 0.4000 srgb
0.75 setlinewidth
[] 0 setdash
np
599.40 196.72 m
2.52 2.52 l
2.52 -2.52 l
-2.52 -2.52 l
-2.52 2.52 l
o
1.50 setlinewidth
[] 0 setdash
np
601.92 193.82 m
0 5.80 l
o
np
600.59 193.82 m
2.66 0 l
o
np
600.59 199.62 m
2.66 0 l
o
np
599.40 193.47 m
2.52 2.52 l
2.52 -2.52 l
-2.52 -2.52 l
-2.52 2.52 l
o
19.01 134.08 196.50 153.60 cl
0.00 0.00 618.00 402.75 cl
0 0 0 srgb
0.75 setlinewidth
[] 0 setdash
1 setlinecap
1 setlinejoin
10.00 setmiterlimit
np
25.58 134.08 m
164.34 0 l
o
np
25.58 134.08 m
0 -4.75 l
o
np
66.67 134.08 m
0 -4.75 l
o
np
107.75 134.08 m
0 -4.75 l
o
np
148.84 134.08 m
0 -4.75 l
o
np
189.92 134.08 m
0 -4.75 l
o
/Font1 findfont 11 s
25.58 116.97 (1) .5 0 t
66.67 116.97 (2) .5 0 t
107.75 116.97 (3) .5 0 t
148.84 116.97 (4) .5 0 t
189.92 116.97 (5) .5 0 t
np
19.01 135.93 m
0 16.95 l
o
np
19.01 135.93 m
-4.75 0 l
o
np
19.01 138.76 m
-4.75 0 l
o
np
19.01 141.58 m
-4.75 0 l
o
np
19.01 144.40 m
-4.75 0 l
o
np
19.01 147.23 m
-4.75 0 l
o
np
19.01 150.05 m
-4.75 0 l
o
np
19.01 152.88 m
-4.75 0 l
o
7.60 135.93 (1.00) .5 90 t
np
19.01 134.08 m
177.49 0 l
0 19.52 l
-177.49 0 l
0 -19.52 l
o
0.00 115.07 206.00 172.61 cl
/Font2 findfont 13 s
0 0 0 srgb
107.75 158.44 (tai100dD.vrp) .5 0 t
/Font1 findfont 11 s
107.75 97.96 (1:n) .5 0 t
19.01 134.08 196.50 153.60 cl
0 0 0 srgb
0.75 setlinewidth
[ 2.25 3.75] 0 setdash
1 setlinecap
1 setlinejoin
10.00 setmiterlimit
np
0.00 139.48 m
25.58 0 l
41.09 0 l
41.08 0 l
41.09 0 l
41.08 0 l
41.09 0 l
o
0.75 setlinewidth
[] 0 setdash
np
0.00 142.41 m
25.58 0 l
41.09 0 l
41.08 0 l
41.09 0 l
41.08 0 l
41.09 0 l
o
0.4000 0.2000 0.2000 srgb
25.58 151.92 1.78 c p1
1.50 setlinewidth
[] 0 setdash
np
25.58 147.11 m
0 9.62 l
o
np
24.25 147.11 m
2.66 0 l
o
np
24.25 156.73 m
2.66 0 l
o
25.58 140.16 1.78 c p1
0.3608 0.4000 0.2000 srgb
0.75 setlinewidth
[] 0 setdash
np
66.67 142.19 m
2.40 -4.16 l
-4.80 0 l
2.40 4.16 l
o
1.50 setlinewidth
[] 0 setdash
np
66.67 136.78 m
0 5.27 l
o
np
65.34 136.78 m
2.66 0 l
o
np
65.34 142.05 m
2.66 0 l
o
np
66.67 138.70 m
2.40 -4.15 l
-4.80 0 l
2.40 4.15 l
o
0.2000 0.4000 0.2784 srgb
0.75 setlinewidth
[] 0 setdash
np
105.23 141.21 m
5.04 0 l
o
np
107.75 138.69 m
0 5.04 l
o
1.50 setlinewidth
[] 0 setdash
np
107.75 138.73 m
0 4.97 l
o
np
106.42 138.73 m
2.66 0 l
o
np
106.42 143.70 m
2.66 0 l
o
np
105.23 137.79 m
5.04 0 l
o
np
107.75 135.27 m
0 5.04 l
o
0.2000 0.2784 0.4000 srgb
0.75 setlinewidth
[] 0 setdash
np
147.06 138.10 m
3.56 3.57 l
o
np
147.06 141.67 m
3.56 -3.57 l
o
1.50 setlinewidth
[] 0 setdash
np
148.84 137.09 m
0 5.59 l
o
np
147.51 137.09 m
2.66 0 l
o
np
147.51 142.68 m
2.66 0 l
o
np
147.06 135.35 m
3.56 3.56 l
o
np
147.06 138.91 m
3.56 -3.56 l
o
0.3608 0.2000 0.4000 srgb
0.75 setlinewidth
[] 0 setdash
np
187.40 139.31 m
2.52 2.52 l
2.52 -2.52 l
-2.52 -2.52 l
-2.52 2.52 l
o
1.50 setlinewidth
[] 0 setdash
np
189.92 137.25 m
0 4.12 l
o
np
188.59 137.25 m
2.66 0 l
o
np
188.59 141.37 m
2.66 0 l
o
np
187.40 136.81 m
2.52 2.52 l
2.52 -2.52 l
-2.52 -2.52 l
-2.52 2.52 l
o
225.01 134.08 402.50 153.60 cl
0.00 0.00 618.00 402.75 cl
0 0 0 srgb
0.75 setlinewidth
[] 0 setdash
1 setlinecap
1 setlinejoin
10.00 setmiterlimit
np
231.58 134.08 m
164.34 0 l
o
np
231.58 134.08 m
0 -4.75 l
o
np
272.67 134.08 m
0 -4.75 l
o
np
313.75 134.08 m
0 -4.75 l
o
np
354.84 134.08 m
0 -4.75 l
o
np
395.92 134.08 m
0 -4.75 l
o
/Font1 findfont 11 s
231.58 116.97 (1) .5 0 t
272.67 116.97 (2) .5 0 t
313.75 116.97 (3) .5 0 t
354.84 116.97 (4) .5 0 t
395.92 116.97 (5) .5 0 t
np
225.01 135.93 m
0 16.95 l
o
np
225.01 135.93 m
-4.75 0 l
o
np
225.01 138.76 m
-4.75 0 l
o
np
225.01 141.58 m
-4.75 0 l
o
np
225.01 144.40 m
-4.75 0 l
o
np
225.01 147.23 m
-4.75 0 l
o
np
225.01 150.05 m
-4.75 0 l
o
np
225.01 152.88 m
-4.75 0 l
o
213.60 135.93 (1.00) .5 90 t
np
225.01 134.08 m
177.49 0 l
0 19.52 l
-177.49 0 l
0 -19.52 l
o
206.00 115.07 412.00 172.61 cl
/Font2 findfont 13 s
0 0 0 srgb
313.75 158.44 (tai150aD.vrp) .5 0 t
/Font1 findfont 11 s
313.75 97.96 (1:n) .5 0 t
194.60 143.84 (1:n) .5 90 t
225.01 134.08 402.50 153.60 cl
0 0 0 srgb
0.75 setlinewidth
[ 2.25 3.75] 0 setdash
1 setlinecap
1 setlinejoin
10.00 setmiterlimit
np
190.50 134.16 m
41.08 0 l
41.09 0 l
41.08 0 l
41.09 0 l
41.08 0 l
41.09 0 l
o
0.75 setlinewidth
[] 0 setdash
np
190.50 136.11 m
41.08 0 l
41.09 0 l
41.08 0 l
41.09 0 l
41.08 0 l
41.09 0 l
o
0.4000 0.2000 0.2000 srgb
231.58 148.84 1.78 c p1
1.50 setlinewidth
[] 0 setdash
np
231.58 143.59 m
0 10.50 l
o
np
230.25 143.59 m
2.66 0 l
o
np
230.25 154.09 m
2.66 0 l
o
231.58 140.27 1.78 c p1
0.3608 0.4000 0.2000 srgb
0.75 setlinewidth
[] 0 setdash
np
272.67 145.48 m
2.40 -4.16 l
-4.80 0 l
2.40 4.16 l
o
1.50 setlinewidth
[] 0 setdash
np
272.67 138.83 m
0 7.75 l
o
np
271.34 138.83 m
2.66 0 l
o
np
271.34 146.58 m
2.66 0 l
o
np
272.67 140.99 m
2.40 -4.15 l
-4.80 0 l
2.40 4.15 l
o
0.2000 0.4000 0.2784 srgb
0.75 setlinewidth
[] 0 setdash
np
311.23 144.16 m
5.04 0 l
o
np
313.75 141.64 m
0 5.04 l
o
1.50 setlinewidth
[] 0 setdash
np
313.75 139.33 m
0 9.65 l
o
np
312.42 139.33 m
2.66 0 l
o
np
312.42 148.98 m
2.66 0 l
o
np
311.23 138.17 m
5.04 0 l
o
np
313.75 135.65 m
0 5.04 l
o
0.2000 0.2784 0.4000 srgb
0.75 setlinewidth
[] 0 setdash
np
353.06 141.79 m
3.56 3.56 l
o
np
353.06 145.35 m
3.56 -3.56 l
o
1.50 setlinewidth
[] 0 setdash
np
354.84 141.93 m
0 3.28 l
o
np
353.51 141.93 m
2.66 0 l
o
np
353.51 145.21 m
2.66 0 l
o
np
353.06 140.46 m
3.56 3.57 l
o
np
353.06 144.03 m
3.56 -3.57 l
o
0.3608 0.2000 0.4000 srgb
0.75 setlinewidth
[] 0 setdash
np
393.40 142.20 m
2.52 2.52 l
2.52 -2.52 l
-2.52 -2.52 l
-2.52 2.52 l
o
1.50 setlinewidth
[] 0 setdash
np
395.92 136.48 m
0 11.45 l
o
np
394.59 136.48 m
2.66 0 l
o
np
394.59 147.93 m
2.66 0 l
o
np
393.40 135.93 m
2.52 2.52 l
2.52 -2.52 l
-2.52 -2.52 l
-2.52 2.52 l
o
431.01 134.08 608.50 153.60 cl
0.00 0.00 618.00 402.75 cl
0 0 0 srgb
0.75 setlinewidth
[] 0 setdash
1 setlinecap
1 setlinejoin
10.00 setmiterlimit
np
437.58 134.08 m
164.34 0 l
o
np
437.58 134.08 m
0 -4.75 l
o
np
478.67 134.08 m
0 -4.75 l
o
np
519.75 134.08 m
0 -4.75 l
o
np
560.84 134.08 m
0 -4.75 l
o
np
601.92 134.08 m
0 -4.75 l
o
/Font1 findfont 11 s
437.58 116.97 (1) .5 0 t
478.67 116.97 (2) .5 0 t
519.75 116.97 (3) .5 0 t
560.84 116.97 (4) .5 0 t
601.92 116.97 (5) .5 0 t
np
431.01 135.93 m
0 16.95 l
o
np
431.01 135.93 m
-4.75 0 l
o
np
431.01 138.76 m
-4.75 0 l
o
np
431.01 141.58 m
-4.75 0 l
o
np
431.01 144.40 m
-4.75 0 l
o
np
431.01 147.23 m
-4.75 0 l
o
np
431.01 150.05 m
-4.75 0 l
o
np
431.01 152.88 m
-4.75 0 l
o
419.60 135.93 (1.00) .5 90 t
np
431.01 134.08 m
177.49 0 l
0 19.52 l
-177.49 0 l
0 -19.52 l
o
412.00 115.07 618.00 172.61 cl
/Font2 findfont 13 s
0 0 0 srgb
519.75 158.44 (tai150bD.vrp) .5 0 t
/Font1 findfont 11 s
519.75 97.96 (1:n) .5 0 t
400.60 143.84 (1:n) .5 90 t
431.01 134.08 608.50 153.60 cl
0 0 0 srgb
0.75 setlinewidth
[ 2.25 3.75] 0 setdash
1 setlinecap
1 setlinejoin
10.00 setmiterlimit
np
396.50 132.94 m
41.08 0 l
41.09 0 l
41.08 0 l
41.09 0 l
41.08 0 l
16.08 0 l
o
0.75 setlinewidth
[] 0 setdash
np
396.50 134.71 m
41.08 0 l
41.09 0 l
41.08 0 l
41.09 0 l
41.08 0 l
16.08 0 l
o
0.4000 0.2000 0.2000 srgb
437.58 141.18 1.78 c p1
1.50 setlinewidth
[] 0 setdash
np
437.58 138.82 m
0 4.72 l
o
np
436.25 138.82 m
2.66 0 l
o
np
436.25 143.54 m
2.66 0 l
o
437.58 137.54 1.78 c p1
0.3608 0.4000 0.2000 srgb
0.75 setlinewidth
[] 0 setdash
np
478.67 140.05 m
2.40 -4.16 l
-4.80 0 l
2.40 4.16 l
o
1.50 setlinewidth
[] 0 setdash
np
478.67 136.68 m
0 1.19 l
o
np
477.34 136.68 m
2.66 0 l
o
np
477.34 137.87 m
2.66 0 l
o
np
478.67 139.24 m
2.40 -4.16 l
-4.80 0 l
2.40 4.16 l
o
0.2000 0.4000 0.2784 srgb
0.75 setlinewidth
[] 0 setdash
np
517.23 138.34 m
5.04 0 l
o
np
519.75 135.82 m
0 5.04 l
o
1.50 setlinewidth
[] 0 setdash
np
519.75 136.76 m
0 3.15 l
o
np
518.42 136.76 m
2.66 0 l
o
np
518.42 139.91 m
2.66 0 l
o
np
517.23 136.31 m
5.04 0 l
o
np
519.75 133.79 m
0 5.04 l
o
0.2000 0.2784 0.4000 srgb
0.75 setlinewidth
[] 0 setdash
np
559.05 137.37 m
3.57 3.56 l
o
np
559.05 140.93 m
3.57 -3.56 l
o
1.50 setlinewidth
[] 0 setdash
np
560.84 136.28 m
0 5.74 l
o
np
559.51 136.28 m
2.66 0 l
o
np
559.51 142.02 m
2.66 0 l
o
np
559.05 134.29 m
3.57 3.56 l
o
np
559.05 137.85 m
3.57 -3.56 l
o
0.3608 0.2000 0.4000 srgb
0.75 setlinewidth
[] 0 setdash
np
599.40 139.01 m
2.52 2.52 l
2.52 -2.52 l
-2.52 -2.52 l
-2.52 2.52 l
o
1.50 setlinewidth
[] 0 setdash
np
601.92 134.70 m
0 8.61 l
o
np
600.59 134.70 m
2.66 0 l
o
np
600.59 143.31 m
2.66 0 l
o
np
599.40 135.93 m
2.52 2.52 l
2.52 -2.52 l
-2.52 -2.52 l
-2.52 2.52 l
o
19.01 76.54 196.50 96.06 cl
0.00 0.00 618.00 402.75 cl
0 0 0 srgb
0.75 setlinewidth
[] 0 setdash
1 setlinecap
1 setlinejoin
10.00 setmiterlimit
np
25.58 76.54 m
164.34 0 l
o
np
25.58 76.54 m
0 -4.75 l
o
np
66.67 76.54 m
0 -4.75 l
o
np
107.75 76.54 m
0 -4.75 l
o
np
148.84 76.54 m
0 -4.75 l
o
np
189.92 76.54 m
0 -4.75 l
o
/Font1 findfont 11 s
25.58 59.44 (1) .5 0 t
66.67 59.44 (2) .5 0 t
107.75 59.44 (3) .5 0 t
148.84 59.44 (4) .5 0 t
189.92 59.44 (5) .5 0 t
np
19.01 78.40 m
0 16.94 l
o
np
19.01 78.40 m
-4.75 0 l
o
np
19.01 81.22 m
-4.75 0 l
o
np
19.01 84.04 m
-4.75 0 l
o
np
19.01 86.87 m
-4.75 0 l
o
np
19.01 89.69 m
-4.75 0 l
o
np
19.01 92.52 m
-4.75 0 l
o
np
19.01 95.34 m
-4.75 0 l
o
7.60 78.40 (1.00) .5 90 t
np
19.01 76.54 m
177.49 0 l
0 19.52 l
-177.49 0 l
0 -19.52 l
o
0.00 57.54 206.00 115.07 cl
/Font2 findfont 13 s
0 0 0 srgb
107.75 100.90 (tai150cD.vrp) .5 0 t
/Font1 findfont 11 s
107.75 40.43 (1:n) .5 0 t
19.01 76.54 196.50 96.06 cl
0 0 0 srgb
0.75 setlinewidth
[ 2.25 3.75] 0 setdash
1 setlinecap
1 setlinejoin
10.00 setmiterlimit
np
0.00 78.01 m
25.58 0 l
41.09 0 l
41.08 0 l
41.09 0 l
41.08 0 l
41.09 0 l
o
0.75 setlinewidth
[] 0 setdash
np
0.00 81.57 m
25.58 0 l
41.09 0 l
41.08 0 l
41.09 0 l
41.08 0 l
41.09 0 l
o
0.4000 0.2000 0.2000 srgb
25.58 87.86 1.78 c p1
1.50 setlinewidth
[] 0 setdash
np
25.58 86.32 m
0 3.07 l
o
np
24.25 86.32 m
2.66 0 l
o
np
24.25 89.39 m
2.66 0 l
o
25.58 84.02 1.78 c p1
0.3608 0.4000 0.2000 srgb
0.75 setlinewidth
[] 0 setdash
np
66.67 85.83 m
2.40 -4.16 l
-4.80 0 l
2.40 4.16 l
o
1.50 setlinewidth
[] 0 setdash
np
66.67 80.34 m
0 5.44 l
o
np
65.34 80.34 m
2.66 0 l
o
np
65.34 85.78 m
2.66 0 l
o
np
66.67 81.17 m
2.40 -4.16 l
-4.80 0 l
2.40 4.16 l
o
0.2000 0.4000 0.2784 srgb
0.75 setlinewidth
[] 0 setdash
np
105.23 83.47 m
5.04 0 l
o
np
107.75 80.95 m
0 5.04 l
o
1.50 setlinewidth
[] 0 setdash
np
107.75 81.48 m
0 3.98 l
o
np
106.42 81.48 m
2.66 0 l
o
np
106.42 85.46 m
2.66 0 l
o
np
105.23 80.77 m
5.04 0 l
o
np
107.75 78.25 m
0 5.04 l
o
0.2000 0.2784 0.4000 srgb
0.75 setlinewidth
[] 0 setdash
np
147.06 80.23 m
3.56 3.57 l
o
np
147.06 83.80 m
3.56 -3.57 l
o
1.50 setlinewidth
[] 0 setdash
np
148.84 80.19 m
0 3.64 l
o
np
147.51 80.19 m
2.66 0 l
o
np
147.51 83.83 m
2.66 0 l
o
np
147.06 77.45 m
3.56 3.57 l
o
np
147.06 81.02 m
3.56 -3.57 l
o
0.3608 0.2000 0.4000 srgb
0.75 setlinewidth
[] 0 setdash
np
187.40 80.88 m
2.52 2.52 l
2.52 -2.52 l
-2.52 -2.52 l
-2.52 2.52 l
o
1.50 setlinewidth
[] 0 setdash
np
189.92 79.99 m
0 1.77 l
o
np
188.59 79.99 m
2.66 0 l
o
np
188.59 81.76 m
2.66 0 l
o
np
187.40 79.52 m
2.52 2.52 l
2.52 -2.52 l
-2.52 -2.52 l
-2.52 2.52 l
o
225.01 76.54 402.50 96.06 cl
0.00 0.00 618.00 402.75 cl
0 0 0 srgb
0.75 setlinewidth
[] 0 setdash
1 setlinecap
1 setlinejoin
10.00 setmiterlimit
np
231.58 76.54 m
164.34 0 l
o
np
231.58 76.54 m
0 -4.75 l
o
np
272.67 76.54 m
0 -4.75 l
o
np
313.75 76.54 m
0 -4.75 l
o
np
354.84 76.54 m
0 -4.75 l
o
np
395.92 76.54 m
0 -4.75 l
o
/Font1 findfont 11 s
231.58 59.44 (1) .5 0 t
272.67 59.44 (2) .5 0 t
313.75 59.44 (3) .5 0 t
354.84 59.44 (4) .5 0 t
395.92 59.44 (5) .5 0 t
np
225.01 78.40 m
0 16.94 l
o
np
225.01 78.40 m
-4.75 0 l
o
np
225.01 81.22 m
-4.75 0 l
o
np
225.01 84.04 m
-4.75 0 l
o
np
225.01 86.87 m
-4.75 0 l
o
np
225.01 89.69 m
-4.75 0 l
o
np
225.01 92.52 m
-4.75 0 l
o
np
225.01 95.34 m
-4.75 0 l
o
213.60 78.40 (1.00) .5 90 t
np
225.01 76.54 m
177.49 0 l
0 19.52 l
-177.49 0 l
0 -19.52 l
o
206.00 57.54 412.00 115.07 cl
/Font2 findfont 13 s
0 0 0 srgb
313.75 100.90 (tai150dD.vrp) .5 0 t
/Font1 findfont 11 s
313.75 40.43 (1:n) .5 0 t
194.60 86.30 (1:n) .5 90 t
225.01 76.54 402.50 96.06 cl
0 0 0 srgb
0.75 setlinewidth
[ 2.25 3.75] 0 setdash
1 setlinecap
1 setlinejoin
10.00 setmiterlimit
np
190.50 76.72 m
41.08 0 l
41.09 0 l
41.08 0 l
41.09 0 l
41.08 0 l
41.09 0 l
o
0.75 setlinewidth
[] 0 setdash
np
190.50 79.16 m
41.08 0 l
41.09 0 l
41.08 0 l
41.09 0 l
41.08 0 l
41.09 0 l
o
0.4000 0.2000 0.2000 srgb
231.58 88.53 1.78 c p1
1.50 setlinewidth
[] 0 setdash
np
231.58 84.21 m
0 8.65 l
o
np
230.25 84.21 m
2.66 0 l
o
np
230.25 92.86 m
2.66 0 l
o
231.58 80.29 1.78 c p1
0.3608 0.4000 0.2000 srgb
0.75 setlinewidth
[] 0 setdash
np
272.67 85.04 m
2.40 -4.16 l
-4.80 0 l
2.40 4.16 l
o
1.50 setlinewidth
[] 0 setdash
np
272.67 80.51 m
0 3.52 l
o
np
271.34 80.51 m
2.66 0 l
o
np
271.34 84.03 m
2.66 0 l
o
np
272.67 82.28 m
2.40 -4.16 l
-4.80 0 l
2.40 4.16 l
o
0.2000 0.4000 0.2784 srgb
0.75 setlinewidth
[] 0 setdash
np
311.23 84.99 m
5.04 0 l
o
np
313.75 82.47 m
0 5.04 l
o
1.50 setlinewidth
[] 0 setdash
np
313.75 82.23 m
0 5.52 l
o
np
312.42 82.23 m
2.66 0 l
o
np
312.42 87.75 m
2.66 0 l
o
np
311.23 82.44 m
5.04 0 l
o
np
313.75 79.92 m
0 5.04 l
o
0.2000 0.2784 0.4000 srgb
0.75 setlinewidth
[] 0 setdash
np
353.06 81.43 m
3.56 3.57 l
o
np
353.06 85.00 m
3.56 -3.57 l
o
1.50 setlinewidth
[] 0 setdash
np
354.84 81.70 m
0 3.03 l
o
np
353.51 81.70 m
2.66 0 l
o
np
353.51 84.73 m
2.66 0 l
o
np
353.06 79.23 m
3.56 3.56 l
o
np
353.06 82.79 m
3.56 -3.56 l
o
0.3608 0.2000 0.4000 srgb
0.75 setlinewidth
[] 0 setdash
np
393.40 81.46 m
2.52 2.52 l
2.52 -2.52 l
-2.52 -2.52 l
-2.52 2.52 l
o
1.50 setlinewidth
[] 0 setdash
np
395.92 79.10 m
0 4.71 l
o
np
394.59 79.10 m
2.66 0 l
o
np
394.59 83.81 m
2.66 0 l
o
np
393.40 78.40 m
2.52 2.52 l
2.52 -2.52 l
-2.52 -2.52 l
-2.52 2.52 l
o
431.01 76.54 608.50 96.06 cl
0.00 0.00 618.00 402.75 cl
0 0 0 srgb
0.75 setlinewidth
[] 0 setdash
1 setlinecap
1 setlinejoin
10.00 setmiterlimit
np
437.58 76.54 m
164.34 0 l
o
np
437.58 76.54 m
0 -4.75 l
o
np
478.67 76.54 m
0 -4.75 l
o
np
519.75 76.54 m
0 -4.75 l
o
np
560.84 76.54 m
0 -4.75 l
o
np
601.92 76.54 m
0 -4.75 l
o
/Font1 findfont 11 s
437.58 59.44 (1) .5 0 t
478.67 59.44 (2) .5 0 t
519.75 59.44 (3) .5 0 t
560.84 59.44 (4) .5 0 t
601.92 59.44 (5) .5 0 t
np
431.01 78.40 m
0 16.94 l
o
np
431.01 78.40 m
-4.75 0 l
o
np
431.01 81.22 m
-4.75 0 l
o
np
431.01 84.04 m
-4.75 0 l
o
np
431.01 86.87 m
-4.75 0 l
o
np
431.01 89.69 m
-4.75 0 l
o
np
431.01 92.52 m
-4.75 0 l
o
np
431.01 95.34 m
-4.75 0 l
o
419.60 78.40 (1.00) .5 90 t
np
431.01 76.54 m
177.49 0 l
0 19.52 l
-177.49 0 l
0 -19.52 l
o
412.00 57.54 618.00 115.07 cl
/Font2 findfont 13 s
0 0 0 srgb
519.75 100.90 (tai75aD.vrp) .5 0 t
/Font1 findfont 11 s
519.75 40.43 (1:n) .5 0 t
400.60 86.30 (1:n) .5 90 t
431.01 76.54 608.50 96.06 cl
0 0 0 srgb
0.75 setlinewidth
[ 2.25 3.75] 0 setdash
1 setlinecap
1 setlinejoin
10.00 setmiterlimit
np
396.50 77.70 m
41.08 0 l
41.09 0 l
41.08 0 l
41.09 0 l
41.08 0 l
16.08 0 l
o
0.75 setlinewidth
[] 0 setdash
np
396.50 79.41 m
41.08 0 l
41.09 0 l
41.08 0 l
41.09 0 l
41.08 0 l
16.08 0 l
o
0.4000 0.2000 0.2000 srgb
437.58 88.51 1.78 c p1
1.50 setlinewidth
[] 0 setdash
np
437.58 83.45 m
0 10.12 l
o
np
436.25 83.45 m
2.66 0 l
o
np
436.25 93.57 m
2.66 0 l
o
437.58 80.08 1.78 c p1
0.3608 0.4000 0.2000 srgb
0.75 setlinewidth
[] 0 setdash
np
478.67 85.23 m
2.40 -4.16 l
-4.80 0 l
2.40 4.16 l
o
1.50 setlinewidth
[] 0 setdash
np
478.67 79.20 m
0 6.51 l
o
np
477.34 79.20 m
2.66 0 l
o
np
477.34 85.71 m
2.66 0 l
o
np
478.67 81.42 m
2.40 -4.15 l
-4.80 0 l
2.40 4.15 l
o
0.2000 0.4000 0.2784 srgb
0.75 setlinewidth
[] 0 setdash
np
517.23 85.35 m
5.04 0 l
o
np
519.75 82.82 m
0 5.05 l
o
1.50 setlinewidth
[] 0 setdash
np
519.75 82.47 m
0 5.75 l
o
np
518.42 82.47 m
2.66 0 l
o
np
518.42 88.22 m
2.66 0 l
o
np
517.23 81.52 m
5.04 0 l
o
np
519.75 79.00 m
0 5.04 l
o
0.2000 0.2784 0.4000 srgb
0.75 setlinewidth
[] 0 setdash
np
559.05 82.15 m
3.57 3.57 l
o
np
559.05 85.72 m
3.57 -3.57 l
o
1.50 setlinewidth
[] 0 setdash
np
560.84 81.28 m
0 5.31 l
o
np
559.51 81.28 m
2.66 0 l
o
np
559.51 86.59 m
2.66 0 l
o
np
559.05 78.31 m
3.57 3.57 l
o
np
559.05 81.88 m
3.57 -3.57 l
o
0.3608 0.2000 0.4000 srgb
0.75 setlinewidth
[] 0 setdash
np
599.40 82.25 m
2.52 2.52 l
2.52 -2.52 l
-2.52 -2.52 l
-2.52 2.52 l
o
1.50 setlinewidth
[] 0 setdash
np
601.92 79.09 m
0 6.32 l
o
np
600.59 79.09 m
2.66 0 l
o
np
600.59 85.41 m
2.66 0 l
o
np
599.40 78.40 m
2.52 2.52 l
2.52 -2.52 l
-2.52 -2.52 l
-2.52 2.52 l
o
19.01 19.01 196.50 38.53 cl
0.00 0.00 618.00 402.75 cl
0 0 0 srgb
0.75 setlinewidth
[] 0 setdash
1 setlinecap
1 setlinejoin
10.00 setmiterlimit
np
25.58 19.01 m
164.34 0 l
o
np
25.58 19.01 m
0 -4.75 l
o
np
66.67 19.01 m
0 -4.75 l
o
np
107.75 19.01 m
0 -4.75 l
o
np
148.84 19.01 m
0 -4.75 l
o
np
189.92 19.01 m
0 -4.75 l
o
/Font1 findfont 11 s
25.58 1.90 (1) .5 0 t
66.67 1.90 (2) .5 0 t
107.75 1.90 (3) .5 0 t
148.84 1.90 (4) .5 0 t
189.92 1.90 (5) .5 0 t
np
19.01 20.86 m
0 16.94 l
o
np
19.01 20.86 m
-4.75 0 l
o
np
19.01 23.68 m
-4.75 0 l
o
np
19.01 26.51 m
-4.75 0 l
o
np
19.01 29.33 m
-4.75 0 l
o
np
19.01 32.16 m
-4.75 0 l
o
np
19.01 34.98 m
-4.75 0 l
o
np
19.01 37.80 m
-4.75 0 l
o
7.60 20.86 (1.00) .5 90 t
np
19.01 19.01 m
177.49 0 l
0 19.52 l
-177.49 0 l
0 -19.52 l
o
0.00 0.00 206.00 57.54 cl
/Font2 findfont 13 s
0 0 0 srgb
107.75 43.36 (tai75bD.vrp) .5 0 t
19.01 19.01 196.50 38.53 cl
0 0 0 srgb
0.75 setlinewidth
[ 2.25 3.75] 0 setdash
1 setlinecap
1 setlinejoin
10.00 setmiterlimit
np
0.00 19.84 m
25.58 0 l
41.09 0 l
41.08 0 l
41.09 0 l
41.08 0 l
41.09 0 l
o
0.75 setlinewidth
[] 0 setdash
np
0.00 21.04 m
25.58 0 l
41.09 0 l
41.08 0 l
41.09 0 l
41.08 0 l
41.09 0 l
o
0.4000 0.2000 0.2000 srgb
25.58 26.66 1.78 c p1
1.50 setlinewidth
[] 0 setdash
np
25.58 23.89 m
0 5.55 l
o
np
24.25 23.89 m
2.66 0 l
o
np
24.25 29.44 m
2.66 0 l
o
25.58 22.40 1.78 c p1
0.3608 0.4000 0.2000 srgb
0.75 setlinewidth
[] 0 setdash
np
66.67 27.36 m
2.40 -4.16 l
-4.80 0 l
2.40 4.16 l
o
1.50 setlinewidth
[] 0 setdash
np
66.67 23.04 m
0 3.10 l
o
np
65.34 23.04 m
2.66 0 l
o
np
65.34 26.14 m
2.66 0 l
o
np
66.67 25.00 m
2.40 -4.16 l
-4.80 0 l
2.40 4.16 l
o
0.2000 0.4000 0.2784 srgb
0.75 setlinewidth
[] 0 setdash
np
105.23 26.16 m
5.04 0 l
o
np
107.75 23.64 m
0 5.04 l
o
1.50 setlinewidth
[] 0 setdash
np
107.75 21.74 m
0 8.84 l
o
np
106.42 21.74 m
2.66 0 l
o
np
106.42 30.58 m
2.66 0 l
o
np
105.23 20.86 m
5.04 0 l
o
np
107.75 18.34 m
0 5.04 l
o
0.2000 0.2784 0.4000 srgb
0.75 setlinewidth
[] 0 setdash
np
147.06 23.10 m
3.56 3.57 l
o
np
147.06 26.67 m
3.56 -3.57 l
o
1.50 setlinewidth
[] 0 setdash
np
148.84 22.12 m
0 5.53 l
o
np
147.51 22.12 m
2.66 0 l
o
np
147.51 27.65 m
2.66 0 l
o
np
147.06 21.05 m
3.56 3.57 l
o
np
147.06 24.62 m
3.56 -3.57 l
o
0.3608 0.2000 0.4000 srgb
0.75 setlinewidth
[] 0 setdash
np
187.40 24.33 m
2.52 2.52 l
2.52 -2.52 l
-2.52 -2.52 l
-2.52 2.52 l
o
1.50 setlinewidth
[] 0 setdash
np
189.92 22.30 m
0 4.06 l
o
np
188.59 22.30 m
2.66 0 l
o
np
188.59 26.36 m
2.66 0 l
o
np
187.40 22.19 m
2.52 2.52 l
2.52 -2.52 l
-2.52 -2.52 l
-2.52 2.52 l
o
225.01 19.01 402.50 38.53 cl
0.00 0.00 618.00 402.75 cl
0 0 0 srgb
0.75 setlinewidth
[] 0 setdash
1 setlinecap
1 setlinejoin
10.00 setmiterlimit
np
231.58 19.01 m
164.34 0 l
o
np
231.58 19.01 m
0 -4.75 l
o
np
272.67 19.01 m
0 -4.75 l
o
np
313.75 19.01 m
0 -4.75 l
o
np
354.84 19.01 m
0 -4.75 l
o
np
395.92 19.01 m
0 -4.75 l
o
/Font1 findfont 11 s
231.58 1.90 (1) .5 0 t
272.67 1.90 (2) .5 0 t
313.75 1.90 (3) .5 0 t
354.84 1.90 (4) .5 0 t
395.92 1.90 (5) .5 0 t
np
225.01 20.86 m
0 16.94 l
o
np
225.01 20.86 m
-4.75 0 l
o
np
225.01 23.68 m
-4.75 0 l
o
np
225.01 26.51 m
-4.75 0 l
o
np
225.01 29.33 m
-4.75 0 l
o
np
225.01 32.16 m
-4.75 0 l
o
np
225.01 34.98 m
-4.75 0 l
o
np
225.01 37.80 m
-4.75 0 l
o
213.60 20.86 (1.00) .5 90 t
np
225.01 19.01 m
177.49 0 l
0 19.52 l
-177.49 0 l
0 -19.52 l
o
206.00 0.00 412.00 57.54 cl
/Font2 findfont 13 s
0 0 0 srgb
313.75 43.36 (tai75cD.vrp) .5 0 t
/Font1 findfont 11 s
194.60 28.77 (1:n) .5 90 t
225.01 19.01 402.50 38.53 cl
0 0 0 srgb
0.75 setlinewidth
[ 2.25 3.75] 0 setdash
1 setlinecap
1 setlinejoin
10.00 setmiterlimit
np
190.50 21.82 m
41.08 0 l
41.09 0 l
41.08 0 l
41.09 0 l
41.08 0 l
41.09 0 l
o
0.75 setlinewidth
[] 0 setdash
np
190.50 23.20 m
41.08 0 l
41.09 0 l
41.08 0 l
41.09 0 l
41.08 0 l
41.09 0 l
o
0.4000 0.2000 0.2000 srgb
231.58 34.52 1.78 c p1
1.50 setlinewidth
[] 0 setdash
np
231.58 28.60 m
0 11.84 l
o
np
230.25 28.60 m
2.66 0 l
o
np
230.25 40.44 m
2.66 0 l
o
231.58 22.48 1.78 c p1
0.3608 0.4000 0.2000 srgb
0.75 setlinewidth
[] 0 setdash
np
272.67 28.10 m
2.40 -4.15 l
-4.80 0 l
2.40 4.15 l
o
1.50 setlinewidth
[] 0 setdash
np
272.67 23.88 m
0 2.90 l
o
np
271.34 23.88 m
2.66 0 l
o
np
271.34 26.78 m
2.66 0 l
o
np
272.67 25.92 m
2.40 -4.15 l
-4.80 0 l
2.40 4.15 l
o
0.2000 0.4000 0.2784 srgb
0.75 setlinewidth
[] 0 setdash
np
311.23 27.85 m
5.04 0 l
o
np
313.75 25.33 m
0 5.04 l
o
1.50 setlinewidth
[] 0 setdash
np
313.75 22.26 m
0 11.18 l
o
np
312.42 22.26 m
2.66 0 l
o
np
312.42 33.44 m
2.66 0 l
o
np
311.23 22.00 m
5.04 0 l
o
np
313.75 19.48 m
0 5.04 l
o
0.2000 0.2784 0.4000 srgb
0.75 setlinewidth
[] 0 setdash
np
353.06 24.00 m
3.56 3.57 l
o
np
353.06 27.57 m
3.56 -3.57 l
o
1.50 setlinewidth
[] 0 setdash
np
354.84 23.25 m
0 5.08 l
o
np
353.51 23.25 m
2.66 0 l
o
np
353.51 28.33 m
2.66 0 l
o
np
353.06 20.60 m
3.56 3.56 l
o
np
353.06 24.16 m
3.56 -3.56 l
o
0.3608 0.2000 0.4000 srgb
0.75 setlinewidth
[] 0 setdash
np
393.40 24.92 m
2.52 2.52 l
2.52 -2.52 l
-2.52 -2.52 l
-2.52 2.52 l
o
1.50 setlinewidth
[] 0 setdash
np
395.92 21.22 m
0 7.41 l
o
np
394.59 21.22 m
2.66 0 l
o
np
394.59 28.63 m
2.66 0 l
o
np
393.40 20.86 m
2.52 2.52 l
2.52 -2.52 l
-2.52 -2.52 l
-2.52 2.52 l
o
431.01 19.01 608.50 38.53 cl
0.00 0.00 618.00 402.75 cl
0 0 0 srgb
0.75 setlinewidth
[] 0 setdash
1 setlinecap
1 setlinejoin
10.00 setmiterlimit
np
437.58 19.01 m
164.34 0 l
o
np
437.58 19.01 m
0 -4.75 l
o
np
478.67 19.01 m
0 -4.75 l
o
np
519.75 19.01 m
0 -4.75 l
o
np
560.84 19.01 m
0 -4.75 l
o
np
601.92 19.01 m
0 -4.75 l
o
/Font1 findfont 11 s
437.58 1.90 (1) .5 0 t
478.67 1.90 (2) .5 0 t
519.75 1.90 (3) .5 0 t
560.84 1.90 (4) .5 0 t
601.92 1.90 (5) .5 0 t
np
431.01 20.86 m
0 16.94 l
o
np
431.01 20.86 m
-4.75 0 l
o
np
431.01 23.68 m
-4.75 0 l
o
np
431.01 26.51 m
-4.75 0 l
o
np
431.01 29.33 m
-4.75 0 l
o
np
431.01 32.16 m
-4.75 0 l
o
np
431.01 34.98 m
-4.75 0 l
o
np
431.01 37.80 m
-4.75 0 l
o
419.60 20.86 (1.00) .5 90 t
np
431.01 19.01 m
177.49 0 l
0 19.52 l
-177.49 0 l
0 -19.52 l
o
412.00 0.00 618.00 57.54 cl
/Font2 findfont 13 s
0 0 0 srgb
519.75 43.36 (tai75dD.vrp) .5 0 t
/Font1 findfont 11 s
400.60 28.77 (1:n) .5 90 t
431.01 19.01 608.50 38.53 cl
0 0 0 srgb
0.75 setlinewidth
[ 2.25 3.75] 0 setdash
1 setlinecap
1 setlinejoin
10.00 setmiterlimit
np
396.50 19.58 m
41.08 0 l
41.09 0 l
41.08 0 l
41.09 0 l
41.08 0 l
16.08 0 l
o
0.75 setlinewidth
[] 0 setdash
np
396.50 20.45 m
41.08 0 l
41.09 0 l
41.08 0 l
41.09 0 l
41.08 0 l
16.08 0 l
o
0.4000 0.2000 0.2000 srgb
437.58 27.28 1.78 c p1
1.50 setlinewidth
[] 0 setdash
np
437.58 23.48 m
0 7.61 l
o
np
436.25 23.48 m
2.66 0 l
o
np
436.25 31.09 m
2.66 0 l
o
437.58 22.39 1.78 c p1
0.3608 0.4000 0.2000 srgb
0.75 setlinewidth
[] 0 setdash
np
478.67 25.57 m
2.40 -4.15 l
-4.80 0 l
2.40 4.15 l
o
1.50 setlinewidth
[] 0 setdash
np
478.67 20.75 m
0 4.11 l
o
np
477.34 20.75 m
2.66 0 l
o
np
477.34 24.86 m
2.66 0 l
o
np
478.67 23.63 m
2.40 -4.16 l
-4.80 0 l
2.40 4.16 l
o
0.2000 0.4000 0.2784 srgb
0.75 setlinewidth
[] 0 setdash
np
517.23 27.01 m
5.04 0 l
o
np
519.75 24.49 m
0 5.04 l
o
1.50 setlinewidth
[] 0 setdash
np
519.75 22.66 m
0 8.70 l
o
np
518.42 22.66 m
2.66 0 l
o
np
518.42 31.36 m
2.66 0 l
o
np
517.23 22.35 m
5.04 0 l
o
np
519.75 19.83 m
0 5.04 l
o
0.2000 0.2784 0.4000 srgb
0.75 setlinewidth
[] 0 setdash
np
559.05 29.39 m
3.57 3.56 l
o
np
559.05 32.95 m
3.57 -3.56 l
o
1.50 setlinewidth
[] 0 setdash
np
560.84 23.22 m
0 15.91 l
o
np
559.51 23.22 m
2.66 0 l
o
np
559.51 39.13 m
2.66 0 l
o
np
559.05 21.22 m
3.57 3.56 l
o
np
559.05 24.78 m
3.57 -3.56 l
o
0.3608 0.2000 0.4000 srgb
0.75 setlinewidth
[] 0 setdash
np
599.40 23.52 m
2.52 2.52 l
2.52 -2.52 l
-2.52 -2.52 l
-2.52 2.52 l
o
1.50 setlinewidth
[] 0 setdash
np
601.92 21.65 m
0 3.74 l
o
np
600.59 21.65 m
2.66 0 l
o
np
600.59 25.39 m
2.66 0 l
o
np
599.40 21.78 m
2.52 2.52 l
2.52 -2.52 l
-2.52 -2.52 l
-2.52 2.52 l
o
ep
%%Trailer
%%Pages: 1
%%EOF
