VRPTEST 1.0
COMMENT: Converted from tai100a by convert2vt
COMMENT: Best known objective: 2047.90
NAME: tai100a
NUM_DEPOTS: 1
NUM_CAPACITIES: 1
NUM_VISITS: 100
NUM_LOCATIONS: 101
NUM_VEHICLES: 50
CAPACITIES: 1409
DATA_SECTION
DEPOTS
  0
DEMAND_SECTION
  1 13
  2 122
  3 30
  4 3
  5 5
  6 422
  7 13
  8 22
  9 173
  10 41
  11 8
  12 8
  13 110
  14 198
  15 384
  16 193
  17 238
  18 265
  19 3
  20 469
  21 7
  22 6
  23 108
  24 10
  25 40
  26 635
  27 49
  28 149
  29 403
  30 42
  31 70
  32 201
  33 66
  34 526
  35 6
  36 279
  37 160
  38 3
  39 4
  40 105
  41 46
  42 474
  43 7
  44 7
  45 99
  46 126
  47 119
  48 46
  49 273
  50 91
  51 294
  52 4
  53 81
  54 285
  55 90
  56 462
  57 65
  58 6
  59 4
  60 529
  61 165
  62 4
  63 394
  64 3
  65 60
  66 899
  67 169
  68 10
  69 47
  70 37
  71 23
  72 25
  73 444
  74 3
  75 99
  76 58
  77 7
  78 11
  79 15
  80 381
  81 7
  82 39
  83 502
  84 115
  85 85
  86 3
  87 136
  88 111
  89 66
  90 50
  91 252
  92 4
  93 119
  94 746
  95 6
  96 51
  97 322
  98 1023
  99 5
  100 10
LOCATION_COORD_SECTION
  0 0 0
  1 -5 70
  2 -17 69
  3 -19 85
  4 9 99
  5 15 82
  6 -21 102
  7 -16 68
  8 15 72
  9 12 78
  10 1 102
  11 15 91
  12 9 83
  13 2 82
  14 -7 76
  15 -17 79
  16 12 70
  17 -18 99
  18 -9 104
  19 9 -24
  20 23 -34
  21 9 -44
  22 12 -30
  23 16 -36
  24 40 -21
  25 39 -15
  26 42 -6
  27 29 -43
  28 20 -8
  29 24 -38
  30 47 -15
  31 34 -28
  32 41 -39
  33 39 -30
  34 23 -34
  35 38 -8
  36 20 -40
  37 21 -9
  38 46 -13
  39 90 67
  40 70 39
  41 78 73
  42 49 47
  43 45 75
  44 86 61
  45 86 59
  46 54 65
  47 46 38
  48 63 68
  49 55 74
  50 62 69
  51 58 70
  52 25 17
  53 7 1
  54 8 6
  55 12 -2
  56 14 -7
  57 13 -1
  58 8 12
  59 25 13
  60 11 3
  61 15 -7
  62 4 -6
  63 18 -4
  64 10 -1
  65 16 -10
  66 96 5
  67 60 28
  68 75 -19
  69 107 5
  70 70 -4
  71 110 -2
  72 90 3
  73 80 -17
  74 59 -21
  75 83 14
  76 -56 62
  77 -39 71
  78 -40 72
  79 -41 77
  80 -37 78
  81 -31 70
  82 -52 81
  83 -50 81
  84 -41 77
  85 -35 85
  86 -41 71
  87 -57 72
  88 -47 74
  89 -56 70
  90 -32 82
  91 -50 69
  92 -57 86
  93 -33 79
  94 -64 71
  95 -58 56
  96 -74 69
  97 -65 57
  98 1 56
  99 12 41
  100 24 53
DEPOT_LOCATION_SECTION
  0 0
VISIT_LOCATION_SECTION
  1 1
  2 2
  3 3
  4 4
  5 5
  6 6
  7 7
  8 8
  9 9
  10 10
  11 11
  12 12
  13 13
  14 14
  15 15
  16 16
  17 17
  18 18
  19 19
  20 20
  21 21
  22 22
  23 23
  24 24
  25 25
  26 26
  27 27
  28 28
  29 29
  30 30
  31 31
  32 32
  33 33
  34 34
  35 35
  36 36
  37 37
  38 38
  39 39
  40 40
  41 41
  42 42
  43 43
  44 44
  45 45
  46 46
  47 47
  48 48
  49 49
  50 50
  51 51
  52 52
  53 53
  54 54
  55 55
  56 56
  57 57
  58 58
  59 59
  60 60
  61 61
  62 62
  63 63
  64 64
  65 65
  66 66
  67 67
  68 68
  69 69
  70 70
  71 71
  72 72
  73 73
  74 74
  75 75
  76 76
  77 77
  78 78
  79 79
  80 80
  81 81
  82 82
  83 83
  84 84
  85 85
  86 86
  87 87
  88 88
  89 89
  90 90
  91 91
  92 92
  93 93
  94 94
  95 95
  96 96
  97 97
  98 98
  99 99
  100 100
DURATION_SECTION
  1 30
  2 30
  3 30
  4 30
  5 30
  6 30
  7 30
  8 30
  9 30
  10 30
  11 30
  12 30
  13 30
  14 30
  15 30
  16 30
  17 30
  18 30
  19 30
  20 30
  21 30
  22 30
  23 30
  24 30
  25 30
  26 30
  27 30
  28 30
  29 30
  30 30
  31 30
  32 30
  33 30
  34 30
  35 30
  36 30
  37 30
  38 30
  39 30
  40 30
  41 30
  42 30
  43 30
  44 30
  45 30
  46 30
  47 30
  48 30
  49 30
  50 30
  51 30
  52 30
  53 30
  54 30
  55 30
  56 30
  57 30
  58 30
  59 30
  60 30
  61 30
  62 30
  63 30
  64 30
  65 30
  66 30
  67 30
  68 30
  69 30
  70 30
  71 30
  72 30
  73 30
  74 30
  75 30
  76 30
  77 30
  78 30
  79 30
  80 30
  81 30
  82 30
  83 30
  84 30
  85 30
  86 30
  87 30
  88 30
  89 30
  90 30
  91 30
  92 30
  93 30
  94 30
  95 30
  96 30
  97 30
  98 30
  99 30
  100 30
DEPOT_TIME_WINDOW_SECTION
  0 0 897
COMMENT: TIMESTEP: 17
TIME_AVAIL_SECTION
  1 6
  2 10
  3 11
  4 11
  5 13
  6 21
  7 23
  8 29
  9 33
  10 56
  11 62
  12 79
  13 89
  14 92
  15 104
  16 105
  17 120
  18 135
  19 137
  20 137
  21 145
  22 152
  23 153
  24 166
  25 168
  26 195
  27 198
  28 209
  29 225
  30 239
  31 251
  32 254
  33 254
  34 274
  35 282
  36 299
  37 303
  38 313
  39 322
  40 322
  41 328
  42 338
  43 342
  44 345
  45 355
  46 360
  47 373
  48 380
  49 403
  50 408
  51 416
  52 474
  53 484
  54 485
  55 489
  56 498
  57 507
  58 508
  59 514
  60 538
  61 550
  62 590
  63 600
  64 603
  65 627
  66 644
  67 654
  68 662
  69 664
  70 683
  71 685
  72 690
  73 692
  74 693
  75 713
  76 716
  77 725
  78 728
  79 733
  80 741
  81 766
  82 769
  83 778
  84 788
  85 799
  86 806
  87 813
  88 821
  89 822
  90 825
  91 837
  92 847
  93 852
  94 864
  95 864
  96 867
  97 877
  98 883
  99 884
  100 895
EOF
