VRPTEST 1.0
COMMENT: Converted from tai100d by convert2vt
COMMENT: Best known objective: 1581.25
NAME: tai100d
NUM_DEPOTS: 1
NUM_CAPACITIES: 1
NUM_VISITS: 100
NUM_LOCATIONS: 101
NUM_VEHICLES: 50
CAPACITIES: 1297
DATA_SECTION
DEPOTS
  0
DEMAND_SECTION
  1 -94
  2 -12
  3 -17
  4 -619
  5 -61
  6 -3
  7 -4
  8 -13
  9 -44
  10 -12
  11 -35
  12 -114
  13 -29
  14 -76
  15 -106
  16 -157
  17 -43
  18 -4
  19 -38
  20 -212
  21 -42
  22 -10
  23 -19
  24 -856
  25 -13
  26 -67
  27 -144
  28 -310
  29 -85
  30 -1061
  31 -344
  32 -22
  33 -15
  34 -219
  35 -44
  36 -370
  37 -74
  38 -82
  39 -3
  40 -39
  41 -54
  42 -22
  43 -171
  44 -65
  45 -405
  46 -19
  47 -7
  48 -586
  49 -15
  50 -149
  51 -141
  52 -9
  53 -261
  54 -4
  55 -5
  56 -21
  57 -25
  58 -86
  59 -86
  60 -124
  61 -123
  62 -11
  63 -41
  64 -279
  65 -149
  66 -9
  67 -65
  68 -155
  69 -6
  70 -83
  71 -11
  72 -735
  73 -4
  74 -56
  75 -26
  76 -5
  77 -34
  78 -13
  79 -1017
  80 -85
  81 -10
  82 -7
  83 -6
  84 -524
  85 -16
  86 -15
  87 -117
  88 -48
  89 -43
  90 -64
  91 -30
  92 -3
  93 -21
  94 -514
  95 -625
  96 -7
  97 -257
  98 -603
  99 -4
  100 -4
LOCATION_COORD_SECTION
  0 0 0
  1 -7 9
  2 -7 8
  3 -15 16
  4 -2 13
  5 0 3
  6 -9 6
  7 2 5
  8 -13 9
  9 -15 10
  10 -14 2
  11 1 0
  12 -40 24
  13 -54 -15
  14 -43 10
  15 -73 -2
  16 -76 4
  17 -45 31
  18 -29 36
  19 -78 11
  20 -31 25
  21 -67 17
  22 -31 4
  23 -51 10
  24 -30 -9
  25 -51 24
  26 -80 -10
  27 -34 4
  28 -45 25
  29 73 32
  30 78 59
  31 58 53
  32 57 55
  33 20 85
  34 -12 81
  35 -8 86
  36 12 33
  37 19 86
  38 -11 44
  39 -2 67
  40 25 76
  41 -29 44
  42 4 80
  43 -2 84
  44 -8 54
  45 -16 34
  46 -14 80
  47 -17 32
  48 19 39
  49 -20 82
  50 17 42
  51 -4 5
  52 -20 25
  53 -12 14
  54 -11 11
  55 -12 4
  56 -1 21
  57 -1 1
  58 -9 21
  59 9 3
  60 5 14
  61 -9 27
  62 -20 11
  63 0 30
  64 -12 15
  65 -3 17
  66 -58 -60
  67 -71 -58
  68 -32 -34
  69 -59 -37
  70 -48 -19
  71 -71 -49
  72 22 -4
  73 13 -10
  74 22 -17
  75 13 12
  76 3 -5
  77 27 -4
  78 2 -3
  79 -2 -22
  80 30 1
  81 22 -6
  82 -27 62
  83 -20 64
  84 -26 69
  85 -20 66
  86 -29 67
  87 -84 -10
  88 -69 -22
  89 -79 -4
  90 -84 -19
  91 -63 -12
  92 -76 -14
  93 -70 -4
  94 30 39
  95 23 39
  96 30 48
  97 36 21
  98 32 16
  99 42 30
  100 62 16
DEPOT_LOCATION_SECTION
  0 0
VISIT_LOCATION_SECTION
  1 1
  2 2
  3 3
  4 4
  5 5
  6 6
  7 7
  8 8
  9 9
  10 10
  11 11
  12 12
  13 13
  14 14
  15 15
  16 16
  17 17
  18 18
  19 19
  20 20
  21 21
  22 22
  23 23
  24 24
  25 25
  26 26
  27 27
  28 28
  29 29
  30 30
  31 31
  32 32
  33 33
  34 34
  35 35
  36 36
  37 37
  38 38
  39 39
  40 40
  41 41
  42 42
  43 43
  44 44
  45 45
  46 46
  47 47
  48 48
  49 49
  50 50
  51 51
  52 52
  53 53
  54 54
  55 55
  56 56
  57 57
  58 58
  59 59
  60 60
  61 61
  62 62
  63 63
  64 64
  65 65
  66 66
  67 67
  68 68
  69 69
  70 70
  71 71
  72 72
  73 73
  74 74
  75 75
  76 76
  77 77
  78 78
  79 79
  80 80
  81 81
  82 82
  83 83
  84 84
  85 85
  86 86
  87 87
  88 88
  89 89
  90 90
  91 91
  92 92
  93 93
  94 94
  95 95
  96 96
  97 97
  98 98
  99 99
  100 100
DURATION_SECTION
  1 23
  2 23
  3 23
  4 23
  5 23
  6 23
  7 23
  8 23
  9 23
  10 23
  11 23
  12 23
  13 23
  14 23
  15 23
  16 23
  17 23
  18 23
  19 23
  20 23
  21 23
  22 23
  23 23
  24 23
  25 23
  26 23
  27 23
  28 23
  29 23
  30 23
  31 23
  32 23
  33 23
  34 23
  35 23
  36 23
  37 23
  38 23
  39 23
  40 23
  41 23
  42 23
  43 23
  44 23
  45 23
  46 23
  47 23
  48 23
  49 23
  50 23
  51 23
  52 23
  53 23
  54 23
  55 23
  56 23
  57 23
  58 23
  59 23
  60 23
  61 23
  62 23
  63 23
  64 23
  65 23
  66 23
  67 23
  68 23
  69 23
  70 23
  71 23
  72 23
  73 23
  74 23
  75 23
  76 23
  77 23
  78 23
  79 23
  80 23
  81 23
  82 23
  83 23
  84 23
  85 23
  86 23
  87 23
  88 23
  89 23
  90 23
  91 23
  92 23
  93 23
  94 23
  95 23
  96 23
  97 23
  98 23
  99 23
  100 23
DEPOT_TIME_WINDOW_SECTION
  0 0 782
COMMENT: TIMESTEP: 15
TIME_AVAIL_SECTION
  1 7
  2 14
  3 23
  4 25
  5 27
  6 36
  7 39
  8 40
  9 50
  10 63
  11 73
  12 82
  13 82
  14 87
  15 89
  16 109
  17 111
  18 115
  19 128
  20 128
  21 128
  22 132
  23 138
  24 145
  25 156
  26 160
  27 174
  28 174
  29 175
  30 175
  31 183
  32 188
  33 204
  34 206
  35 210
  36 213
  37 213
  38 217
  39 233
  40 253
  41 255
  42 289
  43 295
  44 326
  45 327
  46 347
  47 354
  48 364
  49 378
  50 396
  51 403
  52 404
  53 411
  54 416
  55 420
  56 423
  57 426
  58 446
  59 455
  60 456
  61 456
  62 459
  63 460
  64 471
  65 475
  66 497
  67 501
  68 508
  69 511
  70 517
  71 534
  72 540
  73 554
  74 563
  75 570
  76 596
  77 597
  78 597
  79 599
  80 609
  81 620
  82 636
  83 642
  84 646
  85 646
  86 649
  87 666
  88 674
  89 691
  90 698
  91 702
  92 705
  93 727
  94 740
  95 743
  96 744
  97 750
  98 770
  99 772
  100 777
EOF
