VRPTEST 1.0
COMMENT: Converted from tai75c by convert2vt
COMMENT: Best known objective: 1291.01
NAME: tai75c
NUM_DEPOTS: 1
NUM_CAPACITIES: 1
NUM_VISITS: 75
NUM_LOCATIONS: 76
NUM_VEHICLES: 50
CAPACITIES: 1122
DATA_SECTION
DEPOTS
  0
DEMAND_SECTION
  1 -94
  2 -12
  3 -17
  4 -619
  5 -61
  6 -3
  7 -4
  8 -13
  9 -44
  10 -12
  11 -35
  12 -114
  13 -29
  14 -76
  15 -106
  16 -157
  17 -43
  18 -4
  19 -38
  20 -212
  21 -42
  22 -10
  23 -19
  24 -856
  25 -13
  26 -67
  27 -144
  28 -310
  29 -85
  30 -1061
  31 -344
  32 -22
  33 -15
  34 -219
  35 -44
  36 -370
  37 -74
  38 -82
  39 -3
  40 -39
  41 -54
  42 -22
  43 -171
  44 -65
  45 -405
  46 -19
  47 -7
  48 -586
  49 -15
  50 -149
  51 -141
  52 -9
  53 -261
  54 -4
  55 -5
  56 -21
  57 -25
  58 -86
  59 -86
  60 -124
  61 -123
  62 -11
  63 -41
  64 -279
  65 -149
  66 -9
  67 -65
  68 -155
  69 -6
  70 -83
  71 -11
  72 -735
  73 -4
  74 -56
  75 -26
LOCATION_COORD_SECTION
  0 0 0
  1 -7 9
  2 -7 8
  3 -15 16
  4 -2 13
  5 0 3
  6 -9 6
  7 2 5
  8 -13 9
  9 -15 10
  10 -14 2
  11 1 0
  12 -40 24
  13 -54 -15
  14 -43 10
  15 -73 -2
  16 -76 4
  17 -45 31
  18 -29 36
  19 -78 11
  20 -31 25
  21 -67 17
  22 -31 4
  23 -51 10
  24 -30 -9
  25 -51 24
  26 -80 -10
  27 -34 4
  28 -45 25
  29 73 32
  30 78 59
  31 58 53
  32 57 55
  33 20 85
  34 -12 81
  35 -8 86
  36 12 33
  37 19 86
  38 -11 44
  39 -2 67
  40 25 76
  41 -29 44
  42 4 80
  43 -2 84
  44 -8 54
  45 -16 34
  46 -14 80
  47 -17 32
  48 19 39
  49 -20 82
  50 17 42
  51 -4 5
  52 -20 25
  53 -12 14
  54 -11 11
  55 -12 4
  56 -1 21
  57 -1 1
  58 -9 21
  59 9 3
  60 5 14
  61 -9 27
  62 -20 11
  63 0 30
  64 -12 15
  65 -3 17
  66 -58 -60
  67 -71 -58
  68 -32 -34
  69 -59 -37
  70 -48 -19
  71 -71 -49
  72 22 -4
  73 13 -10
  74 22 -17
  75 13 12
DEPOT_LOCATION_SECTION
  0 0
VISIT_LOCATION_SECTION
  1 1
  2 2
  3 3
  4 4
  5 5
  6 6
  7 7
  8 8
  9 9
  10 10
  11 11
  12 12
  13 13
  14 14
  15 15
  16 16
  17 17
  18 18
  19 19
  20 20
  21 21
  22 22
  23 23
  24 24
  25 25
  26 26
  27 27
  28 28
  29 29
  30 30
  31 31
  32 32
  33 33
  34 34
  35 35
  36 36
  37 37
  38 38
  39 39
  40 40
  41 41
  42 42
  43 43
  44 44
  45 45
  46 46
  47 47
  48 48
  49 49
  50 50
  51 51
  52 52
  53 53
  54 54
  55 55
  56 56
  57 57
  58 58
  59 59
  60 60
  61 61
  62 62
  63 63
  64 64
  65 65
  66 66
  67 67
  68 68
  69 69
  70 70
  71 71
  72 72
  73 73
  74 74
  75 75
DURATION_SECTION
  1 25
  2 25
  3 25
  4 25
  5 25
  6 25
  7 25
  8 25
  9 25
  10 25
  11 25
  12 25
  13 25
  14 25
  15 25
  16 25
  17 25
  18 25
  19 25
  20 25
  21 25
  22 25
  23 25
  24 25
  25 25
  26 25
  27 25
  28 25
  29 25
  30 25
  31 25
  32 25
  33 25
  34 25
  35 25
  36 25
  37 25
  38 25
  39 25
  40 25
  41 25
  42 25
  43 25
  44 25
  45 25
  46 25
  47 25
  48 25
  49 25
  50 25
  51 25
  52 25
  53 25
  54 25
  55 25
  56 25
  57 25
  58 25
  59 25
  60 25
  61 25
  62 25
  63 25
  64 25
  65 25
  66 25
  67 25
  68 25
  69 25
  70 25
  71 25
  72 25
  73 25
  74 25
  75 25
DEPOT_TIME_WINDOW_SECTION
  0 0 782
COMMENT: TIMESTEP: 15
TIME_AVAIL_SECTION
  1 1
  2 1
  3 28
  4 34
  5 43
  6 53
  7 60
  8 67
  9 74
  10 86
  11 87
  12 102
  13 113
  14 121
  15 145
  16 149
  17 151
  18 162
  19 164
  20 182
  21 191
  22 210
  23 214
  24 223
  25 229
  26 240
  27 269
  28 286
  29 286
  30 295
  31 296
  32 305
  33 312
  34 318
  35 326
  36 332
  37 340
  38 344
  39 352
  40 361
  41 378
  42 387
  43 404
  44 426
  45 514
  46 518
  47 531
  48 542
  49 547
  50 553
  51 553
  52 554
  53 586
  54 591
  55 591
  56 604
  57 609
  58 614
  59 615
  60 617
  61 646
  62 646
  63 650
  64 659
  65 665
  66 668
  67 694
  68 718
  69 722
  70 725
  71 727
  72 757
  73 758
  74 773
  75 776
EOF
