VRPTEST okul_100d_uniform_pseudoclustered_D.vrp
COMMENT: 
COMMENT: Best known objective: 2147483647
NAME: okul_100d_uniform_pseudoclustered_D.vrp
NUM_DEPOTS: 1
NUM_CAPACITIES: 1
NUM_VISITS: 100
NUM_LOCATIONS: 101
NUM_VEHICLES: 50
CAPACITIES: 1000
DATA_SECTION
DEPOTS
  0
DEMAND_SECTION
  1 -86
  2 -142
  3 -40
  4 -88
  5 -121
  6 -121
  7 -148
  8 -76
  9 -169
  10 -123
  11 -200
  12 -118
  13 -90
  14 -215
  15 -178
  16 -159
  17 -174
  18 -196
  19 -49
  20 -232
  21 -166
  22 -118
  23 -12
  24 -120
  25 -204
  26 -41
  27 -129
  28 -120
  29 -206
  30 -159
  31 -235
  32 -241
  33 -54
  34 -143
  35 -102
  36 -9
  37 -248
  38 -221
  39 -132
  40 -137
  41 -163
  42 -8
  43 -36
  44 -8
  45 -180
  46 -56
  47 -86
  48 -31
  49 -119
  50 -193
  51 -112
  52 -53
  53 -204
  54 -246
  55 -218
  56 -18
  57 -74
  58 -5
  59 -109
  60 -145
  61 -36
  62 -192
  63 -178
  64 -53
  65 -125
  66 -155
  67 -161
  68 -212
  69 -134
  70 -191
  71 -75
  72 -185
  73 -210
  74 -88
  75 -51
  76 -175
  77 -95
  78 -191
  79 -9
  80 -97
  81 -179
  82 -12
  83 -109
  84 -216
  85 -128
  86 -68
  87 -152
  88 -77
  89 -211
  90 -11
  91 -68
  92 -112
  93 -28
  94 -242
  95 -148
  96 -69
  97 -241
  98 -47
  99 -186
  100 -22
LOCATION_COORD_SECTION
  0 0 0
  1 23 -56
  2 15 25
  3 -2 68
  4 10 80
  5 70 76
  6 -35 30
  7 -25 49
  8 78 13
  9 -29 94
  10 15 45
  11 61 -42
  12 82 53
  13 72 56
  14 23 -55
  15 19 26
  16 0 70
  17 15 86
  18 70 79
  19 -41 29
  20 -21 57
  21 76 8
  22 -32 91
  23 10 48
  24 64 -41
  25 82 48
  26 70 58
  27 21 -56
  28 22 23
  29 3 69
  30 13 79
  31 71 79
  32 -35 30
  33 -20 56
  34 78 10
  35 -36 94
  36 13 42
  37 62 -40
  38 80 52
  39 69 58
  40 22 -56
  41 21 27
  42 0 70
  43 15 78
  44 73 78
  45 -38 30
  46 -25 52
  47 79 11
  48 -30 92
  49 9 45
  50 63 -42
  51 74 49
  52 66 57
  53 20 -53
  54 21 23
  55 0 73
  56 9 85
  57 71 78
  58 -39 30
  59 -24 51
  60 75 15
  61 -31 94
  62 13 43
  63 62 -45
  64 84 49
  65 66 62
  66 23 -57
  67 17 24
  68 0 72
  69 12 81
  70 69 74
  71 -33 29
  72 -25 54
  73 78 10
  74 -33 93
  75 16 44
  76 65 -41
  77 78 52
  78 73 53
  79 19 -53
  80 21 25
  81 5 68
  82 13 79
  83 74 78
  84 -37 25
  85 -22 54
  86 75 12
  87 -28 96
  88 13 44
  89 61 -44
  90 78 52
  91 66 55
  92 22 -56
  93 21 26
  94 0 76
  95 16 82
  96 72 76
  97 -34 26
  98 -22 49
  99 75 11
  100 -29 96
DEPOT_LOCATION_SECTION
  0 0
VISIT_LOCATION_SECTION
  1 1
  2 2
  3 3
  4 4
  5 5
  6 6
  7 7
  8 8
  9 9
  10 10
  11 11
  12 12
  13 13
  14 14
  15 15
  16 16
  17 17
  18 18
  19 19
  20 20
  21 21
  22 22
  23 23
  24 24
  25 25
  26 26
  27 27
  28 28
  29 29
  30 30
  31 31
  32 32
  33 33
  34 34
  35 35
  36 36
  37 37
  38 38
  39 39
  40 40
  41 41
  42 42
  43 43
  44 44
  45 45
  46 46
  47 47
  48 48
  49 49
  50 50
  51 51
  52 52
  53 53
  54 54
  55 55
  56 56
  57 57
  58 58
  59 59
  60 60
  61 61
  62 62
  63 63
  64 64
  65 65
  66 66
  67 67
  68 68
  69 69
  70 70
  71 71
  72 72
  73 73
  74 74
  75 75
  76 76
  77 77
  78 78
  79 79
  80 80
  81 81
  82 82
  83 83
  84 84
  85 85
  86 86
  87 87
  88 88
  89 89
  90 90
  91 91
  92 92
  93 93
  94 94
  95 95
  96 96
  97 97
  98 98
  99 99
  100 100
DURATION_SECTION
  1 10
  2 10
  3 10
  4 10
  5 10
  6 10
  7 10
  8 10
  9 10
  10 10
  11 10
  12 10
  13 10
  14 10
  15 10
  16 10
  17 10
  18 10
  19 10
  20 10
  21 10
  22 10
  23 10
  24 10
  25 10
  26 10
  27 10
  28 10
  29 10
  30 10
  31 10
  32 10
  33 10
  34 10
  35 10
  36 10
  37 10
  38 10
  39 10
  40 10
  41 10
  42 10
  43 10
  44 10
  45 10
  46 10
  47 10
  48 10
  49 10
  50 10
  51 10
  52 10
  53 10
  54 10
  55 10
  56 10
  57 10
  58 10
  59 10
  60 10
  61 10
  62 10
  63 10
  64 10
  65 10
  66 10
  67 10
  68 10
  69 10
  70 10
  71 10
  72 10
  73 10
  74 10
  75 10
  76 10
  77 10
  78 10
  79 10
  80 10
  81 10
  82 10
  83 10
  84 10
  85 10
  86 10
  87 10
  88 10
  89 10
  90 10
  91 10
  92 10
  93 10
  94 10
  95 10
  96 10
  97 10
  98 10
  99 10
  100 10
DEPOT_TIME_WINDOW_SECTION
  0 0 979
COMMENT: TIMESTEP: 7
TIME_AVAIL_SECTION
  1 950
  2 273
  3 382
  4 817
  5 56
  6 36
  7 831
  8 146
  9 395
  10 449
  11 756
  12 774
  13 759
  14 411
  15 890
  16 471
  17 94
  18 792
  19 174
  20 702
  21 89
  22 165
  23 462
  24 238
  25 970
  26 55
  27 542
  28 407
  29 925
  30 41
  31 944
  32 386
  33 930
  34 669
  35 720
  36 559
  37 62
  38 12
  39 149
  40 331
  41 173
  42 899
  43 830
  44 869
  45 716
  46 630
  47 254
  48 926
  49 223
  50 935
  51 141
  52 765
  53 617
  54 311
  55 589
  56 491
  57 209
  58 789
  59 86
  60 934
  61 347
  62 168
  63 243
  64 47
  65 420
  66 493
  67 649
  68 905
  69 105
  70 69
  71 553
  72 195
  73 704
  74 23
  75 407
  76 469
  77 24
  78 36
  79 681
  80 477
  81 81
  82 458
  83 973
  84 964
  85 439
  86 938
  87 528
  88 566
  89 154
  90 676
  91 170
  92 740
  93 922
  94 902
  95 599
  96 322
  97 503
  98 740
  99 718
  100 973
EOF