VRPTEST okul_100g_skewed_pseudoclustered_D.vrp
COMMENT: 
COMMENT: Best known objective: 2147483647
NAME: okul_100g_skewed_pseudoclustered_D.vrp
NUM_DEPOTS: 1
NUM_CAPACITIES: 1
NUM_VISITS: 100
NUM_LOCATIONS: 101
NUM_VEHICLES: 50
CAPACITIES: 1000
DATA_SECTION
DEPOTS
  0
DEMAND_SECTION
  1 -61
  2 -218
  3 -88
  4 -52
  5 -29
  6 -85
  7 -33
  8 -209
  9 -84
  10 -137
  11 -41
  12 -96
  13 -9
  14 -199
  15 -43
  16 -14
  17 -114
  18 -35
  19 -6
  20 -120
  21 -302
  22 -167
  23 -165
  24 -116
  25 -63
  26 -253
  27 -134
  28 -4
  29 -89
  30 -69
  31 -98
  32 -45
  33 -208
  34 -16
  35 -107
  36 -77
  37 -66
  38 -39
  39 -147
  40 -67
  41 -125
  42 -311
  43 -39
  44 -157
  45 -170
  46 -94
  47 -209
  48 -141
  49 -233
  50 -121
  51 -15
  52 -25
  53 -12
  54 -98
  55 -93
  56 -7
  57 -131
  58 -144
  59 -21
  60 -79
  61 -19
  62 -374
  63 -79
  64 -83
  65 -101
  66 -125
  67 -40
  68 -154
  69 -15
  70 -167
  71 -36
  72 -86
  73 -37
  74 -25
  75 -151
  76 -69
  77 -123
  78 -254
  79 -115
  80 -131
  81 -71
  82 -21
  83 -44
  84 -15
  85 -33
  86 -18
  87 -94
  88 -344
  89 -37
  90 -27
  91 -10
  92 -30
  93 -78
  94 -19
  95 -66
  96 -41
  97 -194
  98 -18
  99 -133
  100 -123
LOCATION_COORD_SECTION
  0 0 0
  1 7 -57
  2 -88 12
  3 33 58
  4 60 -4
  5 -46 -30
  6 -19 -59
  7 -59 -95
  8 -72 -94
  9 80 20
  10 -52 -42
  11 4 -52
  12 -90 16
  13 40 59
  14 53 -3
  15 -45 -23
  16 -18 -63
  17 -56 -90
  18 -68 -92
  19 82 22
  20 -61 -45
  21 10 -48
  22 -83 15
  23 41 66
  24 52 -9
  25 -50 -26
  26 -16 -64
  27 -54 -98
  28 -71 -92
  29 79 24
  30 -55 -42
  31 2 -48
  32 -84 17
  33 42 65
  34 51 -6
  35 -44 -23
  36 -15 -62
  37 -55 -92
  38 -78 -95
  39 78 22
  40 -62 -40
  41 3 -58
  42 -89 24
  43 41 59
  44 56 -1
  45 -48 -21
  46 -21 -67
  47 -61 -97
  48 -69 -92
  49 84 19
  50 -65 -37
  51 2 -59
  52 -83 17
  53 35 59
  54 52 -1
  55 -50 -24
  56 -14 -67
  57 -61 -98
  58 -78 -97
  59 79 25
  60 -66 -39
  61 1 -56
  62 -91 14
  63 35 62
  64 52 -1
  65 -42 -31
  66 -17 -66
  67 -61 -98
  68 -74 -90
  69 91 16
  70 -64 -43
  71 5 -56
  72 -87 24
  73 45 67
  74 54 -10
  75 -45 -35
  76 -15 -59
  77 -52 -97
  78 -74 -98
  79 84 21
  80 -64 -42
  81 4 -56
  82 -92 25
  83 37 62
  84 61 -6
  85 -48 -21
  86 -6 -64
  87 -55 -98
  88 -73 -92
  89 76 24
  90 -57 -44
  91 0 -54
  92 -84 18
  93 46 65
  94 51 -8
  95 -48 -23
  96 -12 -59
  97 -53 -93
  98 -74 -93
  99 82 24
  100 -55 -43
DEPOT_LOCATION_SECTION
  0 0
VISIT_LOCATION_SECTION
  1 1
  2 2
  3 3
  4 4
  5 5
  6 6
  7 7
  8 8
  9 9
  10 10
  11 11
  12 12
  13 13
  14 14
  15 15
  16 16
  17 17
  18 18
  19 19
  20 20
  21 21
  22 22
  23 23
  24 24
  25 25
  26 26
  27 27
  28 28
  29 29
  30 30
  31 31
  32 32
  33 33
  34 34
  35 35
  36 36
  37 37
  38 38
  39 39
  40 40
  41 41
  42 42
  43 43
  44 44
  45 45
  46 46
  47 47
  48 48
  49 49
  50 50
  51 51
  52 52
  53 53
  54 54
  55 55
  56 56
  57 57
  58 58
  59 59
  60 60
  61 61
  62 62
  63 63
  64 64
  65 65
  66 66
  67 67
  68 68
  69 69
  70 70
  71 71
  72 72
  73 73
  74 74
  75 75
  76 76
  77 77
  78 78
  79 79
  80 80
  81 81
  82 82
  83 83
  84 84
  85 85
  86 86
  87 87
  88 88
  89 89
  90 90
  91 91
  92 92
  93 93
  94 94
  95 95
  96 96
  97 97
  98 98
  99 99
  100 100
DURATION_SECTION
  1 10
  2 10
  3 10
  4 10
  5 10
  6 10
  7 10
  8 10
  9 10
  10 10
  11 10
  12 10
  13 10
  14 10
  15 10
  16 10
  17 10
  18 10
  19 10
  20 10
  21 10
  22 10
  23 10
  24 10
  25 10
  26 10
  27 10
  28 10
  29 10
  30 10
  31 10
  32 10
  33 10
  34 10
  35 10
  36 10
  37 10
  38 10
  39 10
  40 10
  41 10
  42 10
  43 10
  44 10
  45 10
  46 10
  47 10
  48 10
  49 10
  50 10
  51 10
  52 10
  53 10
  54 10
  55 10
  56 10
  57 10
  58 10
  59 10
  60 10
  61 10
  62 10
  63 10
  64 10
  65 10
  66 10
  67 10
  68 10
  69 10
  70 10
  71 10
  72 10
  73 10
  74 10
  75 10
  76 10
  77 10
  78 10
  79 10
  80 10
  81 10
  82 10
  83 10
  84 10
  85 10
  86 10
  87 10
  88 10
  89 10
  90 10
  91 10
  92 10
  93 10
  94 10
  95 10
  96 10
  97 10
  98 10
  99 10
  100 10
DEPOT_TIME_WINDOW_SECTION
  0 0 949
COMMENT: TIMESTEP: 7
TIME_AVAIL_SECTION
  1 40
  2 734
  3 71
  4 818
  5 757
  6 711
  7 647
  8 290
  9 633
  10 615
  11 647
  12 566
  13 910
  14 513
  15 776
  16 719
  17 583
  18 949
  19 181
  20 885
  21 224
  22 561
  23 408
  24 865
  25 806
  26 255
  27 27
  28 91
  29 747
  30 322
  31 439
  32 679
  33 552
  34 843
  35 770
  36 252
  37 42
  38 423
  39 526
  40 171
  41 836
  42 621
  43 616
  44 748
  45 488
  46 885
  47 783
  48 935
  49 429
  50 508
  51 123
  52 336
  53 628
  54 721
  55 494
  56 550
  57 441
  58 896
  59 514
  60 526
  61 148
  62 659
  63 369
  64 652
  65 826
  66 174
  67 459
  68 57
  69 863
  70 507
  71 623
  72 613
  73 230
  74 721
  75 11
  76 280
  77 745
  78 604
  79 309
  80 717
  81 273
  82 559
  83 696
  84 848
  85 875
  86 73
  87 213
  88 523
  89 454
  90 637
  91 299
  92 145
  93 170
  94 802
  95 245
  96 360
  97 662
  98 851
  99 883
  100 556
EOF