VRPTEST okul_100n_moreskewed_pseudoclustered_D.vrp
COMMENT: 
COMMENT: Best known objective: 2147483647
NAME: okul_100n_moreskewed_pseudoclustered_D.vrp
NUM_DEPOTS: 1
NUM_CAPACITIES: 1
NUM_VISITS: 100
NUM_LOCATIONS: 101
NUM_VEHICLES: 50
CAPACITIES: 1000
DATA_SECTION
DEPOTS
  0
DEMAND_SECTION
  1 -52
  2 -54
  3 -141
  4 -131
  5 -20
  6 -130
  7 -20
  8 -96
  9 -3
  10 -218
  11 -17
  12 -237
  13 -117
  14 -51
  15 -11
  16 -45
  17 -216
  18 -63
  19 -45
  20 -245
  21 -4
  22 -532
  23 -16
  24 -39
  25 -23
  26 -7
  27 -6
  28 -66
  29 -1
  30 -38
  31 -253
  32 -218
  33 -73
  34 -1
  35 -82
  36 -1
  37 -4
  38 -121
  39 -75
  40 -111
  41 -15
  42 -161
  43 -1
  44 -181
  45 -16
  46 -1
  47 -74
  48 -54
  49 -1
  50 -44
  51 -2
  52 -8
  53 -168
  54 -17
  55 -13
  56 -4
  57 -11
  58 -19
  59 -1
  60 -43
  61 -25
  62 -56
  63 -57
  64 -11
  65 -9
  66 -1
  67 -87
  68 -1
  69 -147
  70 -23
  71 -67
  72 -43
  73 -17
  74 -244
  75 -44
  76 -15
  77 -4
  78 -54
  79 -31
  80 -1
  81 -170
  82 -1
  83 -140
  84 -28
  85 -91
  86 -4
  87 -516
  88 -1
  89 -4
  90 -1
  91 -32
  92 -10
  93 -307
  94 -432
  95 -36
  96 -38
  97 -8
  98 -226
  99 -80
  100 -68
LOCATION_COORD_SECTION
  0 0 0
  1 -31 -13
  2 -95 -7
  3 -82 9
  4 7 19
  5 17 58
  6 -25 -89
  7 -13 84
  8 -7 88
  9 -37 7
  10 -88 -4
  11 -90 2
  12 13 5
  13 8 45
  14 -28 -88
  15 -19 91
  16 -23 86
  17 -17 2
  18 -93 -8
  19 -93 0
  20 2 1
  21 9 60
  22 -28 -100
  23 -20 82
  24 -20 85
  25 -14 7
  26 -88 5
  27 -92 13
  28 14 19
  29 4 62
  30 -29 -86
  31 -14 64
  32 -18 88
  33 -23 -2
  34 -85 -1
  35 -90 -5
  36 24 25
  37 4 51
  38 -35 -86
  39 -15 75
  40 -3 90
  41 -23 -12
  42 -87 -2
  43 -88 4
  44 11 8
  45 4 56
  46 -31 -96
  47 -22 81
  48 -10 88
  49 -21 -8
  50 -93 -3
  51 -93 -1
  52 8 15
  53 0 52
  54 -41 -92
  55 -24 77
  56 -15 83
  57 -18 -1
  58 -99 -9
  59 -91 15
  60 5 13
  61 11 44
  62 -31 -92
  63 -15 84
  64 -15 81
  65 -23 -6
  66 -91 0
  67 -77 0
  68 9 20
  69 4 47
  70 -31 -100
  71 -19 75
  72 -14 86
  73 -23 -10
  74 -96 -6
  75 -84 6
  76 19 22
  77 -3 52
  78 -38 -100
  79 -20 77
  80 -19 87
  81 -27 -8
  82 -103 -3
  83 -87 3
  84 15 16
  85 4 49
  86 -33 -87
  87 -4 81
  88 -7 76
  89 -34 -10
  90 -89 -2
  91 -93 8
  92 6 16
  93 2 62
  94 -32 -100
  95 -11 72
  96 -22 79
  97 -26 -5
  98 -89 -7
  99 -98 13
  100 15 17
DEPOT_LOCATION_SECTION
  0 0
VISIT_LOCATION_SECTION
  1 1
  2 2
  3 3
  4 4
  5 5
  6 6
  7 7
  8 8
  9 9
  10 10
  11 11
  12 12
  13 13
  14 14
  15 15
  16 16
  17 17
  18 18
  19 19
  20 20
  21 21
  22 22
  23 23
  24 24
  25 25
  26 26
  27 27
  28 28
  29 29
  30 30
  31 31
  32 32
  33 33
  34 34
  35 35
  36 36
  37 37
  38 38
  39 39
  40 40
  41 41
  42 42
  43 43
  44 44
  45 45
  46 46
  47 47
  48 48
  49 49
  50 50
  51 51
  52 52
  53 53
  54 54
  55 55
  56 56
  57 57
  58 58
  59 59
  60 60
  61 61
  62 62
  63 63
  64 64
  65 65
  66 66
  67 67
  68 68
  69 69
  70 70
  71 71
  72 72
  73 73
  74 74
  75 75
  76 76
  77 77
  78 78
  79 79
  80 80
  81 81
  82 82
  83 83
  84 84
  85 85
  86 86
  87 87
  88 88
  89 89
  90 90
  91 91
  92 92
  93 93
  94 94
  95 95
  96 96
  97 97
  98 98
  99 99
  100 100
DURATION_SECTION
  1 10
  2 10
  3 10
  4 10
  5 10
  6 10
  7 10
  8 10
  9 10
  10 10
  11 10
  12 10
  13 10
  14 10
  15 10
  16 10
  17 10
  18 10
  19 10
  20 10
  21 10
  22 10
  23 10
  24 10
  25 10
  26 10
  27 10
  28 10
  29 10
  30 10
  31 10
  32 10
  33 10
  34 10
  35 10
  36 10
  37 10
  38 10
  39 10
  40 10
  41 10
  42 10
  43 10
  44 10
  45 10
  46 10
  47 10
  48 10
  49 10
  50 10
  51 10
  52 10
  53 10
  54 10
  55 10
  56 10
  57 10
  58 10
  59 10
  60 10
  61 10
  62 10
  63 10
  64 10
  65 10
  66 10
  67 10
  68 10
  69 10
  70 10
  71 10
  72 10
  73 10
  74 10
  75 10
  76 10
  77 10
  78 10
  79 10
  80 10
  81 10
  82 10
  83 10
  84 10
  85 10
  86 10
  87 10
  88 10
  89 10
  90 10
  91 10
  92 10
  93 10
  94 10
  95 10
  96 10
  97 10
  98 10
  99 10
  100 10
DEPOT_TIME_WINDOW_SECTION
  0 0 929
COMMENT: TIMESTEP: 7
TIME_AVAIL_SECTION
  1 817
  2 785
  3 363
  4 182
  5 211
  6 740
  7 591
  8 187
  9 155
  10 531
  11 550
  12 243
  13 366
  14 639
  15 58
  16 718
  17 795
  18 659
  19 909
  20 818
  21 275
  22 212
  23 492
  24 122
  25 106
  26 191
  27 719
  28 908
  29 821
  30 513
  31 64
  32 505
  33 589
  34 852
  35 565
  36 118
  37 787
  38 235
  39 781
  40 184
  41 40
  42 826
  43 214
  44 518
  45 168
  46 641
  47 459
  48 599
  49 176
  50 113
  51 844
  52 36
  53 13
  54 365
  55 802
  56 285
  57 382
  58 128
  59 496
  60 781
  61 408
  62 27
  63 779
  64 245
  65 450
  66 798
  67 767
  68 687
  69 632
  70 240
  71 347
  72 267
  73 395
  74 597
  75 700
  76 481
  77 741
  78 599
  79 392
  80 217
  81 360
  82 906
  83 380
  84 654
  85 690
  86 255
  87 904
  88 428
  89 640
  90 449
  91 542
  92 308
  93 822
  94 801
  95 853
  96 333
  97 840
  98 486
  99 130
  100 489
EOF