VRPTEST okul_100k_normal_reallyclustered_D.vrp
COMMENT: 
COMMENT: Best known objective: 2147483647
NAME: okul_100k_normal_reallyclustered_D.vrp
NUM_DEPOTS: 1
NUM_CAPACITIES: 1
NUM_VISITS: 100
NUM_LOCATIONS: 101
NUM_VEHICLES: 50
CAPACITIES: 1000
DATA_SECTION
DEPOTS
  0
DEMAND_SECTION
  1 -108
  2 -149
  3 -106
  4 -110
  5 -156
  6 -132
  7 -104
  8 -134
  9 -131
  10 -94
  11 -88
  12 -124
  13 -114
  14 -160
  15 -121
  16 -153
  17 -161
  18 -97
  19 -102
  20 -141
  21 -80
  22 -126
  23 -144
  24 -147
  25 -107
  26 -134
  27 -108
  28 -138
  29 -119
  30 -145
  31 -146
  32 -112
  33 -120
  34 -120
  35 -124
  36 -93
  37 -122
  38 -61
  39 -108
  40 -148
  41 -150
  42 -122
  43 -81
  44 -132
  45 -126
  46 -149
  47 -113
  48 -155
  49 -117
  50 -120
  51 -125
  52 -139
  53 -105
  54 -117
  55 -121
  56 -142
  57 -117
  58 -123
  59 -162
  60 -44
  61 -68
  62 -133
  63 -141
  64 -123
  65 -127
  66 -135
  67 -129
  68 -109
  69 -139
  70 -147
  71 -146
  72 -131
  73 -171
  74 -137
  75 -179
  76 -162
  77 -154
  78 -106
  79 -162
  80 -88
  81 -89
  82 -143
  83 -131
  84 -87
  85 -95
  86 -107
  87 -166
  88 -71
  89 -159
  90 -133
  91 -125
  92 -149
  93 -161
  94 -165
  95 -87
  96 -78
  97 -110
  98 -144
  99 -111
  100 -118
LOCATION_COORD_SECTION
  0 0 0
  1 15 59
  2 17 64
  3 15 60
  4 17 56
  5 15 59
  6 13 60
  7 14 61
  8 16 59
  9 -44 -92
  10 -47 -98
  11 -46 -93
  12 -49 -90
  13 -48 -95
  14 -46 -91
  15 -45 -92
  16 -47 -99
  17 -68 76
  18 -66 75
  19 -63 74
  20 -63 74
  21 -66 76
  22 -63 73
  23 -64 75
  24 -65 75
  25 28 -45
  26 30 -50
  27 32 -47
  28 27 -48
  29 28 -50
  30 25 -43
  31 28 -49
  32 -99 -21
  33 -93 -21
  34 -98 -18
  35 -100 -25
  36 -93 -19
  37 -96 -19
  38 -94 -16
  39 -96 -16
  40 24 -60
  41 24 -61
  42 19 -61
  43 29 -65
  44 25 -57
  45 20 -62
  46 18 -58
  47 33 -6
  48 31 -4
  49 36 -1
  50 29 -3
  51 34 1
  52 30 -3
  53 29 -1
  54 33 1
  55 47 20
  56 47 21
  57 48 23
  58 49 24
  59 44 21
  60 47 21
  61 47 18
  62 51 17
  63 -97 -21
  64 -100 -17
  65 -99 -13
  66 -97 -19
  67 -96 -21
  68 -94 -20
  69 -99 -17
  70 5 2
  71 10 0
  72 7 2
  73 5 3
  74 11 0
  75 12 2
  76 -42 -19
  77 -47 -20
  78 -45 -19
  79 -44 -20
  80 -43 -22
  81 -40 -22
  82 -44 -20
  83 -26 97
  84 -26 99
  85 -28 93
  86 -28 95
  87 -29 99
  88 -25 99
  89 -29 98
  90 -29 99
  91 72 -80
  92 74 -83
  93 76 -83
  94 74 -80
  95 74 -80
  96 75 -81
  97 76 -79
  98 -74 68
  99 -74 70
  100 -78 67
DEPOT_LOCATION_SECTION
  0 0
VISIT_LOCATION_SECTION
  1 1
  2 2
  3 3
  4 4
  5 5
  6 6
  7 7
  8 8
  9 9
  10 10
  11 11
  12 12
  13 13
  14 14
  15 15
  16 16
  17 17
  18 18
  19 19
  20 20
  21 21
  22 22
  23 23
  24 24
  25 25
  26 26
  27 27
  28 28
  29 29
  30 30
  31 31
  32 32
  33 33
  34 34
  35 35
  36 36
  37 37
  38 38
  39 39
  40 40
  41 41
  42 42
  43 43
  44 44
  45 45
  46 46
  47 47
  48 48
  49 49
  50 50
  51 51
  52 52
  53 53
  54 54
  55 55
  56 56
  57 57
  58 58
  59 59
  60 60
  61 61
  62 62
  63 63
  64 64
  65 65
  66 66
  67 67
  68 68
  69 69
  70 70
  71 71
  72 72
  73 73
  74 74
  75 75
  76 76
  77 77
  78 78
  79 79
  80 80
  81 81
  82 82
  83 83
  84 84
  85 85
  86 86
  87 87
  88 88
  89 89
  90 90
  91 91
  92 92
  93 93
  94 94
  95 95
  96 96
  97 97
  98 98
  99 99
  100 100
DURATION_SECTION
  1 10
  2 10
  3 10
  4 10
  5 10
  6 10
  7 10
  8 10
  9 10
  10 10
  11 10
  12 10
  13 10
  14 10
  15 10
  16 10
  17 10
  18 10
  19 10
  20 10
  21 10
  22 10
  23 10
  24 10
  25 10
  26 10
  27 10
  28 10
  29 10
  30 10
  31 10
  32 10
  33 10
  34 10
  35 10
  36 10
  37 10
  38 10
  39 10
  40 10
  41 10
  42 10
  43 10
  44 10
  45 10
  46 10
  47 10
  48 10
  49 10
  50 10
  51 10
  52 10
  53 10
  54 10
  55 10
  56 10
  57 10
  58 10
  59 10
  60 10
  61 10
  62 10
  63 10
  64 10
  65 10
  66 10
  67 10
  68 10
  69 10
  70 10
  71 10
  72 10
  73 10
  74 10
  75 10
  76 10
  77 10
  78 10
  79 10
  80 10
  81 10
  82 10
  83 10
  84 10
  85 10
  86 10
  87 10
  88 10
  89 10
  90 10
  91 10
  92 10
  93 10
  94 10
  95 10
  96 10
  97 10
  98 10
  99 10
  100 10
DEPOT_TIME_WINDOW_SECTION
  0 0 979
COMMENT: TIMESTEP: 7
TIME_AVAIL_SECTION
  1 808
  2 590
  3 273
  4 518
  5 676
  6 447
  7 389
  8 71
  9 897
  10 122
  11 700
  12 979
  13 519
  14 342
  15 178
  16 670
  17 166
  18 133
  19 98
  20 816
  21 492
  22 110
  23 419
  24 686
  25 125
  26 669
  27 755
  28 455
  29 718
  30 809
  31 76
  32 315
  33 807
  34 389
  35 857
  36 126
  37 667
  38 581
  39 793
  40 732
  41 174
  42 638
  43 587
  44 234
  45 103
  46 799
  47 429
  48 672
  49 683
  50 366
  51 650
  52 441
  53 858
  54 782
  55 951
  56 154
  57 537
  58 335
  59 812
  60 522
  61 897
  62 355
  63 240
  64 412
  65 488
  66 946
  67 744
  68 394
  69 723
  70 945
  71 36
  72 141
  73 410
  74 269
  75 551
  76 72
  77 765
  78 399
  79 658
  80 294
  81 463
  82 314
  83 68
  84 423
  85 409
  86 957
  87 367
  88 681
  89 882
  90 536
  91 518
  92 970
  93 487
  94 840
  95 777
  96 431
  97 812
  98 876
  99 26
  100 486
EOF