VRPTEST okul_100k_moreskewed_reallyclustered_D.vrp
COMMENT: 
COMMENT: Best known objective: 2147483647
NAME: okul_100k_moreskewed_reallyclustered_D.vrp
NUM_DEPOTS: 1
NUM_CAPACITIES: 1
NUM_VISITS: 100
NUM_LOCATIONS: 101
NUM_VEHICLES: 50
CAPACITIES: 1000
DATA_SECTION
DEPOTS
  0
DEMAND_SECTION
  1 -242
  2 -135
  3 -380
  4 -7
  5 -2
  6 -72
  7 -102
  8 -14
  9 -68
  10 -1
  11 -1
  12 -93
  13 -1
  14 -320
  15 -1
  16 -32
  17 -1
  18 -108
  19 -175
  20 -64
  21 -30
  22 -49
  23 -267
  24 -12
  25 -30
  26 -9
  27 -6
  28 -1
  29 -5
  30 -241
  31 -94
  32 -227
  33 -10
  34 -27
  35 -159
  36 -32
  37 -230
  38 -125
  39 -67
  40 -1
  41 -15
  42 -295
  43 -3
  44 -175
  45 -227
  46 -16
  47 -1
  48 -62
  49 -76
  50 -1
  51 -1
  52 -4
  53 -4
  54 -3
  55 -7
  56 -172
  57 -62
  58 -51
  59 -9
  60 -8
  61 -197
  62 -179
  63 -1
  64 -2
  65 -1
  66 -242
  67 -13
  68 -46
  69 -2
  70 -1
  71 -52
  72 -1
  73 -46
  74 -49
  75 -28
  76 -46
  77 -129
  78 -1
  79 -3
  80 -16
  81 -7
  82 -1
  83 -70
  84 -1
  85 -18
  86 -1
  87 -264
  88 -237
  89 -13
  90 -46
  91 -3
  92 -313
  93 -13
  94 -90
  95 -72
  96 -16
  97 -257
  98 -10
  99 -19
  100 -8
LOCATION_COORD_SECTION
  0 0 0
  1 79 91
  2 89 72
  3 75 84
  4 89 75
  5 83 86
  6 83 89
  7 82 91
  8 77 84
  9 -64 -69
  10 -67 -61
  11 -53 -63
  12 -48 -89
  13 -64 -74
  14 -59 -73
  15 -55 -68
  16 -57 -78
  17 -57 -70
  18 -54 -76
  19 -66 -82
  20 -60 -70
  21 -59 -68
  22 -71 -70
  23 41 -31
  24 46 -36
  25 35 -42
  26 41 -52
  27 39 -42
  28 40 -41
  29 37 -42
  30 46 -42
  31 39 -40
  32 28 -42
  33 40 -40
  34 46 -40
  35 15 -81
  36 20 -79
  37 16 -86
  38 18 -82
  39 22 -89
  40 30 -77
  41 25 -84
  42 23 -85
  43 26 -85
  44 -46 20
  45 -47 25
  46 -39 27
  47 -50 28
  48 -37 25
  49 -29 18
  50 -40 23
  51 -39 21
  52 -27 13
  53 -45 24
  54 -40 15
  55 -40 22
  56 -44 21
  57 -37 29
  58 -50 29
  59 -45 21
  60 -36 23
  61 64 -20
  62 73 -21
  63 81 -22
  64 77 -17
  65 71 -19
  66 82 -23
  67 71 -25
  68 81 -26
  69 72 -15
  70 79 -15
  71 71 -18
  72 72 -26
  73 69 -11
  74 72 -11
  75 71 -20
  76 86 -19
  77 3 -47
  78 2 -36
  79 -3 -60
  80 -16 -42
  81 2 -43
  82 3 -53
  83 -4 -46
  84 -1 -46
  85 2 -39
  86 4 -45
  87 7 -63
  88 -6 -50
  89 5 -47
  90 6 -42
  91 -2 -57
  92 -88 5
  93 -101 18
  94 -93 17
  95 -84 6
  96 -100 15
  97 -92 13
  98 -82 21
  99 -87 5
  100 -87 13
DEPOT_LOCATION_SECTION
  0 0
VISIT_LOCATION_SECTION
  1 1
  2 2
  3 3
  4 4
  5 5
  6 6
  7 7
  8 8
  9 9
  10 10
  11 11
  12 12
  13 13
  14 14
  15 15
  16 16
  17 17
  18 18
  19 19
  20 20
  21 21
  22 22
  23 23
  24 24
  25 25
  26 26
  27 27
  28 28
  29 29
  30 30
  31 31
  32 32
  33 33
  34 34
  35 35
  36 36
  37 37
  38 38
  39 39
  40 40
  41 41
  42 42
  43 43
  44 44
  45 45
  46 46
  47 47
  48 48
  49 49
  50 50
  51 51
  52 52
  53 53
  54 54
  55 55
  56 56
  57 57
  58 58
  59 59
  60 60
  61 61
  62 62
  63 63
  64 64
  65 65
  66 66
  67 67
  68 68
  69 69
  70 70
  71 71
  72 72
  73 73
  74 74
  75 75
  76 76
  77 77
  78 78
  79 79
  80 80
  81 81
  82 82
  83 83
  84 84
  85 85
  86 86
  87 87
  88 88
  89 89
  90 90
  91 91
  92 92
  93 93
  94 94
  95 95
  96 96
  97 97
  98 98
  99 99
  100 100
DURATION_SECTION
  1 10
  2 10
  3 10
  4 10
  5 10
  6 10
  7 10
  8 10
  9 10
  10 10
  11 10
  12 10
  13 10
  14 10
  15 10
  16 10
  17 10
  18 10
  19 10
  20 10
  21 10
  22 10
  23 10
  24 10
  25 10
  26 10
  27 10
  28 10
  29 10
  30 10
  31 10
  32 10
  33 10
  34 10
  35 10
  36 10
  37 10
  38 10
  39 10
  40 10
  41 10
  42 10
  43 10
  44 10
  45 10
  46 10
  47 10
  48 10
  49 10
  50 10
  51 10
  52 10
  53 10
  54 10
  55 10
  56 10
  57 10
  58 10
  59 10
  60 10
  61 10
  62 10
  63 10
  64 10
  65 10
  66 10
  67 10
  68 10
  69 10
  70 10
  71 10
  72 10
  73 10
  74 10
  75 10
  76 10
  77 10
  78 10
  79 10
  80 10
  81 10
  82 10
  83 10
  84 10
  85 10
  86 10
  87 10
  88 10
  89 10
  90 10
  91 10
  92 10
  93 10
  94 10
  95 10
  96 10
  97 10
  98 10
  99 10
  100 10
DEPOT_TIME_WINDOW_SECTION
  0 0 929
COMMENT: TIMESTEP: 7
TIME_AVAIL_SECTION
  1 229
  2 393
  3 232
  4 839
  5 827
  6 538
  7 921
  8 835
  9 267
  10 115
  11 692
  12 517
  13 157
  14 288
  15 116
  16 164
  17 522
  18 777
  19 897
  20 774
  21 256
  22 496
  23 116
  24 120
  25 498
  26 756
  27 182
  28 63
  29 121
  30 224
  31 481
  32 747
  33 66
  34 252
  35 168
  36 869
  37 685
  38 592
  39 119
  40 807
  41 601
  42 401
  43 91
  44 589
  45 254
  46 294
  47 875
  48 255
  49 234
  50 802
  51 420
  52 899
  53 374
  54 290
  55 575
  56 308
  57 735
  58 432
  59 347
  60 114
  61 472
  62 251
  63 370
  64 728
  65 456
  66 308
  67 616
  68 579
  69 432
  70 515
  71 312
  72 124
  73 112
  74 247
  75 246
  76 854
  77 5
  78 529
  79 657
  80 721
  81 309
  82 134
  83 373
  84 805
  85 806
  86 679
  87 128
  88 128
  89 687
  90 15
  91 877
  92 475
  93 447
  94 185
  95 772
  96 400
  97 119
  98 722
  99 515
  100 135
EOF