VRPTEST okul_100m_moreskewed_uniform_D.vrp
COMMENT: 
COMMENT: Best known objective: 2147483647
NAME: okul_100m_moreskewed_uniform_D.vrp
NUM_DEPOTS: 1
NUM_CAPACITIES: 1
NUM_VISITS: 100
NUM_LOCATIONS: 101
NUM_VEHICLES: 50
CAPACITIES: 1000
DATA_SECTION
DEPOTS
  0
DEMAND_SECTION
  1 -5
  2 -5
  3 -1
  4 -94
  5 -1
  6 -127
  7 -21
  8 -267
  9 -268
  10 -2
  11 -73
  12 -16
  13 -145
  14 -1
  15 -26
  16 -13
  17 -1
  18 -29
  19 -192
  20 -38
  21 -176
  22 -132
  23 -1
  24 -1
  25 -19
  26 -194
  27 -7
  28 -3
  29 -18
  30 -1
  31 -76
  32 -5
  33 -58
  34 -384
  35 -18
  36 -1
  37 -10
  38 -21
  39 -206
  40 -647
  41 -212
  42 -11
  43 -5
  44 -1
  45 -14
  46 -134
  47 -183
  48 -8
  49 -75
  50 -50
  51 -412
  52 -147
  53 -49
  54 -1
  55 -40
  56 -421
  57 -20
  58 -5
  59 -270
  60 -416
  61 -7
  62 -54
  63 -4
  64 -9
  65 -66
  66 -563
  67 -42
  68 -28
  69 -20
  70 -147
  71 -25
  72 -53
  73 -127
  74 -163
  75 -4
  76 -57
  77 -29
  78 -1
  79 -43
  80 -1
  81 -431
  82 -290
  83 -42
  84 -1
  85 -259
  86 -1
  87 -12
  88 -3
  89 -46
  90 -64
  91 -4
  92 -29
  93 -1
  94 -1
  95 -1
  96 -180
  97 -6
  98 -1
  99 -49
  100 -1
LOCATION_COORD_SECTION
  0 0 0
  1 -61 6
  2 76 18
  3 73 69
  4 50 -69
  5 -36 -27
  6 -55 57
  7 62 19
  8 14 -38
  9 1 48
  10 89 -55
  11 28 -63
  12 -96 -65
  13 -53 94
  14 58 27
  15 84 44
  16 58 87
  17 -56 26
  18 -100 -49
  19 1 31
  20 -57 68
  21 89 -83
  22 89 69
  23 75 88
  24 -99 28
  25 39 -55
  26 35 32
  27 2 -76
  28 -75 15
  29 -25 17
  30 -75 59
  31 9 72
  32 -82 -10
  33 -25 36
  34 -10 56
  35 42 -71
  36 80 31
  37 63 27
  38 -96 20
  39 -54 -96
  40 66 -18
  41 23 -85
  42 -68 67
  43 28 -33
  44 -54 58
  45 -22 64
  46 -22 -65
  47 -8 -72
  48 -13 -27
  49 -10 -78
  50 -34 17
  51 -72 61
  52 91 -83
  53 -71 4
  54 85 83
  55 84 81
  56 -11 -6
  57 37 70
  58 -21 20
  59 81 -99
  60 14 24
  61 73 99
  62 -18 -36
  63 -75 -8
  64 91 77
  65 17 33
  66 -91 36
  67 14 68
  68 72 -29
  69 -31 57
  70 -19 92
  71 -82 77
  72 30 46
  73 48 -14
  74 93 90
  75 -53 75
  76 57 -51
  77 -45 -58
  78 -44 16
  79 71 -13
  80 -77 -70
  81 5 -45
  82 71 21
  83 3 -83
  84 39 91
  85 9 -94
  86 -48 90
  87 80 -39
  88 44 -15
  89 6 39
  90 -77 7
  91 50 82
  92 -67 64
  93 -58 -54
  94 39 67
  95 4 65
  96 25 -38
  97 -81 -64
  98 22 -58
  99 12 38
  100 -84 -78
DEPOT_LOCATION_SECTION
  0 0
VISIT_LOCATION_SECTION
  1 1
  2 2
  3 3
  4 4
  5 5
  6 6
  7 7
  8 8
  9 9
  10 10
  11 11
  12 12
  13 13
  14 14
  15 15
  16 16
  17 17
  18 18
  19 19
  20 20
  21 21
  22 22
  23 23
  24 24
  25 25
  26 26
  27 27
  28 28
  29 29
  30 30
  31 31
  32 32
  33 33
  34 34
  35 35
  36 36
  37 37
  38 38
  39 39
  40 40
  41 41
  42 42
  43 43
  44 44
  45 45
  46 46
  47 47
  48 48
  49 49
  50 50
  51 51
  52 52
  53 53
  54 54
  55 55
  56 56
  57 57
  58 58
  59 59
  60 60
  61 61
  62 62
  63 63
  64 64
  65 65
  66 66
  67 67
  68 68
  69 69
  70 70
  71 71
  72 72
  73 73
  74 74
  75 75
  76 76
  77 77
  78 78
  79 79
  80 80
  81 81
  82 82
  83 83
  84 84
  85 85
  86 86
  87 87
  88 88
  89 89
  90 90
  91 91
  92 92
  93 93
  94 94
  95 95
  96 96
  97 97
  98 98
  99 99
  100 100
DURATION_SECTION
  1 10
  2 10
  3 10
  4 10
  5 10
  6 10
  7 10
  8 10
  9 10
  10 10
  11 10
  12 10
  13 10
  14 10
  15 10
  16 10
  17 10
  18 10
  19 10
  20 10
  21 10
  22 10
  23 10
  24 10
  25 10
  26 10
  27 10
  28 10
  29 10
  30 10
  31 10
  32 10
  33 10
  34 10
  35 10
  36 10
  37 10
  38 10
  39 10
  40 10
  41 10
  42 10
  43 10
  44 10
  45 10
  46 10
  47 10
  48 10
  49 10
  50 10
  51 10
  52 10
  53 10
  54 10
  55 10
  56 10
  57 10
  58 10
  59 10
  60 10
  61 10
  62 10
  63 10
  64 10
  65 10
  66 10
  67 10
  68 10
  69 10
  70 10
  71 10
  72 10
  73 10
  74 10
  75 10
  76 10
  77 10
  78 10
  79 10
  80 10
  81 10
  82 10
  83 10
  84 10
  85 10
  86 10
  87 10
  88 10
  89 10
  90 10
  91 10
  92 10
  93 10
  94 10
  95 10
  96 10
  97 10
  98 10
  99 10
  100 10
DEPOT_TIME_WINDOW_SECTION
  0 0 939
COMMENT: TIMESTEP: 7
TIME_AVAIL_SECTION
  1 391
  2 262
  3 511
  4 285
  5 395
  6 444
  7 727
  8 509
  9 175
  10 226
  11 40
  12 732
  13 353
  14 267
  15 153
  16 291
  17 359
  18 267
  19 621
  20 67
  21 58
  22 24
  23 772
  24 492
  25 235
  26 223
  27 495
  28 917
  29 186
  30 467
  31 127
  32 93
  33 742
  34 456
  35 128
  36 857
  37 859
  38 229
  39 91
  40 853
  41 323
  42 182
  43 274
  44 780
  45 294
  46 71
  47 797
  48 433
  49 610
  50 804
  51 269
  52 732
  53 483
  54 591
  55 305
  56 89
  57 833
  58 510
  59 936
  60 309
  61 314
  62 487
  63 506
  64 396
  65 274
  66 468
  67 157
  68 344
  69 377
  70 778
  71 900
  72 366
  73 465
  74 62
  75 767
  76 697
  77 573
  78 736
  79 653
  80 812
  81 585
  82 626
  83 514
  84 562
  85 106
  86 304
  87 788
  88 510
  89 458
  90 305
  91 492
  92 894
  93 312
  94 48
  95 225
  96 102
  97 136
  98 109
  99 520
  100 4
EOF