VRPTEST okul_100o_moreskewed_pseudoclustered_D.vrp
COMMENT: 
COMMENT: Best known objective: 2147483647
NAME: okul_100o_moreskewed_pseudoclustered_D.vrp
NUM_DEPOTS: 1
NUM_CAPACITIES: 1
NUM_VISITS: 100
NUM_LOCATIONS: 101
NUM_VEHICLES: 50
CAPACITIES: 1000
DATA_SECTION
DEPOTS
  0
DEMAND_SECTION
  1 -1
  2 -35
  3 -2
  4 -5
  5 -271
  6 -55
  7 -26
  8 -34
  9 -46
  10 -240
  11 -7
  12 -33
  13 -3
  14 -15
  15 -1
  16 -64
  17 -368
  18 -3
  19 -19
  20 -5
  21 -18
  22 -6
  23 -42
  24 -71
  25 -205
  26 -3
  27 -267
  28 -358
  29 -63
  30 -69
  31 -123
  32 -49
  33 -117
  34 -40
  35 -56
  36 -180
  37 -83
  38 -45
  39 -1
  40 -18
  41 -12
  42 -37
  43 -1
  44 -7
  45 -4
  46 -38
  47 -3
  48 -32
  49 -12
  50 -314
  51 -22
  52 -13
  53 -1
  54 -31
  55 -82
  56 -40
  57 -61
  58 -138
  59 -56
  60 -1
  61 -47
  62 -1
  63 -484
  64 -12
  65 -15
  66 -75
  67 -21
  68 -41
  69 -41
  70 -156
  71 -43
  72 -85
  73 -94
  74 -288
  75 -67
  76 -1
  77 -1
  78 -1
  79 -308
  80 -3
  81 -5
  82 -170
  83 -28
  84 -125
  85 -44
  86 -1
  87 -28
  88 -114
  89 -1
  90 -37
  91 -51
  92 -1
  93 -78
  94 -27
  95 -3
  96 -25
  97 -1
  98 -124
  99 -2
  100 -114
LOCATION_COORD_SECTION
  0 0 0
  1 -20 -90
  2 -59 -104
  3 60 10
  4 -55 -50
  5 82 -63
  6 23 28
  7 87 70
  8 -38 -92
  9 -48 -97
  10 70 18
  11 -73 -21
  12 81 -52
  13 28 32
  14 79 72
  15 -20 -88
  16 -46 -102
  17 65 21
  18 -52 -41
  19 74 -58
  20 29 20
  21 94 70
  22 -22 -92
  23 -55 -102
  24 63 31
  25 -66 -29
  26 80 -56
  27 25 44
  28 100 65
  29 -30 -100
  30 -58 -100
  31 71 30
  32 -61 -29
  33 65 -50
  34 39 36
  35 88 66
  36 -35 -109
  37 -52 -105
  38 61 26
  39 -55 -46
  40 71 -56
  41 28 35
  42 92 78
  43 -35 -98
  44 -38 -93
  45 61 27
  46 -58 -40
  47 86 -52
  48 28 24
  49 89 81
  50 -29 -97
  51 -42 -94
  52 64 37
  53 -51 -27
  54 69 -58
  55 24 34
  56 94 73
  57 -32 -107
  58 -44 -88
  59 73 15
  60 -50 -31
  61 81 -73
  62 24 37
  63 90 74
  64 -35 -95
  65 -54 -99
  66 66 16
  67 -55 -25
  68 70 -51
  69 29 28
  70 89 75
  71 -35 -92
  72 -44 -110
  73 64 12
  74 -61 -31
  75 77 -53
  76 34 28
  77 100 75
  78 -36 -91
  79 -38 -100
  80 56 29
  81 -64 -31
  82 62 -57
  83 31 25
  84 93 78
  85 -29 -91
  86 -50 -100
  87 62 27
  88 -60 -38
  89 76 -56
  90 34 12
  91 90 75
  92 -30 -86
  93 -52 -96
  94 72 30
  95 -56 -37
  96 72 -53
  97 33 22
  98 86 78
  99 -38 -103
  100 -44 -92
DEPOT_LOCATION_SECTION
  0 0
VISIT_LOCATION_SECTION
  1 1
  2 2
  3 3
  4 4
  5 5
  6 6
  7 7
  8 8
  9 9
  10 10
  11 11
  12 12
  13 13
  14 14
  15 15
  16 16
  17 17
  18 18
  19 19
  20 20
  21 21
  22 22
  23 23
  24 24
  25 25
  26 26
  27 27
  28 28
  29 29
  30 30
  31 31
  32 32
  33 33
  34 34
  35 35
  36 36
  37 37
  38 38
  39 39
  40 40
  41 41
  42 42
  43 43
  44 44
  45 45
  46 46
  47 47
  48 48
  49 49
  50 50
  51 51
  52 52
  53 53
  54 54
  55 55
  56 56
  57 57
  58 58
  59 59
  60 60
  61 61
  62 62
  63 63
  64 64
  65 65
  66 66
  67 67
  68 68
  69 69
  70 70
  71 71
  72 72
  73 73
  74 74
  75 75
  76 76
  77 77
  78 78
  79 79
  80 80
  81 81
  82 82
  83 83
  84 84
  85 85
  86 86
  87 87
  88 88
  89 89
  90 90
  91 91
  92 92
  93 93
  94 94
  95 95
  96 96
  97 97
  98 98
  99 99
  100 100
DURATION_SECTION
  1 10
  2 10
  3 10
  4 10
  5 10
  6 10
  7 10
  8 10
  9 10
  10 10
  11 10
  12 10
  13 10
  14 10
  15 10
  16 10
  17 10
  18 10
  19 10
  20 10
  21 10
  22 10
  23 10
  24 10
  25 10
  26 10
  27 10
  28 10
  29 10
  30 10
  31 10
  32 10
  33 10
  34 10
  35 10
  36 10
  37 10
  38 10
  39 10
  40 10
  41 10
  42 10
  43 10
  44 10
  45 10
  46 10
  47 10
  48 10
  49 10
  50 10
  51 10
  52 10
  53 10
  54 10
  55 10
  56 10
  57 10
  58 10
  59 10
  60 10
  61 10
  62 10
  63 10
  64 10
  65 10
  66 10
  67 10
  68 10
  69 10
  70 10
  71 10
  72 10
  73 10
  74 10
  75 10
  76 10
  77 10
  78 10
  79 10
  80 10
  81 10
  82 10
  83 10
  84 10
  85 10
  86 10
  87 10
  88 10
  89 10
  90 10
  91 10
  92 10
  93 10
  94 10
  95 10
  96 10
  97 10
  98 10
  99 10
  100 10
DEPOT_TIME_WINDOW_SECTION
  0 0 919
COMMENT: TIMESTEP: 7
TIME_AVAIL_SECTION
  1 296
  2 389
  3 102
  4 637
  5 740
  6 301
  7 19
  8 4
  9 883
  10 148
  11 684
  12 790
  13 683
  14 907
  15 564
  16 863
  17 5
  18 435
  19 270
  20 537
  21 767
  22 713
  23 273
  24 536
  25 915
  26 126
  27 206
  28 250
  29 473
  30 765
  31 196
  32 701
  33 779
  34 714
  35 619
  36 788
  37 425
  38 710
  39 116
  40 909
  41 262
  42 455
  43 52
  44 384
  45 306
  46 814
  47 646
  48 609
  49 218
  50 555
  51 878
  52 230
  53 88
  54 747
  55 723
  56 207
  57 803
  58 394
  59 310
  60 198
  61 282
  62 99
  63 52
  64 306
  65 560
  66 564
  67 706
  68 311
  69 253
  70 578
  71 819
  72 645
  73 96
  74 551
  75 629
  76 267
  77 208
  78 539
  79 68
  80 754
  81 46
  82 484
  83 476
  84 142
  85 633
  86 233
  87 536
  88 822
  89 394
  90 851
  91 507
  92 571
  93 78
  94 392
  95 859
  96 645
  97 631
  98 57
  99 904
  100 209
EOF