VRPTEST okul_50b_skewed_pseudoclustered_D.vrp
COMMENT: 
COMMENT: Best known objective: 2147483647
NAME: okul_50b_skewed_pseudoclustered_D.vrp
NUM_DEPOTS: 1
NUM_CAPACITIES: 1
NUM_VISITS: 50
NUM_LOCATIONS: 51
NUM_VEHICLES: 50
CAPACITIES: 1000
DATA_SECTION
DEPOTS
  0
DEMAND_SECTION
  1 -217
  2 -69
  3 -6
  4 -56
  5 -278
  6 -44
  7 -29
  8 -140
  9 -7
  10 -51
  11 -215
  12 -15
  13 -97
  14 -93
  15 -20
  16 -25
  17 -37
  18 -21
  19 -27
  20 -82
  21 -35
  22 -99
  23 -114
  24 -178
  25 -49
  26 -9
  27 -105
  28 -51
  29 -98
  30 -163
  31 -159
  32 -99
  33 -15
  34 -115
  35 -130
  36 -31
  37 -39
  38 -235
  39 -241
  40 -53
  41 -28
  42 -107
  43 -23
  44 -50
  45 -55
  46 -8
  47 -153
  48 -365
  49 -38
  50 -110
LOCATION_COORD_SECTION
  0 0 0
  1 37 -10
  2 67 -4
  3 -74 -14
  4 13 -106
  5 42 94
  6 72 14
  7 64 0
  8 -67 -22
  9 1 -102
  10 38 79
  11 61 -3
  12 42 -27
  13 -73 -18
  14 -20 -80
  15 17 76
  16 23 -3
  17 71 -15
  18 -79 -1
  19 -2 -107
  20 17 78
  21 61 7
  22 64 -11
  23 -64 -18
  24 -4 -115
  25 3 104
  26 49 18
  27 59 -31
  28 -81 -16
  29 2 -119
  30 5 91
  31 54 20
  32 57 -42
  33 -73 -24
  34 1 -105
  35 41 76
  36 63 -23
  37 69 -17
  38 -82 -33
  39 5 -98
  40 33 91
  41 53 -1
  42 30 -12
  43 -67 -15
  44 -20 -105
  45 10 92
  46 70 -4
  47 63 -2
  48 -58 -15
  49 7 -87
  50 18 86
DEPOT_LOCATION_SECTION
  0 0
VISIT_LOCATION_SECTION
  1 1
  2 2
  3 3
  4 4
  5 5
  6 6
  7 7
  8 8
  9 9
  10 10
  11 11
  12 12
  13 13
  14 14
  15 15
  16 16
  17 17
  18 18
  19 19
  20 20
  21 21
  22 22
  23 23
  24 24
  25 25
  26 26
  27 27
  28 28
  29 29
  30 30
  31 31
  32 32
  33 33
  34 34
  35 35
  36 36
  37 37
  38 38
  39 39
  40 40
  41 41
  42 42
  43 43
  44 44
  45 45
  46 46
  47 47
  48 48
  49 49
  50 50
DURATION_SECTION
  1 10
  2 10
  3 10
  4 10
  5 10
  6 10
  7 10
  8 10
  9 10
  10 10
  11 10
  12 10
  13 10
  14 10
  15 10
  16 10
  17 10
  18 10
  19 10
  20 10
  21 10
  22 10
  23 10
  24 10
  25 10
  26 10
  27 10
  28 10
  29 10
  30 10
  31 10
  32 10
  33 10
  34 10
  35 10
  36 10
  37 10
  38 10
  39 10
  40 10
  41 10
  42 10
  43 10
  44 10
  45 10
  46 10
  47 10
  48 10
  49 10
  50 10
DEPOT_TIME_WINDOW_SECTION
  0 0 899
COMMENT: TIMESTEP: 7
TIME_AVAIL_SECTION
  1 892
  2 446
  3 435
  4 156
  5 679
  6 408
  7 460
  8 187
  9 206
  10 536
  11 517
  12 69
  13 32
  14 578
  15 835
  16 538
  17 504
  18 473
  19 886
  20 456
  21 614
  22 541
  23 215
  24 232
  25 656
  26 407
  27 157
  28 671
  29 94
  30 777
  31 553
  32 501
  33 296
  34 407
  35 450
  36 163
  37 476
  38 68
  39 250
  40 191
  41 256
  42 805
  43 401
  44 701
  45 792
  46 371
  47 57
  48 302
  49 651
  50 304
EOF