VRPTEST okul_100e_uniform_reallyclustered_D.vrp
COMMENT: 
COMMENT: Best known objective: 2147483647
NAME: okul_100e_uniform_reallyclustered_D.vrp
NUM_DEPOTS: 1
NUM_CAPACITIES: 1
NUM_VISITS: 100
NUM_LOCATIONS: 101
NUM_VEHICLES: 50
CAPACITIES: 1000
DATA_SECTION
DEPOTS
  0
DEMAND_SECTION
  1 -24
  2 -20
  3 -18
  4 -55
  5 -96
  6 -89
  7 -94
  8 -179
  9 -177
  10 -127
  11 -229
  12 -35
  13 -134
  14 -142
  15 -240
  16 -229
  17 -141
  18 -204
  19 -214
  20 -136
  21 -226
  22 -70
  23 -1
  24 -214
  25 -112
  26 -57
  27 -166
  28 -123
  29 -136
  30 -28
  31 -159
  32 -152
  33 -27
  34 -141
  35 -242
  36 -87
  37 -72
  38 -51
  39 -16
  40 -18
  41 -61
  42 -48
  43 -73
  44 -202
  45 -163
  46 -76
  47 -53
  48 -118
  49 -95
  50 -63
  51 -201
  52 -74
  53 -89
  54 -193
  55 -125
  56 -190
  57 -240
  58 -176
  59 -55
  60 -106
  61 -106
  62 -203
  63 -163
  64 -195
  65 -105
  66 -133
  67 -163
  68 -198
  69 -120
  70 -8
  71 -210
  72 -2
  73 -64
  74 -208
  75 -88
  76 -225
  77 -146
  78 -74
  79 -247
  80 -38
  81 -115
  82 -210
  83 -121
  84 -107
  85 -228
  86 -104
  87 -24
  88 -112
  89 -40
  90 -20
  91 -95
  92 -209
  93 -125
  94 -79
  95 -189
  96 -96
  97 -194
  98 -22
  99 -249
  100 -205
LOCATION_COORD_SECTION
  0 0 0
  1 -59 70
  2 -59 66
  3 -55 63
  4 -59 67
  5 -63 66
  6 -58 67
  7 -55 67
  8 -59 68
  9 -59 67
  10 -56 67
  11 -89 -58
  12 -95 -55
  13 -87 -58
  14 -94 -58
  15 -96 -60
  16 -31 -60
  17 -31 -60
  18 -33 -61
  19 -29 -66
  20 -32 -61
  21 -35 59
  22 -36 60
  23 -33 68
  24 -31 63
  25 -34 67
  26 -35 64
  27 -36 66
  28 -36 65
  29 43 -87
  30 39 -83
  31 41 -85
  32 45 -84
  33 37 -82
  34 40 -86
  35 39 -84
  36 39 -88
  37 -56 95
  38 -56 97
  39 -58 96
  40 -52 96
  41 -58 96
  42 -55 90
  43 -55 97
  44 -56 91
  45 -52 96
  46 -53 96
  47 -52 98
  48 -52 95
  49 66 67
  50 69 65
  51 66 62
  52 69 63
  53 69 59
  54 65 64
  55 68 63
  56 43 -84
  57 44 -88
  58 49 -87
  59 42 -88
  60 42 -86
  61 41 -90
  62 -40 4
  63 -40 2
  64 -39 5
  65 -41 2
  66 -43 5
  67 -44 7
  68 -85 49
  69 -84 54
  70 -80 54
  71 -83 55
  72 -84 56
  73 -81 54
  74 -85 58
  75 -84 52
  76 -84 27
  77 -83 24
  78 -80 30
  79 -77 31
  80 -79 27
  81 -76 26
  82 79 73
  83 86 72
  84 81 71
  85 77 71
  86 79 74
  87 79 75
  88 78 75
  89 82 75
  90 77 76
  91 -50 96
  92 -53 92
  93 -49 102
  94 -48 96
  95 -55 95
  96 -55 99
  97 -51 97
  98 -90 -73
  99 -91 -74
  100 -90 -74
DEPOT_LOCATION_SECTION
  0 0
VISIT_LOCATION_SECTION
  1 1
  2 2
  3 3
  4 4
  5 5
  6 6
  7 7
  8 8
  9 9
  10 10
  11 11
  12 12
  13 13
  14 14
  15 15
  16 16
  17 17
  18 18
  19 19
  20 20
  21 21
  22 22
  23 23
  24 24
  25 25
  26 26
  27 27
  28 28
  29 29
  30 30
  31 31
  32 32
  33 33
  34 34
  35 35
  36 36
  37 37
  38 38
  39 39
  40 40
  41 41
  42 42
  43 43
  44 44
  45 45
  46 46
  47 47
  48 48
  49 49
  50 50
  51 51
  52 52
  53 53
  54 54
  55 55
  56 56
  57 57
  58 58
  59 59
  60 60
  61 61
  62 62
  63 63
  64 64
  65 65
  66 66
  67 67
  68 68
  69 69
  70 70
  71 71
  72 72
  73 73
  74 74
  75 75
  76 76
  77 77
  78 78
  79 79
  80 80
  81 81
  82 82
  83 83
  84 84
  85 85
  86 86
  87 87
  88 88
  89 89
  90 90
  91 91
  92 92
  93 93
  94 94
  95 95
  96 96
  97 97
  98 98
  99 99
  100 100
DURATION_SECTION
  1 10
  2 10
  3 10
  4 10
  5 10
  6 10
  7 10
  8 10
  9 10
  10 10
  11 10
  12 10
  13 10
  14 10
  15 10
  16 10
  17 10
  18 10
  19 10
  20 10
  21 10
  22 10
  23 10
  24 10
  25 10
  26 10
  27 10
  28 10
  29 10
  30 10
  31 10
  32 10
  33 10
  34 10
  35 10
  36 10
  37 10
  38 10
  39 10
  40 10
  41 10
  42 10
  43 10
  44 10
  45 10
  46 10
  47 10
  48 10
  49 10
  50 10
  51 10
  52 10
  53 10
  54 10
  55 10
  56 10
  57 10
  58 10
  59 10
  60 10
  61 10
  62 10
  63 10
  64 10
  65 10
  66 10
  67 10
  68 10
  69 10
  70 10
  71 10
  72 10
  73 10
  74 10
  75 10
  76 10
  77 10
  78 10
  79 10
  80 10
  81 10
  82 10
  83 10
  84 10
  85 10
  86 10
  87 10
  88 10
  89 10
  90 10
  91 10
  92 10
  93 10
  94 10
  95 10
  96 10
  97 10
  98 10
  99 10
  100 10
DEPOT_TIME_WINDOW_SECTION
  0 0 979
COMMENT: TIMESTEP: 7
TIME_AVAIL_SECTION
  1 839
  2 381
  3 930
  4 0
  5 370
  6 576
  7 921
  8 564
  9 308
  10 600
  11 462
  12 851
  13 131
  14 308
  15 259
  16 832
  17 653
  18 472
  19 467
  20 857
  21 135
  22 616
  23 252
  24 602
  25 23
  26 699
  27 422
  28 973
  29 567
  30 416
  31 81
  32 566
  33 767
  34 69
  35 600
  36 580
  37 88
  38 39
  39 854
  40 581
  41 771
  42 241
  43 364
  44 972
  45 231
  46 402
  47 345
  48 457
  49 646
  50 516
  51 956
  52 712
  53 887
  54 141
  55 342
  56 387
  57 759
  58 690
  59 353
  60 607
  61 729
  62 491
  63 901
  64 914
  65 622
  66 109
  67 479
  68 316
  69 348
  70 747
  71 45
  72 618
  73 17
  74 699
  75 343
  76 880
  77 903
  78 484
  79 667
  80 554
  81 314
  82 539
  83 523
  84 774
  85 577
  86 808
  87 599
  88 874
  89 550
  90 297
  91 177
  92 479
  93 45
  94 257
  95 121
  96 360
  97 381
  98 136
  99 961
  100 945
EOF