VRPTEST okul_100g_normal_pseudoclustered_D.vrp
COMMENT: 
COMMENT: Best known objective: 2147483647
NAME: okul_100g_normal_pseudoclustered_D.vrp
NUM_DEPOTS: 1
NUM_CAPACITIES: 1
NUM_VISITS: 100
NUM_LOCATIONS: 101
NUM_VEHICLES: 50
CAPACITIES: 1000
DATA_SECTION
DEPOTS
  0
DEMAND_SECTION
  1 -107
  2 -113
  3 -69
  4 -143
  5 -71
  6 -102
  7 -162
  8 -165
  9 -102
  10 -171
  11 -120
  12 -132
  13 -123
  14 -127
  15 -144
  16 -131
  17 -134
  18 -93
  19 -108
  20 -93
  21 -101
  22 -145
  23 -134
  24 -132
  25 -127
  26 -153
  27 -154
  28 -148
  29 -126
  30 -121
  31 -156
  32 -125
  33 -125
  34 -137
  35 -152
  36 -149
  37 -134
  38 -101
  39 -127
  40 -116
  41 -108
  42 -126
  43 -102
  44 -113
  45 -135
  46 -159
  47 -116
  48 -115
  49 -105
  50 -119
  51 -123
  52 -76
  53 -116
  54 -152
  55 -84
  56 -102
  57 -138
  58 -100
  59 -158
  60 -117
  61 -125
  62 -165
  63 -84
  64 -95
  65 -107
  66 -116
  67 -104
  68 -112
  69 -113
  70 -129
  71 -79
  72 -158
  73 -117
  74 -100
  75 -104
  76 -136
  77 -78
  78 -142
  79 -141
  80 -116
  81 -121
  82 -80
  83 -144
  84 -76
  85 -139
  86 -123
  87 -110
  88 -129
  89 -121
  90 -154
  91 -110
  92 -100
  93 -133
  94 -147
  95 -102
  96 -55
  97 -134
  98 -98
  99 -159
  100 -189
LOCATION_COORD_SECTION
  0 0 0
  1 -82 -13
  2 -81 36
  3 -18 -33
  4 -95 49
  5 -59 -56
  6 -56 48
  7 30 1
  8 -24 87
  9 -18 -34
  10 -55 19
  11 -45 -36
  12 -16 -66
  13 40 -46
  14 -86 -12
  15 -80 29
  16 -22 -31
  17 -93 47
  18 -62 -57
  19 -56 50
  20 32 3
  21 -29 90
  22 -17 -31
  23 -54 17
  24 -49 -32
  25 -15 -62
  26 38 -48
  27 -86 -15
  28 -80 32
  29 -23 -29
  30 -91 50
  31 -59 -62
  32 -54 48
  33 33 1
  34 -27 94
  35 -20 -33
  36 -54 16
  37 -45 -29
  38 -14 -66
  39 42 -47
  40 -87 -13
  41 -81 34
  42 -21 -30
  43 -97 48
  44 -59 -57
  45 -59 44
  46 34 -1
  47 -25 91
  48 -17 -30
  49 -55 14
  50 -51 -35
  51 -16 -69
  52 39 -44
  53 -86 -17
  54 -83 29
  55 -23 -27
  56 -91 44
  57 -61 -59
  58 -54 43
  59 32 4
  60 -22 88
  61 -18 -31
  62 -56 15
  63 -42 -32
  64 -15 -63
  65 38 -42
  66 -88 -14
  67 -85 32
  68 -24 -31
  69 -98 46
  70 -58 -55
  71 -55 45
  72 31 3
  73 -26 89
  74 -23 -30
  75 -56 15
  76 -46 -32
  77 -15 -64
  78 45 -43
  79 -86 -10
  80 -82 29
  81 -21 -32
  82 -92 47
  83 -59 -57
  84 -57 47
  85 36 4
  86 -26 87
  87 -19 -35
  88 -52 16
  89 -46 -34
  90 -14 -64
  91 37 -43
  92 -90 -13
  93 -83 35
  94 -19 -31
  95 -94 50
  96 -59 -60
  97 -57 49
  98 32 2
  99 -19 94
  100 -17 -30
DEPOT_LOCATION_SECTION
  0 0
VISIT_LOCATION_SECTION
  1 1
  2 2
  3 3
  4 4
  5 5
  6 6
  7 7
  8 8
  9 9
  10 10
  11 11
  12 12
  13 13
  14 14
  15 15
  16 16
  17 17
  18 18
  19 19
  20 20
  21 21
  22 22
  23 23
  24 24
  25 25
  26 26
  27 27
  28 28
  29 29
  30 30
  31 31
  32 32
  33 33
  34 34
  35 35
  36 36
  37 37
  38 38
  39 39
  40 40
  41 41
  42 42
  43 43
  44 44
  45 45
  46 46
  47 47
  48 48
  49 49
  50 50
  51 51
  52 52
  53 53
  54 54
  55 55
  56 56
  57 57
  58 58
  59 59
  60 60
  61 61
  62 62
  63 63
  64 64
  65 65
  66 66
  67 67
  68 68
  69 69
  70 70
  71 71
  72 72
  73 73
  74 74
  75 75
  76 76
  77 77
  78 78
  79 79
  80 80
  81 81
  82 82
  83 83
  84 84
  85 85
  86 86
  87 87
  88 88
  89 89
  90 90
  91 91
  92 92
  93 93
  94 94
  95 95
  96 96
  97 97
  98 98
  99 99
  100 100
DURATION_SECTION
  1 10
  2 10
  3 10
  4 10
  5 10
  6 10
  7 10
  8 10
  9 10
  10 10
  11 10
  12 10
  13 10
  14 10
  15 10
  16 10
  17 10
  18 10
  19 10
  20 10
  21 10
  22 10
  23 10
  24 10
  25 10
  26 10
  27 10
  28 10
  29 10
  30 10
  31 10
  32 10
  33 10
  34 10
  35 10
  36 10
  37 10
  38 10
  39 10
  40 10
  41 10
  42 10
  43 10
  44 10
  45 10
  46 10
  47 10
  48 10
  49 10
  50 10
  51 10
  52 10
  53 10
  54 10
  55 10
  56 10
  57 10
  58 10
  59 10
  60 10
  61 10
  62 10
  63 10
  64 10
  65 10
  66 10
  67 10
  68 10
  69 10
  70 10
  71 10
  72 10
  73 10
  74 10
  75 10
  76 10
  77 10
  78 10
  79 10
  80 10
  81 10
  82 10
  83 10
  84 10
  85 10
  86 10
  87 10
  88 10
  89 10
  90 10
  91 10
  92 10
  93 10
  94 10
  95 10
  96 10
  97 10
  98 10
  99 10
  100 10
DEPOT_TIME_WINDOW_SECTION
  0 0 979
COMMENT: TIMESTEP: 7
TIME_AVAIL_SECTION
  1 338
  2 383
  3 846
  4 231
  5 495
  6 184
  7 895
  8 629
  9 217
  10 652
  11 761
  12 485
  13 288
  14 171
  15 478
  16 406
  17 697
  18 222
  19 171
  20 860
  21 350
  22 707
  23 880
  24 929
  25 290
  26 431
  27 469
  28 499
  29 822
  30 117
  31 768
  32 199
  33 779
  34 516
  35 3
  36 911
  37 10
  38 298
  39 540
  40 718
  41 632
  42 266
  43 56
  44 743
  45 116
  46 191
  47 436
  48 810
  49 25
  50 787
  51 510
  52 598
  53 628
  54 728
  55 945
  56 415
  57 782
  58 194
  59 236
  60 958
  61 861
  62 964
  63 56
  64 730
  65 36
  66 78
  67 648
  68 934
  69 916
  70 809
  71 396
  72 467
  73 852
  74 581
  75 545
  76 374
  77 852
  78 575
  79 344
  80 62
  81 458
  82 925
  83 968
  84 348
  85 523
  86 476
  87 650
  88 352
  89 395
  90 317
  91 379
  92 837
  93 98
  94 353
  95 50
  96 151
  97 730
  98 89
  99 749
  100 713
EOF