VRPTEST okul_100d_moreskewed_reallyclustered_D.vrp
COMMENT: 
COMMENT: Best known objective: 2147483647
NAME: okul_100d_moreskewed_reallyclustered_D.vrp
NUM_DEPOTS: 1
NUM_CAPACITIES: 1
NUM_VISITS: 100
NUM_LOCATIONS: 101
NUM_VEHICLES: 50
CAPACITIES: 1000
DATA_SECTION
DEPOTS
  0
DEMAND_SECTION
  1 -786
  2 -71
  3 -1
  4 -3
  5 -11
  6 -1
  7 -1
  8 -1
  9 -56
  10 -117
  11 -23
  12 -73
  13 -1
  14 -29
  15 -5
  16 -48
  17 -1
  18 -1
  19 -57
  20 -31
  21 -27
  22 -1
  23 -263
  24 -149
  25 -21
  26 -54
  27 -352
  28 -1
  29 -1
  30 -1
  31 -15
  32 -8
  33 -1
  34 -143
  35 -2
  36 -150
  37 -152
  38 -160
  39 -94
  40 -245
  41 -159
  42 -65
  43 -1
  44 -12
  45 -2
  46 -1
  47 -72
  48 -1
  49 -5
  50 -14
  51 -39
  52 -17
  53 -338
  54 -9
  55 -25
  56 -1
  57 -1
  58 -25
  59 -153
  60 -43
  61 -60
  62 -1
  63 -35
  64 -20
  65 -196
  66 -5
  67 -16
  68 -219
  69 -18
  70 -157
  71 -32
  72 -8
  73 -1
  74 -6
  75 -1
  76 -451
  77 -10
  78 -20
  79 -1
  80 -3
  81 -3
  82 -215
  83 -5
  84 -8
  85 -48
  86 -137
  87 -37
  88 -685
  89 -53
  90 -174
  91 -104
  92 -36
  93 -1
  94 -157
  95 -49
  96 -390
  97 -15
  98 -241
  99 -51
  100 -112
LOCATION_COORD_SECTION
  0 0 0
  1 31 -53
  2 31 -50
  3 24 -52
  4 27 -49
  5 26 -58
  6 35 -55
  7 19 -61
  8 22 -49
  9 32 -50
  10 -24 -22
  11 -22 -26
  12 -28 -13
  13 -32 -20
  14 -19 -16
  15 -29 -17
  16 -24 -14
  17 -35 -20
  18 -32 -24
  19 -37 -15
  20 -36 -26
  21 -36 -25
  22 -29 -28
  23 -30 -22
  24 -31 -19
  25 -38 -18
  26 -34 -18
  27 32 51
  28 33 45
  29 35 47
  30 33 50
  31 44 46
  32 25 43
  33 27 50
  34 45 45
  35 37 51
  36 40 53
  37 29 50
  38 36 48
  39 -53 -27
  40 -61 -33
  41 -63 -27
  42 -58 -28
  43 -57 -19
  44 -66 -35
  45 -62 -30
  46 -63 -24
  47 -55 -23
  48 -62 -39
  49 -51 -31
  50 -55 -32
  51 -65 -33
  52 -70 -34
  53 -26 17
  54 -42 13
  55 -26 20
  56 -32 17
  57 -32 20
  58 -39 16
  59 -31 23
  60 -36 15
  61 -31 19
  62 -33 18
  63 -30 22
  64 -30 26
  65 -35 12
  66 -30 25
  67 -41 22
  68 -75 -8
  69 -70 -5
  70 -73 -1
  71 -89 -3
  72 -81 -12
  73 -75 -5
  74 -77 -3
  75 -75 -11
  76 -77 -3
  77 -85 -6
  78 -82 -2
  79 -74 -10
  80 -76 -3
  81 -73 -3
  82 -30 25
  83 -37 23
  84 -40 29
  85 -41 24
  86 -32 20
  87 -33 29
  88 -93 20
  89 -96 15
  90 -92 10
  91 -48 61
  92 -48 64
  93 -47 59
  94 -43 59
  95 -52 57
  96 -50 70
  97 -45 66
  98 -38 62
  99 4 82
  100 3 76
DEPOT_LOCATION_SECTION
  0 0
VISIT_LOCATION_SECTION
  1 1
  2 2
  3 3
  4 4
  5 5
  6 6
  7 7
  8 8
  9 9
  10 10
  11 11
  12 12
  13 13
  14 14
  15 15
  16 16
  17 17
  18 18
  19 19
  20 20
  21 21
  22 22
  23 23
  24 24
  25 25
  26 26
  27 27
  28 28
  29 29
  30 30
  31 31
  32 32
  33 33
  34 34
  35 35
  36 36
  37 37
  38 38
  39 39
  40 40
  41 41
  42 42
  43 43
  44 44
  45 45
  46 46
  47 47
  48 48
  49 49
  50 50
  51 51
  52 52
  53 53
  54 54
  55 55
  56 56
  57 57
  58 58
  59 59
  60 60
  61 61
  62 62
  63 63
  64 64
  65 65
  66 66
  67 67
  68 68
  69 69
  70 70
  71 71
  72 72
  73 73
  74 74
  75 75
  76 76
  77 77
  78 78
  79 79
  80 80
  81 81
  82 82
  83 83
  84 84
  85 85
  86 86
  87 87
  88 88
  89 89
  90 90
  91 91
  92 92
  93 93
  94 94
  95 95
  96 96
  97 97
  98 98
  99 99
  100 100
DURATION_SECTION
  1 10
  2 10
  3 10
  4 10
  5 10
  6 10
  7 10
  8 10
  9 10
  10 10
  11 10
  12 10
  13 10
  14 10
  15 10
  16 10
  17 10
  18 10
  19 10
  20 10
  21 10
  22 10
  23 10
  24 10
  25 10
  26 10
  27 10
  28 10
  29 10
  30 10
  31 10
  32 10
  33 10
  34 10
  35 10
  36 10
  37 10
  38 10
  39 10
  40 10
  41 10
  42 10
  43 10
  44 10
  45 10
  46 10
  47 10
  48 10
  49 10
  50 10
  51 10
  52 10
  53 10
  54 10
  55 10
  56 10
  57 10
  58 10
  59 10
  60 10
  61 10
  62 10
  63 10
  64 10
  65 10
  66 10
  67 10
  68 10
  69 10
  70 10
  71 10
  72 10
  73 10
  74 10
  75 10
  76 10
  77 10
  78 10
  79 10
  80 10
  81 10
  82 10
  83 10
  84 10
  85 10
  86 10
  87 10
  88 10
  89 10
  90 10
  91 10
  92 10
  93 10
  94 10
  95 10
  96 10
  97 10
  98 10
  99 10
  100 10
DEPOT_TIME_WINDOW_SECTION
  0 0 929
COMMENT: TIMESTEP: 7
TIME_AVAIL_SECTION
  1 172
  2 725
  3 766
  4 621
  5 526
  6 187
  7 38
  8 147
  9 42
  10 610
  11 522
  12 918
  13 730
  14 707
  15 741
  16 176
  17 924
  18 667
  19 398
  20 863
  21 901
  22 432
  23 798
  24 3
  25 681
  26 107
  27 664
  28 813
  29 224
  30 655
  31 241
  32 393
  33 235
  34 587
  35 134
  36 526
  37 310
  38 610
  39 280
  40 491
  41 717
  42 351
  43 52
  44 596
  45 906
  46 554
  47 549
  48 675
  49 645
  50 692
  51 737
  52 607
  53 538
  54 107
  55 611
  56 695
  57 320
  58 318
  59 857
  60 654
  61 627
  62 412
  63 61
  64 158
  65 921
  66 216
  67 282
  68 619
  69 767
  70 721
  71 743
  72 497
  73 643
  74 654
  75 763
  76 135
  77 682
  78 473
  79 282
  80 328
  81 805
  82 566
  83 666
  84 749
  85 203
  86 917
  87 715
  88 871
  89 258
  90 146
  91 61
  92 445
  93 747
  94 321
  95 552
  96 188
  97 498
  98 13
  99 403
  100 584
EOF