VRPTEST okul12b
COMMENT: 
COMMENT: Best known objective: 859.90
NAME: okul12b
NUM_DEPOTS: 1
NUM_CAPACITIES: 1
NUM_VISITS: 12
NUM_LOCATIONS: 13
NUM_VEHICLES: 12
CAPACITIES: 100
DATA_SECTION
DEPOTS
  0
DEMAND_SECTION
  1 -7
  2 -25
  3 -6
  4 -20
  5 -10
  6 -25
  7 -19
  8 -28
  9 -25
  10 -26
  11 -35
  12 -31
LOCATION_COORD_SECTION
  0 0 0
  1 23 -96
  2 65 57
  3 32 -96
  4 23 98
  5 31 -71
  6 -83 -89
  7 14 94
  8 82 71
  9 -100 -73
  10 46 -52
  11 41 66
  12 94 89
DEPOT_LOCATION_SECTION
  0 0
VISIT_LOCATION_SECTION
  1 1
  2 2
  3 3
  4 4
  5 5
  6 6
  7 7
  8 8
  9 9
  10 10
  11 11
  12 12
DURATION_SECTION
  1 20
  2 20
  3 20
  4 20
  5 20
  6 20
  7 20
  8 20
  9 20
  10 20
  11 20
  12 20
DEPOT_TIME_WINDOW_SECTION
  0 0 640
COMMENT: TIMESTEP: 7
TIME_AVAIL_SECTION
  1 37
  2 133
  3 245
  4 500
  5 151
  6 222
  7 603
  8 469
  9 471
  10 312
  11 352
  12 559
EOF