VRPTEST okul_100g_moreskewed_reallyclustered_D.vrp
COMMENT: 
COMMENT: Best known objective: 2147483647
NAME: okul_100g_moreskewed_reallyclustered_D.vrp
NUM_DEPOTS: 1
NUM_CAPACITIES: 1
NUM_VISITS: 100
NUM_LOCATIONS: 101
NUM_VEHICLES: 50
CAPACITIES: 1000
DATA_SECTION
DEPOTS
  0
DEMAND_SECTION
  1 -1
  2 -218
  3 -109
  4 -18
  5 -1
  6 -1
  7 -13
  8 -1
  9 -5
  10 -97
  11 -12
  12 -421
  13 -223
  14 -129
  15 -87
  16 -62
  17 -5
  18 -211
  19 -63
  20 -79
  21 -103
  22 -1
  23 -7
  24 -16
  25 -19
  26 -182
  27 -123
  28 -136
  29 -13
  30 -81
  31 -148
  32 -24
  33 -6
  34 -1
  35 -7
  36 -82
  37 -1
  38 -22
  39 -90
  40 -36
  41 -4
  42 -1
  43 -192
  44 -12
  45 -30
  46 -7
  47 -9
  48 -10
  49 -1
  50 -1
  51 -1
  52 -2
  53 -202
  54 -27
  55 -118
  56 -197
  57 -16
  58 -387
  59 -19
  60 -446
  61 -11
  62 -91
  63 -42
  64 -5
  65 -83
  66 -19
  67 -1
  68 -1
  69 -12
  70 -127
  71 -8
  72 -1
  73 -1
  74 -119
  75 -135
  76 -1
  77 -95
  78 -184
  79 -1
  80 -1
  81 -7
  82 -57
  83 -15
  84 -73
  85 -1
  86 -9
  87 -175
  88 -64
  89 -39
  90 -180
  91 -44
  92 -174
  93 -1
  94 -9
  95 -1
  96 -1
  97 -18
  98 -1
  99 -274
  100 -95
LOCATION_COORD_SECTION
  0 0 0
  1 -56 -103
  2 -70 -83
  3 -63 -96
  4 -44 -95
  5 -54 -96
  6 -74 -91
  7 -65 -102
  8 -74 -109
  9 -74 -97
  10 -67 -91
  11 -58 -93
  12 -64 -96
  13 24 -2
  14 45 3
  15 39 -5
  16 37 -10
  17 40 -6
  18 38 -4
  19 47 -4
  20 39 13
  21 39 -6
  22 42 3
  23 47 -2
  24 50 -21
  25 59 92
  26 54 87
  27 55 84
  28 60 91
  29 62 96
  30 57 91
  31 69 86
  32 63 80
  33 59 94
  34 63 95
  35 71 92
  36 83 96
  37 61 95
  38 71 106
  39 54 99
  40 57 103
  41 59 99
  42 63 83
  43 81 -96
  44 74 -80
  45 89 -100
  46 89 -91
  47 92 -99
  48 80 -102
  49 78 -101
  50 89 -86
  51 89 -91
  52 76 -86
  53 80 -91
  54 84 -86
  55 75 -87
  56 82 -85
  57 85 -102
  58 -44 -54
  59 -38 -75
  60 -37 -66
  61 -46 -75
  62 -52 -66
  63 -45 -78
  64 4 -11
  65 2 -8
  66 0 -8
  67 -6 16
  68 -14 -7
  69 -2 -7
  70 -6 2
  71 6 -11
  72 -1 3
  73 16 1
  74 -3 -8
  75 -7 -1
  76 0 -7
  77 6 -5
  78 -11 1
  79 -8 0
  80 1 13
  81 -9 1
  82 2 5
  83 8 -14
  84 0 0
  85 6 4
  86 1 3
  87 -103 -55
  88 -95 -55
  89 -93 -48
  90 -101 -50
  91 -100 -56
  92 -94 -49
  93 -93 -61
  94 -95 -55
  95 -93 -69
  96 -94 -52
  97 -99 -54
  98 -99 -55
  99 -117 -60
  100 -74 -40
DEPOT_LOCATION_SECTION
  0 0
VISIT_LOCATION_SECTION
  1 1
  2 2
  3 3
  4 4
  5 5
  6 6
  7 7
  8 8
  9 9
  10 10
  11 11
  12 12
  13 13
  14 14
  15 15
  16 16
  17 17
  18 18
  19 19
  20 20
  21 21
  22 22
  23 23
  24 24
  25 25
  26 26
  27 27
  28 28
  29 29
  30 30
  31 31
  32 32
  33 33
  34 34
  35 35
  36 36
  37 37
  38 38
  39 39
  40 40
  41 41
  42 42
  43 43
  44 44
  45 45
  46 46
  47 47
  48 48
  49 49
  50 50
  51 51
  52 52
  53 53
  54 54
  55 55
  56 56
  57 57
  58 58
  59 59
  60 60
  61 61
  62 62
  63 63
  64 64
  65 65
  66 66
  67 67
  68 68
  69 69
  70 70
  71 71
  72 72
  73 73
  74 74
  75 75
  76 76
  77 77
  78 78
  79 79
  80 80
  81 81
  82 82
  83 83
  84 84
  85 85
  86 86
  87 87
  88 88
  89 89
  90 90
  91 91
  92 92
  93 93
  94 94
  95 95
  96 96
  97 97
  98 98
  99 99
  100 100
DURATION_SECTION
  1 10
  2 10
  3 10
  4 10
  5 10
  6 10
  7 10
  8 10
  9 10
  10 10
  11 10
  12 10
  13 10
  14 10
  15 10
  16 10
  17 10
  18 10
  19 10
  20 10
  21 10
  22 10
  23 10
  24 10
  25 10
  26 10
  27 10
  28 10
  29 10
  30 10
  31 10
  32 10
  33 10
  34 10
  35 10
  36 10
  37 10
  38 10
  39 10
  40 10
  41 10
  42 10
  43 10
  44 10
  45 10
  46 10
  47 10
  48 10
  49 10
  50 10
  51 10
  52 10
  53 10
  54 10
  55 10
  56 10
  57 10
  58 10
  59 10
  60 10
  61 10
  62 10
  63 10
  64 10
  65 10
  66 10
  67 10
  68 10
  69 10
  70 10
  71 10
  72 10
  73 10
  74 10
  75 10
  76 10
  77 10
  78 10
  79 10
  80 10
  81 10
  82 10
  83 10
  84 10
  85 10
  86 10
  87 10
  88 10
  89 10
  90 10
  91 10
  92 10
  93 10
  94 10
  95 10
  96 10
  97 10
  98 10
  99 10
  100 10
DEPOT_TIME_WINDOW_SECTION
  0 0 919
COMMENT: TIMESTEP: 7
TIME_AVAIL_SECTION
  1 533
  2 574
  3 689
  4 526
  5 224
  6 394
  7 634
  8 353
  9 186
  10 849
  11 656
  12 802
  13 80
  14 504
  15 606
  16 839
  17 336
  18 515
  19 805
  20 633
  21 815
  22 44
  23 725
  24 485
  25 360
  26 513
  27 829
  28 311
  29 71
  30 671
  31 171
  32 268
  33 819
  34 522
  35 324
  36 165
  37 513
  38 656
  39 809
  40 797
  41 460
  42 346
  43 152
  44 372
  45 651
  46 79
  47 80
  48 650
  49 623
  50 479
  51 315
  52 824
  53 591
  54 529
  55 758
  56 843
  57 421
  58 461
  59 708
  60 788
  61 186
  62 255
  63 596
  64 859
  65 238
  66 854
  67 783
  68 618
  69 132
  70 801
  71 493
  72 819
  73 499
  74 110
  75 876
  76 264
  77 835
  78 56
  79 630
  80 78
  81 711
  82 732
  83 575
  84 340
  85 182
  86 319
  87 806
  88 207
  89 586
  90 808
  91 307
  92 633
  93 182
  94 555
  95 853
  96 616
  97 436
  98 73
  99 5
  100 106
EOF