VRPTEST okul_100o_normal_reallyclustered_D.vrp
COMMENT: 
COMMENT: Best known objective: 2147483647
NAME: okul_100o_normal_reallyclustered_D.vrp
NUM_DEPOTS: 1
NUM_CAPACITIES: 1
NUM_VISITS: 100
NUM_LOCATIONS: 101
NUM_VEHICLES: 50
CAPACITIES: 1000
DATA_SECTION
DEPOTS
  0
DEMAND_SECTION
  1 -159
  2 -110
  3 -140
  4 -91
  5 -144
  6 -130
  7 -104
  8 -171
  9 -150
  10 -143
  11 -174
  12 -190
  13 -105
  14 -95
  15 -107
  16 -129
  17 -186
  18 -98
  19 -144
  20 -156
  21 -124
  22 -132
  23 -70
  24 -101
  25 -128
  26 -106
  27 -139
  28 -73
  29 -168
  30 -97
  31 -83
  32 -150
  33 -124
  34 -84
  35 -137
  36 -145
  37 -78
  38 -107
  39 -58
  40 -117
  41 -106
  42 -130
  43 -107
  44 -157
  45 -124
  46 -75
  47 -133
  48 -113
  49 -94
  50 -120
  51 -143
  52 -153
  53 -109
  54 -142
  55 -115
  56 -119
  57 -155
  58 -176
  59 -104
  60 -105
  61 -139
  62 -144
  63 -142
  64 -126
  65 -116
  66 -100
  67 -107
  68 -165
  69 -138
  70 -102
  71 -131
  72 -123
  73 -111
  74 -143
  75 -184
  76 -60
  77 -105
  78 -123
  79 -142
  80 -148
  81 -115
  82 -93
  83 -191
  84 -188
  85 -141
  86 -95
  87 -116
  88 -132
  89 -142
  90 -130
  91 -126
  92 -94
  93 -99
  94 -81
  95 -118
  96 -145
  97 -129
  98 -144
  99 -126
  100 -117
LOCATION_COORD_SECTION
  0 0 0
  1 -63 97
  2 -70 95
  3 -70 89
  4 -66 97
  5 -71 98
  6 -69 96
  7 -66 100
  8 -29 66
  9 -35 72
  10 -33 74
  11 -32 70
  12 -32 74
  13 -36 68
  14 27 89
  15 24 88
  16 24 90
  17 27 90
  18 23 87
  19 23 93
  20 21 86
  21 44 37
  22 45 45
  23 45 40
  24 49 40
  25 44 35
  26 50 41
  27 42 40
  28 47 40
  29 80 7
  30 81 5
  31 82 3
  32 82 4
  33 76 2
  34 84 3
  35 74 3
  36 81 6
  37 -54 -64
  38 -60 -56
  39 -60 -62
  40 -59 -61
  41 -61 -58
  42 -55 -57
  43 -59 -60
  44 -59 -64
  45 -58 -65
  46 -53 39
  47 -50 41
  48 -53 39
  49 -54 36
  50 -52 39
  51 -51 36
  52 -52 40
  53 -49 38
  54 45 91
  55 46 101
  56 43 96
  57 46 96
  58 47 100
  59 46 99
  60 41 96
  61 79 -86
  62 80 -81
  63 77 -80
  64 81 -80
  65 82 -82
  66 81 -85
  67 79 -85
  68 -6 -34
  69 -12 -31
  70 -10 -30
  71 -12 -34
  72 -10 -34
  73 -7 -29
  74 -10 -30
  75 -48 -16
  76 -46 -7
  77 -48 -10
  78 -45 -9
  79 -49 -10
  80 -42 -11
  81 -49 -12
  82 -44 -14
  83 -33 -37
  84 -28 -30
  85 -31 -34
  86 -31 -32
  87 -27 -35
  88 -28 -35
  89 -11 -45
  90 -11 -46
  91 -12 -48
  92 -11 -46
  93 -12 -43
  94 -12 -47
  95 -6 -51
  96 -9 -47
  97 93 -61
  98 93 -57
  99 98 -58
  100 90 -56
DEPOT_LOCATION_SECTION
  0 0
VISIT_LOCATION_SECTION
  1 1
  2 2
  3 3
  4 4
  5 5
  6 6
  7 7
  8 8
  9 9
  10 10
  11 11
  12 12
  13 13
  14 14
  15 15
  16 16
  17 17
  18 18
  19 19
  20 20
  21 21
  22 22
  23 23
  24 24
  25 25
  26 26
  27 27
  28 28
  29 29
  30 30
  31 31
  32 32
  33 33
  34 34
  35 35
  36 36
  37 37
  38 38
  39 39
  40 40
  41 41
  42 42
  43 43
  44 44
  45 45
  46 46
  47 47
  48 48
  49 49
  50 50
  51 51
  52 52
  53 53
  54 54
  55 55
  56 56
  57 57
  58 58
  59 59
  60 60
  61 61
  62 62
  63 63
  64 64
  65 65
  66 66
  67 67
  68 68
  69 69
  70 70
  71 71
  72 72
  73 73
  74 74
  75 75
  76 76
  77 77
  78 78
  79 79
  80 80
  81 81
  82 82
  83 83
  84 84
  85 85
  86 86
  87 87
  88 88
  89 89
  90 90
  91 91
  92 92
  93 93
  94 94
  95 95
  96 96
  97 97
  98 98
  99 99
  100 100
DURATION_SECTION
  1 10
  2 10
  3 10
  4 10
  5 10
  6 10
  7 10
  8 10
  9 10
  10 10
  11 10
  12 10
  13 10
  14 10
  15 10
  16 10
  17 10
  18 10
  19 10
  20 10
  21 10
  22 10
  23 10
  24 10
  25 10
  26 10
  27 10
  28 10
  29 10
  30 10
  31 10
  32 10
  33 10
  34 10
  35 10
  36 10
  37 10
  38 10
  39 10
  40 10
  41 10
  42 10
  43 10
  44 10
  45 10
  46 10
  47 10
  48 10
  49 10
  50 10
  51 10
  52 10
  53 10
  54 10
  55 10
  56 10
  57 10
  58 10
  59 10
  60 10
  61 10
  62 10
  63 10
  64 10
  65 10
  66 10
  67 10
  68 10
  69 10
  70 10
  71 10
  72 10
  73 10
  74 10
  75 10
  76 10
  77 10
  78 10
  79 10
  80 10
  81 10
  82 10
  83 10
  84 10
  85 10
  86 10
  87 10
  88 10
  89 10
  90 10
  91 10
  92 10
  93 10
  94 10
  95 10
  96 10
  97 10
  98 10
  99 10
  100 10
DEPOT_TIME_WINDOW_SECTION
  0 0 979
COMMENT: TIMESTEP: 7
TIME_AVAIL_SECTION
  1 854
  2 544
  3 904
  4 935
  5 283
  6 452
  7 605
  8 806
  9 60
  10 310
  11 400
  12 735
  13 822
  14 19
  15 504
  16 776
  17 402
  18 323
  19 253
  20 942
  21 851
  22 56
  23 962
  24 540
  25 85
  26 235
  27 491
  28 462
  29 354
  30 558
  31 282
  32 822
  33 397
  34 47
  35 38
  36 490
  37 564
  38 330
  39 622
  40 288
  41 439
  42 914
  43 443
  44 234
  45 360
  46 153
  47 658
  48 185
  49 579
  50 851
  51 246
  52 304
  53 524
  54 467
  55 267
  56 524
  57 517
  58 212
  59 404
  60 185
  61 258
  62 693
  63 950
  64 35
  65 124
  66 64
  67 715
  68 107
  69 354
  70 703
  71 883
  72 332
  73 905
  74 176
  75 443
  76 44
  77 91
  78 291
  79 448
  80 813
  81 192
  82 527
  83 397
  84 253
  85 188
  86 792
  87 472
  88 682
  89 116
  90 833
  91 73
  92 966
  93 619
  94 746
  95 46
  96 746
  97 935
  98 79
  99 320
  100 255
EOF