VRPTEST okul_100h_uniform_pseudoclustered_D.vrp
COMMENT: 
COMMENT: Best known objective: 2147483647
NAME: okul_100h_uniform_pseudoclustered_D.vrp
NUM_DEPOTS: 1
NUM_CAPACITIES: 1
NUM_VISITS: 100
NUM_LOCATIONS: 101
NUM_VEHICLES: 50
CAPACITIES: 1000
DATA_SECTION
DEPOTS
  0
DEMAND_SECTION
  1 -205
  2 -213
  3 -185
  4 -82
  5 -168
  6 -74
  7 -161
  8 -44
  9 -160
  10 -122
  11 -163
  12 -135
  13 -225
  14 -249
  15 -135
  16 -156
  17 -186
  18 -217
  19 -248
  20 -163
  21 -12
  22 -170
  23 -234
  24 -196
  25 -226
  26 -220
  27 -249
  28 -8
  29 -97
  30 -195
  31 -4
  32 -88
  33 -17
  34 -90
  35 -5
  36 -68
  37 -60
  38 -50
  39 -50
  40 -214
  41 -110
  42 -57
  43 -86
  44 -157
  45 -247
  46 -106
  47 -110
  48 -64
  49 -120
  50 -217
  51 -160
  52 -231
  53 -70
  54 -163
  55 -208
  56 -122
  57 -174
  58 -44
  59 -94
  60 -213
  61 -14
  62 -2
  63 -159
  64 -98
  65 -10
  66 -108
  67 -149
  68 -169
  69 -28
  70 -106
  71 -199
  72 -152
  73 -36
  74 -35
  75 -250
  76 -37
  77 -155
  78 -162
  79 -41
  80 -165
  81 -221
  82 -155
  83 -103
  84 -171
  85 -235
  86 -102
  87 -235
  88 -149
  89 -153
  90 -16
  91 -14
  92 -166
  93 -28
  94 -243
  95 -242
  96 -222
  97 -84
  98 -163
  99 -190
  100 -60
LOCATION_COORD_SECTION
  0 0 0
  1 33 69
  2 -31 -56
  3 35 70
  4 -25 -23
  5 -37 97
  6 -40 -60
  7 -63 -25
  8 50 -85
  9 7 42
  10 -91 -97
  11 -91 -20
  12 72 70
  13 -51 30
  14 38 76
  15 32 68
  16 -30 -54
  17 32 62
  18 -27 -20
  19 -38 98
  20 -40 -61
  21 -65 -26
  22 44 -86
  23 -1 41
  24 -91 -96
  25 -91 -14
  26 76 66
  27 -49 29
  28 37 78
  29 37 69
  30 -35 -57
  31 34 62
  32 -24 -23
  33 -37 95
  34 -39 -59
  35 -65 -24
  36 46 -88
  37 1 45
  38 -91 -97
  39 -89 -19
  40 77 66
  41 -49 29
  42 36 74
  43 33 70
  44 -29 -59
  45 34 68
  46 -21 -20
  47 -40 94
  48 -38 -58
  49 -64 -30
  50 45 -87
  51 0 44
  52 -88 -94
  53 -87 -14
  54 67 68
  55 -49 29
  56 37 74
  57 36 70
  58 -36 -58
  59 34 67
  60 -25 -23
  61 -35 98
  62 -39 -57
  63 -66 -27
  64 46 -89
  65 5 43
  66 -86 -95
  67 -92 -15
  68 72 66
  69 -51 27
  70 36 75
  71 30 66
  72 -28 -58
  73 33 67
  74 -24 -21
  75 -37 99
  76 -40 -63
  77 -62 -25
  78 47 -88
  79 4 47
  80 -85 -93
  81 -90 -15
  82 72 66
  83 -50 31
  84 36 74
  85 36 70
  86 -29 -57
  87 35 70
  88 -25 -23
  89 -41 100
  90 -40 -57
  91 -67 -27
  92 48 -86
  93 4 41
  94 -92 -96
  95 -92 -15
  96 73 62
  97 -52 29
  98 39 75
  99 31 65
  100 -31 -57
DEPOT_LOCATION_SECTION
  0 0
VISIT_LOCATION_SECTION
  1 1
  2 2
  3 3
  4 4
  5 5
  6 6
  7 7
  8 8
  9 9
  10 10
  11 11
  12 12
  13 13
  14 14
  15 15
  16 16
  17 17
  18 18
  19 19
  20 20
  21 21
  22 22
  23 23
  24 24
  25 25
  26 26
  27 27
  28 28
  29 29
  30 30
  31 31
  32 32
  33 33
  34 34
  35 35
  36 36
  37 37
  38 38
  39 39
  40 40
  41 41
  42 42
  43 43
  44 44
  45 45
  46 46
  47 47
  48 48
  49 49
  50 50
  51 51
  52 52
  53 53
  54 54
  55 55
  56 56
  57 57
  58 58
  59 59
  60 60
  61 61
  62 62
  63 63
  64 64
  65 65
  66 66
  67 67
  68 68
  69 69
  70 70
  71 71
  72 72
  73 73
  74 74
  75 75
  76 76
  77 77
  78 78
  79 79
  80 80
  81 81
  82 82
  83 83
  84 84
  85 85
  86 86
  87 87
  88 88
  89 89
  90 90
  91 91
  92 92
  93 93
  94 94
  95 95
  96 96
  97 97
  98 98
  99 99
  100 100
DURATION_SECTION
  1 10
  2 10
  3 10
  4 10
  5 10
  6 10
  7 10
  8 10
  9 10
  10 10
  11 10
  12 10
  13 10
  14 10
  15 10
  16 10
  17 10
  18 10
  19 10
  20 10
  21 10
  22 10
  23 10
  24 10
  25 10
  26 10
  27 10
  28 10
  29 10
  30 10
  31 10
  32 10
  33 10
  34 10
  35 10
  36 10
  37 10
  38 10
  39 10
  40 10
  41 10
  42 10
  43 10
  44 10
  45 10
  46 10
  47 10
  48 10
  49 10
  50 10
  51 10
  52 10
  53 10
  54 10
  55 10
  56 10
  57 10
  58 10
  59 10
  60 10
  61 10
  62 10
  63 10
  64 10
  65 10
  66 10
  67 10
  68 10
  69 10
  70 10
  71 10
  72 10
  73 10
  74 10
  75 10
  76 10
  77 10
  78 10
  79 10
  80 10
  81 10
  82 10
  83 10
  84 10
  85 10
  86 10
  87 10
  88 10
  89 10
  90 10
  91 10
  92 10
  93 10
  94 10
  95 10
  96 10
  97 10
  98 10
  99 10
  100 10
DEPOT_TIME_WINDOW_SECTION
  0 0 989
COMMENT: TIMESTEP: 7
TIME_AVAIL_SECTION
  1 234
  2 756
  3 865
  4 777
  5 600
  6 19
  7 625
  8 516
  9 361
  10 871
  11 747
  12 132
  13 185
  14 594
  15 156
  16 721
  17 626
  18 348
  19 600
  20 155
  21 124
  22 895
  23 619
  24 591
  25 66
  26 987
  27 534
  28 532
  29 97
  30 358
  31 12
  32 897
  33 817
  34 318
  35 593
  36 282
  37 240
  38 229
  39 669
  40 806
  41 955
  42 493
  43 754
  44 136
  45 824
  46 873
  47 38
  48 725
  49 116
  50 481
  51 199
  52 261
  53 275
  54 768
  55 288
  56 475
  57 676
  58 124
  59 769
  60 501
  61 232
  62 305
  63 23
  64 89
  65 867
  66 887
  67 471
  68 178
  69 757
  70 938
  71 97
  72 453
  73 786
  74 231
  75 955
  76 640
  77 683
  78 841
  79 288
  80 405
  81 88
  82 402
  83 650
  84 443
  85 263
  86 82
  87 617
  88 72
  89 267
  90 906
  91 484
  92 837
  93 55
  94 309
  95 543
  96 727
  97 585
  98 781
  99 541
  100 413
EOF