VRPTEST 1.0
COMMENT: Converted from c100b by convert2vt
COMMENT: Best known objective: 828.94
NAME: c100b
NUM_DEPOTS: 1
NUM_CAPACITIES: 1
NUM_VISITS: 100
NUM_LOCATIONS: 101
NUM_VEHICLES: 50
CAPACITIES: 200
DATA_SECTION
DEPOTS
  0
DEMAND_SECTION
  1 -10
  2 -30
  3 -10
  4 -10
  5 -10
  6 -20
  7 -20
  8 -20
  9 -10
  10 -10
  11 -10
  12 -20
  13 -30
  14 -10
  15 -40
  16 -40
  17 -20
  18 -20
  19 -10
  20 -10
  21 -20
  22 -20
  23 -10
  24 -10
  25 -40
  26 -10
  27 -10
  28 -20
  29 -10
  30 -10
  31 -20
  32 -30
  33 -40
  34 -20
  35 -10
  36 -10
  37 -20
  38 -30
  39 -20
  40 -10
  41 -10
  42 -20
  43 -10
  44 -10
  45 -10
  46 -30
  47 -10
  48 -10
  49 -10
  50 -10
  51 -10
  52 -10
  53 -20
  54 -40
  55 -10
  56 -30
  57 -40
  58 -30
  59 -10
  60 -20
  61 -10
  62 -20
  63 -50
  64 -10
  65 -10
  66 -10
  67 -10
  68 -10
  69 -10
  70 -30
  71 -20
  72 -10
  73 -10
  74 -50
  75 -20
  76 -10
  77 -10
  78 -20
  79 -10
  80 -10
  81 -30
  82 -20
  83 -10
  84 -20
  85 -30
  86 -10
  87 -20
  88 -30
  89 -10
  90 -10
  91 -10
  92 -20
  93 -40
  94 -10
  95 -30
  96 -10
  97 -30
  98 -20
  99 -10
  100 -20
LOCATION_COORD_SECTION
  0 40 50
  1 45 68
  2 45 70
  3 42 66
  4 42 68
  5 42 65
  6 40 69
  7 40 66
  8 38 68
  9 38 70
  10 35 66
  11 35 69
  12 25 85
  13 22 75
  14 22 85
  15 20 80
  16 20 85
  17 18 75
  18 15 75
  19 15 80
  20 30 50
  21 30 52
  22 28 52
  23 28 55
  24 25 50
  25 25 52
  26 25 55
  27 23 52
  28 23 55
  29 20 50
  30 20 55
  31 10 35
  32 10 40
  33 8 40
  34 8 45
  35 5 35
  36 5 45
  37 2 40
  38 0 40
  39 0 45
  40 35 30
  41 35 32
  42 33 32
  43 33 35
  44 32 30
  45 30 30
  46 30 32
  47 30 35
  48 28 30
  49 28 35
  50 26 32
  51 25 30
  52 25 35
  53 44 5
  54 42 10
  55 42 15
  56 40 5
  57 40 15
  58 38 5
  59 38 15
  60 35 5
  61 50 30
  62 50 35
  63 50 40
  64 48 30
  65 48 40
  66 47 35
  67 47 40
  68 45 30
  69 45 35
  70 95 30
  71 95 35
  72 53 30
  73 92 30
  74 53 35
  75 45 65
  76 90 35
  77 88 30
  78 88 35
  79 87 30
  80 85 25
  81 85 35
  82 75 55
  83 72 55
  84 70 58
  85 68 60
  86 66 55
  87 65 55
  88 65 60
  89 63 58
  90 60 55
  91 60 60
  92 67 85
  93 65 85
  94 65 82
  95 62 80
  96 60 80
  97 60 85
  98 58 75
  99 55 80
  100 55 85
DEPOT_LOCATION_SECTION
  0 0
VISIT_LOCATION_SECTION
  1 1
  2 2
  3 3
  4 4
  5 5
  6 6
  7 7
  8 8
  9 9
  10 10
  11 11
  12 12
  13 13
  14 14
  15 15
  16 16
  17 17
  18 18
  19 19
  20 20
  21 21
  22 22
  23 23
  24 24
  25 25
  26 26
  27 27
  28 28
  29 29
  30 30
  31 31
  32 32
  33 33
  34 34
  35 35
  36 36
  37 37
  38 38
  39 39
  40 40
  41 41
  42 42
  43 43
  44 44
  45 45
  46 46
  47 47
  48 48
  49 49
  50 50
  51 51
  52 52
  53 53
  54 54
  55 55
  56 56
  57 57
  58 58
  59 59
  60 60
  61 61
  62 62
  63 63
  64 64
  65 65
  66 66
  67 67
  68 68
  69 69
  70 70
  71 71
  72 72
  73 73
  74 74
  75 75
  76 76
  77 77
  78 78
  79 79
  80 80
  81 81
  82 82
  83 83
  84 84
  85 85
  86 86
  87 87
  88 88
  89 89
  90 90
  91 91
  92 92
  93 93
  94 94
  95 95
  96 96
  97 97
  98 98
  99 99
  100 100
DURATION_SECTION
  1 12
  2 12
  3 12
  4 12
  5 12
  6 12
  7 12
  8 12
  9 12
  10 12
  11 12
  12 12
  13 12
  14 12
  15 12
  16 12
  17 12
  18 12
  19 12
  20 12
  21 12
  22 12
  23 12
  24 12
  25 12
  26 12
  27 12
  28 12
  29 12
  30 12
  31 12
  32 12
  33 12
  34 12
  35 12
  36 12
  37 12
  38 12
  39 12
  40 12
  41 12
  42 12
  43 12
  44 12
  45 12
  46 12
  47 12
  48 12
  49 12
  50 12
  51 12
  52 12
  53 12
  54 12
  55 12
  56 12
  57 12
  58 12
  59 12
  60 12
  61 12
  62 12
  63 12
  64 12
  65 12
  66 12
  67 12
  68 12
  69 12
  70 12
  71 12
  72 12
  73 12
  74 12
  75 12
  76 12
  77 12
  78 12
  79 12
  80 12
  81 12
  82 12
  83 12
  84 12
  85 12
  86 12
  87 12
  88 12
  89 12
  90 12
  91 12
  92 12
  93 12
  94 12
  95 12
  96 12
  97 12
  98 12
  99 12
  100 12
DEPOT_TIME_WINDOW_SECTION
  0 0 468
COMMENT: TIMESTEP: 9
TIME_AVAIL_SECTION
  1 2
  2 11
  3 11
  4 18
  5 20
  6 25
  7 33
  8 42
  9 48
  10 56
  11 56
  12 58
  13 67
  14 67
  15 69
  16 69
  17 70
  18 75
  19 75
  20 86
  21 88
  22 88
  23 97
  24 97
  25 98
  26 100
  27 105
  28 110
  29 110
  30 114
  31 120
  32 124
  33 124
  34 127
  35 130
  36 134
  37 140
  38 145
  39 148
  40 165
  41 172
  42 173
  43 174
  44 174
  45 180
  46 187
  47 188
  48 189
  49 191
  50 196
  51 196
  52 196
  53 199
  54 201
  55 205
  56 205
  57 206
  58 207
  59 217
  60 243
  61 253
  62 254
  63 256
  64 265
  65 267
  66 271
  67 285
  68 294
  69 295
  70 304
  71 305
  72 310
  73 314
  74 317
  75 322
  76 327
  77 336
  78 336
  79 337
  80 341
  81 345
  82 347
  83 349
  84 351
  85 360
  86 363
  87 371
  88 374
  89 378
  90 382
  91 385
  92 386
  93 410
  94 421
  95 421
  96 423
  97 424
  98 434
  99 438
  100 439
EOF
