%!PS-Adobe-3.0
%%DocumentNeededResources: font Helvetica
%%+ font Helvetica-Bold
%%+ font Helvetica-Oblique
%%+ font Helvetica-BoldOblique
%%+ font Symbol
%%DocumentMedia: a4 595 841 0 () ()
%%Title: R Graphics Output
%%Creator: R Software
%%Pages: (atend)
%%Orientation: Portrait
%%BoundingBox: 190 241 406 601
%%EndComments
%%BeginProlog
/bp  { gs sRGB gs } def
% begin .ps.prolog
/gs  { gsave } bind def
/gr  { grestore } bind def
/ep  { showpage gr gr } bind def
/m   { moveto } bind def
/l  { rlineto } bind def
/np  { newpath } bind def
/cp  { closepath } bind def
/f   { fill } bind def
/o   { stroke } bind def
/c   { newpath 0 360 arc } bind def
/r   { 4 2 roll moveto 1 copy 3 -1 roll exch 0 exch rlineto 0 rlineto -1 mul 0 exch rlineto closepath } bind def
/p1  { stroke } bind def
/p2  { gsave bg fill grestore newpath } bind def
/p3  { gsave bg fill grestore stroke } bind def
/p6  { gsave bg eofill grestore newpath } bind def
/p7  { gsave bg eofill grestore stroke } bind def
/t   { 5 -2 roll moveto gsave rotate
       1 index stringwidth pop
       mul neg 0 rmoveto show grestore } bind def
/ta  { 4 -2 roll moveto gsave rotate show } bind def
/tb  { 2 -1 roll 0 rmoveto show } bind def
/cl  { grestore gsave newpath 3 index 3 index moveto 1 index
       4 -1 roll lineto  exch 1 index lineto lineto
       closepath clip newpath } bind def
/rgb { setrgbcolor } bind def
/s   { scalefont setfont } bind def
% end   .ps.prolog
/sRGB { [ /CIEBasedABC
          << /DecodeLMN
               [ { dup 0.03928 le
                        {12.92321 div}
                        {0.055 add 1.055 div 2.4 exp }
                     ifelse
                 } bind dup dup
               ]
             /MatrixLMN [0.412457 0.212673 0.019334
                         0.357576 0.715152 0.119192
                         0.180437 0.072175 0.950301]
             /WhitePoint [0.9505 1.0 1.0890]
           >>
         ] setcolorspace } bind def
/srgb { setcolor } bind def
% begin encoding
/WinAnsiEncoding [
 /.notdef /.notdef /.notdef /.notdef /.notdef /.notdef /.notdef /.notdef
 /.notdef /.notdef /.notdef /.notdef /.notdef /.notdef /.notdef /.notdef
 /.notdef /.notdef /.notdef /.notdef /.notdef /.notdef /.notdef /.notdef
 /.notdef /.notdef /.notdef /.notdef /.notdef /.notdef /.notdef /.notdef
 /space /exclam /quotedbl /numbersign /dollar /percent /ampersand /quoteright
 /parenleft /parenright /asterisk /plus /comma /minus /period /slash
 /zero /one /two /three /four /five /six /seven
 /eight /nine /colon /semicolon /less /equal /greater /question
 /at /A /B /C /D /E /F /G
 /H /I /J /K /L /M /N /O
 /P /Q /R /S /T /U /V /W
 /X /Y /Z /bracketleft /backslash /bracketright /asciicircum /underscore
 /grave /a /b /c /d /e /f /g
 /h /i /j /k /l /m /n /o
 /p /q /r /s /t /u /v /w
 /x /y /z /braceleft /bar /braceright /asciitilde /.notdef
 /Euro /.notdef /quotesinglbase /florin /quotedblbase /ellipsis /dagger /daggerdbl
 /circumflex /perthousand /Scaron /guilsinglleft /OE /.notdef /Zcaron /.notdef
 /.notdef /quoteleft /quoteright /quotedblleft /quotedblright /bullet /endash /emdash
 /tilde /trademark /scaron /guilsinglright /oe /.notdef /zcaron /Ydieresis
 /space /exclamdown /cent /sterling /currency /yen /brokenbar /section
 /dieresis /copyright /ordfeminine /guillemotleft /logicalnot /hyphen /registered /macron
 /degree /plusminus /twosuperior /threesuperior /acute /mu /paragraph /periodcentered
 /cedilla /onesuperior /ordmasculine /guillemotright /onequarter /onehalf /threequarters /questiondown
 /Agrave /Aacute /Acircumflex /Atilde /Adieresis /Aring /AE /Ccedilla
 /Egrave /Eacute /Ecircumflex /Edieresis /Igrave /Iacute /Icircumflex /Idieresis
 /Eth /Ntilde /Ograve /Oacute /Ocircumflex /Otilde /Odieresis /multiply
 /Oslash /Ugrave /Uacute /Ucircumflex /Udieresis /Yacute /Thorn /germandbls
 /agrave /aacute /acircumflex /atilde /adieresis /aring /ae /ccedilla
 /egrave /eacute /ecircumflex /edieresis /igrave /iacute /icircumflex /idieresis
 /eth /ntilde /ograve /oacute /ocircumflex /otilde /odieresis /divide
 /oslash /ugrave /uacute /ucircumflex /udieresis /yacute /thorn /ydieresis
]
 def
% end encoding
%%IncludeResource: font Helvetica
/Helvetica findfont
dup length dict begin
  {1 index /FID ne {def} {pop pop} ifelse} forall
  /Encoding WinAnsiEncoding def
  currentdict
  end
/Font1 exch definefont pop
%%IncludeResource: font Helvetica-Bold
/Helvetica-Bold findfont
dup length dict begin
  {1 index /FID ne {def} {pop pop} ifelse} forall
  /Encoding WinAnsiEncoding def
  currentdict
  end
/Font2 exch definefont pop
%%IncludeResource: font Helvetica-Oblique
/Helvetica-Oblique findfont
dup length dict begin
  {1 index /FID ne {def} {pop pop} ifelse} forall
  /Encoding WinAnsiEncoding def
  currentdict
  end
/Font3 exch definefont pop
%%IncludeResource: font Helvetica-BoldOblique
/Helvetica-BoldOblique findfont
dup length dict begin
  {1 index /FID ne {def} {pop pop} ifelse} forall
  /Encoding WinAnsiEncoding def
  currentdict
  end
/Font4 exch definefont pop
%%IncludeResource: font Symbol
/Symbol findfont
dup length dict begin
  {1 index /FID ne {def} {pop pop} ifelse} forall
  currentdict
  end
/Font5 exch definefont pop
%%EndProlog
%%Page: 1 1
bp
189.64 240.94 405.64 600.94 cl
0 0 0 srgb
0.75 setlinewidth
[] 0 setdash
1 setlinecap
1 setlinejoin
10.00 setmiterlimit
np
218.15 524.94 m
0 54.66 l
o
np
218.15 524.94 m
-4.75 0 l
o
np
218.15 534.05 m
-4.75 0 l
o
np
218.15 543.16 m
-4.75 0 l
o
np
218.15 552.27 m
-4.75 0 l
o
np
218.15 561.38 m
-4.75 0 l
o
np
218.15 570.49 m
-4.75 0 l
o
np
218.15 579.60 m
-4.75 0 l
o
/Font1 findfont 8 s
206.74 524.94 (1.00) .5 90 t
206.74 552.27 (1.15) .5 90 t
206.74 579.60 (1.30) .5 90 t
np
218.15 518.96 m
168.48 0 l
0 62.98 l
-168.48 0 l
0 -62.98 l
o
189.64 480.94 405.64 600.94 cl
/Font2 findfont 10 s
0 0 0 srgb
274.05 587.85 (c) 0 ta
-0.100 (hristofides) tb gr
/Font1 findfont 8 s
283.05 492.35 (T) 0 ta
-0.960 (est cases) tb gr
197.24 525.11 (Relativ) 90 ta
-0.200 (e result) tb gr
189.64 240.94 405.64 600.94 cl
0 0 0 srgb
0.75 setlinewidth
[] 0 setdash
1 setlinecap
1 setlinejoin
10.00 setmiterlimit
np
250.39 518.96 m
104.00 0 l
o
np
250.39 518.96 m
0 -4.75 l
o
np
302.39 518.96 m
0 -4.75 l
o
np
354.39 518.96 m
0 -4.75 l
o
/Font1 findfont 8 s
250.39 501.85 (10^3) .5 0 t
302.39 501.85 (10^4) .5 0 t
354.39 501.85 (10^5) .5 0 t
218.15 518.96 386.63 581.94 cl
0 0 0 srgb
0.75 setlinewidth
[ 2.25 3.75] 0 setdash
1 setlinecap
1 setlinejoin
10.00 setmiterlimit
np
198.39 540.15 m
52.00 0 l
52.00 0 l
52.00 0 l
51.25 0 l
o
0.75 setlinewidth
[] 0 setdash
np
198.39 548.02 m
52.00 0 l
52.00 0 l
52.00 0 l
51.25 0 l
o
2.25 setlinewidth
[] 0 setdash
0 setlinecap
np
239.99 540.64 m
20.80 0 l
o
0.75 setlinewidth
[ 2.25 3.75] 0 setdash
1 setlinecap
np
250.39 527.39 m
0 8.29 l
o
np
250.39 560.89 m
0 -14.21 l
o
0.75 setlinewidth
[] 0 setdash
np
245.19 527.39 m
10.40 0 l
o
np
245.19 560.89 m
10.40 0 l
o
np
239.99 535.68 m
20.80 0 l
0 11.00 l
-20.80 0 l
0 -11.00 l
o
250.39 566.37 1.18 c p1
250.39 569.19 1.18 c p1
250.39 565.83 1.18 c p1
250.39 582.35 1.18 c p1
189.64 240.94 405.64 600.94 cl
0 0 0 srgb
0.75 setlinewidth
[] 0 setdash
1 setlinecap
1 setlinejoin
10.00 setmiterlimit
np
218.15 524.94 m
0 54.66 l
o
np
218.15 524.94 m
-4.75 0 l
o
np
218.15 534.05 m
-4.75 0 l
o
np
218.15 543.16 m
-4.75 0 l
o
np
218.15 552.27 m
-4.75 0 l
o
np
218.15 561.38 m
-4.75 0 l
o
np
218.15 570.49 m
-4.75 0 l
o
np
218.15 579.60 m
-4.75 0 l
o
/Font1 findfont 8 s
206.74 524.94 (1.00) .5 90 t
206.74 552.27 (1.15) .5 90 t
206.74 579.60 (1.30) .5 90 t
np
218.15 518.96 m
168.48 0 l
0 62.98 l
-168.48 0 l
0 -62.98 l
o
218.15 518.96 386.63 581.94 cl
0.4000 0.4000 0.4000 srgb
1.50 setlinewidth
[] 0 setdash
1 setlinecap
1 setlinejoin
10.00 setmiterlimit
np
250.39 533.55 m
2.40 -4.16 l
-4.80 0 l
2.40 4.16 l
o
0 0 0 srgb
2.25 setlinewidth
[] 0 setdash
0 setlinecap
np
291.99 537.05 m
20.80 0 l
o
0.75 setlinewidth
[ 2.25 3.75] 0 setdash
1 setlinecap
np
302.39 524.94 m
0 8.07 l
o
np
302.39 555.70 m
0 -13.49 l
o
0.75 setlinewidth
[] 0 setdash
np
297.19 524.94 m
10.40 0 l
o
np
297.19 555.70 m
10.40 0 l
o
np
291.99 533.01 m
20.80 0 l
0 9.20 l
-20.80 0 l
0 -9.20 l
o
302.39 562.18 1.18 c p1
189.64 240.94 405.64 600.94 cl
0 0 0 srgb
0.75 setlinewidth
[] 0 setdash
1 setlinecap
1 setlinejoin
10.00 setmiterlimit
np
218.15 524.94 m
0 54.66 l
o
np
218.15 524.94 m
-4.75 0 l
o
np
218.15 534.05 m
-4.75 0 l
o
np
218.15 543.16 m
-4.75 0 l
o
np
218.15 552.27 m
-4.75 0 l
o
np
218.15 561.38 m
-4.75 0 l
o
np
218.15 570.49 m
-4.75 0 l
o
np
218.15 579.60 m
-4.75 0 l
o
/Font1 findfont 8 s
206.74 524.94 (1.00) .5 90 t
206.74 552.27 (1.15) .5 90 t
206.74 579.60 (1.30) .5 90 t
np
218.15 518.96 m
168.48 0 l
0 62.98 l
-168.48 0 l
0 -62.98 l
o
218.15 518.96 386.63 581.94 cl
0.4000 0.4000 0.4000 srgb
1.50 setlinewidth
[] 0 setdash
1 setlinecap
1 setlinejoin
10.00 setmiterlimit
np
302.39 528.68 m
2.40 -4.16 l
-4.80 0 l
2.40 4.16 l
o
0 0 0 srgb
2.25 setlinewidth
[] 0 setdash
0 setlinecap
np
343.99 535.00 m
20.80 0 l
o
0.75 setlinewidth
[ 2.25 3.75] 0 setdash
1 setlinecap
np
354.39 524.94 m
0 6.90 l
o
np
354.39 546.91 m
0 -7.68 l
o
0.75 setlinewidth
[] 0 setdash
np
349.19 524.94 m
10.40 0 l
o
np
349.19 546.91 m
10.40 0 l
o
np
343.99 531.84 m
20.80 0 l
0 7.39 l
-20.80 0 l
0 -7.39 l
o
354.39 553.86 1.18 c p1
354.39 554.31 1.18 c p1
354.39 551.53 1.18 c p1
354.39 550.38 1.18 c p1
354.39 557.80 1.18 c p1
189.64 240.94 405.64 600.94 cl
0 0 0 srgb
0.75 setlinewidth
[] 0 setdash
1 setlinecap
1 setlinejoin
10.00 setmiterlimit
np
218.15 524.94 m
0 54.66 l
o
np
218.15 524.94 m
-4.75 0 l
o
np
218.15 534.05 m
-4.75 0 l
o
np
218.15 543.16 m
-4.75 0 l
o
np
218.15 552.27 m
-4.75 0 l
o
np
218.15 561.38 m
-4.75 0 l
o
np
218.15 570.49 m
-4.75 0 l
o
np
218.15 579.60 m
-4.75 0 l
o
/Font1 findfont 8 s
206.74 524.94 (1.00) .5 90 t
206.74 552.27 (1.15) .5 90 t
206.74 579.60 (1.30) .5 90 t
np
218.15 518.96 m
168.48 0 l
0 62.98 l
-168.48 0 l
0 -62.98 l
o
218.15 518.96 386.63 581.94 cl
0.4000 0.4000 0.4000 srgb
1.50 setlinewidth
[] 0 setdash
1 setlinecap
1 setlinejoin
10.00 setmiterlimit
np
354.39 530.49 m
2.40 -4.16 l
-4.80 0 l
2.40 4.16 l
o
218.15 398.96 386.63 461.94 cl
189.64 240.94 405.64 600.94 cl
0 0 0 srgb
0.75 setlinewidth
[] 0 setdash
1 setlinecap
1 setlinejoin
10.00 setmiterlimit
np
218.15 404.94 m
0 54.66 l
o
np
218.15 404.94 m
-4.75 0 l
o
np
218.15 414.05 m
-4.75 0 l
o
np
218.15 423.16 m
-4.75 0 l
o
np
218.15 432.27 m
-4.75 0 l
o
np
218.15 441.38 m
-4.75 0 l
o
np
218.15 450.49 m
-4.75 0 l
o
np
218.15 459.60 m
-4.75 0 l
o
/Font1 findfont 8 s
206.74 404.94 (1.00) .5 90 t
206.74 432.27 (1.15) .5 90 t
206.74 459.60 (1.30) .5 90 t
np
218.15 398.96 m
168.48 0 l
0 62.98 l
-168.48 0 l
0 -62.98 l
o
189.64 360.94 405.64 480.94 cl
/Font2 findfont 10 s
0 0 0 srgb
302.39 467.85 (fisher) .5 0 t
/Font1 findfont 8 s
283.05 372.35 (T) 0 ta
-0.960 (est cases) tb gr
197.24 405.11 (Relativ) 90 ta
-0.200 (e result) tb gr
189.64 240.94 405.64 600.94 cl
0 0 0 srgb
0.75 setlinewidth
[] 0 setdash
1 setlinecap
1 setlinejoin
10.00 setmiterlimit
np
250.39 398.96 m
104.00 0 l
o
np
250.39 398.96 m
0 -4.75 l
o
np
302.39 398.96 m
0 -4.75 l
o
np
354.39 398.96 m
0 -4.75 l
o
/Font1 findfont 8 s
250.39 381.85 (10^3) .5 0 t
302.39 381.85 (10^4) .5 0 t
354.39 381.85 (10^5) .5 0 t
218.15 398.96 386.63 461.94 cl
0 0 0 srgb
0.75 setlinewidth
[ 2.25 3.75] 0 setdash
1 setlinecap
1 setlinejoin
10.00 setmiterlimit
np
198.39 424.87 m
52.00 0 l
52.00 0 l
52.00 0 l
51.25 0 l
o
0.75 setlinewidth
[] 0 setdash
np
198.39 435.61 m
52.00 0 l
52.00 0 l
52.00 0 l
51.25 0 l
o
2.25 setlinewidth
[] 0 setdash
0 setlinecap
np
239.99 413.19 m
20.80 0 l
o
0.75 setlinewidth
[ 2.25 3.75] 0 setdash
1 setlinecap
np
250.39 404.94 m
0 4.43 l
o
np
250.39 429.65 m
0 -11.97 l
o
0.75 setlinewidth
[] 0 setdash
np
245.19 404.94 m
10.40 0 l
o
np
245.19 429.65 m
10.40 0 l
o
np
239.99 409.37 m
20.80 0 l
0 8.31 l
-20.80 0 l
0 -8.31 l
o
250.39 439.86 1.18 c p1
250.39 437.17 1.18 c p1
250.39 441.50 1.18 c p1
250.39 439.91 1.18 c p1
189.64 240.94 405.64 600.94 cl
0 0 0 srgb
0.75 setlinewidth
[] 0 setdash
1 setlinecap
1 setlinejoin
10.00 setmiterlimit
np
218.15 404.94 m
0 54.66 l
o
np
218.15 404.94 m
-4.75 0 l
o
np
218.15 414.05 m
-4.75 0 l
o
np
218.15 423.16 m
-4.75 0 l
o
np
218.15 432.27 m
-4.75 0 l
o
np
218.15 441.38 m
-4.75 0 l
o
np
218.15 450.49 m
-4.75 0 l
o
np
218.15 459.60 m
-4.75 0 l
o
/Font1 findfont 8 s
206.74 404.94 (1.00) .5 90 t
206.74 432.27 (1.15) .5 90 t
206.74 459.60 (1.30) .5 90 t
np
218.15 398.96 m
168.48 0 l
0 62.98 l
-168.48 0 l
0 -62.98 l
o
218.15 398.96 386.63 461.94 cl
0.4000 0.4000 0.4000 srgb
1.50 setlinewidth
[] 0 setdash
1 setlinecap
1 setlinejoin
10.00 setmiterlimit
np
250.39 408.25 m
2.40 -4.16 l
-4.80 0 l
2.40 4.16 l
o
0 0 0 srgb
2.25 setlinewidth
[] 0 setdash
0 setlinecap
np
291.99 412.79 m
20.80 0 l
o
0.75 setlinewidth
[ 2.25 3.75] 0 setdash
1 setlinecap
np
302.39 404.94 m
0 5.73 l
o
np
302.39 419.19 m
0 -3.68 l
o
0.75 setlinewidth
[] 0 setdash
np
297.19 404.94 m
10.40 0 l
o
np
297.19 419.19 m
10.40 0 l
o
np
291.99 410.67 m
20.80 0 l
0 4.84 l
-20.80 0 l
0 -4.84 l
o
302.39 423.05 1.18 c p1
302.39 439.44 1.18 c p1
302.39 429.86 1.18 c p1
189.64 240.94 405.64 600.94 cl
0 0 0 srgb
0.75 setlinewidth
[] 0 setdash
1 setlinecap
1 setlinejoin
10.00 setmiterlimit
np
218.15 404.94 m
0 54.66 l
o
np
218.15 404.94 m
-4.75 0 l
o
np
218.15 414.05 m
-4.75 0 l
o
np
218.15 423.16 m
-4.75 0 l
o
np
218.15 432.27 m
-4.75 0 l
o
np
218.15 441.38 m
-4.75 0 l
o
np
218.15 450.49 m
-4.75 0 l
o
np
218.15 459.60 m
-4.75 0 l
o
/Font1 findfont 8 s
206.74 404.94 (1.00) .5 90 t
206.74 432.27 (1.15) .5 90 t
206.74 459.60 (1.30) .5 90 t
np
218.15 398.96 m
168.48 0 l
0 62.98 l
-168.48 0 l
0 -62.98 l
o
218.15 398.96 386.63 461.94 cl
0.4000 0.4000 0.4000 srgb
1.50 setlinewidth
[] 0 setdash
1 setlinecap
1 setlinejoin
10.00 setmiterlimit
np
302.39 407.71 m
2.40 -4.16 l
-4.80 0 l
2.40 4.16 l
o
0 0 0 srgb
2.25 setlinewidth
[] 0 setdash
0 setlinecap
np
343.99 413.26 m
20.80 0 l
o
0.75 setlinewidth
[ 2.25 3.75] 0 setdash
1 setlinecap
np
354.39 406.12 m
0 4.72 l
o
np
354.39 418.32 m
0 -2.33 l
o
0.75 setlinewidth
[] 0 setdash
np
349.19 406.12 m
10.40 0 l
o
np
349.19 418.32 m
10.40 0 l
o
np
343.99 410.84 m
20.80 0 l
0 5.15 l
-20.80 0 l
0 -5.15 l
o
189.64 240.94 405.64 600.94 cl
0 0 0 srgb
0.75 setlinewidth
[] 0 setdash
1 setlinecap
1 setlinejoin
10.00 setmiterlimit
np
218.15 404.94 m
0 54.66 l
o
np
218.15 404.94 m
-4.75 0 l
o
np
218.15 414.05 m
-4.75 0 l
o
np
218.15 423.16 m
-4.75 0 l
o
np
218.15 432.27 m
-4.75 0 l
o
np
218.15 441.38 m
-4.75 0 l
o
np
218.15 450.49 m
-4.75 0 l
o
np
218.15 459.60 m
-4.75 0 l
o
/Font1 findfont 8 s
206.74 404.94 (1.00) .5 90 t
206.74 432.27 (1.15) .5 90 t
206.74 459.60 (1.30) .5 90 t
np
218.15 398.96 m
168.48 0 l
0 62.98 l
-168.48 0 l
0 -62.98 l
o
218.15 398.96 386.63 461.94 cl
0.4000 0.4000 0.4000 srgb
1.50 setlinewidth
[] 0 setdash
1 setlinecap
1 setlinejoin
10.00 setmiterlimit
np
354.39 411.04 m
2.40 -4.16 l
-4.80 0 l
2.40 4.16 l
o
218.15 278.96 386.63 341.94 cl
189.64 240.94 405.64 600.94 cl
0 0 0 srgb
0.75 setlinewidth
[] 0 setdash
1 setlinecap
1 setlinejoin
10.00 setmiterlimit
np
218.15 284.94 m
0 54.66 l
o
np
218.15 284.94 m
-4.75 0 l
o
np
218.15 294.05 m
-4.75 0 l
o
np
218.15 303.16 m
-4.75 0 l
o
np
218.15 312.27 m
-4.75 0 l
o
np
218.15 321.38 m
-4.75 0 l
o
np
218.15 330.49 m
-4.75 0 l
o
np
218.15 339.60 m
-4.75 0 l
o
/Font1 findfont 8 s
206.74 284.94 (1.00) .5 90 t
206.74 312.27 (1.15) .5 90 t
206.74 339.60 (1.30) .5 90 t
np
218.15 278.96 m
168.48 0 l
0 62.98 l
-168.48 0 l
0 -62.98 l
o
189.64 240.94 405.64 360.94 cl
/Font2 findfont 10 s
0 0 0 srgb
285.99 347.85 (taillar) 0 ta
-0.200 (d) tb gr
/Font1 findfont 8 s
283.05 252.35 (T) 0 ta
-0.960 (est cases) tb gr
197.24 285.11 (Relativ) 90 ta
-0.200 (e result) tb gr
189.64 240.94 405.64 600.94 cl
0 0 0 srgb
0.75 setlinewidth
[] 0 setdash
1 setlinecap
1 setlinejoin
10.00 setmiterlimit
np
250.39 278.96 m
104.00 0 l
o
np
250.39 278.96 m
0 -4.75 l
o
np
302.39 278.96 m
0 -4.75 l
o
np
354.39 278.96 m
0 -4.75 l
o
/Font1 findfont 8 s
250.39 261.85 (10^3) .5 0 t
302.39 261.85 (10^4) .5 0 t
354.39 261.85 (10^5) .5 0 t
218.15 278.96 386.63 341.94 cl
0 0 0 srgb
0.75 setlinewidth
[ 2.25 3.75] 0 setdash
1 setlinecap
1 setlinejoin
10.00 setmiterlimit
np
198.39 287.69 m
52.00 0 l
52.00 0 l
52.00 0 l
51.25 0 l
o
0.75 setlinewidth
[] 0 setdash
np
198.39 294.05 m
52.00 0 l
52.00 0 l
52.00 0 l
51.25 0 l
o
2.25 setlinewidth
[] 0 setdash
0 setlinecap
np
239.99 301.54 m
20.80 0 l
o
0.75 setlinewidth
[ 2.25 3.75] 0 setdash
1 setlinecap
np
250.39 285.19 m
0 11.14 l
o
np
250.39 322.47 m
0 -15.20 l
o
0.75 setlinewidth
[] 0 setdash
np
245.19 285.19 m
10.40 0 l
o
np
245.19 322.47 m
10.40 0 l
o
np
239.99 296.33 m
20.80 0 l
0 10.94 l
-20.80 0 l
0 -10.94 l
o
250.39 325.92 1.18 c p1
250.39 341.34 1.18 c p1
250.39 342.86 1.18 c p1
250.39 327.70 1.18 c p1
250.39 329.06 1.18 c p1
250.39 323.76 1.18 c p1
189.64 240.94 405.64 600.94 cl
0 0 0 srgb
0.75 setlinewidth
[] 0 setdash
1 setlinecap
1 setlinejoin
10.00 setmiterlimit
np
218.15 284.94 m
0 54.66 l
o
np
218.15 284.94 m
-4.75 0 l
o
np
218.15 294.05 m
-4.75 0 l
o
np
218.15 303.16 m
-4.75 0 l
o
np
218.15 312.27 m
-4.75 0 l
o
np
218.15 321.38 m
-4.75 0 l
o
np
218.15 330.49 m
-4.75 0 l
o
np
218.15 339.60 m
-4.75 0 l
o
/Font1 findfont 8 s
206.74 284.94 (1.00) .5 90 t
206.74 312.27 (1.15) .5 90 t
206.74 339.60 (1.30) .5 90 t
np
218.15 278.96 m
168.48 0 l
0 62.98 l
-168.48 0 l
0 -62.98 l
o
218.15 278.96 386.63 341.94 cl
0.4000 0.4000 0.4000 srgb
1.50 setlinewidth
[] 0 setdash
1 setlinecap
1 setlinejoin
10.00 setmiterlimit
np
250.39 292.98 m
2.40 -4.15 l
-4.80 0 l
2.40 4.15 l
o
0 0 0 srgb
2.25 setlinewidth
[] 0 setdash
0 setlinecap
np
291.99 293.42 m
20.80 0 l
o
0.75 setlinewidth
[ 2.25 3.75] 0 setdash
1 setlinecap
np
302.39 284.94 m
0 5.50 l
o
np
302.39 307.76 m
0 -9.55 l
o
0.75 setlinewidth
[] 0 setdash
np
297.19 284.94 m
10.40 0 l
o
np
297.19 307.76 m
10.40 0 l
o
np
291.99 290.44 m
20.80 0 l
0 7.77 l
-20.80 0 l
0 -7.77 l
o
302.39 314.73 1.18 c p1
302.39 315.75 1.18 c p1
302.39 311.19 1.18 c p1
302.39 312.07 1.18 c p1
302.39 312.97 1.18 c p1
302.39 311.27 1.18 c p1
302.39 315.42 1.18 c p1
189.64 240.94 405.64 600.94 cl
0 0 0 srgb
0.75 setlinewidth
[] 0 setdash
1 setlinecap
1 setlinejoin
10.00 setmiterlimit
np
218.15 284.94 m
0 54.66 l
o
np
218.15 284.94 m
-4.75 0 l
o
np
218.15 294.05 m
-4.75 0 l
o
np
218.15 303.16 m
-4.75 0 l
o
np
218.15 312.27 m
-4.75 0 l
o
np
218.15 321.38 m
-4.75 0 l
o
np
218.15 330.49 m
-4.75 0 l
o
np
218.15 339.60 m
-4.75 0 l
o
/Font1 findfont 8 s
206.74 284.94 (1.00) .5 90 t
206.74 312.27 (1.15) .5 90 t
206.74 339.60 (1.30) .5 90 t
np
218.15 278.96 m
168.48 0 l
0 62.98 l
-168.48 0 l
0 -62.98 l
o
218.15 278.96 386.63 341.94 cl
0.4000 0.4000 0.4000 srgb
1.50 setlinewidth
[] 0 setdash
1 setlinecap
1 setlinejoin
10.00 setmiterlimit
np
302.39 289.47 m
2.40 -4.16 l
-4.80 0 l
2.40 4.16 l
o
0 0 0 srgb
2.25 setlinewidth
[] 0 setdash
0 setlinecap
np
343.99 290.82 m
20.80 0 l
o
0.75 setlinewidth
[ 2.25 3.75] 0 setdash
1 setlinecap
np
354.39 284.94 m
0 2.69 l
o
np
354.39 302.46 m
0 -8.79 l
o
0.75 setlinewidth
[] 0 setdash
np
349.19 284.94 m
10.40 0 l
o
np
349.19 302.46 m
10.40 0 l
o
np
343.99 287.63 m
20.80 0 l
0 6.04 l
-20.80 0 l
0 -6.04 l
o
354.39 302.75 1.18 c p1
354.39 303.86 1.18 c p1
189.64 240.94 405.64 600.94 cl
0 0 0 srgb
0.75 setlinewidth
[] 0 setdash
1 setlinecap
1 setlinejoin
10.00 setmiterlimit
np
218.15 284.94 m
0 54.66 l
o
np
218.15 284.94 m
-4.75 0 l
o
np
218.15 294.05 m
-4.75 0 l
o
np
218.15 303.16 m
-4.75 0 l
o
np
218.15 312.27 m
-4.75 0 l
o
np
218.15 321.38 m
-4.75 0 l
o
np
218.15 330.49 m
-4.75 0 l
o
np
218.15 339.60 m
-4.75 0 l
o
/Font1 findfont 8 s
206.74 284.94 (1.00) .5 90 t
206.74 312.27 (1.15) .5 90 t
206.74 339.60 (1.30) .5 90 t
np
218.15 278.96 m
168.48 0 l
0 62.98 l
-168.48 0 l
0 -62.98 l
o
218.15 278.96 386.63 341.94 cl
0.4000 0.4000 0.4000 srgb
1.50 setlinewidth
[] 0 setdash
1 setlinecap
1 setlinejoin
10.00 setmiterlimit
np
354.39 288.05 m
2.40 -4.16 l
-4.80 0 l
2.40 4.16 l
o
ep
%%Trailer
%%Pages: 1
%%EOF
