%!PS-Adobe-3.0 EPSF-3.0
%%Creator: cairo 1.11.2 (http://cairographics.org)
%%CreationDate: Tue May 12 16:32:13 2015
%%Pages: 1
%%DocumentData: Clean7Bit
%%LanguageLevel: 2
%%BoundingBox: 0 -1 405 506
%%EndComments
%%BeginProlog
/cairo_eps_state save def
/dict_count countdictstack def
/op_count count 1 sub def
userdict begin
/q { gsave } bind def
/Q { grestore } bind def
/cm { 6 array astore concat } bind def
/w { setlinewidth } bind def
/J { setlinecap } bind def
/j { setlinejoin } bind def
/M { setmiterlimit } bind def
/d { setdash } bind def
/m { moveto } bind def
/l { lineto } bind def
/c { curveto } bind def
/h { closepath } bind def
/re { exch dup neg 3 1 roll 5 3 roll moveto 0 rlineto
      0 exch rlineto 0 rlineto closepath } bind def
/S { stroke } bind def
/f { fill } bind def
/f* { eofill } bind def
/n { newpath } bind def
/W { clip } bind def
/W* { eoclip } bind def
/BT { } bind def
/ET { } bind def
/pdfmark where { pop globaldict /?pdfmark /exec load put }
    { globaldict begin /?pdfmark /pop load def /pdfmark
    /cleartomark load def end } ifelse
/BDC { mark 3 1 roll /BDC pdfmark } bind def
/EMC { mark /EMC pdfmark } bind def
/cairo_store_point { /cairo_point_y exch def /cairo_point_x exch def } def
/Tj { show currentpoint cairo_store_point } bind def
/TJ {
  {
    dup
    type /stringtype eq
    { show } { -0.001 mul 0 cairo_font_matrix dtransform rmoveto } ifelse
  } forall
  currentpoint cairo_store_point
} bind def
/cairo_selectfont { cairo_font_matrix aload pop pop pop 0 0 6 array astore
    cairo_font exch selectfont cairo_point_x cairo_point_y moveto } bind def
/Tf { pop /cairo_font exch def /cairo_font_matrix where
      { pop cairo_selectfont } if } bind def
/Td { matrix translate cairo_font_matrix matrix concatmatrix dup
      /cairo_font_matrix exch def dup 4 get exch 5 get cairo_store_point
      /cairo_font where { pop cairo_selectfont } if } bind def
/Tm { 2 copy 8 2 roll 6 array astore /cairo_font_matrix exch def
      cairo_store_point /cairo_font where { pop cairo_selectfont } if } bind def
/g { setgray } bind def
/rg { setrgbcolor } bind def
/d1 { setcachedevice } bind def
%%EndProlog
%%Page: 1 1
%%BeginPageSetup
%%PageBoundingBox: 0 -1 405 506
%%EndPageSetup
q 0 -1 405 507 rectclip q
54.668 500.764 349.922 -443.52 re W n
q
54 501.19 350 -444 re W n
[ 1 0 0 1 0 -0.81012 ] concat
  q
Q q
0 g
2.25 w
0 J
1 j
[] 0.0 d
10 M 75.73 114.707 m 140.531 114.707 l S
0.75 w
1 J
[ 2.25 3.75] 0 d
108.129 75.805 m 108.129 103.305 l S
[ 2.25 3.75] 0 d
108.129 161.496 m 108.129 128.094 l S
[] 0.0 d
91.93 75.805 m 124.328 75.805 l S
91.93 161.496 m 124.328 161.496 l S
75.73 128.094 64.801 -24.789 re S
108.133 165.039 m 108.133 166.941 l 108.031 166.793 107.887 166.672 107.703
 166.582 c 107.52 166.488 107.324 166.445 107.117 166.441 c 106.656 166.445
 106.262 166.625 105.93 166.992 c 105.594 167.355 105.426 167.859 105.43
 168.504 c 105.426 168.887 105.492 169.238 105.633 169.551 c 105.766 169.859
 105.961 170.094 106.219 170.254 c 106.473 170.41 106.758 170.488 107.066
 170.492 c 107.543 170.488 107.918 170.285 108.199 169.887 c 108.199 170.406
 l 108.793 170.406 l 108.793 165.039 l h
106.105 168.477 m 106.105 167.977 106.207 167.602 106.418 167.355 c 106.625
 167.102 106.879 166.977 107.172 166.98 c 107.453 166.977 107.691 167.098
 107.895 167.336 c 108.094 167.57 108.195 167.93 108.199 168.418 c 108.195
 168.934 108.09 169.324 107.879 169.586 c 107.664 169.844 107.414 169.973
 107.129 169.977 c 106.844 169.973 106.602 169.852 106.402 169.613 c 106.203
 169.367 106.105 168.988 106.105 168.477 c h
S
108.133 170.309 m 108.133 172.211 l 108.031 172.063 107.887 171.941 107.703
 171.852 c 107.52 171.758 107.324 171.715 107.117 171.711 c 106.656 171.715
 106.262 171.895 105.93 172.262 c 105.594 172.625 105.426 173.129 105.43
 173.773 c 105.426 174.156 105.492 174.508 105.633 174.82 c 105.766 175.129
 105.961 175.363 106.219 175.523 c 106.473 175.68 106.758 175.758 107.066
 175.762 c 107.543 175.758 107.918 175.555 108.199 175.156 c 108.199 175.676
 l 108.793 175.676 l 108.793 170.309 l h
106.105 173.746 m 106.105 173.246 106.207 172.871 106.418 172.625 c 106.625
 172.371 106.879 172.246 107.172 172.25 c 107.453 172.246 107.691 172.367
 107.895 172.605 c 108.094 172.84 108.195 173.199 108.199 173.688 c 108.195
 174.203 108.09 174.594 107.879 174.855 c 107.664 175.113 107.414 175.242
 107.129 175.246 c 106.844 175.242 106.602 175.121 106.402 174.883 c 106.203
 174.637 106.105 174.258 106.105 173.746 c h
S
108.133 168.438 m 108.133 170.34 l 108.031 170.191 107.887 170.07 107.703
 169.98 c 107.52 169.887 107.324 169.844 107.117 169.84 c 106.656 169.844
 106.262 170.023 105.93 170.391 c 105.594 170.754 105.426 171.258 105.43
 171.902 c 105.426 172.285 105.492 172.637 105.633 172.949 c 105.766 173.258
 105.961 173.492 106.219 173.652 c 106.473 173.809 106.758 173.887 107.066
 173.891 c 107.543 173.887 107.918 173.684 108.199 173.285 c 108.199 173.805
 l 108.793 173.805 l 108.793 168.438 l h
106.105 171.875 m 106.105 171.375 106.207 171 106.418 170.754 c 106.625
 170.5 106.879 170.375 107.172 170.379 c 107.453 170.375 107.691 170.496
 107.895 170.734 c 108.094 170.969 108.195 171.328 108.199 171.816 c 108.195
 172.332 108.09 172.723 107.879 172.984 c 107.664 173.242 107.414 173.371
 107.129 173.375 c 106.844 173.371 106.602 173.25 106.402 173.012 c 106.203
 172.766 106.105 172.387 106.105 171.875 c h
S
108.133 190.207 m 108.133 192.109 l 108.031 191.961 107.887 191.84 107.703
 191.75 c 107.52 191.656 107.324 191.613 107.117 191.609 c 106.656 191.613
 106.262 191.793 105.93 192.16 c 105.594 192.523 105.426 193.027 105.43 
193.672 c 105.426 194.055 105.492 194.406 105.633 194.719 c 105.766 195.027
 105.961 195.262 106.219 195.422 c 106.473 195.578 106.758 195.656 107.066
 195.66 c 107.543 195.656 107.918 195.453 108.199 195.055 c 108.199 195.574
 l 108.793 195.574 l 108.793 190.207 l h
106.105 193.645 m 106.105 193.145 106.207 192.77 106.418 192.523 c 106.625
 192.27 106.879 192.145 107.172 192.148 c 107.453 192.145 107.691 192.266
 107.895 192.504 c 108.094 192.738 108.195 193.098 108.199 193.586 c 108.195
 194.102 108.09 194.492 107.879 194.754 c 107.664 195.012 107.414 195.141
 107.129 195.145 c 106.844 195.141 106.602 195.02 106.402 194.781 c 106.203
 194.535 106.105 194.156 106.105 193.645 c h
S
108.133 163.406 m 108.133 165.309 l 108.031 165.16 107.887 165.039 107.703
 164.949 c 107.52 164.855 107.324 164.813 107.117 164.809 c 106.656 164.813
 106.262 164.992 105.93 165.359 c 105.594 165.723 105.426 166.227 105.43
 166.871 c 105.426 167.254 105.492 167.605 105.633 167.918 c 105.766 168.227
 105.961 168.461 106.219 168.621 c 106.473 168.777 106.758 168.855 107.066
 168.859 c 107.543 168.855 107.918 168.652 108.199 168.254 c 108.199 168.773
 l 108.793 168.773 l 108.793 163.406 l h
106.105 166.844 m 106.105 166.344 106.207 165.969 106.418 165.723 c 106.625
 165.469 106.879 165.344 107.172 165.348 c 107.453 165.344 107.691 165.465
 107.895 165.703 c 108.094 165.938 108.195 166.297 108.199 166.785 c 108.195
 167.301 108.09 167.691 107.879 167.953 c 107.664 168.211 107.414 168.34
 107.129 168.344 c 106.844 168.34 106.602 168.219 106.402 167.98 c 106.203
 167.734 106.105 167.355 106.105 166.844 c h
S
108.133 172.695 m 108.133 174.598 l 108.031 174.449 107.887 174.328 107.703
 174.238 c 107.52 174.145 107.324 174.102 107.117 174.098 c 106.656 174.102
 106.262 174.281 105.93 174.648 c 105.594 175.012 105.426 175.516 105.43
 176.16 c 105.426 176.543 105.492 176.895 105.633 177.207 c 105.766 177.516
 105.961 177.75 106.219 177.91 c 106.473 178.066 106.758 178.145 107.066
 178.148 c 107.543 178.145 107.918 177.941 108.199 177.543 c 108.199 178.063
 l 108.793 178.063 l 108.793 172.695 l h
106.105 176.133 m 106.105 175.633 106.207 175.258 106.418 175.012 c 106.625
 174.758 106.879 174.633 107.172 174.637 c 107.453 174.633 107.691 174.754
 107.895 174.992 c 108.094 175.227 108.195 175.586 108.199 176.074 c 108.195
 176.59 108.09 176.98 107.879 177.242 c 107.664 177.5 107.414 177.629 107.129
 177.633 c 106.844 177.629 106.602 177.508 106.402 177.27 c 106.203 177.023
 106.105 176.645 106.105 176.133 c h
S
108.133 161.777 m 108.133 163.68 l 108.031 163.531 107.887 163.41 107.703
 163.32 c 107.52 163.227 107.324 163.184 107.117 163.18 c 106.656 163.184
 106.262 163.363 105.93 163.73 c 105.594 164.094 105.426 164.598 105.43 
165.242 c 105.426 165.625 105.492 165.977 105.633 166.289 c 105.766 166.598
 105.961 166.832 106.219 166.992 c 106.473 167.148 106.758 167.227 107.066
 167.23 c 107.543 167.227 107.918 167.023 108.199 166.625 c 108.199 167.145
 l 108.793 167.145 l 108.793 161.777 l h
106.105 165.215 m 106.105 164.715 106.207 164.34 106.418 164.094 c 106.625
 163.84 106.879 163.715 107.172 163.719 c 107.453 163.715 107.691 163.836
 107.895 164.074 c 108.094 164.309 108.195 164.668 108.199 165.156 c 108.195
 165.672 108.09 166.063 107.879 166.324 c 107.664 166.582 107.414 166.711
 107.129 166.715 c 106.844 166.711 106.602 166.59 106.402 166.352 c 106.203
 166.105 106.105 165.727 106.105 165.215 c h
S
108.133 179.086 m 108.133 180.988 l 108.031 180.84 107.887 180.719 107.703
 180.629 c 107.52 180.535 107.324 180.492 107.117 180.488 c 106.656 180.492
 106.262 180.672 105.93 181.039 c 105.594 181.402 105.426 181.906 105.43
 182.551 c 105.426 182.934 105.492 183.285 105.633 183.598 c 105.766 183.906
 105.961 184.141 106.219 184.301 c 106.473 184.457 106.758 184.535 107.066
 184.539 c 107.543 184.535 107.918 184.332 108.199 183.934 c 108.199 184.453
 l 108.793 184.453 l 108.793 179.086 l h
106.105 182.523 m 106.105 182.023 106.207 181.648 106.418 181.402 c 106.625
 181.148 106.879 181.023 107.172 181.027 c 107.453 181.023 107.691 181.145
 107.895 181.383 c 108.094 181.617 108.195 181.977 108.199 182.465 c 108.195
 182.98 108.09 183.371 107.879 183.633 c 107.664 183.891 107.414 184.02 
107.129 184.023 c 106.844 184.02 106.602 183.898 106.402 183.66 c 106.203
 183.414 106.105 183.035 106.105 182.523 c h
S
108.133 162.379 m 108.133 164.281 l 108.031 164.133 107.887 164.012 107.703
 163.922 c 107.52 163.828 107.324 163.785 107.117 163.781 c 106.656 163.785
 106.262 163.965 105.93 164.332 c 105.594 164.695 105.426 165.199 105.43
 165.844 c 105.426 166.227 105.492 166.578 105.633 166.891 c 105.766 167.199
 105.961 167.434 106.219 167.594 c 106.473 167.75 106.758 167.828 107.066
 167.832 c 107.543 167.828 107.918 167.625 108.199 167.227 c 108.199 167.746
 l 108.793 167.746 l 108.793 162.379 l h
106.105 165.816 m 106.105 165.316 106.207 164.941 106.418 164.695 c 106.625
 164.441 106.879 164.316 107.172 164.32 c 107.453 164.316 107.691 164.438
 107.895 164.676 c 108.094 164.91 108.195 165.27 108.199 165.758 c 108.195
 166.273 108.09 166.664 107.879 166.926 c 107.664 167.184 107.414 167.313
 107.129 167.316 c 106.844 167.313 106.602 167.191 106.402 166.953 c 106.203
 166.707 106.105 166.328 106.105 165.816 c h
S
108.133 192.668 m 108.133 194.57 l 108.031 194.422 107.887 194.301 107.703
 194.211 c 107.52 194.117 107.324 194.074 107.117 194.07 c 106.656 194.074
 106.262 194.254 105.93 194.621 c 105.594 194.984 105.426 195.488 105.43
 196.133 c 105.426 196.516 105.492 196.867 105.633 197.18 c 105.766 197.488
 105.961 197.723 106.219 197.883 c 106.473 198.039 106.758 198.117 107.066
 198.121 c 107.543 198.117 107.918 197.914 108.199 197.516 c 108.199 198.035
 l 108.793 198.035 l 108.793 192.668 l h
106.105 196.105 m 106.105 195.605 106.207 195.23 106.418 194.984 c 106.625
 194.73 106.879 194.605 107.172 194.609 c 107.453 194.605 107.691 194.727
 107.895 194.965 c 108.094 195.199 108.195 195.559 108.199 196.047 c 108.195
 196.563 108.09 196.953 107.879 197.215 c 107.664 197.473 107.414 197.602
 107.129 197.605 c 106.844 197.602 106.602 197.48 106.402 197.242 c 106.203
 196.996 106.105 196.617 106.105 196.105 c h
S
108.133 183.738 m 108.133 185.641 l 108.031 185.492 107.887 185.371 107.703
 185.281 c 107.52 185.188 107.324 185.145 107.117 185.141 c 106.656 185.145
 106.262 185.324 105.93 185.691 c 105.594 186.055 105.426 186.559 105.43
 187.203 c 105.426 187.586 105.492 187.938 105.633 188.25 c 105.766 188.559
 105.961 188.793 106.219 188.953 c 106.473 189.109 106.758 189.188 107.066
 189.191 c 107.543 189.188 107.918 188.984 108.199 188.586 c 108.199 189.105
 l 108.793 189.105 l 108.793 183.738 l h
106.105 187.176 m 106.105 186.676 106.207 186.301 106.418 186.055 c 106.625
 185.801 106.879 185.676 107.172 185.68 c 107.453 185.676 107.691 185.797
 107.895 186.035 c 108.094 186.27 108.195 186.629 108.199 187.117 c 108.195
 187.633 108.09 188.023 107.879 188.285 c 107.664 188.543 107.414 188.672
 107.129 188.676 c 106.844 188.672 106.602 188.551 106.402 188.313 c 106.203
 188.066 106.105 187.688 106.105 187.176 c h
S
108.133 177.598 m 108.133 179.5 l 108.031 179.352 107.887 179.23 107.703
 179.141 c 107.52 179.047 107.324 179.004 107.117 179 c 106.656 179.004 
106.262 179.184 105.93 179.551 c 105.594 179.914 105.426 180.418 105.43 
181.063 c 105.426 181.445 105.492 181.797 105.633 182.109 c 105.766 182.418
 105.961 182.652 106.219 182.813 c 106.473 182.969 106.758 183.047 107.066
 183.051 c 107.543 183.047 107.918 182.844 108.199 182.445 c 108.199 182.965
 l 108.793 182.965 l 108.793 177.598 l h
106.105 181.035 m 106.105 180.535 106.207 180.16 106.418 179.914 c 106.625
 179.66 106.879 179.535 107.172 179.539 c 107.453 179.535 107.691 179.656
 107.895 179.895 c 108.094 180.129 108.195 180.488 108.199 180.977 c 108.195
 181.492 108.09 181.883 107.879 182.145 c 107.664 182.402 107.414 182.531
 107.129 182.535 c 106.844 182.531 106.602 182.41 106.402 182.172 c 106.203
 181.926 106.105 181.547 106.105 181.035 c h
S
108.133 161.879 m 108.133 163.781 l 108.031 163.633 107.887 163.512 107.703
 163.422 c 107.52 163.328 107.324 163.285 107.117 163.281 c 106.656 163.285
 106.262 163.465 105.93 163.832 c 105.594 164.195 105.426 164.699 105.43
 165.344 c 105.426 165.727 105.492 166.078 105.633 166.391 c 105.766 166.699
 105.961 166.934 106.219 167.094 c 106.473 167.25 106.758 167.328 107.066
 167.332 c 107.543 167.328 107.918 167.125 108.199 166.727 c 108.199 167.246
 l 108.793 167.246 l 108.793 161.879 l h
106.105 165.316 m 106.105 164.816 106.207 164.441 106.418 164.195 c 106.625
 163.941 106.879 163.816 107.172 163.82 c 107.453 163.816 107.691 163.938
 107.895 164.176 c 108.094 164.41 108.195 164.77 108.199 165.258 c 108.195
 165.773 108.09 166.164 107.879 166.426 c 107.664 166.684 107.414 166.813
 107.129 166.816 c 106.844 166.813 106.602 166.691 106.402 166.453 c 106.203
 166.207 106.105 165.828 106.105 165.316 c h
S
108.133 162.176 m 108.133 164.078 l 108.031 163.93 107.887 163.809 107.703
 163.719 c 107.52 163.625 107.324 163.582 107.117 163.578 c 106.656 163.582
 106.262 163.762 105.93 164.129 c 105.594 164.492 105.426 164.996 105.43
 165.641 c 105.426 166.023 105.492 166.375 105.633 166.688 c 105.766 166.996
 105.961 167.23 106.219 167.391 c 106.473 167.547 106.758 167.625 107.066
 167.629 c 107.543 167.625 107.918 167.422 108.199 167.023 c 108.199 167.543
 l 108.793 167.543 l 108.793 162.176 l h
106.105 165.613 m 106.105 165.113 106.207 164.738 106.418 164.492 c 106.625
 164.238 106.879 164.113 107.172 164.117 c 107.453 164.113 107.691 164.234
 107.895 164.473 c 108.094 164.707 108.195 165.066 108.199 165.555 c 108.195
 166.07 108.09 166.461 107.879 166.723 c 107.664 166.98 107.414 167.109 
107.129 167.113 c 106.844 167.109 106.602 166.988 106.402 166.75 c 106.203
 166.504 106.105 166.125 106.105 165.613 c h
S
108.133 192.906 m 108.133 194.809 l 108.031 194.66 107.887 194.539 107.703
 194.449 c 107.52 194.355 107.324 194.313 107.117 194.309 c 106.656 194.313
 106.262 194.492 105.93 194.859 c 105.594 195.223 105.426 195.727 105.43
 196.371 c 105.426 196.754 105.492 197.105 105.633 197.418 c 105.766 197.727
 105.961 197.961 106.219 198.121 c 106.473 198.277 106.758 198.355 107.066
 198.359 c 107.543 198.355 107.918 198.152 108.199 197.754 c 108.199 198.273
 l 108.793 198.273 l 108.793 192.906 l h
106.105 196.344 m 106.105 195.844 106.207 195.469 106.418 195.223 c 106.625
 194.969 106.879 194.844 107.172 194.848 c 107.453 194.844 107.691 194.965
 107.895 195.203 c 108.094 195.438 108.195 195.797 108.199 196.285 c 108.195
 196.801 108.09 197.191 107.879 197.453 c 107.664 197.711 107.414 197.84
 107.129 197.844 c 106.844 197.84 106.602 197.719 106.402 197.48 c 106.203
 197.234 106.105 196.855 106.105 196.344 c h
S
108.133 199.156 m 108.133 201.059 l 108.031 200.91 107.887 200.789 107.703
 200.699 c 107.52 200.605 107.324 200.563 107.117 200.559 c 106.656 200.563
 106.262 200.742 105.93 201.109 c 105.594 201.473 105.426 201.977 105.43
 202.621 c 105.426 203.004 105.492 203.355 105.633 203.668 c 105.766 203.977
 105.961 204.211 106.219 204.371 c 106.473 204.527 106.758 204.605 107.066
 204.609 c 107.543 204.605 107.918 204.402 108.199 204.004 c 108.199 204.523
 l 108.793 204.523 l 108.793 199.156 l h
106.105 202.594 m 106.105 202.094 106.207 201.719 106.418 201.473 c 106.625
 201.219 106.879 201.094 107.172 201.098 c 107.453 201.094 107.691 201.215
 107.895 201.453 c 108.094 201.688 108.195 202.047 108.199 202.535 c 108.195
 203.051 108.09 203.441 107.879 203.703 c 107.664 203.961 107.414 204.09
 107.129 204.094 c 106.844 204.09 106.602 203.969 106.402 203.73 c 106.203
 203.484 106.105 203.105 106.105 202.594 c h
S
2.25 w
0 J
156.73 117.344 m 221.531 117.344 l S
0.75 w
1 J
[ 2.25 3.75] 0 d
189.129 74.484 m 189.129 103.926 l S
[ 2.25 3.75] 0 d
189.129 172.484 m 189.129 131.574 l S
[] 0.0 d
172.93 74.484 m 205.328 74.484 l S
172.93 172.484 m 205.328 172.484 l S
156.73 131.574 64.801 -27.648 re S
189.133 170.258 m 189.133 172.16 l 189.031 172.012 188.887 171.891 188.703
 171.801 c 188.52 171.707 188.324 171.664 188.117 171.66 c 187.656 171.664
 187.262 171.844 186.93 172.211 c 186.594 172.574 186.426 173.078 186.43
 173.723 c 186.426 174.105 186.492 174.457 186.633 174.77 c 186.766 175.078
 186.961 175.313 187.219 175.473 c 187.473 175.629 187.758 175.707 188.066
 175.711 c 188.543 175.707 188.918 175.504 189.199 175.105 c 189.199 175.625
 l 189.793 175.625 l 189.793 170.258 l h
187.105 173.695 m 187.105 173.195 187.207 172.82 187.418 172.574 c 187.625
 172.32 187.879 172.195 188.172 172.199 c 188.453 172.195 188.691 172.316
 188.895 172.555 c 189.094 172.789 189.195 173.148 189.199 173.637 c 189.195
 174.152 189.09 174.543 188.879 174.805 c 188.664 175.063 188.414 175.191
 188.129 175.195 c 187.844 175.191 187.602 175.07 187.402 174.832 c 187.203
 174.586 187.105 174.207 187.105 173.695 c h
S
189.133 196.367 m 189.133 198.27 l 189.031 198.121 188.887 198 188.703 
197.91 c 188.52 197.816 188.324 197.773 188.117 197.77 c 187.656 197.773
 187.262 197.953 186.93 198.32 c 186.594 198.684 186.426 199.188 186.43 
199.832 c 186.426 200.215 186.492 200.566 186.633 200.879 c 186.766 201.188
 186.961 201.422 187.219 201.582 c 187.473 201.738 187.758 201.816 188.066
 201.82 c 188.543 201.816 188.918 201.613 189.199 201.215 c 189.199 201.734
 l 189.793 201.734 l 189.793 196.367 l h
187.105 199.805 m 187.105 199.305 187.207 198.93 187.418 198.684 c 187.625
 198.43 187.879 198.305 188.172 198.309 c 188.453 198.305 188.691 198.426
 188.895 198.664 c 189.094 198.898 189.195 199.258 189.199 199.746 c 189.195
 200.262 189.09 200.652 188.879 200.914 c 188.664 201.172 188.414 201.301
 188.129 201.305 c 187.844 201.301 187.602 201.18 187.402 200.941 c 187.203
 200.695 187.105 200.316 187.105 199.805 c h
S
189.133 190.426 m 189.133 192.328 l 189.031 192.18 188.887 192.059 188.703
 191.969 c 188.52 191.875 188.324 191.832 188.117 191.828 c 187.656 191.832
 187.262 192.012 186.93 192.379 c 186.594 192.742 186.426 193.246 186.43
 193.891 c 186.426 194.273 186.492 194.625 186.633 194.938 c 186.766 195.246
 186.961 195.48 187.219 195.641 c 187.473 195.797 187.758 195.875 188.066
 195.879 c 188.543 195.875 188.918 195.672 189.199 195.273 c 189.199 195.793
 l 189.793 195.793 l 189.793 190.426 l h
187.105 193.863 m 187.105 193.363 187.207 192.988 187.418 192.742 c 187.625
 192.488 187.879 192.363 188.172 192.367 c 188.453 192.363 188.691 192.484
 188.895 192.723 c 189.094 192.957 189.195 193.316 189.199 193.805 c 189.195
 194.32 189.09 194.711 188.879 194.973 c 188.664 195.23 188.414 195.359 
188.129 195.363 c 187.844 195.359 187.602 195.238 187.402 195 c 187.203 
194.754 187.105 194.375 187.105 193.863 c h
S
189.133 178.355 m 189.133 180.258 l 189.031 180.109 188.887 179.988 188.703
 179.898 c 188.52 179.805 188.324 179.762 188.117 179.758 c 187.656 179.762
 187.262 179.941 186.93 180.309 c 186.594 180.672 186.426 181.176 186.43
 181.82 c 186.426 182.203 186.492 182.555 186.633 182.867 c 186.766 183.176
 186.961 183.41 187.219 183.57 c 187.473 183.727 187.758 183.805 188.066
 183.809 c 188.543 183.805 188.918 183.602 189.199 183.203 c 189.199 183.723
 l 189.793 183.723 l 189.793 178.355 l h
187.105 181.793 m 187.105 181.293 187.207 180.918 187.418 180.672 c 187.625
 180.418 187.879 180.293 188.172 180.297 c 188.453 180.293 188.691 180.414
 188.895 180.652 c 189.094 180.887 189.195 181.246 189.199 181.734 c 189.195
 182.25 189.09 182.641 188.879 182.902 c 188.664 183.16 188.414 183.289 
188.129 183.293 c 187.844 183.289 187.602 183.168 187.402 182.93 c 187.203
 182.684 187.105 182.305 187.105 181.793 c h
S
189.133 190.398 m 189.133 192.301 l 189.031 192.152 188.887 192.031 188.703
 191.941 c 188.52 191.848 188.324 191.805 188.117 191.801 c 187.656 191.805
 187.262 191.984 186.93 192.352 c 186.594 192.715 186.426 193.219 186.43
 193.863 c 186.426 194.246 186.492 194.598 186.633 194.91 c 186.766 195.219
 186.961 195.453 187.219 195.613 c 187.473 195.77 187.758 195.848 188.066
 195.852 c 188.543 195.848 188.918 195.645 189.199 195.246 c 189.199 195.766
 l 189.793 195.766 l 189.793 190.398 l h
187.105 193.836 m 187.105 193.336 187.207 192.961 187.418 192.715 c 187.625
 192.461 187.879 192.336 188.172 192.34 c 188.453 192.336 188.691 192.457
 188.895 192.695 c 189.094 192.93 189.195 193.289 189.199 193.777 c 189.195
 194.293 189.09 194.684 188.879 194.945 c 188.664 195.203 188.414 195.332
 188.129 195.336 c 187.844 195.332 187.602 195.211 187.402 194.973 c 187.203
 194.727 187.105 194.348 187.105 193.836 c h
S
189.133 184.578 m 189.133 186.48 l 189.031 186.332 188.887 186.211 188.703
 186.121 c 188.52 186.027 188.324 185.984 188.117 185.98 c 187.656 185.984
 187.262 186.164 186.93 186.531 c 186.594 186.895 186.426 187.398 186.43
 188.043 c 186.426 188.426 186.492 188.777 186.633 189.09 c 186.766 189.398
 186.961 189.633 187.219 189.793 c 187.473 189.949 187.758 190.027 188.066
 190.031 c 188.543 190.027 188.918 189.824 189.199 189.426 c 189.199 189.945
 l 189.793 189.945 l 189.793 184.578 l h
187.105 188.016 m 187.105 187.516 187.207 187.141 187.418 186.895 c 187.625
 186.641 187.879 186.516 188.172 186.52 c 188.453 186.516 188.691 186.637
 188.895 186.875 c 189.094 187.109 189.195 187.469 189.199 187.957 c 189.195
 188.473 189.09 188.863 188.879 189.125 c 188.664 189.383 188.414 189.512
 188.129 189.516 c 187.844 189.512 187.602 189.391 187.402 189.152 c 187.203
 188.906 187.105 188.527 187.105 188.016 c h
S
2.25 w
0 J
237.73 125.707 m 302.531 125.707 l S
0.75 w
1 J
[ 2.25 3.75] 0 d
270.129 77.984 m 270.129 108.625 l S
[ 2.25 3.75] 0 d
270.129 197.145 m 270.129 144.836 l S
[] 0.0 d
253.93 77.984 m 286.328 77.984 l S
253.93 197.145 m 286.328 197.145 l S
237.73 144.836 64.801 -36.211 re S
270.133 256.996 m 270.133 258.898 l 270.031 258.75 269.887 258.629 269.703
 258.539 c 269.52 258.445 269.324 258.402 269.117 258.398 c 268.656 258.402
 268.262 258.582 267.93 258.949 c 267.594 259.313 267.426 259.816 267.43
 260.461 c 267.426 260.844 267.492 261.195 267.633 261.508 c 267.766 261.816
 267.961 262.051 268.219 262.211 c 268.473 262.367 268.758 262.445 269.066
 262.449 c 269.543 262.445 269.918 262.242 270.199 261.844 c 270.199 262.363
 l 270.793 262.363 l 270.793 256.996 l h
268.105 260.434 m 268.105 259.934 268.207 259.559 268.418 259.313 c 268.625
 259.059 268.879 258.934 269.172 258.938 c 269.453 258.934 269.691 259.055
 269.895 259.293 c 270.094 259.527 270.195 259.887 270.199 260.375 c 270.195
 260.891 270.09 261.281 269.879 261.543 c 269.664 261.801 269.414 261.93
 269.129 261.934 c 268.844 261.93 268.602 261.809 268.402 261.57 c 268.203
 261.324 268.105 260.945 268.105 260.434 c h
S
270.133 201.098 m 270.133 203 l 270.031 202.852 269.887 202.73 269.703 
202.641 c 269.52 202.547 269.324 202.504 269.117 202.5 c 268.656 202.504
 268.262 202.684 267.93 203.051 c 267.594 203.414 267.426 203.918 267.43
 204.563 c 267.426 204.945 267.492 205.297 267.633 205.609 c 267.766 205.918
 267.961 206.152 268.219 206.313 c 268.473 206.469 268.758 206.547 269.066
 206.551 c 269.543 206.547 269.918 206.344 270.199 205.945 c 270.199 206.465
 l 270.793 206.465 l 270.793 201.098 l h
268.105 204.535 m 268.105 204.035 268.207 203.66 268.418 203.414 c 268.625
 203.16 268.879 203.035 269.172 203.039 c 269.453 203.035 269.691 203.156
 269.895 203.395 c 270.094 203.629 270.195 203.988 270.199 204.477 c 270.195
 204.992 270.09 205.383 269.879 205.645 c 269.664 205.902 269.414 206.031
 269.129 206.035 c 268.844 206.031 268.602 205.91 268.402 205.672 c 268.203
 205.426 268.105 205.047 268.105 204.535 c h
S
270.133 197.887 m 270.133 199.789 l 270.031 199.641 269.887 199.52 269.703
 199.43 c 269.52 199.336 269.324 199.293 269.117 199.289 c 268.656 199.293
 268.262 199.473 267.93 199.84 c 267.594 200.203 267.426 200.707 267.43 
201.352 c 267.426 201.734 267.492 202.086 267.633 202.398 c 267.766 202.707
 267.961 202.941 268.219 203.102 c 268.473 203.258 268.758 203.336 269.066
 203.34 c 269.543 203.336 269.918 203.133 270.199 202.734 c 270.199 203.254
 l 270.793 203.254 l 270.793 197.887 l h
268.105 201.324 m 268.105 200.824 268.207 200.449 268.418 200.203 c 268.625
 199.949 268.879 199.824 269.172 199.828 c 269.453 199.824 269.691 199.945
 269.895 200.184 c 270.094 200.418 270.195 200.777 270.199 201.266 c 270.195
 201.781 270.09 202.172 269.879 202.434 c 269.664 202.691 269.414 202.82
 269.129 202.824 c 268.844 202.82 268.602 202.699 268.402 202.461 c 268.203
 202.215 268.105 201.836 268.105 201.324 c h
S
270.133 236.469 m 270.133 238.371 l 270.031 238.223 269.887 238.102 269.703
 238.012 c 269.52 237.918 269.324 237.875 269.117 237.871 c 268.656 237.875
 268.262 238.055 267.93 238.422 c 267.594 238.785 267.426 239.289 267.43
 239.934 c 267.426 240.316 267.492 240.668 267.633 240.98 c 267.766 241.289
 267.961 241.523 268.219 241.684 c 268.473 241.84 268.758 241.918 269.066
 241.922 c 269.543 241.918 269.918 241.715 270.199 241.316 c 270.199 241.836
 l 270.793 241.836 l 270.793 236.469 l h
268.105 239.906 m 268.105 239.406 268.207 239.031 268.418 238.785 c 268.625
 238.531 268.879 238.406 269.172 238.41 c 269.453 238.406 269.691 238.527
 269.895 238.766 c 270.094 239 270.195 239.359 270.199 239.848 c 270.195
 240.363 270.09 240.754 269.879 241.016 c 269.664 241.273 269.414 241.402
 269.129 241.406 c 268.844 241.402 268.602 241.281 268.402 241.043 c 268.203
 240.797 268.105 240.418 268.105 239.906 c h
S
270.133 198.508 m 270.133 200.41 l 270.031 200.262 269.887 200.141 269.703
 200.051 c 269.52 199.957 269.324 199.914 269.117 199.91 c 268.656 199.914
 268.262 200.094 267.93 200.461 c 267.594 200.824 267.426 201.328 267.43
 201.973 c 267.426 202.355 267.492 202.707 267.633 203.02 c 267.766 203.328
 267.961 203.563 268.219 203.723 c 268.473 203.879 268.758 203.957 269.066
 203.961 c 269.543 203.957 269.918 203.754 270.199 203.355 c 270.199 203.875
 l 270.793 203.875 l 270.793 198.508 l h
268.105 201.945 m 268.105 201.445 268.207 201.07 268.418 200.824 c 268.625
 200.57 268.879 200.445 269.172 200.449 c 269.453 200.445 269.691 200.566
 269.895 200.805 c 270.094 201.039 270.195 201.398 270.199 201.887 c 270.195
 202.402 270.09 202.793 269.879 203.055 c 269.664 203.313 269.414 203.441
 269.129 203.445 c 268.844 203.441 268.602 203.32 268.402 203.082 c 268.203
 202.836 268.105 202.457 268.105 201.945 c h
S
2.25 w
0 J
318.73 234.355 m 383.531 234.355 l S
0.75 w
1 J
[ 2.25 3.75] 0 d
351.129 79.434 m 351.129 181.586 l S
[ 2.25 3.75] 0 d
351.129 414.875 m 351.129 277.125 l S
[] 0.0 d
334.93 79.434 m 367.328 79.434 l S
334.93 414.875 m 367.328 414.875 l S
318.73 277.125 64.801 -95.539 re S
351.133 465.496 m 351.133 467.398 l 351.031 467.25 350.887 467.129 350.703
 467.039 c 350.52 466.945 350.324 466.902 350.117 466.898 c 349.656 466.902
 349.262 467.082 348.93 467.449 c 348.594 467.813 348.426 468.316 348.43
 468.961 c 348.426 469.344 348.492 469.695 348.633 470.008 c 348.766 470.316
 348.961 470.551 349.219 470.711 c 349.473 470.867 349.758 470.945 350.066
 470.949 c 350.543 470.945 350.918 470.742 351.199 470.344 c 351.199 470.863
 l 351.793 470.863 l 351.793 465.496 l h
349.105 468.934 m 349.105 468.434 349.207 468.059 349.418 467.813 c 349.625
 467.559 349.879 467.434 350.172 467.438 c 350.453 467.434 350.691 467.555
 350.895 467.793 c 351.094 468.027 351.195 468.387 351.199 468.875 c 351.195
 469.391 351.09 469.781 350.879 470.043 c 350.664 470.301 350.414 470.43
 350.129 470.434 c 349.844 470.43 349.602 470.309 349.402 470.07 c 349.203
 469.824 349.105 469.445 349.105 468.934 c h
S
351.133 437.488 m 351.133 439.391 l 351.031 439.242 350.887 439.121 350.703
 439.031 c 350.52 438.938 350.324 438.895 350.117 438.891 c 349.656 438.895
 349.262 439.074 348.93 439.441 c 348.594 439.805 348.426 440.309 348.43
 440.953 c 348.426 441.336 348.492 441.688 348.633 442 c 348.766 442.309
 348.961 442.543 349.219 442.703 c 349.473 442.859 349.758 442.938 350.066
 442.941 c 350.543 442.938 350.918 442.734 351.199 442.336 c 351.199 442.855
 l 351.793 442.855 l 351.793 437.488 l h
349.105 440.926 m 349.105 440.426 349.207 440.051 349.418 439.805 c 349.625
 439.551 349.879 439.426 350.172 439.43 c 350.453 439.426 350.691 439.547
 350.895 439.785 c 351.094 440.02 351.195 440.379 351.199 440.867 c 351.195
 441.383 351.09 441.773 350.879 442.035 c 350.664 442.293 350.414 442.422
 350.129 442.426 c 349.844 442.422 349.602 442.301 349.402 442.063 c 349.203
 441.816 349.105 441.438 349.105 440.926 c h
S
351.133 481.066 m 351.133 482.969 l 351.031 482.82 350.887 482.699 350.703
 482.609 c 350.52 482.516 350.324 482.473 350.117 482.469 c 349.656 482.473
 349.262 482.652 348.93 483.02 c 348.594 483.383 348.426 483.887 348.43 
484.531 c 348.426 484.914 348.492 485.266 348.633 485.578 c 348.766 485.887
 348.961 486.121 349.219 486.281 c 349.473 486.438 349.758 486.516 350.066
 486.52 c 350.543 486.516 350.918 486.313 351.199 485.914 c 351.199 486.434
 l 351.793 486.434 l 351.793 481.066 l h
349.105 484.504 m 349.105 484.004 349.207 483.629 349.418 483.383 c 349.625
 483.129 349.879 483.004 350.172 483.008 c 350.453 483.004 350.691 483.125
 350.895 483.363 c 351.094 483.598 351.195 483.957 351.199 484.445 c 351.195
 484.961 351.09 485.352 350.879 485.613 c 350.664 485.871 350.414 486 350.129
 486.004 c 349.844 486 349.602 485.879 349.402 485.641 c 349.203 485.395
 349.105 485.016 349.105 484.504 c h
S
351.133 423.695 m 351.133 425.598 l 351.031 425.449 350.887 425.328 350.703
 425.238 c 350.52 425.145 350.324 425.102 350.117 425.098 c 349.656 425.102
 349.262 425.281 348.93 425.648 c 348.594 426.012 348.426 426.516 348.43
 427.16 c 348.426 427.543 348.492 427.895 348.633 428.207 c 348.766 428.516
 348.961 428.75 349.219 428.91 c 349.473 429.066 349.758 429.145 350.066
 429.148 c 350.543 429.145 350.918 428.941 351.199 428.543 c 351.199 429.063
 l 351.793 429.063 l 351.793 423.695 l h
349.105 427.133 m 349.105 426.633 349.207 426.258 349.418 426.012 c 349.625
 425.758 349.879 425.633 350.172 425.637 c 350.453 425.633 350.691 425.754
 350.895 425.992 c 351.094 426.227 351.195 426.586 351.199 427.074 c 351.195
 427.59 351.09 427.98 350.879 428.242 c 350.664 428.5 350.414 428.629 350.129
 428.633 c 349.844 428.629 349.602 428.508 349.402 428.27 c 349.203 428.023
 349.105 427.645 349.105 427.133 c h
S
351.133 456.176 m 351.133 458.078 l 351.031 457.93 350.887 457.809 350.703
 457.719 c 350.52 457.625 350.324 457.582 350.117 457.578 c 349.656 457.582
 349.262 457.762 348.93 458.129 c 348.594 458.492 348.426 458.996 348.43
 459.641 c 348.426 460.023 348.492 460.375 348.633 460.688 c 348.766 460.996
 348.961 461.23 349.219 461.391 c 349.473 461.547 349.758 461.625 350.066
 461.629 c 350.543 461.625 350.918 461.422 351.199 461.023 c 351.199 461.543
 l 351.793 461.543 l 351.793 456.176 l h
349.105 459.613 m 349.105 459.113 349.207 458.738 349.418 458.492 c 349.625
 458.238 349.879 458.113 350.172 458.117 c 350.453 458.113 350.691 458.234
 350.895 458.473 c 351.094 458.707 351.195 459.066 351.199 459.555 c 351.195
 460.07 351.09 460.461 350.879 460.723 c 350.664 460.98 350.414 461.109 
350.129 461.113 c 349.844 461.109 349.602 460.988 349.402 460.75 c 349.203
 460.504 349.105 460.125 349.105 459.613 c h
S
351.133 433.656 m 351.133 435.559 l 351.031 435.41 350.887 435.289 350.703
 435.199 c 350.52 435.105 350.324 435.063 350.117 435.059 c 349.656 435.063
 349.262 435.242 348.93 435.609 c 348.594 435.973 348.426 436.477 348.43
 437.121 c 348.426 437.504 348.492 437.855 348.633 438.168 c 348.766 438.477
 348.961 438.711 349.219 438.871 c 349.473 439.027 349.758 439.105 350.066
 439.109 c 350.543 439.105 350.918 438.902 351.199 438.504 c 351.199 439.023
 l 351.793 439.023 l 351.793 433.656 l h
349.105 437.094 m 349.105 436.594 349.207 436.219 349.418 435.973 c 349.625
 435.719 349.879 435.594 350.172 435.598 c 350.453 435.594 350.691 435.715
 350.895 435.953 c 351.094 436.188 351.195 436.547 351.199 437.035 c 351.195
 437.551 351.09 437.941 350.879 438.203 c 350.664 438.461 350.414 438.59
 350.129 438.594 c 349.844 438.59 349.602 438.469 349.402 438.23 c 349.203
 437.984 349.105 437.605 349.105 437.094 c h
S
351.133 426.938 m 351.133 428.84 l 351.031 428.691 350.887 428.57 350.703
 428.48 c 350.52 428.387 350.324 428.344 350.117 428.34 c 349.656 428.344
 349.262 428.523 348.93 428.891 c 348.594 429.254 348.426 429.758 348.43
 430.402 c 348.426 430.785 348.492 431.137 348.633 431.449 c 348.766 431.758
 348.961 431.992 349.219 432.152 c 349.473 432.309 349.758 432.387 350.066
 432.391 c 350.543 432.387 350.918 432.184 351.199 431.785 c 351.199 432.305
 l 351.793 432.305 l 351.793 426.938 l h
349.105 430.375 m 349.105 429.875 349.207 429.5 349.418 429.254 c 349.625
 429 349.879 428.875 350.172 428.879 c 350.453 428.875 350.691 428.996 350.895
 429.234 c 351.094 429.469 351.195 429.828 351.199 430.316 c 351.195 430.832
 351.09 431.223 350.879 431.484 c 350.664 431.742 350.414 431.871 350.129
 431.875 c 349.844 431.871 349.602 431.75 349.402 431.512 c 349.203 431.266
 349.105 430.887 349.105 430.375 c h
S
  Q
Q
0 g
0.75 w
1 J
1 j
[] 0.0 d
10 M 108.129 57.245 m 351.129 57.245 l S
108.129 57.245 m 108.129 50.045 l S
189.129 57.245 m 189.129 50.045 l S
270.129 57.245 m 270.129 50.045 l S
351.129 57.245 m 351.129 50.045 l S
93.16 32.342 m 93.16 31.327 l 87.484 31.327 l 87.477 31.581 87.516 31.823
 87.605 32.061 c 87.75 32.444 87.98 32.827 88.301 33.202 c 88.613 33.577
 89.074 34.01 89.684 34.502 c 90.613 35.268 91.246 35.873 91.574 36.319 
c 91.902 36.764 92.066 37.186 92.066 37.592 c 92.066 38.006 91.914 38.358
 91.617 38.647 c 91.313 38.928 90.926 39.073 90.449 39.077 c 89.941 39.073
 89.535 38.92 89.23 38.62 c 88.926 38.311 88.77 37.889 88.77 37.358 c 87.684
 37.467 l 87.754 38.272 88.031 38.885 88.52 39.315 c 89 39.737 89.652 39.952
 90.473 39.952 c 91.293 39.952 91.945 39.721 92.43 39.264 c 92.91 38.807
 93.148 38.241 93.152 37.569 c 93.148 37.221 93.078 36.885 92.941 36.553
 c 92.797 36.217 92.563 35.866 92.238 35.502 c 91.91 35.131 91.371 34.627
 90.613 33.991 c 89.98 33.456 89.574 33.096 89.395 32.909 c 89.215 32.721
 89.066 32.53 88.949 32.342 c h
f
94.684 31.327 m 94.684 39.916 l 96.395 39.916 l 98.426 33.834 l 98.609 
33.264 98.746 32.838 98.84 32.561 c 98.934 32.87 99.086 33.331 99.293 33.94
 c 101.352 39.916 l 102.879 39.916 l 102.879 31.327 l 101.785 31.327 l 101.785
 38.514 l 99.289 31.327 l 98.262 31.327 l 95.777 38.639 l 95.777 31.327 
l h
f
104.715 31.327 m 104.715 39.916 l 107.953 39.916 l 108.523 39.916 108.961
 39.889 109.262 39.834 c 109.684 39.764 110.035 39.627 110.32 39.432 c 110.605
 39.233 110.836 38.959 111.012 38.604 c 111.184 38.245 111.27 37.854 111.273
 37.432 c 111.27 36.698 111.039 36.077 110.574 35.577 c 110.105 35.069 109.266
 34.819 108.055 34.819 c 105.852 34.819 l 105.852 31.327 l h
105.852 35.834 m 108.07 35.834 l 108.801 35.831 109.324 35.967 109.637 
36.245 c 109.945 36.514 110.098 36.901 110.102 37.397 c 110.098 37.756 110.008
 38.061 109.828 38.319 c 109.645 38.569 109.406 38.741 109.109 38.827 c 
108.914 38.877 108.559 38.901 108.047 38.905 c 105.852 38.905 l h
f
112.332 34.084 m 113.402 34.178 l 113.453 33.748 113.57 33.397 113.758 
33.123 c 113.938 32.846 114.227 32.623 114.621 32.456 c 115.008 32.284 115.449
 32.198 115.941 32.202 c 116.371 32.198 116.754 32.264 117.09 32.393 c 117.422
 32.518 117.668 32.694 117.832 32.92 c 117.992 33.147 118.074 33.393 118.074
 33.659 c 118.074 33.924 117.996 34.159 117.84 34.362 c 117.684 34.565 117.426
 34.733 117.066 34.873 c 116.836 34.959 116.324 35.1 115.539 35.291 c 114.746
 35.479 114.195 35.659 113.879 35.827 c 113.465 36.038 113.156 36.303 112.961
 36.623 c 112.758 36.944 112.66 37.299 112.66 37.694 c 112.66 38.127 112.781
 38.534 113.027 38.909 c 113.273 39.284 113.633 39.569 114.105 39.768 c 
114.578 39.959 115.105 40.057 115.684 40.061 c 116.316 40.057 116.875 39.956
 117.367 39.752 c 117.852 39.549 118.227 39.248 118.488 38.85 c 118.75 38.452
 118.891 37.998 118.91 37.498 c 117.824 37.413 l 117.762 37.956 117.563 
38.366 117.227 38.643 c 116.887 38.92 116.391 39.061 115.73 39.061 c 115.043
 39.061 114.539 38.932 114.227 38.682 c 113.906 38.424 113.75 38.123 113.754
 37.772 c 113.75 37.463 113.863 37.209 114.09 37.01 c 114.309 36.807 114.879
 36.6 115.805 36.397 c 116.727 36.186 117.359 36.006 117.707 35.85 c 118.203
 35.62 118.574 35.327 118.813 34.975 c 119.047 34.62 119.164 34.213 119.168
 33.752 c 119.164 33.295 119.035 32.862 118.777 32.459 c 118.516 32.053 
118.137 31.741 117.648 31.514 c 117.156 31.291 116.605 31.182 115.996 31.178
 c 115.215 31.182 114.563 31.291 114.039 31.518 c 113.512 31.741 113.102
 32.081 112.805 32.541 c 112.504 32.995 112.348 33.51 112.332 34.084 c h
f
120.375 35.51 m 120.371 36.932 120.754 38.045 121.523 38.858 c 122.285 
39.663 123.273 40.069 124.492 40.069 c 125.281 40.069 125.996 39.877 126.633
 39.498 c 127.27 39.12 127.754 38.592 128.09 37.913 c 128.422 37.233 128.59
 36.463 128.594 35.608 c 128.59 34.737 128.414 33.959 128.066 33.272 c 127.711
 32.584 127.215 32.061 126.57 31.709 c 125.922 31.354 125.227 31.182 124.484
 31.178 c 123.676 31.182 122.953 31.373 122.316 31.764 c 121.676 32.151 
121.191 32.686 120.867 33.366 c 120.535 34.041 120.371 34.756 120.375 35.51
 c h
121.547 35.491 m 121.543 34.456 121.82 33.639 122.383 33.045 c 122.938 
32.448 123.637 32.151 124.477 32.155 c 125.332 32.151 126.035 32.452 126.59
 33.057 c 127.141 33.655 127.418 34.51 127.422 35.616 c 127.418 36.311 127.301
 36.92 127.066 37.444 c 126.828 37.967 126.48 38.37 126.027 38.659 c 125.566
 38.944 125.059 39.088 124.496 39.092 c 123.691 39.088 122.996 38.811 122.418
 38.26 c 121.832 37.706 121.543 36.784 121.547 35.491 c h
f
160.648 32.342 m 160.648 31.327 l 154.973 31.327 l 154.965 31.581 155.004
 31.823 155.094 32.061 c 155.238 32.444 155.469 32.827 155.789 33.202 c 
156.102 33.577 156.563 34.01 157.172 34.502 c 158.102 35.268 158.734 35.873
 159.063 36.319 c 159.391 36.764 159.555 37.186 159.555 37.592 c 159.555
 38.006 159.402 38.358 159.105 38.647 c 158.801 38.928 158.414 39.073 157.938
 39.077 c 157.43 39.073 157.023 38.92 156.719 38.62 c 156.414 38.311 156.258
 37.889 156.258 37.358 c 155.172 37.467 l 155.242 38.272 155.52 38.885 156.008
 39.315 c 156.488 39.737 157.141 39.952 157.961 39.952 c 158.781 39.952 
159.434 39.721 159.918 39.264 c 160.398 38.807 160.637 38.241 160.641 37.569
 c 160.637 37.221 160.566 36.885 160.43 36.553 c 160.285 36.217 160.051 
35.866 159.727 35.502 c 159.398 35.131 158.859 34.627 158.102 33.991 c 157.469
 33.456 157.063 33.096 156.883 32.909 c 156.703 32.721 156.555 32.53 156.438
 32.342 c h
f
162.172 31.327 m 162.172 39.916 l 163.883 39.916 l 165.914 33.834 l 166.098
 33.264 166.234 32.838 166.328 32.561 c 166.422 32.87 166.574 33.331 166.781
 33.94 c 168.84 39.916 l 170.367 39.916 l 170.367 31.327 l 169.273 31.327
 l 169.273 38.514 l 166.777 31.327 l 165.75 31.327 l 163.266 38.639 l 163.266
 31.327 l h
f
172.203 31.327 m 172.203 39.916 l 175.441 39.916 l 176.012 39.916 176.449
 39.889 176.75 39.834 c 177.172 39.764 177.523 39.627 177.809 39.432 c 178.094
 39.233 178.324 38.959 178.5 38.604 c 178.672 38.245 178.758 37.854 178.762
 37.432 c 178.758 36.698 178.527 36.077 178.063 35.577 c 177.594 35.069 
176.754 34.819 175.543 34.819 c 173.34 34.819 l 173.34 31.327 l h
173.34 35.834 m 175.559 35.834 l 176.289 35.831 176.813 35.967 177.125 
36.245 c 177.434 36.514 177.586 36.901 177.59 37.397 c 177.586 37.756 177.496
 38.061 177.316 38.319 c 177.133 38.569 176.895 38.741 176.598 38.827 c 
176.402 38.877 176.047 38.901 175.535 38.905 c 173.34 38.905 l h
f
179.82 34.084 m 180.891 34.178 l 180.941 33.748 181.059 33.397 181.246 
33.123 c 181.426 32.846 181.715 32.623 182.109 32.456 c 182.496 32.284 182.938
 32.198 183.43 32.202 c 183.859 32.198 184.242 32.264 184.578 32.393 c 184.91
 32.518 185.156 32.694 185.32 32.92 c 185.48 33.147 185.563 33.393 185.563
 33.659 c 185.563 33.924 185.484 34.159 185.328 34.362 c 185.172 34.565 
184.914 34.733 184.555 34.873 c 184.324 34.959 183.813 35.1 183.027 35.291
 c 182.234 35.479 181.684 35.659 181.367 35.827 c 180.953 36.038 180.645
 36.303 180.449 36.623 c 180.246 36.944 180.148 37.299 180.148 37.694 c 
180.148 38.127 180.27 38.534 180.516 38.909 c 180.762 39.284 181.121 39.569
 181.594 39.768 c 182.066 39.959 182.594 40.057 183.172 40.061 c 183.805
 40.057 184.363 39.956 184.855 39.752 c 185.34 39.549 185.715 39.248 185.977
 38.85 c 186.238 38.452 186.379 37.998 186.398 37.498 c 185.313 37.413 l
 185.25 37.956 185.051 38.366 184.715 38.643 c 184.375 38.92 183.879 39.061
 183.219 39.061 c 182.531 39.061 182.027 38.932 181.715 38.682 c 181.395
 38.424 181.238 38.123 181.242 37.772 c 181.238 37.463 181.352 37.209 181.578
 37.01 c 181.797 36.807 182.367 36.6 183.293 36.397 c 184.215 36.186 184.848
 36.006 185.195 35.85 c 185.691 35.62 186.063 35.327 186.301 34.975 c 186.535
 34.62 186.652 34.213 186.656 33.752 c 186.652 33.295 186.523 32.862 186.266
 32.459 c 186.004 32.053 185.625 31.741 185.137 31.514 c 184.645 31.291 
184.094 31.182 183.484 31.178 c 182.703 31.182 182.051 31.291 181.527 31.518
 c 181 31.741 180.59 32.081 180.293 32.541 c 179.992 32.995 179.836 33.51
 179.82 34.084 c h
f
187.863 35.51 m 187.859 36.932 188.242 38.045 189.012 38.858 c 189.773 
39.663 190.762 40.069 191.98 40.069 c 192.77 40.069 193.484 39.877 194.121
 39.498 c 194.758 39.12 195.242 38.592 195.578 37.913 c 195.91 37.233 196.078
 36.463 196.082 35.608 c 196.078 34.737 195.902 33.959 195.555 33.272 c 
195.199 32.584 194.703 32.061 194.059 31.709 c 193.41 31.354 192.715 31.182
 191.973 31.178 c 191.164 31.182 190.441 31.373 189.805 31.764 c 189.164
 32.151 188.68 32.686 188.355 33.366 c 188.023 34.041 187.859 34.756 187.863
 35.51 c h
189.035 35.491 m 189.031 34.456 189.309 33.639 189.871 33.045 c 190.426
 32.448 191.125 32.151 191.965 32.155 c 192.82 32.151 193.523 32.452 194.078
 33.057 c 194.629 33.655 194.906 34.51 194.91 35.616 c 194.906 36.311 194.789
 36.92 194.555 37.444 c 194.316 37.967 193.969 38.37 193.516 38.659 c 193.055
 38.944 192.547 39.088 191.984 39.092 c 191.18 39.088 190.484 38.811 189.906
 38.26 c 189.32 37.706 189.031 36.784 189.035 35.491 c h
f
197.289 36.053 5.672 -0.984 re f
209.668 32.342 m 209.668 31.327 l 203.992 31.327 l 203.984 31.581 204.023
 31.823 204.113 32.061 c 204.258 32.444 204.488 32.827 204.809 33.202 c 
205.121 33.577 205.582 34.01 206.191 34.502 c 207.121 35.268 207.754 35.873
 208.082 36.319 c 208.41 36.764 208.574 37.186 208.574 37.592 c 208.574 
38.006 208.422 38.358 208.125 38.647 c 207.82 38.928 207.434 39.073 206.957
 39.077 c 206.449 39.073 206.043 38.92 205.738 38.62 c 205.434 38.311 205.277
 37.889 205.277 37.358 c 204.191 37.467 l 204.262 38.272 204.539 38.885 
205.027 39.315 c 205.508 39.737 206.16 39.952 206.98 39.952 c 207.801 39.952
 208.453 39.721 208.938 39.264 c 209.418 38.807 209.656 38.241 209.66 37.569
 c 209.656 37.221 209.586 36.885 209.449 36.553 c 209.305 36.217 209.07 
35.866 208.746 35.502 c 208.418 35.131 207.879 34.627 207.121 33.991 c 206.488
 33.456 206.082 33.096 205.902 32.909 c 205.723 32.721 205.574 32.53 205.457
 32.342 c h
f
211.09 31.327 m 211.09 37.549 l 212.043 37.549 l 212.043 36.663 l 212.496
 37.346 213.156 37.69 214.02 37.69 c 214.391 37.69 214.734 37.62 215.055
 37.487 c 215.367 37.35 215.605 37.174 215.762 36.959 c 215.918 36.737 216.027
 36.479 216.09 36.178 c 216.129 35.983 216.148 35.639 216.148 35.155 c 216.148
 31.327 l 215.094 31.327 l 215.094 35.112 l 215.094 35.541 215.051 35.862
 214.969 36.077 c 214.887 36.288 214.742 36.456 214.535 36.584 c 214.324
 36.709 214.078 36.776 213.801 36.776 c 213.348 36.776 212.961 36.631 212.633
 36.346 c 212.305 36.061 212.141 35.522 212.145 34.725 c 212.145 31.327 
l h
f
221.801 31.327 m 221.801 32.112 l 221.402 31.495 220.82 31.186 220.059 
31.186 c 219.563 31.186 219.105 31.323 218.691 31.596 c 218.27 31.87 217.949
 32.248 217.723 32.741 c 217.496 33.225 217.383 33.791 217.383 34.432 c 
217.383 35.053 217.484 35.616 217.691 36.123 c 217.898 36.627 218.211 37.014
 218.625 37.284 c 219.039 37.553 219.5 37.69 220.012 37.69 c 220.383 37.69
 220.719 37.608 221.016 37.452 c 221.309 37.291 221.547 37.088 221.73 36.834
 c 221.73 39.916 l 222.777 39.916 l 222.777 31.327 l h
218.465 34.432 m 218.461 33.635 218.629 33.038 218.969 32.643 c 219.301
 32.248 219.699 32.053 220.16 32.053 c 220.621 32.053 221.012 32.241 221.332
 32.62 c 221.652 32.995 221.813 33.569 221.816 34.342 c 221.813 35.194 221.648
 35.819 221.324 36.221 c 220.992 36.616 220.59 36.815 220.113 36.819 c 219.645
 36.815 219.25 36.623 218.938 36.245 c 218.617 35.858 218.461 35.256 218.465
 34.432 c h
f
240.039 32.342 m 240.039 31.327 l 234.363 31.327 l 234.355 31.581 234.395
 31.823 234.484 32.061 c 234.629 32.444 234.859 32.827 235.18 33.202 c 235.492
 33.577 235.953 34.01 236.563 34.502 c 237.492 35.268 238.125 35.873 238.453
 36.319 c 238.781 36.764 238.945 37.186 238.945 37.592 c 238.945 38.006 
238.793 38.358 238.496 38.647 c 238.191 38.928 237.805 39.073 237.328 39.077
 c 236.82 39.073 236.414 38.92 236.109 38.62 c 235.805 38.311 235.648 37.889
 235.648 37.358 c 234.563 37.467 l 234.633 38.272 234.91 38.885 235.398 
39.315 c 235.879 39.737 236.531 39.952 237.352 39.952 c 238.172 39.952 238.824
 39.721 239.309 39.264 c 239.789 38.807 240.027 38.241 240.031 37.569 c 
240.027 37.221 239.957 36.885 239.82 36.553 c 239.676 36.217 239.441 35.866
 239.117 35.502 c 238.789 35.131 238.25 34.627 237.492 33.991 c 236.859 
33.456 236.453 33.096 236.273 32.909 c 236.094 32.721 235.945 32.53 235.828
 32.342 c h
f
241.563 31.327 m 241.563 39.916 l 243.273 39.916 l 245.305 33.834 l 245.488
 33.264 245.625 32.838 245.719 32.561 c 245.813 32.87 245.965 33.331 246.172
 33.94 c 248.23 39.916 l 249.758 39.916 l 249.758 31.327 l 248.664 31.327
 l 248.664 38.514 l 246.168 31.327 l 245.141 31.327 l 242.656 38.639 l 242.656
 31.327 l h
f
251.594 31.327 m 251.594 39.916 l 254.832 39.916 l 255.402 39.916 255.84
 39.889 256.141 39.834 c 256.563 39.764 256.914 39.627 257.199 39.432 c 
257.484 39.233 257.715 38.959 257.891 38.604 c 258.063 38.245 258.148 37.854
 258.152 37.432 c 258.148 36.698 257.918 36.077 257.453 35.577 c 256.984
 35.069 256.145 34.819 254.934 34.819 c 252.73 34.819 l 252.73 31.327 l 
h
252.73 35.834 m 254.949 35.834 l 255.68 35.831 256.203 35.967 256.516 36.245
 c 256.824 36.514 256.977 36.901 256.98 37.397 c 256.977 37.756 256.887 
38.061 256.707 38.319 c 256.523 38.569 256.285 38.741 255.988 38.827 c 255.793
 38.877 255.438 38.901 254.926 38.905 c 252.73 38.905 l h
f
259.211 34.084 m 260.281 34.178 l 260.332 33.748 260.449 33.397 260.637
 33.123 c 260.816 32.846 261.105 32.623 261.5 32.456 c 261.887 32.284 262.328
 32.198 262.82 32.202 c 263.25 32.198 263.633 32.264 263.969 32.393 c 264.301
 32.518 264.547 32.694 264.711 32.92 c 264.871 33.147 264.953 33.393 264.953
 33.659 c 264.953 33.924 264.875 34.159 264.719 34.362 c 264.563 34.565 
264.305 34.733 263.945 34.873 c 263.715 34.959 263.203 35.1 262.418 35.291
 c 261.625 35.479 261.074 35.659 260.758 35.827 c 260.344 36.038 260.035
 36.303 259.84 36.623 c 259.637 36.944 259.539 37.299 259.539 37.694 c 259.539
 38.127 259.66 38.534 259.906 38.909 c 260.152 39.284 260.512 39.569 260.984
 39.768 c 261.457 39.959 261.984 40.057 262.563 40.061 c 263.195 40.057 
263.754 39.956 264.246 39.752 c 264.73 39.549 265.105 39.248 265.367 38.85
 c 265.629 38.452 265.77 37.998 265.789 37.498 c 264.703 37.413 l 264.641
 37.956 264.441 38.366 264.105 38.643 c 263.766 38.92 263.27 39.061 262.609
 39.061 c 261.922 39.061 261.418 38.932 261.105 38.682 c 260.785 38.424 
260.629 38.123 260.633 37.772 c 260.629 37.463 260.742 37.209 260.969 37.01
 c 261.188 36.807 261.758 36.6 262.684 36.397 c 263.605 36.186 264.238 36.006
 264.586 35.85 c 265.082 35.62 265.453 35.327 265.691 34.975 c 265.926 34.62
 266.043 34.213 266.047 33.752 c 266.043 33.295 265.914 32.862 265.656 32.459
 c 265.395 32.053 265.016 31.741 264.527 31.514 c 264.035 31.291 263.484
 31.182 262.875 31.178 c 262.094 31.182 261.441 31.291 260.918 31.518 c 
260.391 31.741 259.98 32.081 259.684 32.541 c 259.383 32.995 259.227 33.51
 259.211 34.084 c h
f
267.254 35.51 m 267.25 36.932 267.633 38.045 268.402 38.858 c 269.164 39.663
 270.152 40.069 271.371 40.069 c 272.16 40.069 272.875 39.877 273.512 39.498
 c 274.148 39.12 274.633 38.592 274.969 37.913 c 275.301 37.233 275.469 
36.463 275.473 35.608 c 275.469 34.737 275.293 33.959 274.945 33.272 c 274.59
 32.584 274.094 32.061 273.449 31.709 c 272.801 31.354 272.105 31.182 271.363
 31.178 c 270.555 31.182 269.832 31.373 269.195 31.764 c 268.555 32.151 
268.07 32.686 267.746 33.366 c 267.414 34.041 267.25 34.756 267.254 35.51
 c h
268.426 35.491 m 268.422 34.456 268.699 33.639 269.262 33.045 c 269.816
 32.448 270.516 32.151 271.355 32.155 c 272.211 32.151 272.914 32.452 273.469
 33.057 c 274.02 33.655 274.297 34.51 274.301 35.616 c 274.297 36.311 274.18
 36.92 273.945 37.444 c 273.707 37.967 273.359 38.37 272.906 38.659 c 272.445
 38.944 271.938 39.088 271.375 39.092 c 270.57 39.088 269.875 38.811 269.297
 38.26 c 268.711 37.706 268.422 36.784 268.426 35.491 c h
f
276.68 36.053 5.672 -0.984 re f
286.129 31.327 m 286.129 38.905 l 283.301 38.905 l 283.301 39.916 l 290.109
 39.916 l 290.109 38.905 l 287.27 38.905 l 287.27 31.327 l h
f
289.691 31.327 m 289.691 37.549 l 290.637 37.549 l 290.637 36.608 l 290.879
 37.045 291.102 37.338 291.309 37.479 c 291.512 37.62 291.738 37.69 291.988
 37.69 c 292.34 37.69 292.703 37.577 293.07 37.35 c 292.707 36.373 l 292.449
 36.522 292.191 36.6 291.934 36.6 c 291.703 36.6 291.496 36.53 291.313 36.393
 c 291.125 36.252 290.992 36.061 290.918 35.815 c 290.801 35.44 290.742 
35.03 290.746 34.584 c 290.746 31.327 l h
f
297.957 33.331 m 299.047 33.194 l 298.875 32.557 298.555 32.065 298.09 
31.713 c 297.625 31.362 297.031 31.186 296.313 31.186 c 295.398 31.186 294.676
 31.463 294.145 32.026 c 293.605 32.581 293.34 33.37 293.344 34.385 c 293.34
 35.432 293.609 36.245 294.152 36.823 c 294.688 37.401 295.387 37.69 296.25
 37.69 c 297.082 37.69 297.762 37.405 298.289 36.838 c 298.816 36.272 299.082
 35.475 299.082 34.452 c 299.082 34.385 299.078 34.291 299.078 34.17 c 294.438
 34.17 l 294.469 33.483 294.664 32.959 295.016 32.596 c 295.363 32.233 295.797
 32.053 296.316 32.053 c 296.703 32.053 297.031 32.155 297.309 32.358 c 
297.578 32.561 297.797 32.885 297.957 33.331 c h
294.492 35.038 m 297.969 35.038 l 297.922 35.553 297.789 35.948 297.57 
36.213 c 297.234 36.62 296.797 36.823 296.266 36.823 c 295.777 36.823 295.371
 36.659 295.043 36.334 c 294.711 36.01 294.527 35.577 294.492 35.038 c h
f
304.629 33.331 m 305.719 33.194 l 305.547 32.557 305.227 32.065 304.762
 31.713 c 304.297 31.362 303.703 31.186 302.984 31.186 c 302.07 31.186 301.348
 31.463 300.816 32.026 c 300.277 32.581 300.012 33.37 300.016 34.385 c 300.012
 35.432 300.281 36.245 300.824 36.823 c 301.359 37.401 302.059 37.69 302.922
 37.69 c 303.754 37.69 304.434 37.405 304.961 36.838 c 305.488 36.272 305.754
 35.475 305.754 34.452 c 305.754 34.385 305.75 34.291 305.75 34.17 c 301.109
 34.17 l 301.141 33.483 301.336 32.959 301.688 32.596 c 302.035 32.233 302.469
 32.053 302.988 32.053 c 303.375 32.053 303.703 32.155 303.98 32.358 c 304.25
 32.561 304.469 32.885 304.629 33.331 c h
301.164 35.038 m 304.641 35.038 l 304.594 35.553 304.461 35.948 304.242
 36.213 c 303.906 36.62 303.469 36.823 302.938 36.823 c 302.449 36.823 302.043
 36.659 301.715 36.334 c 301.383 36.01 301.199 35.577 301.164 35.038 c h
f
323.449 31.327 m 323.449 38.905 l 320.621 38.905 l 320.621 39.916 l 327.43
 39.916 l 327.43 38.905 l 324.59 38.905 l 324.59 31.327 l h
f
327.012 31.327 m 327.012 37.549 l 327.957 37.549 l 327.957 36.608 l 328.199
 37.045 328.422 37.338 328.629 37.479 c 328.832 37.62 329.059 37.69 329.309
 37.69 c 329.66 37.69 330.023 37.577 330.391 37.35 c 330.027 36.373 l 329.77
 36.522 329.512 36.6 329.254 36.6 c 329.023 36.6 328.816 36.53 328.633 36.393
 c 328.445 36.252 328.313 36.061 328.238 35.815 c 328.121 35.44 328.063 
35.03 328.066 34.584 c 328.066 31.327 l h
f
335.277 33.331 m 336.367 33.194 l 336.195 32.557 335.875 32.065 335.41 
31.713 c 334.945 31.362 334.352 31.186 333.633 31.186 c 332.719 31.186 331.996
 31.463 331.465 32.026 c 330.926 32.581 330.66 33.37 330.664 34.385 c 330.66
 35.432 330.93 36.245 331.473 36.823 c 332.008 37.401 332.707 37.69 333.57
 37.69 c 334.402 37.69 335.082 37.405 335.609 36.838 c 336.137 36.272 336.402
 35.475 336.402 34.452 c 336.402 34.385 336.398 34.291 336.398 34.17 c 331.758
 34.17 l 331.789 33.483 331.984 32.959 332.336 32.596 c 332.684 32.233 333.117
 32.053 333.637 32.053 c 334.023 32.053 334.352 32.155 334.629 32.358 c 
334.898 32.561 335.117 32.885 335.277 33.331 c h
331.813 35.038 m 335.289 35.038 l 335.242 35.553 335.109 35.948 334.891
 36.213 c 334.555 36.62 334.117 36.823 333.586 36.823 c 333.098 36.823 332.691
 36.659 332.363 36.334 c 332.031 36.01 331.848 35.577 331.813 35.038 c h
f
341.949 33.331 m 343.039 33.194 l 342.867 32.557 342.547 32.065 342.082
 31.713 c 341.617 31.362 341.023 31.186 340.305 31.186 c 339.391 31.186 
338.668 31.463 338.137 32.026 c 337.598 32.581 337.332 33.37 337.336 34.385
 c 337.332 35.432 337.602 36.245 338.145 36.823 c 338.68 37.401 339.379 
37.69 340.242 37.69 c 341.074 37.69 341.754 37.405 342.281 36.838 c 342.809
 36.272 343.074 35.475 343.074 34.452 c 343.074 34.385 343.07 34.291 343.07
 34.17 c 338.43 34.17 l 338.461 33.483 338.656 32.959 339.008 32.596 c 339.355
 32.233 339.789 32.053 340.309 32.053 c 340.695 32.053 341.023 32.155 341.301
 32.358 c 341.57 32.561 341.789 32.885 341.949 33.331 c h
338.484 35.038 m 341.961 35.038 l 341.914 35.553 341.781 35.948 341.563
 36.213 c 341.227 36.62 340.789 36.823 340.258 36.823 c 339.77 36.823 339.363
 36.659 339.035 36.334 c 338.703 36.01 338.52 35.577 338.484 35.038 c h
f
346.578 32.717 m 346.578 35.069 l 344.238 35.069 l 344.238 36.053 l 346.578
 36.053 l 346.578 38.393 l 347.57 38.393 l 347.57 36.053 l 349.91 36.053
 l 349.91 35.069 l 347.57 35.069 l 347.57 32.717 l h
f
356.617 32.342 m 356.617 31.327 l 350.941 31.327 l 350.934 31.581 350.973
 31.823 351.063 32.061 c 351.207 32.444 351.438 32.827 351.758 33.202 c 
352.07 33.577 352.531 34.01 353.141 34.502 c 354.07 35.268 354.703 35.873
 355.031 36.319 c 355.359 36.764 355.523 37.186 355.523 37.592 c 355.523
 38.006 355.371 38.358 355.074 38.647 c 354.77 38.928 354.383 39.073 353.906
 39.077 c 353.398 39.073 352.992 38.92 352.688 38.62 c 352.383 38.311 352.227
 37.889 352.227 37.358 c 351.141 37.467 l 351.211 38.272 351.488 38.885 
351.977 39.315 c 352.457 39.737 353.109 39.952 353.93 39.952 c 354.75 39.952
 355.402 39.721 355.887 39.264 c 356.367 38.807 356.605 38.241 356.609 37.569
 c 356.605 37.221 356.535 36.885 356.398 36.553 c 356.254 36.217 356.02 
35.866 355.695 35.502 c 355.367 35.131 354.828 34.627 354.07 33.991 c 353.438
 33.456 353.031 33.096 352.852 32.909 c 352.672 32.721 352.523 32.53 352.406
 32.342 c h
f
357.828 35.51 m 357.824 36.932 358.207 38.045 358.977 38.858 c 359.738 
39.663 360.727 40.069 361.945 40.069 c 362.734 40.069 363.449 39.877 364.086
 39.498 c 364.723 39.12 365.207 38.592 365.543 37.913 c 365.875 37.233 366.043
 36.463 366.047 35.608 c 366.043 34.737 365.867 33.959 365.52 33.272 c 365.164
 32.584 364.668 32.061 364.023 31.709 c 363.375 31.354 362.68 31.182 361.938
 31.178 c 361.129 31.182 360.406 31.373 359.77 31.764 c 359.129 32.151 358.645
 32.686 358.32 33.366 c 357.988 34.041 357.824 34.756 357.828 35.51 c h
359 35.491 m 358.996 34.456 359.273 33.639 359.836 33.045 c 360.391 32.448
 361.09 32.151 361.93 32.155 c 362.785 32.151 363.488 32.452 364.043 33.057
 c 364.594 33.655 364.871 34.51 364.875 35.616 c 364.871 36.311 364.754 
36.92 364.52 37.444 c 364.281 37.967 363.934 38.37 363.48 38.659 c 363.02
 38.944 362.512 39.088 361.949 39.092 c 361.145 39.088 360.449 38.811 359.871
 38.26 c 359.285 37.706 358.996 36.784 359 35.491 c h
f
367.512 31.327 m 367.512 39.916 l 370.75 39.916 l 371.32 39.916 371.758
 39.889 372.059 39.834 c 372.48 39.764 372.832 39.627 373.117 39.432 c 373.402
 39.233 373.633 38.959 373.809 38.604 c 373.98 38.245 374.066 37.854 374.07
 37.432 c 374.066 36.698 373.836 36.077 373.371 35.577 c 372.902 35.069 
372.063 34.819 370.852 34.819 c 368.648 34.819 l 368.648 31.327 l h
368.648 35.834 m 370.867 35.834 l 371.598 35.831 372.121 35.967 372.434
 36.245 c 372.742 36.514 372.895 36.901 372.898 37.397 c 372.895 37.756 
372.805 38.061 372.625 38.319 c 372.441 38.569 372.203 38.741 371.906 38.827
 c 371.711 38.877 371.355 38.901 370.844 38.905 c 368.648 38.905 l h
f
377.703 31.327 m 377.703 38.905 l 374.875 38.905 l 374.875 39.916 l 381.684
 39.916 l 381.684 38.905 l 378.844 38.905 l 378.844 31.327 l h
f
54.668 72.514 m 54.668 497.373 l S
54.668 72.514 m 47.469 72.514 l S
54.668 178.737 m 47.469 178.737 l S
54.668 284.944 m 47.469 284.944 l S
54.668 391.166 m 47.469 391.166 l S
54.668 497.373 m 47.469 497.373 l S
37.391 68.643 m 37.391 67.588 l 30.672 67.588 l 30.914 67.334 31.156 67.002
 31.395 66.588 c 31.641 66.174 31.82 65.803 31.941 65.479 c 30.922 65.479
 l 30.648 66.069 30.313 66.584 29.914 67.026 c 29.52 67.467 29.137 67.78
 28.766 67.963 c 28.766 68.643 l h
f
36.188 73.135 1.203 -1.199 re f
33.156 74.682 m 32.145 74.678 31.328 74.784 30.703 74.995 c 30.086 75.202
 29.605 75.51 29.27 75.924 c 28.934 76.331 28.766 76.85 28.766 77.479 c 
28.766 77.94 28.859 78.346 29.043 78.694 c 29.23 79.038 29.5 79.323 29.848
 79.553 c 30.199 79.776 30.625 79.956 31.125 80.088 c 31.629 80.217 32.305
 80.28 33.156 80.284 c 34.164 80.28 34.977 80.178 35.594 79.971 c 36.215
 79.76 36.695 79.448 37.031 79.041 c 37.371 78.627 37.535 78.108 37.539 
77.479 c 37.535 76.647 37.242 75.998 36.648 75.53 c 35.934 74.963 34.77 
74.678 33.156 74.682 c h
33.156 75.764 m 34.566 75.764 35.504 75.928 35.973 76.256 c 36.441 76.584
 36.676 76.991 36.672 77.479 c 36.676 77.959 36.441 78.366 35.969 78.702
 c 35.504 79.03 34.566 79.198 33.156 79.198 c 31.742 79.198 30.801 79.03
 30.336 78.702 c 29.875 78.366 29.645 77.956 29.641 77.471 c 29.645 76.983
 29.848 76.596 30.254 76.307 c 30.777 75.944 31.746 75.764 33.156 75.764
 c h
f
37.391 174.866 m 37.391 173.811 l 30.672 173.811 l 30.914 173.557 31.156
 173.225 31.395 172.811 c 31.641 172.397 31.82 172.026 31.941 171.702 c 
30.922 171.702 l 30.648 172.291 30.313 172.807 29.914 173.248 c 29.52 173.69
 29.137 174.002 28.766 174.186 c 28.766 174.866 l h
f
36.188 179.358 1.203 -1.199 re f
36.375 186.444 m 37.391 186.444 l 37.391 180.768 l 37.137 180.76 36.895
 180.799 36.656 180.889 c 36.273 181.034 35.891 181.264 35.516 181.584 c
 35.141 181.897 34.707 182.358 34.215 182.967 c 33.449 183.897 32.844 184.53
 32.398 184.858 c 31.953 185.186 31.531 185.35 31.125 185.35 c 30.711 185.35
 30.359 185.198 30.07 184.901 c 29.789 184.596 29.645 184.209 29.641 183.733
 c 29.645 183.225 29.797 182.819 30.098 182.514 c 30.406 182.209 30.828 
182.053 31.359 182.053 c 31.25 180.967 l 30.445 181.038 29.832 181.315 29.402
 181.803 c 28.98 182.284 28.766 182.936 28.766 183.756 c 28.766 184.577 
28.996 185.229 29.453 185.713 c 29.91 186.194 30.477 186.432 31.148 186.436
 c 31.496 186.432 31.832 186.362 32.164 186.225 c 32.5 186.081 32.852 185.846
 33.215 185.522 c 33.586 185.194 34.09 184.655 34.727 183.897 c 35.262 183.264
 35.621 182.858 35.809 182.678 c 35.996 182.498 36.188 182.35 36.375 182.233
 c h
f
37.391 281.073 m 37.391 280.018 l 30.672 280.018 l 30.914 279.764 31.156
 279.432 31.395 279.018 c 31.641 278.604 31.82 278.233 31.941 277.909 c 
30.922 277.909 l 30.648 278.498 30.313 279.014 29.914 279.456 c 29.52 279.897
 29.137 280.209 28.766 280.393 c 28.766 281.073 l h
f
36.188 285.565 1.203 -1.199 re f
37.391 290.491 m 35.336 290.491 l 35.336 286.764 l 34.367 286.764 l 28.801
 290.682 l 28.801 291.545 l 34.367 291.545 l 34.367 292.706 l 35.336 292.706
 l 35.336 291.545 l 37.391 291.545 l h
34.367 290.491 m 30.492 290.491 l 34.367 287.799 l h
f
37.391 387.295 m 37.391 386.241 l 30.672 386.241 l 30.914 385.987 31.156
 385.655 31.395 385.241 c 31.641 384.827 31.82 384.456 31.941 384.131 c 
30.922 384.131 l 30.648 384.721 30.313 385.237 29.914 385.678 c 29.52 386.12
 29.137 386.432 28.766 386.616 c 28.766 387.295 l h
f
36.188 391.788 1.203 -1.199 re f
30.906 398.803 m 30.984 397.756 l 30.578 397.663 30.277 397.53 30.086 397.358
 c 29.785 397.069 29.633 396.717 29.633 396.303 c 29.633 395.967 29.727 
395.67 29.914 395.42 c 30.156 395.084 30.512 394.823 30.977 394.631 c 31.441
 394.44 32.102 394.342 32.961 394.334 c 32.578 394.588 32.293 394.897 32.102
 395.268 c 31.918 395.631 31.824 396.018 31.82 396.42 c 31.824 397.123 32.082
 397.721 32.598 398.217 c 33.113 398.709 33.781 398.956 34.602 398.959 c
 35.141 398.956 35.645 398.838 36.105 398.608 c 36.57 398.373 36.922 398.057
 37.168 397.651 c 37.414 397.245 37.535 396.784 37.539 396.268 c 37.535 
395.389 37.215 394.67 36.57 394.12 c 35.922 393.561 34.855 393.284 33.371
 393.288 c 31.715 393.284 30.508 393.592 29.75 394.206 c 29.094 394.737 
28.766 395.456 28.766 396.366 c 28.766 397.041 28.957 397.596 29.336 398.03
 c 29.715 398.459 30.238 398.717 30.906 398.803 c h
34.609 394.498 m 34.973 394.498 35.32 394.573 35.652 394.729 c 35.984 394.877
 36.238 395.096 36.41 395.377 c 36.59 395.655 36.676 395.944 36.672 396.248
 c 36.676 396.694 36.496 397.077 36.133 397.401 c 35.777 397.717 35.289 
397.877 34.664 397.881 c 34.074 397.877 33.605 397.721 33.262 397.405 c 
32.922 397.084 32.75 396.686 32.75 396.209 c 32.75 395.733 32.922 395.327
 33.262 394.995 c 33.605 394.663 34.055 394.498 34.609 394.498 c h
f
37.391 493.502 m 37.391 492.448 l 30.672 492.448 l 30.914 492.194 31.156
 491.862 31.395 491.448 c 31.641 491.034 31.82 490.663 31.941 490.338 c 
30.922 490.338 l 30.648 490.928 30.313 491.444 29.914 491.885 c 29.52 492.327
 29.137 492.639 28.766 492.823 c 28.766 493.502 l h
f
36.188 497.995 1.203 -1.199 re f
32.734 501.163 m 32.574 500.725 32.344 500.401 32.047 500.19 c 31.75 499.979
 31.395 499.873 30.98 499.873 c 30.355 499.873 29.832 500.096 29.406 500.545
 c 28.98 500.995 28.766 501.592 28.766 502.338 c 28.766 503.084 28.984 503.69
 29.418 504.151 c 29.855 504.608 30.387 504.834 31.008 504.838 c 31.414 
504.834 31.762 504.729 32.051 504.522 c 32.348 504.311 32.574 503.995 32.734
 503.573 c 32.91 504.096 33.188 504.498 33.566 504.776 c 33.953 505.049 
34.41 505.186 34.938 505.19 c 35.676 505.186 36.293 504.928 36.789 504.409
 c 37.289 503.885 37.535 503.202 37.539 502.358 c 37.535 501.51 37.289 500.827
 36.785 500.307 c 36.285 499.784 35.656 499.522 34.906 499.526 c 34.352 
499.522 33.887 499.663 33.504 499.952 c 33.129 500.233 32.871 500.639 32.734
 501.163 c h
30.945 500.952 m 31.352 500.952 31.684 501.081 31.941 501.342 c 32.199 
501.604 32.328 501.944 32.328 502.362 c 32.328 502.764 32.203 503.096 31.945
 503.362 c 31.695 503.62 31.379 503.752 31.004 503.752 c 30.617 503.752 
30.293 503.616 30.027 503.35 c 29.766 503.077 29.633 502.745 29.633 502.354
 c 29.633 501.948 29.762 501.616 30.02 501.35 c 30.277 501.084 30.586 500.952
 30.945 500.952 c h
34.914 500.612 m 35.215 500.612 35.504 500.682 35.785 500.827 c 36.066 
500.967 36.285 501.178 36.441 501.463 c 36.598 501.741 36.676 502.045 36.672
 502.37 c 36.676 502.873 36.512 503.288 36.184 503.62 c 35.859 503.944 35.449
 504.108 34.945 504.112 c 34.445 504.108 34.023 503.94 33.688 503.604 c 
33.355 503.264 33.191 502.842 33.188 502.334 c 33.191 501.834 33.355 501.42
 33.68 501.1 c 34.012 500.772 34.422 500.612 34.914 500.612 c h
f
204.184 2.526 m 207.48 11.116 l 208.707 11.116 l 212.223 2.526 l 210.926
 2.526 l 209.926 5.127 l 206.332 5.127 l 205.387 2.526 l h
206.66 6.053 m 209.574 6.053 l 208.676 8.432 l 208.402 9.155 208.199 9.748
 208.066 10.213 c 207.957 9.659 207.801 9.112 207.605 8.573 c h
f
212.969 2.526 m 212.969 11.116 l 214.023 11.116 l 214.023 2.526 l h
f
215.465 2.01 m 216.492 1.858 l 216.531 1.545 216.652 1.315 216.848 1.166
 c 217.109 0.971 217.465 0.873 217.922 0.873 c 218.406 0.873 218.785 0.971
 219.051 1.166 c 219.316 1.362 219.496 1.635 219.59 1.987 c 219.645 2.202
 219.668 2.651 219.664 3.338 c 219.203 2.795 218.629 2.526 217.945 2.526
 c 217.086 2.526 216.426 2.834 215.957 3.452 c 215.488 4.069 215.254 4.807
 215.254 5.674 c 215.254 6.264 215.359 6.811 215.574 7.315 c 215.789 7.815
 216.102 8.206 216.512 8.479 c 216.918 8.752 217.398 8.889 217.949 8.889
 c 218.684 8.889 219.289 8.592 219.766 7.998 c 219.766 8.748 l 220.738 8.748
 l 220.738 3.37 l 220.738 2.401 220.637 1.717 220.441 1.311 c 220.242 0.913
 219.93 0.592 219.504 0.354 c 219.074 0.123 218.551 0.006 217.926 0.002 
c 217.184 0.006 216.582 0.174 216.125 0.502 c 215.668 0.838 215.449 1.338
 215.465 2.01 c h
216.336 5.748 m 216.332 4.932 216.496 4.334 216.824 3.963 c 217.148 3.584
 217.555 3.397 218.043 3.401 c 218.527 3.397 218.934 3.584 219.262 3.959
 c 219.59 4.331 219.754 4.916 219.754 5.713 c 219.754 6.471 219.582 7.045
 219.246 7.436 c 218.906 7.823 218.5 8.014 218.023 8.018 c 217.551 8.014
 217.152 7.823 216.828 7.444 c 216.496 7.061 216.332 6.498 216.336 5.748
 c h
f
221.938 5.635 m 221.938 6.788 222.258 7.643 222.898 8.198 c 223.434 8.659
 224.086 8.889 224.855 8.889 c 225.711 8.889 226.41 8.608 226.953 8.045 
c 227.492 7.483 227.762 6.709 227.766 5.725 c 227.762 4.924 227.641 4.291
 227.406 3.834 c 227.164 3.373 226.816 3.018 226.359 2.764 c 225.898 2.51
 225.398 2.385 224.855 2.385 c 223.98 2.385 223.273 2.663 222.742 3.221 
c 222.203 3.78 221.938 4.584 221.938 5.635 c h
223.023 5.635 m 223.02 4.834 223.195 4.237 223.543 3.846 c 223.887 3.448
 224.324 3.252 224.855 3.252 c 225.379 3.252 225.813 3.452 226.16 3.85 c
 226.508 4.248 226.684 4.854 226.684 5.674 c 226.684 6.44 226.508 7.022 
226.156 7.42 c 225.805 7.815 225.371 8.014 224.855 8.018 c 224.324 8.014
 223.887 7.819 223.543 7.424 c 223.195 7.026 223.02 6.428 223.023 5.635 
c h
f
228.992 2.526 m 228.992 8.748 l 229.938 8.748 l 229.938 7.807 l 230.18 
8.245 230.402 8.538 230.609 8.678 c 230.813 8.819 231.039 8.889 231.289 
8.889 c 231.641 8.889 232.004 8.776 232.371 8.549 c 232.008 7.573 l 231.75
 7.721 231.492 7.799 231.234 7.799 c 231.004 7.799 230.797 7.729 230.613
 7.592 c 230.426 7.452 230.293 7.26 230.219 7.014 c 230.102 6.639 230.043
 6.229 230.047 5.784 c 230.047 2.526 l h
f
233.184 9.901 m 233.184 11.116 l 234.238 11.116 l 234.238 9.901 l h
233.184 2.526 m 233.184 8.748 l 234.238 8.748 l 234.238 2.526 l h
f
238.145 3.471 m 238.297 2.538 l 238 2.475 237.734 2.444 237.5 2.444 c 237.117
 2.444 236.82 2.502 236.609 2.623 c 236.398 2.745 236.25 2.905 236.164 3.104
 c 236.078 3.299 236.035 3.713 236.035 4.346 c 236.035 7.928 l 235.262 7.928
 l 235.262 8.748 l 236.035 8.748 l 236.035 10.291 l 237.082 10.924 l 237.082
 8.748 l 238.145 8.748 l 238.145 7.928 l 237.082 7.928 l 237.082 4.291 l
 237.078 3.987 237.098 3.795 237.137 3.709 c 237.176 3.623 237.234 3.553
 237.32 3.502 c 237.402 3.452 237.523 3.428 237.684 3.428 c 237.793 3.428
 237.949 3.44 238.145 3.471 c h
f
239.176 2.526 m 239.176 11.116 l 240.23 11.116 l 240.23 8.034 l 240.723
 8.604 241.344 8.889 242.098 8.889 c 242.551 8.889 242.953 8.795 243.297
 8.616 c 243.637 8.432 243.879 8.182 244.027 7.866 c 244.172 7.541 244.246
 7.077 244.246 6.471 c 244.246 2.526 l 243.191 2.526 l 243.191 6.471 l 243.191
 6.995 243.074 7.377 242.848 7.62 c 242.613 7.854 242.293 7.975 241.879 
7.979 c 241.566 7.975 241.27 7.893 240.996 7.737 c 240.715 7.573 240.52 
7.354 240.406 7.077 c 240.285 6.799 240.227 6.416 240.23 5.932 c 240.23 
2.526 l h
f
245.848 2.526 m 245.848 8.748 l 246.793 8.748 l 246.793 7.877 l 246.988
 8.174 247.246 8.42 247.57 8.608 c 247.895 8.795 248.266 8.889 248.68 8.889
 c 249.141 8.889 249.516 8.791 249.813 8.6 c 250.102 8.409 250.313 8.143
 250.438 7.799 c 250.93 8.526 251.57 8.889 252.359 8.889 c 252.977 8.889
 253.449 8.717 253.781 8.373 c 254.113 8.03 254.281 7.502 254.281 6.799 
c 254.281 2.526 l 253.23 2.526 l 253.23 6.448 l 253.227 6.866 253.191 7.17
 253.129 7.358 c 253.059 7.541 252.938 7.69 252.758 7.803 c 252.578 7.916
 252.367 7.975 252.125 7.975 c 251.688 7.975 251.324 7.827 251.035 7.538
 c 250.746 7.245 250.602 6.78 250.602 6.143 c 250.602 2.526 l 249.547 2.526
 l 249.547 6.569 l 249.547 7.038 249.461 7.389 249.289 7.623 c 249.117 7.858
 248.836 7.975 248.445 7.975 c 248.148 7.975 247.871 7.897 247.621 7.741
 c 247.367 7.584 247.188 7.354 247.074 7.053 c 246.957 6.752 246.898 6.319
 246.902 5.752 c 246.902 2.526 l h
f
8.59 242.092 m 0 242.092 l 0 245.897 l 0 246.659 0.078 247.241 0.234 247.643
 c 0.391 248.038 0.664 248.358 1.051 248.6 c 1.445 248.838 1.875 248.956
 2.344 248.959 c 2.953 248.956 3.469 248.76 3.887 248.366 c 4.305 247.967
 4.57 247.358 4.684 246.538 c 4.828 246.838 4.969 247.065 5.109 247.225 
c 5.414 247.553 5.797 247.87 6.254 248.166 c 8.59 249.663 l 8.59 248.233
 l 6.801 247.092 l 6.289 246.76 5.895 246.487 5.617 246.272 c 5.348 246.057
 5.156 245.866 5.043 245.698 c 4.938 245.526 4.859 245.354 4.816 245.178
 c 4.793 245.045 4.781 244.834 4.777 244.545 c 4.777 243.225 l 8.59 243.225
 l h
3.793 243.225 m 3.793 245.67 l 3.797 246.19 3.742 246.596 3.633 246.889
 c 3.523 247.178 3.352 247.401 3.117 247.557 c 2.883 247.709 2.625 247.784
 2.344 247.788 c 1.938 247.784 1.605 247.635 1.344 247.342 c 1.082 247.045
 0.949 246.581 0.949 245.944 c 0.949 243.225 l h
f
6.586 254.862 m 6.723 255.952 l 7.359 255.78 7.852 255.459 8.203 254.995
 c 8.555 254.53 8.73 253.936 8.73 253.217 c 8.73 252.303 8.453 251.581 7.891
 251.049 c 7.336 250.51 6.547 250.245 5.531 250.248 c 4.484 250.245 3.672
 250.514 3.094 251.057 c 2.516 251.592 2.227 252.291 2.227 253.155 c 2.227
 253.987 2.512 254.666 3.078 255.194 c 3.645 255.721 4.441 255.987 5.465
 255.987 c 5.531 255.987 5.625 255.983 5.746 255.983 c 5.746 251.342 l 6.434
 251.373 6.957 251.569 7.32 251.92 c 7.684 252.268 7.863 252.702 7.863 253.221
 c 7.863 253.608 7.762 253.936 7.559 254.213 c 7.355 254.483 7.031 254.702
 6.586 254.862 c h
4.879 251.397 m 4.879 254.873 l 4.363 254.827 3.969 254.694 3.703 254.475
 c 3.297 254.139 3.094 253.702 3.094 253.17 c 3.094 252.682 3.258 252.276
 3.582 251.948 c 3.906 251.616 4.34 251.432 4.879 251.397 c h
f
0 258.303 8.59 -1.055 re f
7.824 263.998 m 8.156 263.608 8.391 263.229 8.527 262.87 c 8.664 262.502
 8.73 262.116 8.73 261.709 c 8.73 261.022 8.566 260.498 8.23 260.131 c 7.902
 259.764 7.473 259.581 6.949 259.581 c 6.645 259.581 6.367 259.647 6.117
 259.788 c 5.867 259.924 5.664 260.108 5.508 260.334 c 5.355 260.557 5.242
 260.811 5.16 261.092 c 5.113 261.299 5.059 261.612 5.004 262.03 c 4.902
 262.881 4.781 263.506 4.641 263.913 c 4.5 263.913 4.41 263.916 4.363 263.916
 c 3.941 263.916 3.637 263.815 3.457 263.616 c 3.219 263.346 3.102 262.948
 3.098 262.416 c 3.102 261.916 3.188 261.549 3.359 261.315 c 3.535 261.081
 3.844 260.905 4.285 260.795 c 4.145 259.764 l 3.703 259.854 3.348 260.01
 3.074 260.225 c 2.809 260.436 2.598 260.745 2.449 261.155 c 2.301 261.557
 2.227 262.03 2.227 262.569 c 2.227 263.1 2.289 263.53 2.414 263.862 c 2.539
 264.194 2.699 264.44 2.887 264.596 c 3.078 264.752 3.316 264.862 3.605 
264.924 c 3.785 264.956 4.109 264.971 4.574 264.975 c 5.98 264.975 l 6.965
 264.971 7.586 264.995 7.844 265.041 c 8.105 265.088 8.352 265.178 8.59 
265.311 c 8.59 264.209 l 8.371 264.1 8.117 264.03 7.824 263.998 c h
5.465 263.913 m 5.625 263.522 5.758 262.948 5.863 262.186 c 5.93 261.752
 6 261.448 6.074 261.268 c 6.156 261.088 6.27 260.948 6.418 260.85 c 6.57
 260.752 6.738 260.706 6.918 260.706 c 7.203 260.706 7.438 260.811 7.621
 261.022 c 7.813 261.233 7.906 261.545 7.902 261.959 c 7.906 262.366 7.816
 262.725 7.637 263.041 c 7.461 263.358 7.219 263.592 6.91 263.741 c 6.672
 263.854 6.32 263.909 5.855 263.913 c h
f
7.645 268.913 m 8.578 269.065 l 8.641 268.768 8.672 268.502 8.672 268.268
 c 8.672 267.885 8.613 267.588 8.492 267.377 c 8.371 267.166 8.211 267.018
 8.012 266.932 c 7.816 266.846 7.402 266.803 6.77 266.803 c 3.188 266.803
 l 3.188 266.03 l 2.367 266.03 l 2.367 266.803 l 0.824 266.803 l 0.191 267.85
 l 2.367 267.85 l 2.367 268.913 l 3.188 268.913 l 3.188 267.85 l 6.824 267.85
 l 7.129 267.846 7.32 267.866 7.406 267.905 c 7.492 267.944 7.563 268.002
 7.613 268.088 c 7.664 268.17 7.688 268.291 7.688 268.452 c 7.688 268.561
 7.676 268.717 7.645 268.913 c h
f
1.215 269.952 m 0 269.952 l 0 271.006 l 1.215 271.006 l h
8.59 269.952 m 2.367 269.952 l 2.367 271.006 l 8.59 271.006 l h
f
8.59 274.338 m 2.367 271.971 l 2.367 273.084 l 6.094 274.42 l 6.5 274.565
 6.918 274.698 7.348 274.819 c 7.02 274.913 6.625 275.041 6.164 275.209 
c 2.367 276.592 l 2.367 277.678 l 8.59 275.323 l h
f
6.586 282.569 m 6.723 283.659 l 7.359 283.487 7.852 283.166 8.203 282.702
 c 8.555 282.237 8.73 281.643 8.73 280.924 c 8.73 280.01 8.453 279.288 7.891
 278.756 c 7.336 278.217 6.547 277.952 5.531 277.956 c 4.484 277.952 3.672
 278.221 3.094 278.764 c 2.516 279.299 2.227 279.998 2.227 280.862 c 2.227
 281.694 2.512 282.373 3.078 282.901 c 3.645 283.428 4.441 283.694 5.465
 283.694 c 5.531 283.694 5.625 283.69 5.746 283.69 c 5.746 279.049 l 6.434
 279.081 6.957 279.276 7.32 279.627 c 7.684 279.975 7.863 280.409 7.863 
280.928 c 7.863 281.315 7.762 281.643 7.559 281.92 c 7.355 282.19 7.031 
282.409 6.586 282.569 c h
4.879 279.104 m 4.879 282.581 l 4.363 282.534 3.969 282.401 3.703 282.182
 c 3.297 281.846 3.094 281.409 3.094 280.877 c 3.094 280.389 3.258 279.983
 3.582 279.655 c 3.906 279.323 4.34 279.139 4.879 279.104 c h
f
8.59 288.307 m 2.367 288.307 l 2.367 289.252 l 3.309 289.252 l 2.871 289.495
 2.578 289.717 2.438 289.924 c 2.297 290.127 2.227 290.354 2.227 290.604
 c 2.227 290.956 2.34 291.319 2.566 291.686 c 3.543 291.323 l 3.395 291.065
 3.316 290.807 3.316 290.549 c 3.316 290.319 3.387 290.112 3.523 289.928
 c 3.664 289.741 3.855 289.608 4.102 289.534 c 4.477 289.416 4.887 289.358
 5.332 289.362 c 8.59 289.362 l h
f
6.586 296.573 m 6.723 297.663 l 7.359 297.491 7.852 297.17 8.203 296.706
 c 8.555 296.241 8.73 295.647 8.73 294.928 c 8.73 294.014 8.453 293.291 
7.891 292.76 c 7.336 292.221 6.547 291.956 5.531 291.959 c 4.484 291.956
 3.672 292.225 3.094 292.768 c 2.516 293.303 2.227 294.002 2.227 294.866
 c 2.227 295.698 2.512 296.377 3.078 296.905 c 3.645 297.432 4.441 297.698
 5.465 297.698 c 5.531 297.698 5.625 297.694 5.746 297.694 c 5.746 293.053
 l 6.434 293.084 6.957 293.28 7.32 293.631 c 7.684 293.979 7.863 294.413
 7.863 294.932 c 7.863 295.319 7.762 295.647 7.559 295.924 c 7.355 296.194
 7.031 296.413 6.586 296.573 c h
4.879 293.108 m 4.879 296.584 l 4.363 296.538 3.969 296.405 3.703 296.186
 c 3.297 295.85 3.094 295.413 3.094 294.881 c 3.094 294.393 3.258 293.987
 3.582 293.659 c 3.906 293.327 4.34 293.143 4.879 293.108 c h
f
6.73 298.561 m 6.566 299.608 l 6.988 299.663 7.309 299.827 7.531 300.096
 c 7.754 300.362 7.863 300.737 7.863 301.217 c 7.863 301.702 7.766 302.061
 7.566 302.295 c 7.371 302.53 7.141 302.647 6.871 302.647 c 6.637 302.647
 6.449 302.541 6.309 302.334 c 6.219 302.19 6.098 301.831 5.953 301.256 
c 5.758 300.483 5.59 299.948 5.445 299.651 c 5.305 299.35 5.109 299.123 
4.855 298.971 c 4.605 298.815 4.324 298.737 4.02 298.741 c 3.746 298.737
 3.492 298.799 3.25 298.928 c 3.016 299.053 2.816 299.229 2.66 299.448 c
 2.543 299.612 2.441 299.834 2.355 300.12 c 2.27 300.401 2.227 300.706 2.227
 301.03 c 2.227 301.518 2.297 301.944 2.438 302.315 c 2.578 302.682 2.77
 302.956 3.012 303.131 c 3.254 303.307 3.574 303.428 3.973 303.498 c 4.113
 302.467 l 3.793 302.416 3.543 302.28 3.363 302.057 c 3.184 301.831 3.094
 301.514 3.094 301.108 c 3.094 300.62 3.176 300.276 3.336 300.069 c 3.496
 299.858 3.684 299.752 3.895 299.756 c 4.035 299.752 4.156 299.795 4.266
 299.889 c 4.379 299.967 4.473 300.104 4.547 300.291 c 4.586 300.397 4.676
 300.706 4.816 301.225 c 5.016 301.967 5.18 302.487 5.305 302.784 c 5.434
 303.073 5.617 303.307 5.859 303.479 c 6.102 303.647 6.402 303.729 6.762
 303.733 c 7.113 303.729 7.445 303.627 7.758 303.424 c 8.07 303.217 8.313
 302.92 8.477 302.534 c 8.648 302.147 8.73 301.709 8.73 301.225 c 8.73 300.413
 8.563 299.795 8.227 299.373 c 7.891 298.948 7.395 298.678 6.73 298.561 
c h
f
8.59 309.061 m 7.676 309.061 l 8.379 308.573 8.73 307.916 8.73 307.088 
c 8.73 306.721 8.66 306.377 8.52 306.061 c 8.379 305.741 8.203 305.502 7.988
 305.35 c 7.777 305.194 7.516 305.088 7.207 305.026 c 7 304.979 6.672 304.956
 6.223 304.959 c 2.367 304.959 l 2.367 306.014 l 5.816 306.014 l 6.371 306.01
 6.742 306.034 6.934 306.081 c 7.211 306.143 7.43 306.284 7.586 306.502 
c 7.75 306.717 7.828 306.983 7.824 307.299 c 7.828 307.612 7.746 307.909
 7.582 308.19 c 7.418 308.467 7.199 308.663 6.918 308.78 c 6.641 308.893
 6.234 308.952 5.699 308.952 c 2.367 308.952 l 2.367 310.006 l 8.59 310.006
 l h
f
0 312.686 8.59 -1.055 re f
7.645 316.623 m 8.578 316.776 l 8.641 316.479 8.672 316.213 8.672 315.979
 c 8.672 315.596 8.613 315.299 8.492 315.088 c 8.371 314.877 8.211 314.729
 8.012 314.643 c 7.816 314.557 7.402 314.514 6.77 314.514 c 3.188 314.514
 l 3.188 313.741 l 2.367 313.741 l 2.367 314.514 l 0.824 314.514 l 0.191
 315.561 l 2.367 315.561 l 2.367 316.623 l 3.188 316.623 l 3.188 315.561
 l 6.824 315.561 l 7.129 315.557 7.32 315.577 7.406 315.616 c 7.492 315.655
 7.563 315.713 7.613 315.799 c 7.664 315.881 7.688 316.002 7.688 316.163
 c 7.688 316.272 7.676 316.428 7.645 316.623 c h
f
54.668 500.764 349.922 -443.52 re S
Q Q
showpage
%%Trailer
count op_count sub {pop} repeat
countdictstack dict_count sub {end} repeat
cairo_eps_state restore
%%EOF
