%!PS-Adobe-3.0 EPSF-3.0
%%Creator: cairo 1.11.2 (http://cairographics.org)
%%CreationDate: Sun Mar 08 01:37:54 2015
%%Pages: 1
%%DocumentData: Clean7Bit
%%LanguageLevel: 2
%%BoundingBox: 0 -1 287 352
%%EndComments
%%BeginProlog
/cairo_eps_state save def
/dict_count countdictstack def
/op_count count 1 sub def
userdict begin
/q { gsave } bind def
/Q { grestore } bind def
/cm { 6 array astore concat } bind def
/w { setlinewidth } bind def
/J { setlinecap } bind def
/j { setlinejoin } bind def
/M { setmiterlimit } bind def
/d { setdash } bind def
/m { moveto } bind def
/l { lineto } bind def
/c { curveto } bind def
/h { closepath } bind def
/re { exch dup neg 3 1 roll 5 3 roll moveto 0 rlineto
      0 exch rlineto 0 rlineto closepath } bind def
/S { stroke } bind def
/f { fill } bind def
/f* { eofill } bind def
/n { newpath } bind def
/W { clip } bind def
/W* { eoclip } bind def
/BT { } bind def
/ET { } bind def
/pdfmark where { pop globaldict /?pdfmark /exec load put }
    { globaldict begin /?pdfmark /pop load def /pdfmark
    /cleartomark load def end } ifelse
/BDC { mark 3 1 roll /BDC pdfmark } bind def
/EMC { mark /EMC pdfmark } bind def
/cairo_store_point { /cairo_point_y exch def /cairo_point_x exch def } def
/Tj { show currentpoint cairo_store_point } bind def
/TJ {
  {
    dup
    type /stringtype eq
    { show } { -0.001 mul 0 cairo_font_matrix dtransform rmoveto } ifelse
  } forall
  currentpoint cairo_store_point
} bind def
/cairo_selectfont { cairo_font_matrix aload pop pop pop 0 0 6 array astore
    cairo_font exch selectfont cairo_point_x cairo_point_y moveto } bind def
/Tf { pop /cairo_font exch def /cairo_font_matrix where
      { pop cairo_selectfont } if } bind def
/Td { matrix translate cairo_font_matrix matrix concatmatrix dup
      /cairo_font_matrix exch def dup 4 get exch 5 get cairo_store_point
      /cairo_font where { pop cairo_selectfont } if } bind def
/Tm { 2 copy 8 2 roll 6 array astore /cairo_font_matrix exch def
      cairo_store_point /cairo_font where { pop cairo_selectfont } if } bind def
/g { setgray } bind def
/rg { setrgbcolor } bind def
/d1 { setcachedevice } bind def
%%EndProlog
%%Page: 1 1
%%BeginPageSetup
%%PageBoundingBox: 0 -1 287 352
%%EndPageSetup
q 0 -1 287 353 rectclip q
57.531 342.186 208.082 -287.277 re W n
q
57 342.917 209 -289 re W n
[ 1 0 0 1 0 -0.0834961 ] concat
  q
Q q
1 g
70.055 195.621 38.539 -54.172 re f
0 g
2.25 w
0 J
1 j
[] 0.0 d
10 M 70.055 166.973 m 108.594 166.973 l S
0.75 w
1 J
[ 2.25 3.75] 0 d
89.324 65.633 m 89.324 141.449 l S
[ 2.25 3.75] 0 d
89.324 275.012 m 89.324 195.621 l S
[] 0.0 d
79.691 65.633 m 98.953 65.633 l S
79.691 275.012 m 98.953 275.012 l S
70.055 195.621 38.539 -54.172 re S
86.625 297.262 m 86.625 298.742 87.832 299.961 89.324 299.961 c 90.805 
299.961 92.023 298.742 92.023 297.262 c 92.023 295.77 90.805 294.563 89.324
 294.563 c 87.832 294.563 86.625 295.77 86.625 297.262 c S
86.625 282.832 m 86.625 284.313 87.832 285.531 89.324 285.531 c 90.805 
285.531 92.023 284.313 92.023 282.832 c 92.023 281.34 90.805 280.133 89.324
 280.133 c 87.832 280.133 86.625 281.34 86.625 282.832 c S
86.625 301.223 m 86.625 302.699 87.832 303.922 89.324 303.922 c 90.805 
303.922 92.023 302.699 92.023 301.223 c 92.023 299.73 90.805 298.52 89.324
 298.52 c 87.832 298.52 86.625 299.73 86.625 301.223 c S
86.625 292.98 m 86.625 294.473 87.832 295.68 89.324 295.68 c 90.805 295.68
 92.023 294.473 92.023 292.98 c 92.023 291.5 90.805 290.281 89.324 290.281
 c 87.832 290.281 86.625 291.5 86.625 292.98 c S
86.625 282.949 m 86.625 284.441 87.832 285.652 89.324 285.652 c 90.805 
285.652 92.023 284.441 92.023 282.949 c 92.023 281.473 90.805 280.25 89.324
 280.25 c 87.832 280.25 86.625 281.473 86.625 282.949 c S
86.625 331.633 m 86.625 333.109 87.832 334.332 89.324 334.332 c 90.805 
334.332 92.023 333.109 92.023 331.633 c 92.023 330.141 90.805 328.93 89.324
 328.93 c 87.832 328.93 86.625 330.141 86.625 331.633 c S
1 g
118.223 136.789 38.531 -32.207 re f
0 g
2.25 w
0 J
118.223 119.402 m 156.754 119.402 l S
0.75 w
1 J
[ 2.25 3.75] 0 d
137.492 68.852 m 137.492 104.582 l S
[ 2.25 3.75] 0 d
137.492 180.191 m 137.492 136.789 l S
[] 0.0 d
127.852 68.852 m 147.125 68.852 l S
127.852 180.191 m 147.125 180.191 l S
118.223 136.789 38.531 -32.207 re S
134.793 190.102 m 134.793 191.59 136.004 192.801 137.492 192.801 c 138.973
 192.801 140.191 191.59 140.191 190.102 c 140.191 188.621 138.973 187.402
 137.492 187.402 c 136.004 187.402 134.793 188.621 134.793 190.102 c S
134.793 196.949 m 134.793 198.441 136.004 199.652 137.492 199.652 c 138.973
 199.652 140.191 198.441 140.191 196.949 c 140.191 195.473 138.973 194.25
 137.492 194.25 c 136.004 194.25 134.793 195.473 134.793 196.949 c S
134.793 194.512 m 134.793 196 136.004 197.211 137.492 197.211 c 138.973
 197.211 140.191 196 140.191 194.512 c 140.191 193.031 138.973 191.813 137.492
 191.813 c 136.004 191.813 134.793 193.031 134.793 194.512 c S
134.793 222.801 m 134.793 224.281 136.004 225.5 137.492 225.5 c 138.973
 225.5 140.191 224.281 140.191 222.801 c 140.191 221.313 138.973 220.102
 137.492 220.102 c 136.004 220.102 134.793 221.313 134.793 222.801 c S
134.793 187.992 m 134.793 189.473 136.004 190.691 137.492 190.691 c 138.973
 190.691 140.191 189.473 140.191 187.992 c 140.191 186.5 138.973 185.289
 137.492 185.289 c 136.004 185.289 134.793 186.5 134.793 187.992 c S
134.793 200.063 m 134.793 201.539 136.004 202.762 137.492 202.762 c 138.973
 202.762 140.191 201.539 140.191 200.063 c 140.191 198.57 138.973 197.359
 137.492 197.359 c 136.004 197.359 134.793 198.57 134.793 200.063 c S
134.793 185.871 m 134.793 187.352 136.004 188.57 137.492 188.57 c 138.973
 188.57 140.191 187.352 140.191 185.871 c 140.191 184.383 138.973 183.172
 137.492 183.172 c 136.004 183.172 134.793 184.383 134.793 185.871 c S
134.793 208.359 m 134.793 209.852 136.004 211.063 137.492 211.063 c 138.973
 211.063 140.191 209.852 140.191 208.359 c 140.191 206.883 138.973 205.66
 137.492 205.66 c 136.004 205.66 134.793 206.883 134.793 208.359 c S
134.793 186.652 m 134.793 188.133 136.004 189.352 137.492 189.352 c 138.973
 189.352 140.191 188.133 140.191 186.652 c 140.191 185.16 138.973 183.949
 137.492 183.949 c 136.004 183.949 134.793 185.16 134.793 186.652 c S
134.793 226 m 134.793 227.48 136.004 228.699 137.492 228.699 c 138.973 
228.699 140.191 227.48 140.191 226 c 140.191 224.512 138.973 223.301 137.492
 223.301 c 136.004 223.301 134.793 224.512 134.793 226 c S
134.793 214.402 m 134.793 215.883 136.004 217.102 137.492 217.102 c 138.973
 217.102 140.191 215.883 140.191 214.402 c 140.191 212.91 138.973 211.699
 137.492 211.699 c 136.004 211.699 134.793 212.91 134.793 214.402 c S
134.793 206.422 m 134.793 207.91 136.004 209.121 137.492 209.121 c 138.973
 209.121 140.191 207.91 140.191 206.422 c 140.191 204.941 138.973 203.723
 137.492 203.723 c 136.004 203.723 134.793 204.941 134.793 206.422 c S
134.793 186 m 134.793 187.48 136.004 188.699 137.492 188.699 c 138.973 
188.699 140.191 187.48 140.191 186 c 140.191 184.512 138.973 183.301 137.492
 183.301 c 136.004 183.301 134.793 184.512 134.793 186 c S
134.793 186.391 m 134.793 187.871 136.004 189.09 137.492 189.09 c 138.973
 189.09 140.191 187.871 140.191 186.391 c 140.191 184.902 138.973 183.691
 137.492 183.691 c 136.004 183.691 134.793 184.902 134.793 186.391 c S
134.793 226.32 m 134.793 227.801 136.004 229.02 137.492 229.02 c 138.973
 229.02 140.191 227.801 140.191 226.32 c 140.191 224.832 138.973 223.621
 137.492 223.621 c 136.004 223.621 134.793 224.832 134.793 226.32 c S
134.793 234.43 m 134.793 235.922 136.004 237.133 137.492 237.133 c 138.973
 237.133 140.191 235.922 140.191 234.43 c 140.191 232.949 138.973 231.73
 137.492 231.73 c 136.004 231.73 134.793 232.949 134.793 234.43 c S
1 g
166.395 114.832 38.527 -28.449 re f
0 g
2.25 w
0 J
166.395 99.75 m 204.922 99.75 l S
0.75 w
1 J
[ 2.25 3.75] 0 d
185.652 65.633 m 185.652 86.383 l S
[ 2.25 3.75] 0 d
185.652 156.949 m 185.652 114.832 l S
[] 0.0 d
176.023 65.633 m 195.293 65.633 l S
176.023 156.949 m 195.293 156.949 l S
166.395 114.832 38.527 -28.449 re S
182.953 158.871 m 182.953 160.352 184.172 161.57 185.652 161.57 c 187.145
 161.57 188.352 160.352 188.352 158.871 c 188.352 157.383 187.145 156.172
 185.652 156.172 c 184.172 156.172 182.953 157.383 182.953 158.871 c S
182.953 161.109 m 182.953 162.59 184.172 163.813 185.652 163.813 c 187.145
 163.813 188.352 162.59 188.352 161.109 c 188.352 159.621 187.145 158.41
 185.652 158.41 c 184.172 158.41 182.953 159.621 182.953 161.109 c S
182.953 173.051 m 182.953 174.531 184.172 175.75 185.652 175.75 c 187.145
 175.75 188.352 174.531 188.352 173.051 c 188.352 171.563 187.145 170.352
 185.652 170.352 c 184.172 170.352 182.953 171.563 182.953 173.051 c S
182.953 157.66 m 182.953 159.152 184.172 160.359 185.652 160.359 c 187.145
 160.359 188.352 159.152 188.352 157.66 c 188.352 156.18 187.145 154.961
 185.652 154.961 c 184.172 154.961 182.953 156.18 182.953 157.66 c S
182.953 175.391 m 182.953 176.871 184.172 178.09 185.652 178.09 c 187.145
 178.09 188.352 176.871 188.352 175.391 c 188.352 173.902 187.145 172.691
 185.652 172.691 c 184.172 172.691 182.953 173.902 182.953 175.391 c S
182.953 169.801 m 182.953 171.289 184.172 172.5 185.652 172.5 c 187.145
 172.5 188.352 171.289 188.352 169.801 c 188.352 168.32 187.145 167.102 
185.652 167.102 c 184.172 167.102 182.953 168.32 182.953 169.801 c S
182.953 165.871 m 182.953 167.359 184.172 168.57 185.652 168.57 c 187.145
 168.57 188.352 167.359 188.352 165.871 c 188.352 164.391 187.145 163.172
 185.652 163.172 c 184.172 163.172 182.953 164.391 182.953 165.871 c S
182.953 168.41 m 182.953 169.902 184.172 171.109 185.652 171.109 c 187.145
 171.109 188.352 169.902 188.352 168.41 c 188.352 166.93 187.145 165.711
 185.652 165.711 c 184.172 165.711 182.953 166.93 182.953 168.41 c S
182.953 161.539 m 182.953 163.031 184.172 164.242 185.652 164.242 c 187.145
 164.242 188.352 163.031 188.352 161.539 c 188.352 160.063 187.145 158.84
 185.652 158.84 c 184.172 158.84 182.953 160.063 182.953 161.539 c S
182.953 161.289 m 182.953 162.781 184.172 163.992 185.652 163.992 c 187.145
 163.992 188.352 162.781 188.352 161.289 c 188.352 159.813 187.145 158.59
 185.652 158.59 c 184.172 158.59 182.953 159.813 182.953 161.289 c S
182.953 168.383 m 182.953 169.859 184.172 171.082 185.652 171.082 c 187.145
 171.082 188.352 169.859 188.352 168.383 c 188.352 166.891 187.145 165.68
 185.652 165.68 c 184.172 165.68 182.953 166.891 182.953 168.383 c S
182.953 174.41 m 182.953 175.902 184.172 177.109 185.652 177.109 c 187.145
 177.109 188.352 175.902 188.352 174.41 c 188.352 172.93 187.145 171.711
 185.652 171.711 c 184.172 171.711 182.953 172.93 182.953 174.41 c S
182.953 165.051 m 182.953 166.531 184.172 167.75 185.652 167.75 c 187.145
 167.75 188.352 166.531 188.352 165.051 c 188.352 163.563 187.145 162.352
 185.652 162.352 c 184.172 162.352 182.953 163.563 182.953 165.051 c S
1 g
214.555 106.191 38.539 -25.262 re f
0 g
2.25 w
0 J
214.555 90.902 m 253.094 90.902 l S
0.75 w
1 J
[ 2.25 3.75] 0 d
233.824 65.633 m 233.824 80.93 l S
[ 2.25 3.75] 0 d
233.824 143.859 m 233.824 106.191 l S
[] 0.0 d
224.191 65.633 m 243.453 65.633 l S
224.191 143.859 m 243.453 143.859 l S
214.555 106.191 38.539 -25.262 re S
231.125 157.551 m 231.125 159.031 232.344 160.25 233.824 160.25 c 235.313
 160.25 236.523 159.031 236.523 157.551 c 236.523 156.063 235.313 154.852
 233.824 154.852 c 232.344 154.852 231.125 156.063 231.125 157.551 c S
231.125 151.77 m 231.125 153.262 232.344 154.473 233.824 154.473 c 235.313
 154.473 236.523 153.262 236.523 151.77 c 236.523 150.289 235.313 149.07
 233.824 149.07 c 232.344 149.07 231.125 150.289 231.125 151.77 c S
231.125 146.723 m 231.125 148.199 232.344 149.422 233.824 149.422 c 235.313
 149.422 236.523 148.199 236.523 146.723 c 236.523 145.23 235.313 144.02
 233.824 144.02 c 232.344 144.02 231.125 145.23 231.125 146.723 c S
231.125 155.223 m 231.125 156.699 232.344 157.922 233.824 157.922 c 235.313
 157.922 236.523 156.699 236.523 155.223 c 236.523 153.73 235.313 152.52
 233.824 152.52 c 232.344 152.52 231.125 153.73 231.125 155.223 c S
231.125 164.32 m 231.125 165.801 232.344 167.02 233.824 167.02 c 235.313
 167.02 236.523 165.801 236.523 164.32 c 236.523 162.832 235.313 161.621
 233.824 161.621 c 232.344 161.621 231.125 162.832 231.125 164.32 c S
231.125 186.441 m 231.125 187.93 232.344 189.141 233.824 189.141 c 235.313
 189.141 236.523 187.93 236.523 186.441 c 236.523 184.961 235.313 183.742
 233.824 183.742 c 232.344 183.742 231.125 184.961 231.125 186.441 c S
231.125 149.641 m 231.125 151.121 232.344 152.34 233.824 152.34 c 235.313
 152.34 236.523 151.121 236.523 149.641 c 236.523 148.152 235.313 146.941
 233.824 146.941 c 232.344 146.941 231.125 148.152 231.125 149.641 c S
231.125 159.371 m 231.125 160.859 232.344 162.07 233.824 162.07 c 235.313
 162.07 236.523 160.859 236.523 159.371 c 236.523 157.891 235.313 156.672
 233.824 156.672 c 232.344 156.672 231.125 157.891 231.125 159.371 c S
231.125 153.102 m 231.125 154.582 232.344 155.801 233.824 155.801 c 235.313
 155.801 236.523 154.582 236.523 153.102 c 236.523 151.609 235.313 150.402
 233.824 150.402 c 232.344 150.402 231.125 151.609 231.125 153.102 c S
231.125 159.582 m 231.125 161.063 232.344 162.281 233.824 162.281 c 235.313
 162.281 236.523 161.063 236.523 159.582 c 236.523 158.09 235.313 156.883
 233.824 156.883 c 232.344 156.883 231.125 158.09 231.125 159.582 c S
231.125 158.359 m 231.125 159.84 232.344 161.063 233.824 161.063 c 235.313
 161.063 236.523 159.84 236.523 158.359 c 236.523 156.871 235.313 155.66
 233.824 155.66 c 232.344 155.66 231.125 156.871 231.125 158.359 c S
231.125 175.16 m 231.125 176.652 232.344 177.859 233.824 177.859 c 235.313
 177.859 236.523 176.652 236.523 175.16 c 236.523 173.68 235.313 172.461
 233.824 172.461 c 232.344 172.461 231.125 173.68 231.125 175.16 c S
231.125 149.609 m 231.125 151.09 232.344 152.313 233.824 152.313 c 235.313
 152.313 236.523 151.09 236.523 149.609 c 236.523 148.121 235.313 146.91
 233.824 146.91 c 232.344 146.91 231.125 148.121 231.125 149.609 c S
231.125 145.031 m 231.125 146.512 232.344 147.73 233.824 147.73 c 235.313
 147.73 236.523 146.512 236.523 145.031 c 236.523 143.539 235.313 142.332
 233.824 142.332 c 232.344 142.332 231.125 143.539 231.125 145.031 c S
231.125 145.152 m 231.125 146.633 232.344 147.852 233.824 147.852 c 235.313
 147.852 236.523 146.633 236.523 145.152 c 236.523 143.66 235.313 142.449
 233.824 142.449 c 232.344 142.449 231.125 143.66 231.125 145.152 c S
231.125 174.57 m 231.125 176.051 232.344 177.27 233.824 177.27 c 235.313
 177.27 236.523 176.051 236.523 174.57 c 236.523 173.082 235.313 171.871
 233.824 171.871 c 232.344 171.871 231.125 173.082 231.125 174.57 c S
231.125 166.691 m 231.125 168.172 232.344 169.391 233.824 169.391 c 235.313
 169.391 236.523 168.172 236.523 166.691 c 236.523 165.199 235.313 163.992
 233.824 163.992 c 232.344 163.992 231.125 165.199 231.125 166.691 c S
231.125 158.422 m 231.125 159.902 232.344 161.121 233.824 161.121 c 235.313
 161.121 236.523 159.902 236.523 158.422 c 236.523 156.93 235.313 155.723
 233.824 155.723 c 232.344 155.723 231.125 156.93 231.125 158.422 c S
231.125 160.531 m 231.125 162.02 232.344 163.23 233.824 163.23 c 235.313
 163.23 236.523 162.02 236.523 160.531 c 236.523 159.051 235.313 157.832
 233.824 157.832 c 232.344 157.832 231.125 159.051 231.125 160.531 c S
  Q
Q
0 g
0.75 w
1 J
1 j
[] 0.0 d
10 M 89.324 54.909 m 233.824 54.909 l S
89.324 54.909 m 89.324 47.706 l S
137.492 54.909 m 137.492 47.706 l S
185.652 54.909 m 185.652 47.706 l S
233.824 54.909 m 233.824 47.706 l S
78.184 28.987 m 76.777 28.987 l 76.777 37.948 l 76.434 37.62 75.992 37.299
 75.445 36.979 c 74.895 36.655 74.398 36.413 73.965 36.252 c 73.965 37.612
 l 74.746 37.979 75.434 38.424 76.027 38.956 c 76.613 39.479 77.031 39.991
 77.277 40.487 c 78.184 40.487 l h
f
81.781 34.635 m 81.777 35.987 81.918 37.077 82.199 37.905 c 82.477 38.729
 82.891 39.366 83.441 39.815 c 83.988 40.26 84.68 40.483 85.516 40.487 c
 86.129 40.483 86.668 40.358 87.133 40.116 c 87.594 39.866 87.977 39.51 
88.281 39.045 c 88.582 38.577 88.82 38.01 88.992 37.342 c 89.164 36.67 89.25
 35.768 89.25 34.635 c 89.25 33.292 89.109 32.206 88.836 31.381 c 88.555
 30.553 88.145 29.917 87.598 29.467 c 87.047 29.018 86.352 28.795 85.516
 28.792 c 84.41 28.795 83.543 29.186 82.914 29.979 c 82.156 30.928 81.777
 32.483 81.781 34.635 c h
83.227 34.635 m 83.227 32.752 83.445 31.499 83.887 30.881 c 84.324 30.256
 84.867 29.948 85.516 29.948 c 86.16 29.948 86.703 30.26 87.145 30.885 c
 87.582 31.51 87.801 32.76 87.805 34.635 c 87.801 36.518 87.582 37.768 87.145
 38.393 c 86.703 39.01 86.156 39.323 85.5 39.323 c 84.852 39.323 84.336 
39.049 83.953 38.502 c 83.469 37.803 83.227 36.514 83.227 34.635 c h
f
91.883 34.377 m 90.438 34.377 l 93.195 40.635 l 94.328 40.635 l 97.102 
34.377 l 95.688 34.377 l 93.758 39.042 l h
f
98.191 32.01 m 99.598 32.198 l 99.758 31.401 100.031 30.827 100.422 30.475
 c 100.805 30.124 101.277 29.948 101.84 29.948 c 102.496 29.948 103.055 
30.174 103.516 30.635 c 103.969 31.088 104.199 31.659 104.199 32.338 c 104.199
 32.983 103.988 33.514 103.566 33.936 c 103.145 34.354 102.605 34.565 101.957
 34.565 c 101.688 34.565 101.359 34.51 100.965 34.409 c 101.121 35.643 l
 101.211 35.631 101.285 35.624 101.348 35.627 c 101.941 35.624 102.48 35.78
 102.965 36.096 c 103.441 36.405 103.684 36.889 103.684 37.542 c 103.684
 38.057 103.508 38.483 103.16 38.823 c 102.809 39.159 102.359 39.327 101.809
 39.331 c 101.262 39.327 100.805 39.155 100.441 38.815 c 100.074 38.467 
99.84 37.952 99.738 37.268 c 98.332 37.518 l 98.5 38.459 98.891 39.19 99.504
 39.709 c 100.109 40.225 100.867 40.483 101.777 40.487 c 102.398 40.483 
102.973 40.35 103.504 40.084 c 104.027 39.815 104.43 39.448 104.711 38.987
 c 104.984 38.522 105.125 38.03 105.129 37.51 c 105.125 37.014 104.992 36.565
 104.73 36.159 c 104.461 35.752 104.066 35.428 103.551 35.19 c 104.223 35.03
 104.75 34.706 105.129 34.217 c 105.5 33.721 105.688 33.104 105.691 32.37
 c 105.688 31.366 105.324 30.518 104.598 29.827 c 103.867 29.131 102.945
 28.788 101.832 28.784 c 100.824 28.788 99.988 29.084 99.328 29.682 c 98.66
 30.28 98.281 31.057 98.191 32.01 c h
f
126.355 28.987 m 124.949 28.987 l 124.949 37.948 l 124.605 37.62 124.164
 37.299 123.617 36.979 c 123.066 36.655 122.57 36.413 122.137 36.252 c 122.137
 37.612 l 122.918 37.979 123.605 38.424 124.199 38.956 c 124.785 39.479 
125.203 39.991 125.449 40.487 c 126.355 40.487 l h
f
129.953 34.635 m 129.949 35.987 130.09 37.077 130.371 37.905 c 130.648 
38.729 131.063 39.366 131.613 39.815 c 132.16 40.26 132.852 40.483 133.688
 40.487 c 134.301 40.483 134.84 40.358 135.305 40.116 c 135.766 39.866 136.148
 39.51 136.453 39.045 c 136.754 38.577 136.992 38.01 137.164 37.342 c 137.336
 36.67 137.422 35.768 137.422 34.635 c 137.422 33.292 137.281 32.206 137.008
 31.381 c 136.727 30.553 136.316 29.917 135.77 29.467 c 135.219 29.018 134.523
 28.795 133.688 28.792 c 132.582 28.795 131.715 29.186 131.086 29.979 c 
130.328 30.928 129.949 32.483 129.953 34.635 c h
131.398 34.635 m 131.398 32.752 131.617 31.499 132.059 30.881 c 132.496
 30.256 133.039 29.948 133.688 29.948 c 134.332 29.948 134.875 30.26 135.316
 30.885 c 135.754 31.51 135.973 32.76 135.977 34.635 c 135.973 36.518 135.754
 37.768 135.316 38.393 c 134.875 39.01 134.328 39.323 133.672 39.323 c 133.023
 39.323 132.508 39.049 132.125 38.502 c 131.641 37.803 131.398 36.514 131.398
 34.635 c h
f
140.051 34.377 m 138.605 34.377 l 141.363 40.635 l 142.496 40.635 l 145.27
 34.377 l 143.855 34.377 l 141.926 39.042 l h
f
150.859 28.987 m 150.859 31.729 l 145.891 31.729 l 145.891 33.018 l 151.117
 40.44 l 152.266 40.44 l 152.266 33.018 l 153.813 33.018 l 153.813 31.729
 l 152.266 31.729 l 152.266 28.987 l h
150.859 33.018 m 150.859 38.182 l 147.273 33.018 l h
f
174.523 28.987 m 173.117 28.987 l 173.117 37.948 l 172.773 37.62 172.332
 37.299 171.785 36.979 c 171.234 36.655 170.738 36.413 170.305 36.252 c 
170.305 37.612 l 171.086 37.979 171.773 38.424 172.367 38.956 c 172.953 
39.479 173.371 39.991 173.617 40.487 c 174.523 40.487 l h
f
178.125 34.635 m 178.121 35.987 178.262 37.077 178.543 37.905 c 178.82 
38.729 179.234 39.366 179.785 39.815 c 180.332 40.26 181.023 40.483 181.859
 40.487 c 182.473 40.483 183.012 40.358 183.477 40.116 c 183.938 39.866 
184.32 39.51 184.625 39.045 c 184.926 38.577 185.164 38.01 185.336 37.342
 c 185.508 36.67 185.594 35.768 185.594 34.635 c 185.594 33.292 185.453 
32.206 185.18 31.381 c 184.898 30.553 184.488 29.917 183.941 29.467 c 183.391
 29.018 182.695 28.795 181.859 28.792 c 180.754 28.795 179.887 29.186 179.258
 29.979 c 178.5 30.928 178.121 32.483 178.125 34.635 c h
179.57 34.635 m 179.57 32.752 179.789 31.499 180.23 30.881 c 180.668 30.256
 181.211 29.948 181.859 29.948 c 182.504 29.948 183.047 30.26 183.488 30.885
 c 183.926 31.51 184.145 32.76 184.148 34.635 c 184.145 36.518 183.926 37.768
 183.488 38.393 c 183.047 39.01 182.5 39.323 181.844 39.323 c 181.195 39.323
 180.68 39.049 180.297 38.502 c 179.813 37.803 179.57 36.514 179.57 34.635
 c h
f
188.223 34.377 m 186.777 34.377 l 189.535 40.635 l 190.668 40.635 l 193.441
 34.377 l 192.027 34.377 l 190.098 39.042 l h
f
194.523 31.987 m 196 32.112 l 196.105 31.389 196.359 30.85 196.762 30.491
 c 197.156 30.127 197.637 29.948 198.203 29.948 c 198.875 29.948 199.449
 30.202 199.922 30.713 c 200.387 31.221 200.621 31.897 200.625 32.745 c 
200.621 33.542 200.395 34.174 199.949 34.643 c 199.496 35.104 198.906 35.338
 198.18 35.338 c 197.723 35.338 197.316 35.233 196.953 35.03 c 196.586 34.819
 196.297 34.553 196.094 34.229 c 194.773 34.401 l 195.883 40.284 l 201.578
 40.284 l 201.578 38.94 l 197.008 38.94 l 196.391 35.862 l 197.078 36.338
 197.797 36.581 198.555 36.581 c 199.551 36.581 200.395 36.233 201.086 35.542
 c 201.77 34.846 202.113 33.956 202.117 32.87 c 202.113 31.831 201.813 30.936
 201.211 30.182 c 200.473 29.256 199.469 28.795 198.203 28.792 c 197.156
 28.795 196.309 29.084 195.652 29.667 c 194.992 30.249 194.613 31.022 194.523
 31.987 c h
f
222.684 28.987 m 221.277 28.987 l 221.277 37.948 l 220.934 37.62 220.492
 37.299 219.945 36.979 c 219.395 36.655 218.898 36.413 218.465 36.252 c 
218.465 37.612 l 219.246 37.979 219.934 38.424 220.527 38.956 c 221.113 
39.479 221.531 39.991 221.777 40.487 c 222.684 40.487 l h
f
226.281 34.635 m 226.277 35.987 226.418 37.077 226.699 37.905 c 226.977
 38.729 227.391 39.366 227.941 39.815 c 228.488 40.26 229.18 40.483 230.016
 40.487 c 230.629 40.483 231.168 40.358 231.633 40.116 c 232.094 39.866 
232.477 39.51 232.781 39.045 c 233.082 38.577 233.32 38.01 233.492 37.342
 c 233.664 36.67 233.75 35.768 233.75 34.635 c 233.75 33.292 233.609 32.206
 233.336 31.381 c 233.055 30.553 232.645 29.917 232.098 29.467 c 231.547
 29.018 230.852 28.795 230.016 28.792 c 228.91 28.795 228.043 29.186 227.414
 29.979 c 226.656 30.928 226.277 32.483 226.281 34.635 c h
227.727 34.635 m 227.727 32.752 227.945 31.499 228.387 30.881 c 228.824
 30.256 229.367 29.948 230.016 29.948 c 230.66 29.948 231.203 30.26 231.645
 30.885 c 232.082 31.51 232.301 32.76 232.305 34.635 c 232.301 36.518 232.082
 37.768 231.645 38.393 c 231.203 39.01 230.656 39.323 230 39.323 c 229.352
 39.323 228.836 39.049 228.453 38.502 c 227.969 37.803 227.727 36.514 227.727
 34.635 c h
f
236.383 34.377 m 234.938 34.377 l 237.695 40.635 l 238.828 40.635 l 241.602
 34.377 l 240.188 34.377 l 238.258 39.042 l h
f
249.98 37.635 m 248.582 37.526 l 248.457 38.073 248.277 38.475 248.051 
38.729 c 247.668 39.127 247.199 39.327 246.645 39.331 c 246.191 39.327 245.801
 39.202 245.465 38.956 c 245.02 38.627 244.668 38.159 244.418 37.542 c 244.16
 36.92 244.027 36.038 244.02 34.893 c 244.355 35.409 244.77 35.792 245.262
 36.042 c 245.746 36.292 246.262 36.417 246.801 36.417 c 247.738 36.417 
248.535 36.069 249.195 35.381 c 249.852 34.686 250.18 33.795 250.184 32.706
 c 250.18 31.983 250.027 31.315 249.719 30.702 c 249.406 30.081 248.98 29.608
 248.441 29.284 c 247.898 28.956 247.281 28.795 246.598 28.792 c 245.422
 28.795 244.469 29.221 243.73 30.084 c 242.988 30.944 242.617 32.366 242.621
 34.346 c 242.617 36.557 243.027 38.167 243.848 39.174 c 244.559 40.045 
245.52 40.483 246.73 40.487 c 247.629 40.483 248.367 40.229 248.945 39.729
 c 249.52 39.221 249.863 38.526 249.98 37.635 c h
244.238 32.698 m 244.234 32.209 244.336 31.749 244.547 31.307 c 244.75 
30.862 245.039 30.522 245.41 30.295 c 245.777 30.061 246.164 29.948 246.574
 29.948 c 247.164 29.948 247.676 30.186 248.105 30.667 c 248.531 31.143 
248.746 31.795 248.746 32.62 c 248.746 33.409 248.535 34.03 248.113 34.491
 c 247.691 34.944 247.16 35.174 246.52 35.174 c 245.883 35.174 245.344 34.944
 244.902 34.491 c 244.457 34.03 244.234 33.432 244.238 32.698 c h
f
57.531 65.549 m 57.531 341.569 l S
57.531 65.549 m 50.332 65.549 l S
57.531 134.557 m 50.332 134.557 l S
57.531 203.557 m 50.332 203.557 l S
57.531 272.569 m 50.332 272.569 l S
57.531 341.569 m 50.332 341.569 l S
40.254 60.389 m 40.254 58.983 l 31.293 58.983 l 31.621 58.639 31.941 58.198
 32.262 57.651 c 32.586 57.1 32.828 56.604 32.988 56.17 c 31.629 56.17 l
 31.262 56.952 30.816 57.639 30.285 58.233 c 29.762 58.819 29.25 59.237 
28.754 59.483 c 28.754 60.389 l h
f
38.652 66.377 1.602 -1.602 re f
34.605 68.436 m 33.254 68.432 32.164 68.573 31.336 68.854 c 30.512 69.131
 29.875 69.545 29.426 70.096 c 28.98 70.643 28.758 71.334 28.754 72.17 c
 28.758 72.784 28.883 73.323 29.125 73.788 c 29.375 74.249 29.73 74.631 
30.195 74.936 c 30.664 75.237 31.23 75.475 31.898 75.647 c 32.57 75.819 
33.473 75.905 34.605 75.905 c 35.949 75.905 37.035 75.764 37.859 75.491 
c 38.688 75.209 39.324 74.799 39.773 74.252 c 40.223 73.702 40.445 73.006
 40.449 72.17 c 40.445 71.065 40.055 70.198 39.262 69.569 c 38.313 68.811
 36.758 68.432 34.605 68.436 c h
34.605 69.881 m 36.488 69.881 37.742 70.1 38.359 70.542 c 38.984 70.979
 39.293 71.522 39.293 72.17 c 39.293 72.815 38.98 73.358 38.355 73.799 c
 37.73 74.237 36.48 74.456 34.605 74.459 c 32.723 74.456 31.473 74.237 30.848
 73.799 c 30.23 73.358 29.918 72.811 29.918 72.155 c 29.918 71.506 30.191
 70.991 30.738 70.608 c 31.438 70.124 32.727 69.881 34.605 69.881 c h
f
40.254 129.397 m 40.254 127.991 l 31.293 127.991 l 31.621 127.647 31.941
 127.206 32.262 126.659 c 32.586 126.108 32.828 125.612 32.988 125.178 c
 31.629 125.178 l 31.262 125.959 30.816 126.647 30.285 127.241 c 29.762 
127.827 29.25 128.245 28.754 128.491 c 28.754 129.397 l h
f
38.652 135.389 1.602 -1.602 re f
40.254 142.741 m 40.254 141.334 l 31.293 141.334 l 31.621 140.991 31.941
 140.549 32.262 140.002 c 32.586 139.452 32.828 138.956 32.988 138.522 c
 31.629 138.522 l 31.262 139.303 30.816 139.991 30.285 140.584 c 29.762 
141.17 29.25 141.588 28.754 141.834 c 28.754 142.741 l h
f
40.254 198.397 m 40.254 196.991 l 31.293 196.991 l 31.621 196.647 31.941
 196.206 32.262 195.659 c 32.586 195.108 32.828 194.612 32.988 194.178 c
 31.629 194.178 l 31.262 194.959 30.816 195.647 30.285 196.241 c 29.762 
196.827 29.25 197.245 28.754 197.491 c 28.754 198.397 l h
f
38.652 204.389 1.602 -1.602 re f
38.902 213.834 m 40.254 213.834 l 40.254 206.264 l 39.918 206.252 39.594
 206.307 39.277 206.428 c 38.766 206.62 38.258 206.928 37.754 207.354 c 
37.258 207.776 36.68 208.389 36.02 209.194 c 35 210.436 34.191 211.276 33.594
 211.717 c 33 212.151 32.438 212.37 31.902 212.374 c 31.348 212.37 30.875
 212.17 30.492 211.776 c 30.109 211.374 29.918 210.854 29.918 210.217 c 
29.918 209.538 30.121 208.999 30.527 208.592 c 30.934 208.186 31.496 207.979
 32.215 207.975 c 32.066 206.53 l 30.992 206.627 30.168 206.999 29.602 207.647
 c 29.039 208.292 28.758 209.159 28.754 210.249 c 28.758 211.346 29.063 
212.217 29.668 212.858 c 30.281 213.499 31.035 213.819 31.934 213.819 c 
32.395 213.819 32.848 213.725 33.285 213.538 c 33.73 213.35 34.195 213.038
 34.684 212.604 c 35.176 212.167 35.848 211.444 36.699 210.436 c 37.41 209.588
 37.891 209.045 38.141 208.811 c 38.395 208.569 38.648 208.374 38.902 208.217
 c h
f
40.254 267.409 m 40.254 266.002 l 31.293 266.002 l 31.621 265.659 31.941
 265.217 32.262 264.67 c 32.586 264.12 32.828 263.624 32.988 263.19 c 31.629
 263.19 l 31.262 263.971 30.816 264.659 30.285 265.252 c 29.762 265.838 
29.25 266.256 28.754 266.502 c 28.754 267.409 l h
f
38.652 273.397 1.602 -1.602 re f
37.23 275.463 m 37.043 276.87 l 37.84 277.03 38.414 277.303 38.766 277.694
 c 39.117 278.077 39.293 278.549 39.293 279.112 c 39.293 279.768 39.066 
280.327 38.605 280.788 c 38.152 281.241 37.582 281.471 36.902 281.471 c 
36.258 281.471 35.727 281.26 35.305 280.838 c 34.887 280.417 34.676 279.877
 34.676 279.229 c 34.676 278.959 34.73 278.631 34.832 278.237 c 33.598 278.393
 l 33.609 278.483 33.617 278.557 33.613 278.62 c 33.617 279.213 33.461 279.752
 33.145 280.237 c 32.836 280.713 32.352 280.956 31.699 280.956 c 31.184 
280.956 30.758 280.78 30.418 280.432 c 30.082 280.081 29.914 279.631 29.91
 279.081 c 29.914 278.534 30.086 278.077 30.426 277.713 c 30.773 277.346
 31.289 277.112 31.973 277.01 c 31.723 275.604 l 30.781 275.772 30.051 276.163
 29.531 276.776 c 29.016 277.381 28.758 278.139 28.754 279.049 c 28.758 
279.67 28.891 280.245 29.156 280.776 c 29.426 281.299 29.793 281.702 30.254
 281.983 c 30.719 282.256 31.211 282.397 31.73 282.401 c 32.227 282.397 
32.676 282.264 33.082 282.002 c 33.488 281.733 33.813 281.338 34.051 280.823
 c 34.211 281.495 34.535 282.022 35.023 282.401 c 35.52 282.772 36.137 282.959
 36.871 282.963 c 37.875 282.959 38.723 282.596 39.414 281.87 c 40.109 281.139
 40.453 280.217 40.457 279.104 c 40.453 278.096 40.156 277.26 39.559 276.6
 c 38.961 275.932 38.184 275.553 37.23 275.463 c h
f
40.254 336.409 m 40.254 335.002 l 31.293 335.002 l 31.621 334.659 31.941
 334.217 32.262 333.67 c 32.586 333.12 32.828 332.624 32.988 332.19 c 31.629
 332.19 l 31.262 332.971 30.816 333.659 30.285 334.252 c 29.762 334.838 
29.25 335.256 28.754 335.502 c 28.754 336.409 l h
f
38.652 342.397 1.602 -1.602 re f
40.254 348.963 m 37.512 348.963 l 37.512 343.995 l 36.223 343.995 l 28.801
 349.221 l 28.801 350.37 l 36.223 350.37 l 36.223 351.917 l 37.512 351.917
 l 37.512 350.37 l 40.254 350.37 l h
36.223 348.963 m 31.059 348.963 l 36.223 345.377 l h
f
37.43 0.186 m 37.43 11.639 l 42.508 11.639 l 43.523 11.635 44.301 11.534
 44.836 11.331 c 45.363 11.124 45.789 10.76 46.109 10.241 c 46.426 9.717
 46.582 9.139 46.586 8.514 c 46.582 7.698 46.32 7.014 45.797 6.459 c 45.27
 5.901 44.457 5.545 43.359 5.397 c 43.758 5.202 44.063 5.014 44.273 4.827
 c 44.715 4.42 45.133 3.913 45.531 3.303 c 47.523 0.186 l 45.617 0.186 l
 44.102 2.569 l 43.656 3.252 43.293 3.78 43.008 4.147 c 42.719 4.51 42.461
 4.764 42.238 4.913 c 42.008 5.057 41.777 5.159 41.547 5.217 c 41.371 5.252
 41.09 5.272 40.703 5.272 c 38.945 5.272 l 38.945 0.186 l h
38.945 6.584 m 42.203 6.584 l 42.891 6.584 43.434 6.655 43.828 6.799 c 
44.215 6.94 44.512 7.17 44.719 7.487 c 44.918 7.799 45.02 8.139 45.023 8.514
 c 45.02 9.053 44.824 9.499 44.434 9.85 c 44.039 10.194 43.418 10.37 42.57
 10.374 c 38.945 10.374 l h
f
54.195 1.209 m 53.672 0.764 53.168 0.452 52.691 0.272 c 52.207 0.088 51.691
 -0.001 51.141 -0.001 c 50.227 -0.001 49.527 0.221 49.039 0.667 c 48.547
 1.112 48.301 1.678 48.305 2.374 c 48.301 2.776 48.395 3.147 48.582 3.487
 c 48.766 3.819 49.008 4.088 49.309 4.295 c 49.605 4.495 49.941 4.651 50.32
 4.756 c 50.594 4.827 51.012 4.897 51.57 4.967 c 52.703 5.1 53.539 5.26 
54.078 5.452 c 54.082 5.643 54.082 5.764 54.086 5.819 c 54.082 6.389 53.949
 6.795 53.688 7.03 c 53.324 7.346 52.793 7.502 52.086 7.506 c 51.422 7.502
 50.934 7.389 50.621 7.159 c 50.305 6.924 50.07 6.514 49.922 5.928 c 48.547
 6.116 l 48.672 6.702 48.875 7.174 49.164 7.542 c 49.445 7.901 49.859 8.182
 50.406 8.377 c 50.945 8.573 51.574 8.67 52.289 8.67 c 52.996 8.67 53.57
 8.584 54.016 8.42 c 54.453 8.249 54.781 8.042 54.992 7.792 c 55.199 7.538
 55.344 7.217 55.43 6.834 c 55.473 6.592 55.496 6.159 55.5 5.538 c 55.5 
3.663 l 55.496 2.35 55.527 1.526 55.59 1.182 c 55.648 0.834 55.766 0.502
 55.945 0.186 c 54.477 0.186 l 54.328 0.475 54.234 0.815 54.195 1.209 c 
h
54.078 4.35 m 53.566 4.139 52.801 3.963 51.781 3.819 c 51.203 3.733 50.793
 3.639 50.555 3.538 c 50.313 3.432 50.129 3.28 50 3.081 c 49.867 2.877 49.801
 2.655 49.805 2.413 c 49.801 2.038 49.941 1.725 50.23 1.475 c 50.512 1.225
 50.93 1.1 51.477 1.1 c 52.016 1.1 52.496 1.217 52.922 1.456 c 53.34 1.69
 53.648 2.014 53.852 2.428 c 54 2.745 54.078 3.213 54.078 3.834 c h
f
57.676 0.186 m 57.676 8.483 l 58.941 8.483 l 58.941 7.303 l 59.551 8.213
 60.43 8.67 61.582 8.67 c 62.078 8.67 62.539 8.581 62.961 8.401 c 63.379
 8.221 63.691 7.983 63.902 7.694 c 64.109 7.397 64.254 7.053 64.34 6.655
 c 64.387 6.393 64.414 5.936 64.418 5.288 c 64.418 0.186 l 63.012 0.186 
l 63.012 5.233 l 63.008 5.803 62.953 6.233 62.848 6.518 c 62.734 6.799 62.539
 7.026 62.266 7.198 c 61.984 7.366 61.66 7.452 61.285 7.452 c 60.684 7.452
 60.164 7.26 59.734 6.881 c 59.297 6.499 59.082 5.776 59.082 4.717 c 59.082
 0.186 l h
f
66.578 0.186 m 66.578 11.639 l 67.984 11.639 l 67.984 5.108 l 71.313 8.483
 l 73.133 8.483 l 69.961 5.405 l 73.453 0.186 l 71.719 0.186 l 68.977 4.428
 l 67.984 3.475 l 67.984 0.186 l h
f
78.496 4.334 m 78.492 5.87 78.918 7.006 79.777 7.749 c 80.488 8.362 81.359
 8.67 82.387 8.67 c 83.523 8.67 84.457 8.295 85.184 7.549 c 85.906 6.799
 86.266 5.768 86.27 4.452 c 86.266 3.381 86.105 2.542 85.789 1.932 c 85.465
 1.319 85 0.842 84.391 0.506 c 83.777 0.167 83.109 -0.001 82.387 -0.001 
c 81.223 -0.001 80.285 0.37 79.57 1.116 c 78.852 1.858 78.492 2.932 78.496
 4.334 c h
79.941 4.334 m 79.938 3.272 80.172 2.475 80.637 1.948 c 81.098 1.417 81.68
 1.151 82.387 1.155 c 83.082 1.151 83.664 1.417 84.129 1.952 c 84.59 2.479
 84.82 3.292 84.824 4.381 c 84.82 5.405 84.586 6.182 84.125 6.713 c 83.656
 7.241 83.078 7.502 82.387 7.506 c 81.68 7.502 81.098 7.241 80.637 6.717
 c 80.172 6.19 79.938 5.397 79.941 4.334 c h
f
88.25 0.186 m 88.25 7.389 l 87.008 7.389 l 87.008 8.483 l 88.25 8.483 l
 88.25 9.366 l 88.246 9.92 88.297 10.334 88.398 10.608 c 88.531 10.971 88.77
 11.268 89.113 11.495 c 89.453 11.721 89.93 11.834 90.547 11.834 c 90.938
 11.834 91.375 11.788 91.859 11.694 c 91.648 10.467 l 91.352 10.518 91.078
 10.545 90.82 10.545 c 90.391 10.545 90.086 10.452 89.914 10.272 c 89.734
 10.084 89.648 9.745 89.648 9.249 c 89.648 8.483 l 91.266 8.483 l 91.266
 7.389 l 89.648 7.389 l 89.648 0.186 l h
f
97.148 0.186 m 97.148 7.389 l 95.906 7.389 l 95.906 8.483 l 97.148 8.483
 l 97.148 9.366 l 97.145 9.92 97.195 10.334 97.297 10.608 c 97.43 10.971
 97.668 11.268 98.012 11.495 c 98.352 11.721 98.828 11.834 99.445 11.834
 c 99.836 11.834 100.273 11.788 100.758 11.694 c 100.547 10.467 l 100.25
 10.518 99.977 10.545 99.719 10.545 c 99.289 10.545 98.984 10.452 98.813
 10.272 c 98.633 10.084 98.547 9.745 98.547 9.249 c 98.547 8.483 l 100.164
 8.483 l 100.164 7.389 l 98.547 7.389 l 98.547 0.186 l h
f
101.27 10.022 m 101.27 11.639 l 102.676 11.639 l 102.676 10.022 l h
101.27 0.186 m 101.27 8.483 l 102.676 8.483 l 102.676 0.186 l h
f
107.883 1.444 m 108.086 0.202 l 107.688 0.12 107.332 0.081 107.023 0.077
 c 106.508 0.081 106.113 0.159 105.836 0.319 c 105.551 0.479 105.352 0.69
 105.242 0.956 c 105.125 1.213 105.07 1.768 105.07 2.616 c 105.07 7.389 
l 104.039 7.389 l 104.039 8.483 l 105.07 8.483 l 105.07 10.538 l 106.469
 11.381 l 106.469 8.483 l 107.883 8.483 l 107.883 7.389 l 106.469 7.389 
l 106.469 2.538 l 106.465 2.131 106.488 1.874 106.543 1.764 c 106.59 1.647
 106.672 1.557 106.785 1.491 c 106.895 1.42 107.055 1.385 107.266 1.389 
c 107.418 1.385 107.625 1.405 107.883 1.444 c h
f
109.262 0.186 m 109.262 8.483 l 110.527 8.483 l 110.527 7.303 l 111.137
 8.213 112.016 8.67 113.168 8.67 c 113.664 8.67 114.125 8.581 114.547 8.401
 c 114.965 8.221 115.277 7.983 115.488 7.694 c 115.695 7.397 115.84 7.053
 115.926 6.655 c 115.973 6.393 116 5.936 116.004 5.288 c 116.004 0.186 l
 114.598 0.186 l 114.598 5.233 l 114.594 5.803 114.539 6.233 114.434 6.518
 c 114.32 6.799 114.125 7.026 113.852 7.198 c 113.57 7.366 113.246 7.452
 112.871 7.452 c 112.27 7.452 111.75 7.26 111.32 6.881 c 110.883 6.499 110.668
 5.776 110.668 4.717 c 110.668 0.186 l h
f
123.836 2.858 m 125.289 2.678 l 125.055 1.827 124.633 1.17 124.016 0.702
 c 123.395 0.233 122.602 -0.001 121.641 -0.001 c 120.426 -0.001 119.465 
0.37 118.754 1.12 c 118.043 1.862 117.688 2.913 117.688 4.264 c 117.688 
5.659 118.047 6.741 118.766 7.514 c 119.484 8.284 120.414 8.67 121.563 8.67
 c 122.668 8.67 123.574 8.292 124.281 7.538 c 124.98 6.78 125.332 5.717 
125.336 4.35 c 125.332 4.264 125.332 4.139 125.328 3.975 c 119.141 3.975
 l 119.191 3.061 119.449 2.362 119.914 1.881 c 120.375 1.393 120.953 1.151
 121.648 1.155 c 122.164 1.151 122.602 1.288 122.969 1.561 c 123.328 1.831
 123.617 2.264 123.836 2.858 c h
119.219 5.131 m 123.852 5.131 l 123.789 5.827 123.609 6.35 123.32 6.702
 c 122.867 7.241 122.289 7.51 121.578 7.514 c 120.93 7.51 120.387 7.295 
119.949 6.866 c 119.508 6.432 119.262 5.854 119.219 5.131 c h
f
126.488 2.663 m 127.879 2.881 l 127.953 2.323 128.172 1.893 128.531 1.6
 c 128.887 1.299 129.387 1.151 130.027 1.155 c 130.672 1.151 131.148 1.284
 131.465 1.549 c 131.773 1.811 131.93 2.12 131.934 2.475 c 131.93 2.792 
131.793 3.042 131.52 3.225 c 131.324 3.346 130.844 3.506 130.082 3.702 c
 129.047 3.959 128.332 4.182 127.938 4.377 c 127.535 4.565 127.234 4.831
 127.031 5.167 c 126.824 5.502 126.723 5.874 126.723 6.28 c 126.723 6.647
 126.805 6.987 126.977 7.307 c 127.141 7.62 127.371 7.881 127.668 8.092 
c 127.883 8.249 128.184 8.385 128.563 8.502 c 128.938 8.612 129.34 8.67 
129.777 8.67 c 130.426 8.67 131 8.577 131.492 8.389 c 131.984 8.202 132.348
 7.948 132.582 7.627 c 132.816 7.307 132.977 6.877 133.066 6.342 c 131.691
 6.155 l 131.629 6.581 131.445 6.913 131.148 7.155 c 130.844 7.389 130.422
 7.51 129.879 7.514 c 129.23 7.51 128.77 7.405 128.496 7.194 c 128.219 6.979
 128.082 6.729 128.082 6.444 c 128.082 6.26 128.137 6.096 128.254 5.952 
c 128.363 5.799 128.543 5.674 128.793 5.577 c 128.93 5.522 129.344 5.401
 130.035 5.217 c 131.027 4.948 131.723 4.729 132.117 4.565 c 132.508 4.393
 132.816 4.147 133.043 3.827 c 133.266 3.499 133.379 3.1 133.379 2.624 c
 133.379 2.155 133.242 1.713 132.969 1.299 c 132.695 0.885 132.301 0.565
 131.785 0.338 c 131.27 0.112 130.684 -0.001 130.035 -0.001 c 128.953 -0.001
 128.133 0.221 127.57 0.67 c 127.004 1.116 126.645 1.78 126.488 2.663 c 
h
f
134.488 2.663 m 135.879 2.881 l 135.953 2.323 136.172 1.893 136.531 1.6
 c 136.887 1.299 137.387 1.151 138.027 1.155 c 138.672 1.151 139.148 1.284
 139.465 1.549 c 139.773 1.811 139.93 2.12 139.934 2.475 c 139.93 2.792 
139.793 3.042 139.52 3.225 c 139.324 3.346 138.844 3.506 138.082 3.702 c
 137.047 3.959 136.332 4.182 135.938 4.377 c 135.535 4.565 135.234 4.831
 135.031 5.167 c 134.824 5.502 134.723 5.874 134.723 6.28 c 134.723 6.647
 134.805 6.987 134.977 7.307 c 135.141 7.62 135.371 7.881 135.668 8.092 
c 135.883 8.249 136.184 8.385 136.563 8.502 c 136.938 8.612 137.34 8.67 
137.777 8.67 c 138.426 8.67 139 8.577 139.492 8.389 c 139.984 8.202 140.348
 7.948 140.582 7.627 c 140.816 7.307 140.977 6.877 141.066 6.342 c 139.691
 6.155 l 139.629 6.581 139.445 6.913 139.148 7.155 c 138.844 7.389 138.422
 7.51 137.879 7.514 c 137.23 7.51 136.77 7.405 136.496 7.194 c 136.219 6.979
 136.082 6.729 136.082 6.444 c 136.082 6.26 136.137 6.096 136.254 5.952 
c 136.363 5.799 136.543 5.674 136.793 5.577 c 136.93 5.522 137.344 5.401
 138.035 5.217 c 139.027 4.948 139.723 4.729 140.117 4.565 c 140.508 4.393
 140.816 4.147 141.043 3.827 c 141.266 3.499 141.379 3.1 141.379 2.624 c
 141.379 2.155 141.242 1.713 140.969 1.299 c 140.695 0.885 140.301 0.565
 139.785 0.338 c 139.27 0.112 138.684 -0.001 138.035 -0.001 c 136.953 -0.001
 136.133 0.221 135.57 0.67 c 135.004 1.116 134.645 1.78 134.488 2.663 c 
h
f
147.836 0.186 m 147.836 7.389 l 146.594 7.389 l 146.594 8.483 l 147.836
 8.483 l 147.836 9.366 l 147.832 9.92 147.883 10.334 147.984 10.608 c 148.117
 10.971 148.355 11.268 148.699 11.495 c 149.039 11.721 149.516 11.834 150.133
 11.834 c 150.523 11.834 150.961 11.788 151.445 11.694 c 151.234 10.467 
l 150.938 10.518 150.664 10.545 150.406 10.545 c 149.977 10.545 149.672 
10.452 149.5 10.272 c 149.32 10.084 149.234 9.745 149.234 9.249 c 149.234
 8.483 l 150.852 8.483 l 150.852 7.389 l 149.234 7.389 l 149.234 0.186 l
 h
f
157.387 0.186 m 157.387 1.405 l 156.738 0.467 155.859 -0.001 154.754 -0.001
 c 154.262 -0.001 153.805 0.092 153.383 0.28 c 152.957 0.467 152.641 0.702
 152.438 0.987 c 152.227 1.268 152.082 1.616 152.004 2.03 c 151.941 2.303
 151.914 2.741 151.918 3.342 c 151.918 8.483 l 153.324 8.483 l 153.324 3.881
 l 153.32 3.143 153.348 2.647 153.41 2.397 c 153.496 2.022 153.684 1.733
 153.973 1.526 c 154.254 1.311 154.609 1.206 155.035 1.209 c 155.453 1.206
 155.848 1.315 156.223 1.534 c 156.59 1.749 156.852 2.042 157.008 2.417 
c 157.156 2.788 157.234 3.327 157.238 4.038 c 157.238 8.483 l 158.645 8.483
 l 158.645 0.186 l h
f
160.844 0.186 m 160.844 8.483 l 162.109 8.483 l 162.109 7.303 l 162.719
 8.213 163.598 8.67 164.75 8.67 c 165.246 8.67 165.707 8.581 166.129 8.401
 c 166.547 8.221 166.859 7.983 167.07 7.694 c 167.277 7.397 167.422 7.053
 167.508 6.655 c 167.555 6.393 167.582 5.936 167.586 5.288 c 167.586 0.186
 l 166.18 0.186 l 166.18 5.233 l 166.176 5.803 166.121 6.233 166.016 6.518
 c 165.902 6.799 165.707 7.026 165.434 7.198 c 165.152 7.366 164.828 7.452
 164.453 7.452 c 163.852 7.452 163.332 7.26 162.902 6.881 c 162.465 6.499
 162.25 5.776 162.25 4.717 c 162.25 0.186 l h
f
175.152 3.225 m 176.535 3.045 l 176.383 2.092 175.996 1.346 175.375 0.807
 c 174.75 0.268 173.984 -0.001 173.082 -0.001 c 171.945 -0.001 171.031 0.37
 170.344 1.112 c 169.648 1.854 169.305 2.917 169.309 4.303 c 169.305 5.198
 169.453 5.983 169.754 6.655 c 170.047 7.327 170.5 7.831 171.109 8.167 c
 171.715 8.502 172.375 8.67 173.09 8.67 c 173.988 8.67 174.723 8.44 175.301
 7.987 c 175.871 7.526 176.238 6.881 176.402 6.045 c 175.035 5.834 l 174.902
 6.389 174.672 6.807 174.344 7.092 c 174.012 7.37 173.609 7.51 173.145 7.514
 c 172.434 7.51 171.859 7.256 171.418 6.752 c 170.973 6.241 170.75 5.436
 170.754 4.342 c 170.75 3.225 170.965 2.417 171.395 1.913 c 171.82 1.405
 172.379 1.151 173.066 1.155 c 173.617 1.151 174.078 1.323 174.449 1.663
 c 174.816 1.999 175.051 2.518 175.152 3.225 c h
f
180.809 1.444 m 181.012 0.202 l 180.613 0.12 180.258 0.081 179.949 0.077
 c 179.434 0.081 179.039 0.159 178.762 0.319 c 178.477 0.479 178.277 0.69
 178.168 0.956 c 178.051 1.213 177.996 1.768 177.996 2.616 c 177.996 7.389
 l 176.965 7.389 l 176.965 8.483 l 177.996 8.483 l 177.996 10.538 l 179.395
 11.381 l 179.395 8.483 l 180.809 8.483 l 180.809 7.389 l 179.395 7.389 
l 179.395 2.538 l 179.391 2.131 179.414 1.874 179.469 1.764 c 179.516 1.647
 179.598 1.557 179.711 1.491 c 179.82 1.42 179.98 1.385 180.191 1.389 c 
180.344 1.385 180.551 1.405 180.809 1.444 c h
f
182.195 10.022 m 182.195 11.639 l 183.602 11.639 l 183.602 10.022 l h
182.195 0.186 m 182.195 8.483 l 183.602 8.483 l 183.602 0.186 l h
f
185.215 4.334 m 185.211 5.87 185.637 7.006 186.496 7.749 c 187.207 8.362
 188.078 8.67 189.105 8.67 c 190.242 8.67 191.176 8.295 191.902 7.549 c 
192.625 6.799 192.984 5.768 192.988 4.452 c 192.984 3.381 192.824 2.542 
192.508 1.932 c 192.184 1.319 191.719 0.842 191.109 0.506 c 190.496 0.167
 189.828 -0.001 189.105 -0.001 c 187.941 -0.001 187.004 0.37 186.289 1.116
 c 185.57 1.858 185.211 2.932 185.215 4.334 c h
186.66 4.334 m 186.656 3.272 186.891 2.475 187.355 1.948 c 187.816 1.417
 188.398 1.151 189.105 1.155 c 189.801 1.151 190.383 1.417 190.848 1.952
 c 191.309 2.479 191.539 3.292 191.543 4.381 c 191.539 5.405 191.305 6.182
 190.844 6.713 c 190.375 7.241 189.797 7.502 189.105 7.506 c 188.398 7.502
 187.816 7.241 187.355 6.717 c 186.891 6.19 186.656 5.397 186.66 4.334 c
 h
f
194.637 0.186 m 194.637 8.483 l 195.902 8.483 l 195.902 7.303 l 196.512
 8.213 197.391 8.67 198.543 8.67 c 199.039 8.67 199.5 8.581 199.922 8.401
 c 200.34 8.221 200.652 7.983 200.863 7.694 c 201.07 7.397 201.215 7.053
 201.301 6.655 c 201.348 6.393 201.375 5.936 201.379 5.288 c 201.379 0.186
 l 199.973 0.186 l 199.973 5.233 l 199.969 5.803 199.914 6.233 199.809 6.518
 c 199.695 6.799 199.5 7.026 199.227 7.198 c 198.945 7.366 198.621 7.452
 198.246 7.452 c 197.645 7.452 197.125 7.26 196.695 6.881 c 196.258 6.499
 196.043 5.776 196.043 4.717 c 196.043 0.186 l h
f
213.66 2.858 m 215.113 2.678 l 214.879 1.827 214.457 1.17 213.84 0.702 
c 213.219 0.233 212.426 -0.001 211.465 -0.001 c 210.25 -0.001 209.289 0.37
 208.578 1.12 c 207.867 1.862 207.512 2.913 207.512 4.264 c 207.512 5.659
 207.871 6.741 208.59 7.514 c 209.309 8.284 210.238 8.67 211.387 8.67 c 
212.492 8.67 213.398 8.292 214.105 7.538 c 214.805 6.78 215.156 5.717 215.16
 4.35 c 215.156 4.264 215.156 4.139 215.152 3.975 c 208.965 3.975 l 209.016
 3.061 209.273 2.362 209.738 1.881 c 210.199 1.393 210.777 1.151 211.473
 1.155 c 211.988 1.151 212.426 1.288 212.793 1.561 c 213.152 1.831 213.441
 2.264 213.66 2.858 c h
209.043 5.131 m 213.676 5.131 l 213.613 5.827 213.434 6.35 213.145 6.702
 c 212.691 7.241 212.113 7.51 211.402 7.514 c 210.754 7.51 210.211 7.295
 209.773 6.866 c 209.332 6.432 209.086 5.854 209.043 5.131 c h
f
218.699 0.186 m 215.543 8.483 l 217.027 8.483 l 218.809 3.514 l 219 2.975
 219.176 2.417 219.34 1.842 c 219.461 2.276 219.637 2.803 219.863 3.42 c
 221.707 8.483 l 223.152 8.483 l 220.012 0.186 l h
f
229.41 1.209 m 228.887 0.764 228.383 0.452 227.906 0.272 c 227.422 0.088
 226.906 -0.001 226.355 -0.001 c 225.441 -0.001 224.742 0.221 224.254 0.667
 c 223.762 1.112 223.516 1.678 223.52 2.374 c 223.516 2.776 223.609 3.147
 223.797 3.487 c 223.98 3.819 224.223 4.088 224.523 4.295 c 224.82 4.495
 225.156 4.651 225.535 4.756 c 225.809 4.827 226.227 4.897 226.785 4.967
 c 227.918 5.1 228.754 5.26 229.293 5.452 c 229.297 5.643 229.297 5.764 
229.301 5.819 c 229.297 6.389 229.164 6.795 228.902 7.03 c 228.539 7.346
 228.008 7.502 227.301 7.506 c 226.637 7.502 226.148 7.389 225.836 7.159
 c 225.52 6.924 225.285 6.514 225.137 5.928 c 223.762 6.116 l 223.887 6.702
 224.09 7.174 224.379 7.542 c 224.66 7.901 225.074 8.182 225.621 8.377 c
 226.16 8.573 226.789 8.67 227.504 8.67 c 228.211 8.67 228.785 8.584 229.23
 8.42 c 229.668 8.249 229.996 8.042 230.207 7.792 c 230.414 7.538 230.559
 7.217 230.645 6.834 c 230.688 6.592 230.711 6.159 230.715 5.538 c 230.715
 3.663 l 230.711 2.35 230.742 1.526 230.805 1.182 c 230.863 0.834 230.98
 0.502 231.16 0.186 c 229.691 0.186 l 229.543 0.475 229.449 0.815 229.41
 1.209 c h
229.293 4.35 m 228.781 4.139 228.016 3.963 226.996 3.819 c 226.418 3.733
 226.008 3.639 225.77 3.538 c 225.527 3.432 225.344 3.28 225.215 3.081 c
 225.082 2.877 225.016 2.655 225.02 2.413 c 225.016 2.038 225.156 1.725 
225.445 1.475 c 225.727 1.225 226.145 1.1 226.691 1.1 c 227.23 1.1 227.711
 1.217 228.137 1.456 c 228.555 1.69 228.863 2.014 229.066 2.428 c 229.215
 2.745 229.293 3.213 229.293 3.834 c h
f
232.859 0.186 m 232.859 11.639 l 234.266 11.639 l 234.266 0.186 l h
f
241.883 0.186 m 241.883 1.405 l 241.234 0.467 240.355 -0.001 239.25 -0.001
 c 238.758 -0.001 238.301 0.092 237.879 0.28 c 237.453 0.467 237.137 0.702
 236.934 0.987 c 236.723 1.268 236.578 1.616 236.5 2.03 c 236.438 2.303 
236.41 2.741 236.414 3.342 c 236.414 8.483 l 237.82 8.483 l 237.82 3.881
 l 237.816 3.143 237.844 2.647 237.906 2.397 c 237.992 2.022 238.18 1.733
 238.469 1.526 c 238.75 1.311 239.105 1.206 239.531 1.209 c 239.949 1.206
 240.344 1.315 240.719 1.534 c 241.086 1.749 241.348 2.042 241.504 2.417
 c 241.652 2.788 241.73 3.327 241.734 4.038 c 241.734 8.483 l 243.141 8.483
 l 243.141 0.186 l h
f
250.754 1.209 m 250.23 0.764 249.727 0.452 249.25 0.272 c 248.766 0.088
 248.25 -0.001 247.699 -0.001 c 246.785 -0.001 246.086 0.221 245.598 0.667
 c 245.105 1.112 244.859 1.678 244.863 2.374 c 244.859 2.776 244.953 3.147
 245.141 3.487 c 245.324 3.819 245.566 4.088 245.867 4.295 c 246.164 4.495
 246.5 4.651 246.879 4.756 c 247.152 4.827 247.57 4.897 248.129 4.967 c 
249.262 5.1 250.098 5.26 250.637 5.452 c 250.641 5.643 250.641 5.764 250.645
 5.819 c 250.641 6.389 250.508 6.795 250.246 7.03 c 249.883 7.346 249.352
 7.502 248.645 7.506 c 247.98 7.502 247.492 7.389 247.18 7.159 c 246.863
 6.924 246.629 6.514 246.48 5.928 c 245.105 6.116 l 245.23 6.702 245.434
 7.174 245.723 7.542 c 246.004 7.901 246.418 8.182 246.965 8.377 c 247.504
 8.573 248.133 8.67 248.848 8.67 c 249.555 8.67 250.129 8.584 250.574 8.42
 c 251.012 8.249 251.34 8.042 251.551 7.792 c 251.758 7.538 251.902 7.217
 251.988 6.834 c 252.031 6.592 252.055 6.159 252.059 5.538 c 252.059 3.663
 l 252.055 2.35 252.086 1.526 252.148 1.182 c 252.207 0.834 252.324 0.502
 252.504 0.186 c 251.035 0.186 l 250.887 0.475 250.793 0.815 250.754 1.209
 c h
250.637 4.35 m 250.125 4.139 249.359 3.963 248.34 3.819 c 247.762 3.733
 247.352 3.639 247.113 3.538 c 246.871 3.432 246.688 3.28 246.559 3.081 
c 246.426 2.877 246.359 2.655 246.363 2.413 c 246.359 2.038 246.5 1.725 
246.789 1.475 c 247.07 1.225 247.488 1.1 248.035 1.1 c 248.574 1.1 249.055
 1.217 249.48 1.456 c 249.898 1.69 250.207 2.014 250.41 2.428 c 250.559 
2.745 250.637 3.213 250.637 3.834 c h
f
257.305 1.444 m 257.508 0.202 l 257.109 0.12 256.754 0.081 256.445 0.077
 c 255.93 0.081 255.535 0.159 255.258 0.319 c 254.973 0.479 254.773 0.69
 254.664 0.956 c 254.547 1.213 254.492 1.768 254.492 2.616 c 254.492 7.389
 l 253.461 7.389 l 253.461 8.483 l 254.492 8.483 l 254.492 10.538 l 255.891
 11.381 l 255.891 8.483 l 257.305 8.483 l 257.305 7.389 l 255.891 7.389 
l 255.891 2.538 l 255.887 2.131 255.91 1.874 255.965 1.764 c 256.012 1.647
 256.094 1.557 256.207 1.491 c 256.316 1.42 256.477 1.385 256.688 1.389 
c 256.84 1.385 257.047 1.405 257.305 1.444 c h
f
258.691 10.022 m 258.691 11.639 l 260.098 11.639 l 260.098 10.022 l h
258.691 0.186 m 258.691 8.483 l 260.098 8.483 l 260.098 0.186 l h
f
261.711 4.334 m 261.707 5.87 262.133 7.006 262.992 7.749 c 263.703 8.362
 264.574 8.67 265.602 8.67 c 266.738 8.67 267.672 8.295 268.398 7.549 c 
269.121 6.799 269.48 5.768 269.484 4.452 c 269.48 3.381 269.32 2.542 269.004
 1.932 c 268.68 1.319 268.215 0.842 267.605 0.506 c 266.992 0.167 266.324
 -0.001 265.602 -0.001 c 264.438 -0.001 263.5 0.37 262.785 1.116 c 262.066
 1.858 261.707 2.932 261.711 4.334 c h
263.156 4.334 m 263.152 3.272 263.387 2.475 263.852 1.948 c 264.313 1.417
 264.895 1.151 265.602 1.155 c 266.297 1.151 266.879 1.417 267.344 1.952
 c 267.805 2.479 268.035 3.292 268.039 4.381 c 268.035 5.405 267.801 6.182
 267.34 6.713 c 266.871 7.241 266.293 7.502 265.602 7.506 c 264.895 7.502
 264.313 7.241 263.852 6.717 c 263.387 6.19 263.152 5.397 263.156 4.334 
c h
f
271.133 0.186 m 271.133 8.483 l 272.398 8.483 l 272.398 7.303 l 273.008
 8.213 273.887 8.67 275.039 8.67 c 275.535 8.67 275.996 8.581 276.418 8.401
 c 276.836 8.221 277.148 7.983 277.359 7.694 c 277.566 7.397 277.711 7.053
 277.797 6.655 c 277.844 6.393 277.871 5.936 277.875 5.288 c 277.875 0.186
 l 276.469 0.186 l 276.469 5.233 l 276.465 5.803 276.41 6.233 276.305 6.518
 c 276.191 6.799 275.996 7.026 275.723 7.198 c 275.441 7.366 275.117 7.452
 274.742 7.452 c 274.141 7.452 273.621 7.26 273.191 6.881 c 272.754 6.499
 272.539 5.776 272.539 4.717 c 272.539 0.186 l h
f
279.465 2.663 m 280.855 2.881 l 280.93 2.323 281.148 1.893 281.508 1.6 
c 281.863 1.299 282.363 1.151 283.004 1.155 c 283.648 1.151 284.125 1.284
 284.441 1.549 c 284.75 1.811 284.906 2.12 284.91 2.475 c 284.906 2.792 
284.77 3.042 284.496 3.225 c 284.301 3.346 283.82 3.506 283.059 3.702 c 
282.023 3.959 281.309 4.182 280.914 4.377 c 280.512 4.565 280.211 4.831 
280.008 5.167 c 279.801 5.502 279.699 5.874 279.699 6.28 c 279.699 6.647
 279.781 6.987 279.953 7.307 c 280.117 7.62 280.348 7.881 280.645 8.092 
c 280.859 8.249 281.16 8.385 281.539 8.502 c 281.914 8.612 282.316 8.67 
282.754 8.67 c 283.402 8.67 283.977 8.577 284.469 8.389 c 284.961 8.202 
285.324 7.948 285.559 7.627 c 285.793 7.307 285.953 6.877 286.043 6.342 
c 284.668 6.155 l 284.605 6.581 284.422 6.913 284.125 7.155 c 283.82 7.389
 283.398 7.51 282.855 7.514 c 282.207 7.51 281.746 7.405 281.473 7.194 c
 281.195 6.979 281.059 6.729 281.059 6.444 c 281.059 6.26 281.113 6.096 
281.23 5.952 c 281.34 5.799 281.52 5.674 281.77 5.577 c 281.906 5.522 282.32
 5.401 283.012 5.217 c 284.004 4.948 284.699 4.729 285.094 4.565 c 285.484
 4.393 285.793 4.147 286.02 3.827 c 286.242 3.499 286.355 3.1 286.355 2.624
 c 286.355 2.155 286.219 1.713 285.945 1.299 c 285.672 0.885 285.277 0.565
 284.762 0.338 c 284.246 0.112 283.66 -0.001 283.012 -0.001 c 281.93 -0.001
 281.109 0.221 280.547 0.67 c 279.98 1.116 279.621 1.78 279.465 2.663 c 
h
f
11.453 149.327 m 0 149.327 l 0 154.405 l 0.004 155.42 0.105 156.198 0.309
 156.733 c 0.516 157.26 0.879 157.686 1.398 158.006 c 1.922 158.323 2.5 
158.479 3.125 158.483 c 3.941 158.479 4.625 158.217 5.18 157.694 c 5.738
 157.167 6.094 156.354 6.242 155.256 c 6.438 155.655 6.625 155.959 6.813
 156.17 c 7.219 156.612 7.727 157.03 8.336 157.428 c 11.453 159.42 l 11.453
 157.514 l 9.07 155.999 l 8.387 155.553 7.859 155.19 7.492 154.905 c 7.129
 154.616 6.875 154.358 6.727 154.135 c 6.582 153.905 6.48 153.674 6.422 
153.444 c 6.387 153.268 6.367 152.987 6.367 152.6 c 6.367 150.842 l 11.453
 150.842 l h
5.055 150.842 m 5.055 154.1 l 5.055 154.788 4.984 155.331 4.84 155.725 
c 4.699 156.112 4.469 156.409 4.152 156.616 c 3.84 156.815 3.5 156.917 3.125
 156.92 c 2.586 156.917 2.141 156.721 1.789 156.331 c 1.445 155.936 1.27
 155.315 1.266 154.467 c 1.266 150.842 l h
f
8.781 166.354 m 8.961 167.807 l 9.813 167.573 10.469 167.151 10.938 166.534
 c 11.406 165.913 11.641 165.12 11.641 164.159 c 11.641 162.944 11.27 161.983
 10.52 161.272 c 9.777 160.561 8.727 160.206 7.375 160.206 c 5.98 160.206
 4.898 160.565 4.125 161.284 c 3.355 162.002 2.969 162.932 2.969 164.081
 c 2.969 165.186 3.348 166.092 4.102 166.799 c 4.859 167.499 5.922 167.85
 7.289 167.854 c 7.375 167.85 7.5 167.85 7.664 167.846 c 7.664 161.659 l
 8.578 161.709 9.277 161.967 9.758 162.432 c 10.246 162.893 10.488 163.471
 10.484 164.167 c 10.488 164.682 10.352 165.12 10.078 165.487 c 9.809 165.846
 9.375 166.135 8.781 166.354 c h
6.508 161.737 m 6.508 166.37 l 5.813 166.307 5.289 166.127 4.938 165.838
 c 4.398 165.385 4.129 164.807 4.125 164.096 c 4.129 163.448 4.344 162.905
 4.773 162.467 c 5.207 162.026 5.785 161.78 6.508 161.737 c h
f
0 170.944 11.453 -1.406 re f
10.43 178.538 m 10.875 178.014 11.188 177.51 11.367 177.034 c 11.551 176.549
 11.641 176.034 11.641 175.483 c 11.641 174.569 11.418 173.87 10.973 173.381
 c 10.527 172.889 9.961 172.643 9.266 172.647 c 8.863 172.643 8.492 172.737
 8.152 172.924 c 7.82 173.108 7.551 173.35 7.344 173.651 c 7.145 173.948
 6.988 174.284 6.883 174.663 c 6.813 174.936 6.742 175.354 6.672 175.913
 c 6.539 177.045 6.379 177.881 6.188 178.42 c 5.996 178.424 5.875 178.424
 5.82 178.428 c 5.25 178.424 4.844 178.292 4.609 178.03 c 4.293 177.667 
4.137 177.135 4.133 176.428 c 4.137 175.764 4.25 175.276 4.48 174.963 c 
4.715 174.647 5.125 174.413 5.711 174.264 c 5.523 172.889 l 4.938 173.014
 4.465 173.217 4.098 173.506 c 3.738 173.788 3.457 174.202 3.262 174.749
 c 3.066 175.288 2.969 175.917 2.969 176.631 c 2.969 177.338 3.055 177.913
 3.219 178.358 c 3.391 178.795 3.598 179.124 3.848 179.334 c 4.102 179.542
 4.422 179.686 4.805 179.772 c 5.047 179.815 5.48 179.838 6.102 179.842 
c 7.977 179.842 l 9.289 179.838 10.113 179.87 10.457 179.932 c 10.805 179.991
 11.137 180.108 11.453 180.288 c 11.453 178.819 l 11.164 178.67 10.824 178.577
 10.43 178.538 c h
7.289 178.42 m 7.5 177.909 7.676 177.143 7.82 176.124 c 7.906 175.545 8
 175.135 8.102 174.897 c 8.207 174.655 8.359 174.471 8.559 174.342 c 8.762
 174.209 8.984 174.143 9.227 174.147 c 9.602 174.143 9.914 174.284 10.164
 174.573 c 10.414 174.854 10.539 175.272 10.539 175.819 c 10.539 176.358
 10.422 176.838 10.184 177.264 c 9.949 177.682 9.625 177.991 9.211 178.194
 c 8.895 178.342 8.426 178.42 7.805 178.42 c h
f
10.195 185.088 m 11.438 185.292 l 11.52 184.893 11.559 184.538 11.563 184.229
 c 11.559 183.713 11.48 183.319 11.32 183.042 c 11.16 182.756 10.949 182.557
 10.684 182.448 c 10.426 182.331 9.871 182.276 9.023 182.276 c 4.25 182.276
 l 4.25 181.245 l 3.156 181.245 l 3.156 182.276 l 1.102 182.276 l 0.258 
183.674 l 3.156 183.674 l 3.156 185.088 l 4.25 185.088 l 4.25 183.674 l 
9.102 183.674 l 9.508 183.67 9.766 183.694 9.875 183.749 c 9.992 183.795
 10.082 183.877 10.148 183.991 c 10.219 184.1 10.254 184.26 10.25 184.471
 c 10.254 184.624 10.234 184.831 10.195 185.088 c h
f
1.617 186.475 m 0 186.475 l 0 187.881 l 1.617 187.881 l h
11.453 186.475 m 3.156 186.475 l 3.156 187.881 l 11.453 187.881 l h
f
11.453 192.323 m 3.156 189.167 l 3.156 190.651 l 8.125 192.432 l 8.664 
192.624 9.223 192.799 9.797 192.963 c 9.363 193.084 8.836 193.26 8.219 193.487
 c 3.156 195.331 l 3.156 196.776 l 11.453 193.635 l h
f
8.781 203.299 m 8.961 204.752 l 9.813 204.518 10.469 204.096 10.938 203.479
 c 11.406 202.858 11.641 202.065 11.641 201.104 c 11.641 199.889 11.27 198.928
 10.52 198.217 c 9.777 197.506 8.727 197.151 7.375 197.151 c 5.98 197.151
 4.898 197.51 4.125 198.229 c 3.355 198.948 2.969 199.877 2.969 201.026 
c 2.969 202.131 3.348 203.038 4.102 203.745 c 4.859 204.444 5.922 204.795
 7.289 204.799 c 7.375 204.795 7.5 204.795 7.664 204.792 c 7.664 198.604
 l 8.578 198.655 9.277 198.913 9.758 199.377 c 10.246 199.838 10.488 200.417
 10.484 201.112 c 10.488 201.627 10.352 202.065 10.078 202.432 c 9.809 202.792
 9.375 203.081 8.781 203.299 c h
6.508 198.682 m 6.508 203.315 l 5.813 203.252 5.289 203.073 4.938 202.784
 c 4.398 202.331 4.129 201.752 4.125 201.042 c 4.129 200.393 4.344 199.85
 4.773 199.413 c 5.207 198.971 5.785 198.725 6.508 198.682 c h
f
11.453 210.948 m 3.156 210.948 l 3.156 212.213 l 4.414 212.213 l 3.828 
212.534 3.438 212.834 3.25 213.108 c 3.063 213.381 2.969 213.682 2.969 214.01
 c 2.969 214.483 3.121 214.963 3.422 215.456 c 4.727 214.971 l 4.523 214.627
 4.422 214.284 4.422 213.94 c 4.422 213.631 4.516 213.354 4.699 213.112 
c 4.887 212.866 5.145 212.69 5.469 212.588 c 5.973 212.428 6.52 212.35 7.109
 212.354 c 11.453 212.354 l h
f
8.781 221.971 m 8.961 223.424 l 9.813 223.19 10.469 222.768 10.938 222.151
 c 11.406 221.53 11.641 220.737 11.641 219.776 c 11.641 218.561 11.27 217.6
 10.52 216.889 c 9.777 216.178 8.727 215.823 7.375 215.823 c 5.98 215.823
 4.898 216.182 4.125 216.901 c 3.355 217.62 2.969 218.549 2.969 219.698 
c 2.969 220.803 3.348 221.709 4.102 222.417 c 4.859 223.116 5.922 223.467
 7.289 223.471 c 7.375 223.467 7.5 223.467 7.664 223.463 c 7.664 217.276
 l 8.578 217.327 9.277 217.584 9.758 218.049 c 10.246 218.51 10.488 219.088
 10.484 219.784 c 10.488 220.299 10.352 220.737 10.078 221.104 c 9.809 221.463
 9.375 221.752 8.781 221.971 c h
6.508 217.354 m 6.508 221.987 l 5.813 221.924 5.289 221.745 4.938 221.456
 c 4.398 221.002 4.129 220.424 4.125 219.713 c 4.129 219.065 4.344 218.522
 4.773 218.084 c 5.207 217.643 5.785 217.397 6.508 217.354 c h
f
8.977 224.624 m 8.758 226.014 l 9.316 226.088 9.746 226.307 10.039 226.667
 c 10.34 227.022 10.488 227.522 10.484 228.163 c 10.488 228.807 10.355 229.284
 10.09 229.6 c 9.828 229.909 9.52 230.065 9.164 230.069 c 8.848 230.065 
8.598 229.928 8.414 229.655 c 8.293 229.459 8.133 228.979 7.938 228.217 
c 7.68 227.182 7.457 226.467 7.262 226.073 c 7.074 225.67 6.809 225.37 6.473
 225.167 c 6.137 224.959 5.766 224.858 5.359 224.858 c 4.992 224.858 4.652
 224.94 4.332 225.112 c 4.02 225.276 3.758 225.506 3.547 225.803 c 3.391
 226.018 3.254 226.319 3.137 226.698 c 3.027 227.073 2.969 227.475 2.969
 227.913 c 2.969 228.561 3.063 229.135 3.25 229.627 c 3.438 230.12 3.691
 230.483 4.012 230.717 c 4.332 230.952 4.762 231.112 5.297 231.202 c 5.484
 229.827 l 5.059 229.764 4.727 229.581 4.484 229.284 c 4.25 228.979 4.129
 228.557 4.125 228.014 c 4.129 227.366 4.234 226.905 4.445 226.631 c 4.66
 226.354 4.91 226.217 5.195 226.217 c 5.379 226.217 5.543 226.272 5.688 
226.389 c 5.84 226.499 5.965 226.678 6.063 226.928 c 6.117 227.065 6.238
 227.479 6.422 228.17 c 6.691 229.163 6.91 229.858 7.074 230.252 c 7.246
 230.643 7.492 230.952 7.813 231.178 c 8.141 231.401 8.539 231.514 9.016
 231.514 c 9.484 231.514 9.926 231.377 10.34 231.104 c 10.754 230.831 11.074
 230.436 11.301 229.92 c 11.527 229.405 11.641 228.819 11.641 228.17 c 11.641
 227.088 11.418 226.268 10.969 225.706 c 10.523 225.139 9.859 224.78 8.977
 224.624 c h
f
11.453 238.624 m 10.234 238.624 l 11.172 237.975 11.641 237.096 11.641 
235.991 c 11.641 235.499 11.547 235.042 11.359 234.62 c 11.172 234.194 10.938
 233.877 10.652 233.674 c 10.371 233.463 10.023 233.319 9.609 233.241 c 
9.336 233.178 8.898 233.151 8.297 233.155 c 3.156 233.155 l 3.156 234.561
 l 7.758 234.561 l 8.496 234.557 8.992 234.584 9.242 234.647 c 9.617 234.733
 9.906 234.92 10.113 235.209 c 10.328 235.491 10.434 235.846 10.43 236.272
 c 10.434 236.69 10.324 237.084 10.105 237.459 c 9.891 237.827 9.598 238.088
 9.223 238.245 c 8.852 238.393 8.313 238.471 7.602 238.475 c 3.156 238.475
 l 3.156 239.881 l 11.453 239.881 l h
f
0 243.456 11.453 -1.406 re f
10.195 248.706 m 11.438 248.909 l 11.52 248.51 11.559 248.155 11.563 247.846
 c 11.559 247.331 11.48 246.936 11.32 246.659 c 11.16 246.374 10.949 246.174
 10.684 246.065 c 10.426 245.948 9.871 245.893 9.023 245.893 c 4.25 245.893
 l 4.25 244.862 l 3.156 244.862 l 3.156 245.893 l 1.102 245.893 l 0.258 
247.292 l 3.156 247.292 l 3.156 248.706 l 4.25 248.706 l 4.25 247.292 l 
9.102 247.292 l 9.508 247.288 9.766 247.311 9.875 247.366 c 9.992 247.413
 10.082 247.495 10.148 247.608 c 10.219 247.717 10.254 247.877 10.25 248.088
 c 10.254 248.241 10.234 248.448 10.195 248.706 c h
f
57.531 342.186 208.082 -287.277 re S
Q Q
showpage
%%Trailer
count op_count sub {pop} repeat
countdictstack dict_count sub {end} repeat
cairo_eps_state restore
%%EOF
