<?xml version="1.0" encoding="UTF-8" standalone="no"?>
<!-- Created with Inkscape (http://www.inkscape.org/) -->

<svg
   xmlns:dc="http://purl.org/dc/elements/1.1/"
   xmlns:cc="http://creativecommons.org/ns#"
   xmlns:rdf="http://www.w3.org/1999/02/22-rdf-syntax-ns#"
   xmlns:svg="http://www.w3.org/2000/svg"
   xmlns="http://www.w3.org/2000/svg"
   xmlns:sodipodi="http://sodipodi.sourceforge.net/DTD/sodipodi-0.dtd"
   xmlns:inkscape="http://www.inkscape.org/namespaces/inkscape"
   id="svg2"
   version="1.1"
   inkscape:version="0.48.4 r9939"
   width="953.07764"
   height="526.6759"
   xml:space="preserve"
   sodipodi:docname="2MPSO_UnrepresentableSolution.pdf"><metadata
     id="metadata8"><rdf:RDF><cc:Work
         rdf:about=""><dc:format>image/svg+xml</dc:format><dc:type
           rdf:resource="http://purl.org/dc/dcmitype/StillImage" /><dc:title></dc:title></cc:Work></rdf:RDF></metadata><defs
     id="defs6" /><sodipodi:namedview
     pagecolor="#ffffff"
     bordercolor="#666666"
     borderopacity="1"
     objecttolerance="10"
     gridtolerance="10"
     guidetolerance="10"
     inkscape:pageopacity="0"
     inkscape:pageshadow="2"
     inkscape:window-width="1920"
     inkscape:window-height="1133"
     id="namedview4"
     showgrid="false"
     inkscape:zoom="0.43023762"
     inkscape:cx="475.63916"
     inkscape:cy="188.92464"
     inkscape:window-x="-8"
     inkscape:window-y="-8"
     inkscape:window-maximized="1"
     inkscape:current-layer="g10"
     fit-margin-top="0"
     fit-margin-left="0"
     fit-margin-right="0"
     fit-margin-bottom="0" /><g
     id="g10"
     inkscape:groupmode="layer"
     inkscape:label="Routes"
     transform="matrix(1.25,0,0,-1.25,-50.348325,709.63877)"><g
   id="g12"><path
     d="m 514.15,391.49 109.75,3.24"
     style="fill:none;stroke:#000000;stroke-width:1;stroke-linecap:round;stroke-linejoin:round;stroke-miterlimit:10;stroke-opacity:1;stroke-dasharray:7, 5;stroke-dashoffset:0"
     id="path14"
     inkscape:connector-curvature="0" /></g><g
   id="g16"><path
     d="m 453.93,380.74 -50.01,-16.37 c -0.41,1.24 -1.74,1.91 -2.98,1.51 -1.24,-0.41 -1.92,-1.74 -1.51,-2.98 l -27.7,-9.07 c -0.4,1.24 -1.74,1.91 -2.98,1.51 -1.24,-0.41 -1.91,-1.74 -1.51,-2.98 L 255.12,315.64"
     style="fill:none;stroke:#000000;stroke-width:1;stroke-linecap:round;stroke-linejoin:round;stroke-miterlimit:10;stroke-opacity:1;stroke-dasharray:7, 5;stroke-dashoffset:0"
     id="path18"
     inkscape:connector-curvature="0" /></g><g
   id="g20"><path
     d="M 668.25,381.08 755.06,235.73"
     style="fill:none;stroke:#000000;stroke-width:1;stroke-linecap:round;stroke-linejoin:round;stroke-miterlimit:10;stroke-opacity:1;stroke-dasharray:7, 5;stroke-dashoffset:0"
     id="path22"
     inkscape:connector-curvature="0" /></g><path
   d="m 484.53,420.72 -30.6,-6.08 0,-54.15 60.22,0 0,54.14 -29.62,6.09 z"
   style="fill:#ffffff;fill-opacity:1;fill-rule:evenodd;stroke:none"
   id="path24"
   inkscape:connector-curvature="0" /><path
   d="m 484.53,420.72 -30.6,-6.08 0,-54.15 60.22,0 0,54.14 -29.62,6.09 z"
   style="fill:none;stroke:#000000;stroke-width:0.75;stroke-linecap:round;stroke-linejoin:round;stroke-miterlimit:10;stroke-opacity:1;stroke-dasharray:none"
   id="path26"
   inkscape:connector-curvature="0" /><path
   d="m 494.28,379.78 9.6363,0 0,9.6323 -9.6363,0 0,-9.6323 z"
   style="fill:#000000;fill-opacity:1;fill-rule:evenodd;stroke:none"
   id="path28"
   inkscape:connector-curvature="0" /><path
   d="m 492.77,378.58 0,17.25 -1.56,0 0,-18.82 12.71,0 0,1.57 -11.15,0 z m -23.33,-5.63 c -1.92,0 -3.47,-1.56 -3.47,-3.48 0,-1.91 1.55,-3.47 3.47,-3.47 1.92,0 3.48,1.56 3.48,3.47 0,1.92 -1.56,3.48 -3.48,3.48 z m 24.52,0 c -1.92,0 -3.48,-1.56 -3.48,-3.48 0,-1.91 1.56,-3.47 3.48,-3.47 1.91,0 3.47,1.56 3.47,3.47 0,1.92 -1.56,3.48 -3.47,3.48 z m -4.69,-3.48 c 0,2.58 2.1,4.68 4.68,4.68 0.7,0 1.36,-0.15 1.95,-0.43 l 0,0.69 c 0,0.55 -0.45,1 -1.01,1 l -5.28,0.01 0,17.01 -2.24,0 0,-0.01 -0.17,0 0,-15.12 -18.92,0 c -0.47,0 -0.86,-0.45 -0.86,-1.01 l 0,-2.6 c 0.61,0.29 1.3,0.46 2.02,0.46 2.58,0 4.68,-2.1 4.68,-4.68 0,-0.33 -0.03,-0.66 -0.1,-0.97 l 15.36,0 c -0.07,0.31 -0.11,0.64 -0.11,0.97 z m -6.96,13.66 -10.09,0.02 c -0.34,0 -0.62,0.27 -0.62,0.6 l 0,9.21 c 0,0.27 0.25,0.49 0.56,0.49 l 9.09,0 c 0.3,0 0.57,-0.22 0.6,-0.49 l 1.01,-9.22 c 0.04,-0.34 -0.21,-0.61 -0.55,-0.61 z m 3.47,-3.25 -1.78,15.65 c -0.05,0.46 -0.46,0.83 -0.91,0.83 l -13.31,0 c -0.44,0 -0.81,-0.37 -0.81,-0.83 l 0,-15.65 c 0,-0.58 0.41,-1.05 0.92,-1.05 l 15.08,0 c 0.51,0 0.87,0.47 0.81,1.05 z"
   style="fill:#000000;fill-opacity:1;fill-rule:evenodd;stroke:none"
   id="path30"
   inkscape:connector-curvature="0" /><path
   d="m 492.77,378.58 0,17.25 -1.56,0 0,-18.82 12.71,0 0,1.57 -11.15,0 z m -23.33,-5.63 c -1.92,0 -3.47,-1.56 -3.47,-3.48 0,-1.91 1.55,-3.47 3.47,-3.47 1.92,0 3.48,1.56 3.48,3.47 0,1.92 -1.56,3.48 -3.48,3.48 z m 24.52,0 c -1.92,0 -3.48,-1.56 -3.48,-3.48 0,-1.91 1.56,-3.47 3.48,-3.47 1.91,0 3.47,1.56 3.47,3.47 0,1.92 -1.56,3.48 -3.47,3.48 z m -4.69,-3.48 c 0,2.58 2.1,4.68 4.68,4.68 0.7,0 1.36,-0.15 1.95,-0.43 l 0,0.69 c 0,0.55 -0.45,1 -1.01,1 l -5.28,0.01 0,17.01 -2.24,0 0,-0.01 -0.17,0 0,-15.12 -18.92,0 c -0.47,0 -0.86,-0.45 -0.86,-1.01 l 0,-2.6 c 0.61,0.29 1.3,0.46 2.02,0.46 2.58,0 4.68,-2.1 4.68,-4.68 0,-0.33 -0.03,-0.66 -0.1,-0.97 l 15.36,0 c -0.07,0.31 -0.11,0.64 -0.11,0.97 z m -6.96,13.66 -10.09,0.02 c -0.34,0 -0.62,0.27 -0.62,0.6 l 0,9.21 c 0,0.27 0.25,0.49 0.56,0.49 l 9.09,0 c 0.3,0 0.57,-0.22 0.6,-0.49 l 1.01,-9.22 c 0.04,-0.34 -0.21,-0.61 -0.55,-0.61 z m 3.47,-3.25 -1.78,15.65 c -0.05,0.46 -0.46,0.83 -0.91,0.83 l -13.31,0 c -0.44,0 -0.81,-0.37 -0.81,-0.83 l 0,-15.65 c 0,-0.58 0.41,-1.05 0.92,-1.05 l 15.08,0 c 0.51,0 0.87,0.47 0.81,1.05 z"
   style="fill:none;stroke:#000000;stroke-width:0.75;stroke-linecap:round;stroke-linejoin:round;stroke-miterlimit:10;stroke-opacity:1;stroke-dasharray:none"
   id="path32"
   inkscape:connector-curvature="0" /><text
   transform="matrix(1,0,0,-1,454.42,425.67)"
   id="text34"><tspan
     style="font-size:23.79800034px;font-variant:normal;font-weight:normal;writing-mode:lr-tb;fill:#000000;fill-opacity:1;fill-rule:nonzero;stroke:none;font-family:Calibri;-inkscape-font-specification:Calibri"
     x="0 14.921346 26.463375 39.338093 52.212811"
     y="0"
     sodipodi:role="line"
     id="tspan36">Depot</tspan></text>

<path
   d="m 210.15,531.13 c 0,6.34 5.14,11.47 11.47,11.47 6.34,0 11.48,-5.13 11.48,-11.47 0,-6.33 -5.14,-11.47 -11.48,-11.47 -6.33,0 -11.47,5.14 -11.47,11.47 z"
   style="fill:#000000;fill-opacity:1;fill-rule:evenodd;stroke:none"
   id="path38"
   inkscape:connector-curvature="0" /><path
   d="m 210.15,531.13 c 0,6.34 5.14,11.47 11.47,11.47 6.34,0 11.48,-5.13 11.48,-11.47 0,-6.33 -5.14,-11.47 -11.48,-11.47 -6.33,0 -11.47,5.14 -11.47,11.47 z"
   style="fill:none;stroke:#000000;stroke-width:0.75;stroke-linecap:round;stroke-linejoin:round;stroke-miterlimit:10;stroke-opacity:1;stroke-dasharray:none"
   id="path40"
   inkscape:connector-curvature="0" /><path
   d="m 72.491,301.7 c 0,6.33 5.136,11.47 11.472,11.47 6.335,0 11.471,-5.14 11.471,-11.47 0,-6.34 -5.136,-11.47 -11.471,-11.47 -6.336,0 -11.472,5.13 -11.472,11.47 z"
   style="fill:#000000;fill-opacity:1;fill-rule:evenodd;stroke:none"
   id="path42"
   inkscape:connector-curvature="0" /><path
   d="m 72.491,301.7 c 0,6.33 5.136,11.47 11.472,11.47 6.335,0 11.471,-5.14 11.471,-11.47 0,-6.34 -5.136,-11.47 -11.471,-11.47 -6.336,0 -11.472,5.13 -11.472,11.47 z"
   style="fill:none;stroke:#000000;stroke-width:0.75;stroke-linecap:round;stroke-linejoin:round;stroke-miterlimit:10;stroke-opacity:1;stroke-dasharray:none"
   id="path44"
   inkscape:connector-curvature="0" /><path
   d="m 679.06,490.98 c 0,6.34 5.14,11.47 11.47,11.47 6.34,0 11.47,-5.13 11.47,-11.47 0,-6.33 -5.13,-11.47 -11.47,-11.47 -6.33,0 -11.47,5.14 -11.47,11.47 z"
   style="fill:#000000;fill-opacity:1;fill-rule:evenodd;stroke:none"
   id="path46"
   inkscape:connector-curvature="0" /><path
   d="m 679.06,490.98 c 0,6.34 5.14,11.47 11.47,11.47 6.34,0 11.47,-5.13 11.47,-11.47 0,-6.33 -5.13,-11.47 -11.47,-11.47 -6.33,0 -11.47,5.14 -11.47,11.47 z"
   style="fill:none;stroke:#000000;stroke-width:0.75;stroke-linecap:round;stroke-linejoin:round;stroke-miterlimit:10;stroke-opacity:1;stroke-dasharray:none"
   id="path48"
   inkscape:connector-curvature="0" /><path
   d="m 491.21,192.72 c 0,6.33 5.14,11.47 11.47,11.47 6.34,0 11.47,-5.14 11.47,-11.47 0,-6.34 -5.13,-11.48 -11.47,-11.48 -6.33,0 -11.47,5.14 -11.47,11.48 z"
   style="fill:#000000;fill-opacity:1;fill-rule:evenodd;stroke:none"
   id="path50"
   inkscape:connector-curvature="0" /><path
   d="m 491.21,192.72 c 0,6.33 5.14,11.47 11.47,11.47 6.34,0 11.47,-5.14 11.47,-11.47 0,-6.34 -5.13,-11.48 -11.47,-11.48 -6.33,0 -11.47,5.14 -11.47,11.48 z"
   style="fill:none;stroke:#000000;stroke-width:0.75;stroke-linecap:round;stroke-linejoin:round;stroke-miterlimit:10;stroke-opacity:1;stroke-dasharray:none"
   id="path52"
   inkscape:connector-curvature="0" /><path
   d="m 743.59,235.73 c 0,6.34 5.13,11.48 11.47,11.48 6.34,0 11.47,-5.14 11.47,-11.48 0,-6.33 -5.13,-11.47 -11.47,-11.47 -6.34,0 -11.47,5.14 -11.47,11.47 z"
   style="fill:#000000;fill-opacity:1;fill-rule:evenodd;stroke:none"
   id="path54"
   inkscape:connector-curvature="0" /><path
   d="m 743.59,235.73 c 0,6.34 5.13,11.48 11.47,11.48 6.34,0 11.47,-5.14 11.47,-11.48 0,-6.33 -5.13,-11.47 -11.47,-11.47 -6.34,0 -11.47,5.14 -11.47,11.47 z"
   style="fill:none;stroke:#000000;stroke-width:0.75;stroke-linecap:round;stroke-linejoin:round;stroke-miterlimit:10;stroke-opacity:1;stroke-dasharray:none"
   id="path56"
   inkscape:connector-curvature="0" /><path
   d="m 514.15,405.24 176.38,85.74"
   style="fill:none;stroke:#000000;stroke-width:1;stroke-linecap:round;stroke-linejoin:round;stroke-miterlimit:10;stroke-opacity:1;stroke-dasharray:none"
   id="path58"
   inkscape:connector-curvature="0" /><path
   d="M 755.06,235.73 690.53,490.98"
   style="fill:none;stroke:#000000;stroke-width:1;stroke-linecap:round;stroke-linejoin:round;stroke-miterlimit:10;stroke-opacity:1;stroke-dasharray:none"
   id="path60"
   inkscape:connector-curvature="0" /><path
   d="m 502.68,192.72 -15.8,167.77"
   style="fill:none;stroke:#000000;stroke-width:1;stroke-linecap:round;stroke-linejoin:round;stroke-miterlimit:10;stroke-opacity:1;stroke-dasharray:none"
   id="path62"
   inkscape:connector-curvature="0" /><path
   d="m 755.06,235.73 -256.48,25.21 c 0.13,1.3 -0.82,2.46 -2.12,2.59 -1.3,0.12 -2.45,-0.83 -2.58,-2.12 l -31.4,3.08 c 0.12,1.3 -0.82,2.46 -2.12,2.58 -1.3,0.13 -2.46,-0.82 -2.58,-2.12 l -14.08,1.39 c 0.12,1.3 -0.83,2.45 -2.12,2.58 -1.3,0.13 -2.46,-0.82 -2.59,-2.12 L 83.962,301.7"
   style="fill:none;stroke:#000000;stroke-width:1;stroke-linecap:round;stroke-linejoin:round;stroke-miterlimit:10;stroke-opacity:1;stroke-dasharray:none"
   id="path64"
   inkscape:connector-curvature="0" /><path
   d="M 453.93,406.73 221.62,531.13"
   style="fill:none;stroke:#000000;stroke-width:1;stroke-linecap:round;stroke-linejoin:round;stroke-miterlimit:10;stroke-opacity:1;stroke-dasharray:none"
   id="path66"
   inkscape:connector-curvature="0" /><path
   d="M 502.68,192.72 221.62,531.13"
   style="fill:none;stroke:#000000;stroke-width:1;stroke-linecap:round;stroke-linejoin:round;stroke-miterlimit:10;stroke-opacity:1;stroke-dasharray:none"
   id="path68"
   inkscape:connector-curvature="0" /><path
   d="m 453.93,383.91 -54.48,-12.1 c -0.28,1.27 -1.54,2.07 -2.82,1.79 -1.27,-0.28 -2.07,-1.55 -1.79,-2.82 l -31.5,-7 c -0.28,1.27 -1.54,2.08 -2.82,1.79 -1.27,-0.28 -2.07,-1.54 -1.79,-2.81 L 83.962,301.7"
   style="fill:none;stroke:#000000;stroke-width:1;stroke-linecap:round;stroke-linejoin:round;stroke-miterlimit:10;stroke-opacity:1;stroke-dasharray:none"
   id="path70"
   inkscape:connector-curvature="0" /><text
   transform="matrix(1,0,0,-1,38.28,265.44)"
   id="text72"><tspan
     style="font-size:23.79800034px;font-variant:normal;font-weight:normal;writing-mode:lr-tb;fill:#000000;fill-opacity:1;fill-rule:nonzero;stroke:none;font-family:Calibri;-inkscape-font-specification:Calibri"
     x="0 12.922314 25.154486 37.410458 50.308971 61.874802 71.393997 79.556717"
     y="0"
     sodipodi:role="line"
     id="tspan74">Request </tspan></text>

<text
   transform="matrix(1,0,0,-1,123.33,265.44)"
   id="text76"><tspan
     style="font-size:23.79800034px;font-variant:normal;font-weight:normal;writing-mode:lr-tb;fill:#000000;fill-opacity:1;fill-rule:nonzero;stroke:none;font-family:Calibri;-inkscape-font-specification:Calibri"
     x="0"
     y="0"
     id="tspan78">5</tspan></text>

<text
   transform="matrix(1,0,0,-1,454.49,150.6)"
   id="text80"><tspan
     style="font-size:23.79800034px;font-variant:normal;font-weight:normal;writing-mode:lr-tb;fill:#000000;fill-opacity:1;fill-rule:nonzero;stroke:none;font-family:Calibri;-inkscape-font-specification:Calibri"
     x="0 12.922314 25.10689 37.339062 50.213779 61.75581 71.251213 79.390129"
     y="0"
     sodipodi:role="line"
     id="tspan82">Request </tspan></text>

<text
   transform="matrix(1,0,0,-1,539.54,150.6)"
   id="text84"><tspan
     style="font-size:23.79800034px;font-variant:normal;font-weight:normal;writing-mode:lr-tb;fill:#000000;fill-opacity:1;fill-rule:nonzero;stroke:none;font-family:Calibri;-inkscape-font-specification:Calibri"
     x="0"
     y="0"
     id="tspan86">4</tspan></text>

<text
   transform="matrix(1,0,0,-1,707.07,196.54)"
   id="text88"><tspan
     style="font-size:23.79800034px;font-variant:normal;font-weight:normal;writing-mode:lr-tb;fill:#000000;fill-opacity:1;fill-rule:nonzero;stroke:none;font-family:Calibri;-inkscape-font-specification:Calibri"
     x="0 12.922314 25.10689 37.339062 50.213779 61.75581 71.251213 79.390129"
     y="0"
     sodipodi:role="line"
     id="tspan90">Request </tspan></text>

<text
   transform="matrix(1,0,0,-1,792.12,196.54)"
   id="text92"><tspan
     style="font-size:23.79800034px;font-variant:normal;font-weight:normal;writing-mode:lr-tb;fill:#000000;fill-opacity:1;fill-rule:nonzero;stroke:none;font-family:Calibri;-inkscape-font-specification:Calibri"
     x="0"
     y="0"
     id="tspan94">3</tspan></text>

<text
   transform="matrix(1,0,0,-1,642.49,512.37)"
   id="text96"><tspan
     style="font-size:23.79800034px;font-variant:normal;font-weight:normal;writing-mode:lr-tb;fill:#000000;fill-opacity:1;fill-rule:nonzero;stroke:none;font-family:Calibri;-inkscape-font-specification:Calibri"
     x="0 12.922314 25.10689 37.339062 50.213779 61.75581 71.251213 79.390129"
     y="0"
     sodipodi:role="line"
     id="tspan98">Request </tspan></text>

<text
   transform="matrix(1,0,0,-1,727.54,512.37)"
   id="text100"><tspan
     style="font-size:23.79800034px;font-variant:normal;font-weight:normal;writing-mode:lr-tb;fill:#000000;fill-opacity:1;fill-rule:nonzero;stroke:none;font-family:Calibri;-inkscape-font-specification:Calibri"
     x="0"
     y="0"
     id="tspan102">2</tspan></text>

<text
   transform="matrix(1,0,0,-1,173.18,552.57)"
   id="text104"><tspan
     style="font-size:23.79800034px;font-variant:normal;font-weight:normal;writing-mode:lr-tb;fill:#000000;fill-opacity:1;fill-rule:nonzero;stroke:none;font-family:Calibri;-inkscape-font-specification:Calibri"
     x="0 12.922314 25.154486 37.410458 50.308971 61.874802 71.393997 79.556717"
     y="0"
     sodipodi:role="line"
     id="tspan106">Request </tspan></text>

<text
   transform="matrix(1,0,0,-1,258.23,552.57)"
   id="text108"><tspan
     style="font-size:23.79800034px;font-variant:normal;font-weight:normal;writing-mode:lr-tb;fill:#000000;fill-opacity:1;fill-rule:nonzero;stroke:none;font-family:Calibri;-inkscape-font-specification:Calibri"
     x="0"
     y="0"
     id="tspan110">1</tspan></text>

<g
   id="g112"><path
     d="m 83.963,301.7 99.807,1.62"
     style="fill:none;stroke:#000000;stroke-width:1;stroke-linecap:round;stroke-linejoin:round;stroke-miterlimit:10;stroke-opacity:1;stroke-dasharray:7, 5;stroke-dashoffset:0"
     id="path114"
     inkscape:connector-curvature="0" /></g><g
   id="g116"><path
     d="m 666.49,417.29 24.04,73.69"
     style="fill:none;stroke:#000000;stroke-width:1;stroke-linecap:round;stroke-linejoin:round;stroke-miterlimit:10;stroke-opacity:1;stroke-dasharray:7, 5;stroke-dashoffset:0"
     id="path118"
     inkscape:connector-curvature="0" /></g><g
   id="g120"><path
     d="M 391.36,381.08 502.68,192.72"
     style="fill:none;stroke:#000000;stroke-width:1;stroke-linecap:round;stroke-linejoin:round;stroke-miterlimit:10;stroke-opacity:1;stroke-dasharray:7, 5;stroke-dashoffset:0"
     id="path122"
     inkscape:connector-curvature="0" /></g><g
   id="g124"><path
     d="M 221.62,531.13 364.75,410.97"
     style="fill:none;stroke:#000000;stroke-width:1;stroke-linecap:round;stroke-linejoin:round;stroke-miterlimit:10;stroke-opacity:1;stroke-dasharray:7, 5;stroke-dashoffset:0"
     id="path126"
     inkscape:connector-curvature="0" /></g><path
   d="m 625.41,395.55 1.8,0 0,11.07 -1.8,-11.07 z m 2.69,0 9.86,0 0,11.07 -9.86,0 0,-11.07 z m -0.59,-14.47 c 0.99,2.66 4.07,4.05 6.87,3.11 1.53,-0.51 2.73,-1.66 3.27,-3.11 l 3.9,0 0,4.26 -1.8,0 0,22.98 -13.71,0 -2.42,-15.32 0,-11.92 3.89,0 z m 50.78,-2.56 c 0,2.36 2.01,4.26 4.48,4.26 2.48,0 4.48,-1.9 4.48,-4.26 0,-2.35 -2,-4.25 -4.48,-4.25 -2.47,0 -4.48,1.9 -4.48,4.25 z m 9.55,2.56 7.48,0 0,36.21 -53.77,0 0,-36.21 36.15,0 c 0.99,2.66 4.07,4.05 6.87,3.11 1.53,-0.51 2.73,-1.66 3.27,-3.11 z m -59.74,-2.56 c 0,2.36 2.01,4.26 4.48,4.26 2.48,0 4.49,-1.9 4.49,-4.26 0,-2.35 -2.01,-4.25 -4.49,-4.25 -2.47,0 -4.48,1.9 -4.48,4.25 z"
   style="fill:#ffffff;fill-opacity:1;fill-rule:evenodd;stroke:none"
   id="path128"
   inkscape:connector-curvature="0" /><path
   d="m 625.41,395.55 1.8,0 0,11.07 -1.8,-11.07 z m 2.69,0 9.86,0 0,11.07 -9.86,0 0,-11.07 z m -0.59,-14.47 c 0.99,2.66 4.07,4.05 6.87,3.11 1.53,-0.51 2.73,-1.66 3.27,-3.11 l 3.9,0 0,4.26 -1.8,0 0,22.98 -13.71,0 -2.42,-15.32 0,-11.92 3.89,0 z m 50.78,-2.56 c 0,2.36 2.01,4.26 4.48,4.26 2.48,0 4.48,-1.9 4.48,-4.26 0,-2.35 -2,-4.25 -4.48,-4.25 -2.47,0 -4.48,1.9 -4.48,4.25 z m 9.55,2.56 7.48,0 0,36.21 -53.77,0 0,-36.21 36.15,0 c 0.99,2.66 4.07,4.05 6.87,3.11 1.53,-0.51 2.73,-1.66 3.27,-3.11 z m -59.74,-2.56 c 0,2.36 2.01,4.26 4.48,4.26 2.48,0 4.49,-1.9 4.49,-4.26 0,-2.35 -2.01,-4.25 -4.49,-4.25 -2.47,0 -4.48,1.9 -4.48,4.25 z"
   style="fill:none;stroke:#000000;stroke-width:0.75;stroke-linecap:round;stroke-linejoin:round;stroke-miterlimit:10;stroke-opacity:1;stroke-dasharray:none"
   id="path130"
   inkscape:connector-curvature="0" /><path
   d="m 608.74,341.47 101.47,0 0,28.8 -101.47,0 0,-28.8 z"
   style="fill:#ffffff;fill-opacity:1;fill-rule:evenodd;stroke:none"
   id="path132"
   inkscape:connector-curvature="0" /><text
   transform="matrix(1,0,0,-1,609.23,348.38)"
   id="text134"><tspan
     style="font-size:23.79800034px;font-variant:normal;font-weight:normal;writing-mode:lr-tb;fill:#000000;fill-opacity:1;fill-rule:nonzero;stroke:none;font-family:Calibri;-inkscape-font-specification:Calibri"
     x="0 13.56486 25.773233 38.005405 43.478947 53.593098 59.066635 71.227417"
     y="0"
     sodipodi:role="line"
     id="tspan136">Vehicle </tspan></text>

<text
   transform="matrix(1,0,0,-1,685.99,348.38)"
   id="text138"><tspan
     style="font-size:23.79800034px;font-variant:normal;font-weight:normal;writing-mode:lr-tb;fill:#000000;fill-opacity:1;fill-rule:nonzero;stroke:none;font-family:Calibri;-inkscape-font-specification:Calibri"
     x="0"
     y="0"
     id="tspan140">2</tspan></text>

<text
   transform="matrix(1,0,0,-1,698.17,348.38)"
   id="text142"><tspan
     style="font-size:23.79800034px;font-variant:normal;font-weight:normal;writing-mode:lr-tb;fill:#000000;fill-opacity:1;fill-rule:nonzero;stroke:none;font-family:Calibri;-inkscape-font-specification:Calibri"
     x="0"
     y="0"
     id="tspan144">b</tspan></text>

<path
   d="m 348.62,395.55 1.79,0 0,11.07 -1.79,-11.07 z m 2.69,0 9.86,0 0,11.07 -9.86,0 0,-11.07 z m -0.59,-14.47 c 0.99,2.66 4.06,4.05 6.86,3.11 1.53,-0.51 2.74,-1.66 3.28,-3.11 l 3.89,0 0,4.26 -1.79,0 0,22.98 -13.71,0 -2.42,-15.32 0,-11.92 3.89,0 z m 50.78,-2.56 c 0,2.36 2,4.26 4.48,4.26 2.47,0 4.48,-1.9 4.48,-4.26 0,-2.35 -2.01,-4.25 -4.48,-4.25 -2.48,0 -4.48,1.9 -4.48,4.25 z m 9.55,2.56 7.48,0 0,36.21 -53.78,0 0,-36.21 36.16,0 c 0.99,2.66 4.06,4.05 6.86,3.11 1.53,-0.51 2.74,-1.66 3.28,-3.11 z m -59.74,-2.56 c 0,2.36 2.01,4.26 4.48,4.26 2.48,0 4.48,-1.9 4.48,-4.26 0,-2.35 -2,-4.25 -4.48,-4.25 -2.47,0 -4.48,1.9 -4.48,4.25 z"
   style="fill:#ffffff;fill-opacity:1;fill-rule:evenodd;stroke:none"
   id="path146"
   inkscape:connector-curvature="0" /><path
   d="m 348.62,395.55 1.79,0 0,11.07 -1.79,-11.07 z m 2.69,0 9.86,0 0,11.07 -9.86,0 0,-11.07 z m -0.59,-14.47 c 0.99,2.66 4.06,4.05 6.86,3.11 1.53,-0.51 2.74,-1.66 3.28,-3.11 l 3.89,0 0,4.26 -1.79,0 0,22.98 -13.71,0 -2.42,-15.32 0,-11.92 3.89,0 z m 50.78,-2.56 c 0,2.36 2,4.26 4.48,4.26 2.47,0 4.48,-1.9 4.48,-4.26 0,-2.35 -2.01,-4.25 -4.48,-4.25 -2.48,0 -4.48,1.9 -4.48,4.25 z m 9.55,2.56 7.48,0 0,36.21 -53.78,0 0,-36.21 36.16,0 c 0.99,2.66 4.06,4.05 6.86,3.11 1.53,-0.51 2.74,-1.66 3.28,-3.11 z m -59.74,-2.56 c 0,2.36 2.01,4.26 4.48,4.26 2.48,0 4.48,-1.9 4.48,-4.26 0,-2.35 -2,-4.25 -4.48,-4.25 -2.47,0 -4.48,1.9 -4.48,4.25 z"
   style="fill:none;stroke:#000000;stroke-width:0.75;stroke-linecap:round;stroke-linejoin:round;stroke-miterlimit:10;stroke-opacity:1;stroke-dasharray:none"
   id="path148"
   inkscape:connector-curvature="0" /><path
   d="m 338.25,341.47 88.863,0 0,28.8 -88.863,0 0,-28.8 z"
   style="fill:#ffffff;fill-opacity:1;fill-rule:evenodd;stroke:none"
   id="path150"
   inkscape:connector-curvature="0" /><text
   transform="matrix(1,0,0,-1,338.53,348.38)"
   id="text152"><tspan
     style="font-size:23.79800034px;font-variant:normal;font-weight:normal;writing-mode:lr-tb;fill:#000000;fill-opacity:1;fill-rule:nonzero;stroke:none;font-family:Calibri;-inkscape-font-specification:Calibri"
     x="0 13.56486 25.773233 38.005405 43.478947 53.593098 59.066635 71.227417"
     y="0"
     sodipodi:role="line"
     id="tspan154">Vehicle </tspan></text>

<text
   transform="matrix(1,0,0,-1,415.29,348.38)"
   id="text156"><tspan
     style="font-size:23.79800034px;font-variant:normal;font-weight:normal;writing-mode:lr-tb;fill:#000000;fill-opacity:1;fill-rule:nonzero;stroke:none;font-family:Calibri;-inkscape-font-specification:Calibri"
     x="0"
     y="0"
     id="tspan158">1</tspan></text>

<path
   d="m 185.21,303.68 1.79,0 0,11.07 -1.79,-11.07 z m 2.69,0 9.86,0 0,11.07 -9.86,0 0,-11.07 z m -0.59,-14.48 c 0.99,2.66 4.06,4.06 6.86,3.12 1.54,-0.52 2.74,-1.66 3.28,-3.12 l 3.89,0 0,4.26 -1.79,0 0,22.99 -13.71,0 -2.42,-15.33 0,-11.92 3.89,0 z m 50.78,-2.55 c 0,2.35 2.01,4.26 4.48,4.26 2.48,0 4.48,-1.91 4.48,-4.26 0,-2.35 -2,-4.26 -4.48,-4.26 -2.47,0 -4.48,1.91 -4.48,4.26 z m 9.55,2.55 7.48,0 0,36.21 -53.78,0 0,-36.21 36.16,0 c 0.99,2.66 4.06,4.06 6.86,3.12 1.53,-0.52 2.74,-1.66 3.28,-3.12 z m -59.74,-2.55 c 0,2.35 2.01,4.26 4.48,4.26 2.48,0 4.48,-1.91 4.48,-4.26 0,-2.35 -2,-4.26 -4.48,-4.26 -2.47,0 -4.48,1.91 -4.48,4.26 z"
   style="fill:#ffffff;fill-opacity:1;fill-rule:evenodd;stroke:none"
   id="path160"
   inkscape:connector-curvature="0" /><path
   d="m 185.21,303.68 1.79,0 0,11.07 -1.79,-11.07 z m 2.69,0 9.86,0 0,11.07 -9.86,0 0,-11.07 z m -0.59,-14.48 c 0.99,2.66 4.06,4.06 6.86,3.12 1.54,-0.52 2.74,-1.66 3.28,-3.12 l 3.89,0 0,4.26 -1.79,0 0,22.99 -13.71,0 -2.42,-15.33 0,-11.92 3.89,0 z m 50.78,-2.55 c 0,2.35 2.01,4.26 4.48,4.26 2.48,0 4.48,-1.91 4.48,-4.26 0,-2.35 -2,-4.26 -4.48,-4.26 -2.47,0 -4.48,1.91 -4.48,4.26 z m 9.55,2.55 7.48,0 0,36.21 -53.78,0 0,-36.21 36.16,0 c 0.99,2.66 4.06,4.06 6.86,3.12 1.53,-0.52 2.74,-1.66 3.28,-3.12 z m -59.74,-2.55 c 0,2.35 2.01,4.26 4.48,4.26 2.48,0 4.48,-1.91 4.48,-4.26 0,-2.35 -2,-4.26 -4.48,-4.26 -2.47,0 -4.48,1.91 -4.48,4.26 z"
   style="fill:none;stroke:#000000;stroke-width:0.75;stroke-linecap:round;stroke-linejoin:round;stroke-miterlimit:10;stroke-opacity:1;stroke-dasharray:none"
   id="path162"
   inkscape:connector-curvature="0" /><path
   d="m 169.09,249.59 100.36,0 0,28.8 -100.36,0 0,-28.8 z"
   style="fill:#ffffff;fill-opacity:1;fill-rule:evenodd;stroke:none"
   id="path164"
   inkscape:connector-curvature="0" /><text
   transform="matrix(1,0,0,-1,169.23,256.42)"
   id="text166"><tspan
     style="font-size:23.79800034px;font-variant:normal;font-weight:normal;writing-mode:lr-tb;fill:#000000;fill-opacity:1;fill-rule:nonzero;stroke:none;font-family:Calibri;-inkscape-font-specification:Calibri"
     x="0 13.56486 25.773233 38.005405 43.478947 53.593098 59.066635 71.227417"
     y="0"
     sodipodi:role="line"
     id="tspan168">Vehicle </tspan></text>

<text
   transform="matrix(1,0,0,-1,245.98,256.42)"
   id="text170"><tspan
     style="font-size:23.79800034px;font-variant:normal;font-weight:normal;writing-mode:lr-tb;fill:#000000;fill-opacity:1;fill-rule:nonzero;stroke:none;font-family:Calibri;-inkscape-font-specification:Calibri"
     x="0"
     y="0"
     id="tspan172">2</tspan></text>

<text
   transform="matrix(1,0,0,-1,258.16,256.42)"
   id="text174"><tspan
     style="font-size:23.79800034px;font-variant:normal;font-weight:normal;writing-mode:lr-tb;fill:#000000;fill-opacity:1;fill-rule:nonzero;stroke:none;font-family:Calibri;-inkscape-font-specification:Calibri"
     x="0"
     y="0"
     id="tspan176">a</tspan></text>

<g
   id="g178"><path
     d="m 453.93,394.61 -35.4,1.81"
     style="fill:none;stroke:#000000;stroke-width:1;stroke-linecap:round;stroke-linejoin:round;stroke-miterlimit:10;stroke-opacity:1;stroke-dasharray:7, 5;stroke-dashoffset:0"
     id="path180"
     inkscape:connector-curvature="0" /></g><g
   id="g182"><path
     d="m 453.93,388.94 -35.4,1.81"
     style="fill:none;stroke:#000000;stroke-width:1;stroke-linecap:round;stroke-linejoin:round;stroke-miterlimit:10;stroke-opacity:1;stroke-dasharray:7, 5;stroke-dashoffset:0"
     id="path184"
     inkscape:connector-curvature="0" /></g></g></svg>