%!PS-Adobe-3.0
%%DocumentNeededResources: font Helvetica
%%+ font Helvetica-Bold
%%+ font Helvetica-Oblique
%%+ font Helvetica-BoldOblique
%%+ font Symbol
%%DocumentMedia: a4 595 841 0 () ()
%%Title: R Graphics Output
%%Creator: R Software
%%Pages: (atend)
%%Orientation: Portrait
%%BoundingBox: 18 277 577 565
%%EndComments
%%BeginProlog
/bp  { gs sRGB gs } def
% begin .ps.prolog
/gs  { gsave } bind def
/gr  { grestore } bind def
/ep  { showpage gr gr } bind def
/m   { moveto } bind def
/l  { rlineto } bind def
/np  { newpath } bind def
/cp  { closepath } bind def
/f   { fill } bind def
/o   { stroke } bind def
/c   { newpath 0 360 arc } bind def
/r   { 4 2 roll moveto 1 copy 3 -1 roll exch 0 exch rlineto 0 rlineto -1 mul 0 exch rlineto closepath } bind def
/p1  { stroke } bind def
/p2  { gsave bg fill grestore newpath } bind def
/p3  { gsave bg fill grestore stroke } bind def
/p6  { gsave bg eofill grestore newpath } bind def
/p7  { gsave bg eofill grestore stroke } bind def
/t   { 5 -2 roll moveto gsave rotate
       1 index stringwidth pop
       mul neg 0 rmoveto show grestore } bind def
/ta  { 4 -2 roll moveto gsave rotate show } bind def
/tb  { 2 -1 roll 0 rmoveto show } bind def
/cl  { grestore gsave newpath 3 index 3 index moveto 1 index
       4 -1 roll lineto  exch 1 index lineto lineto
       closepath clip newpath } bind def
/rgb { setrgbcolor } bind def
/s   { scalefont setfont } bind def
% end   .ps.prolog
/sRGB { [ /CIEBasedABC
          << /DecodeLMN
               [ { dup 0.03928 le
                        {12.92321 div}
                        {0.055 add 1.055 div 2.4 exp }
                     ifelse
                 } bind dup dup
               ]
             /MatrixLMN [0.412457 0.212673 0.019334
                         0.357576 0.715152 0.119192
                         0.180437 0.072175 0.950301]
             /WhitePoint [0.9505 1.0 1.0890]
           >>
         ] setcolorspace } bind def
/srgb { setcolor } bind def
% begin encoding
/WinAnsiEncoding [
 /.notdef /.notdef /.notdef /.notdef /.notdef /.notdef /.notdef /.notdef
 /.notdef /.notdef /.notdef /.notdef /.notdef /.notdef /.notdef /.notdef
 /.notdef /.notdef /.notdef /.notdef /.notdef /.notdef /.notdef /.notdef
 /.notdef /.notdef /.notdef /.notdef /.notdef /.notdef /.notdef /.notdef
 /space /exclam /quotedbl /numbersign /dollar /percent /ampersand /quoteright
 /parenleft /parenright /asterisk /plus /comma /minus /period /slash
 /zero /one /two /three /four /five /six /seven
 /eight /nine /colon /semicolon /less /equal /greater /question
 /at /A /B /C /D /E /F /G
 /H /I /J /K /L /M /N /O
 /P /Q /R /S /T /U /V /W
 /X /Y /Z /bracketleft /backslash /bracketright /asciicircum /underscore
 /grave /a /b /c /d /e /f /g
 /h /i /j /k /l /m /n /o
 /p /q /r /s /t /u /v /w
 /x /y /z /braceleft /bar /braceright /asciitilde /.notdef
 /Euro /.notdef /quotesinglbase /florin /quotedblbase /ellipsis /dagger /daggerdbl
 /circumflex /perthousand /Scaron /guilsinglleft /OE /.notdef /Zcaron /.notdef
 /.notdef /quoteleft /quoteright /quotedblleft /quotedblright /bullet /endash /emdash
 /tilde /trademark /scaron /guilsinglright /oe /.notdef /zcaron /Ydieresis
 /space /exclamdown /cent /sterling /currency /yen /brokenbar /section
 /dieresis /copyright /ordfeminine /guillemotleft /logicalnot /hyphen /registered /macron
 /degree /plusminus /twosuperior /threesuperior /acute /mu /paragraph /periodcentered
 /cedilla /onesuperior /ordmasculine /guillemotright /onequarter /onehalf /threequarters /questiondown
 /Agrave /Aacute /Acircumflex /Atilde /Adieresis /Aring /AE /Ccedilla
 /Egrave /Eacute /Ecircumflex /Edieresis /Igrave /Iacute /Icircumflex /Idieresis
 /Eth /Ntilde /Ograve /Oacute /Ocircumflex /Otilde /Odieresis /multiply
 /Oslash /Ugrave /Uacute /Ucircumflex /Udieresis /Yacute /Thorn /germandbls
 /agrave /aacute /acircumflex /atilde /adieresis /aring /ae /ccedilla
 /egrave /eacute /ecircumflex /edieresis /igrave /iacute /icircumflex /idieresis
 /eth /ntilde /ograve /oacute /ocircumflex /otilde /odieresis /divide
 /oslash /ugrave /uacute /ucircumflex /udieresis /yacute /thorn /ydieresis
]
 def
% end encoding
%%IncludeResource: font Helvetica
/Helvetica findfont
dup length dict begin
  {1 index /FID ne {def} {pop pop} ifelse} forall
  /Encoding WinAnsiEncoding def
  currentdict
  end
/Font1 exch definefont pop
%%IncludeResource: font Helvetica-Bold
/Helvetica-Bold findfont
dup length dict begin
  {1 index /FID ne {def} {pop pop} ifelse} forall
  /Encoding WinAnsiEncoding def
  currentdict
  end
/Font2 exch definefont pop
%%IncludeResource: font Helvetica-Oblique
/Helvetica-Oblique findfont
dup length dict begin
  {1 index /FID ne {def} {pop pop} ifelse} forall
  /Encoding WinAnsiEncoding def
  currentdict
  end
/Font3 exch definefont pop
%%IncludeResource: font Helvetica-BoldOblique
/Helvetica-BoldOblique findfont
dup length dict begin
  {1 index /FID ne {def} {pop pop} ifelse} forall
  /Encoding WinAnsiEncoding def
  currentdict
  end
/Font4 exch definefont pop
%%IncludeResource: font Symbol
/Symbol findfont
dup length dict begin
  {1 index /FID ne {def} {pop pop} ifelse} forall
  currentdict
  end
/Font5 exch definefont pop
%%EndProlog
%%Page: 1 1
bp
18.00 276.94 577.28 564.94 cl
0 0 0 srgb
0.75 setlinewidth
[] 0 setdash
1 setlinecap
1 setlinejoin
10.00 setmiterlimit
np
77.04 365.14 m
0 135.00 l
o
np
77.04 365.14 m
-7.20 0 l
o
np
77.04 387.64 m
-7.20 0 l
o
np
77.04 410.14 m
-7.20 0 l
o
np
77.04 432.64 m
-7.20 0 l
o
np
77.04 455.14 m
-7.20 0 l
o
np
77.04 477.64 m
-7.20 0 l
o
np
77.04 500.14 m
-7.20 0 l
o
/Font1 findfont 12 s
59.76 365.14 (1.00) .5 90 t
59.76 410.14 (1.10) .5 90 t
59.76 455.14 (1.20) .5 90 t
59.76 500.14 (1.30) .5 90 t
np
77.04 350.38 m
190.36 0 l
0 155.52 l
-190.36 0 l
0 -155.52 l
o
18.00 276.94 297.64 564.94 cl
/Font2 findfont 14 s
0 0 0 srgb
172.22 530.40 (all) .5 0 t
/Font1 findfont 12 s
143.21 295.66 (T) 0 ta
-1.440 (est cases) tb gr
30.96 390.13 (Relativ) 90 ta
-0.300 (e result) tb gr
18.00 276.94 577.28 564.94 cl
0 0 0 srgb
0.75 setlinewidth
[] 0 setdash
1 setlinecap
1 setlinejoin
10.00 setmiterlimit
np
128.15 350.38 m
88.13 0 l
o
np
128.15 350.38 m
0 -7.20 l
o
np
216.28 350.38 m
0 -7.20 l
o
/Font1 findfont 12 s
128.15 324.46 (2MPSO) .5 0 t
216.28 324.46 (2PSO) .5 0 t
77.04 350.38 267.40 505.90 cl
0 0 0 srgb
0.75 setlinewidth
[ 2.25 3.75] 0 setdash
1 setlinecap
1 setlinejoin
10.00 setmiterlimit
np
40.03 370.73 m
88.12 0 l
88.13 0 l
88.13 0 l
o
0.75 setlinewidth
[] 0 setdash
np
40.03 388.07 m
88.12 0 l
88.13 0 l
88.13 0 l
o
2.25 setlinewidth
[] 0 setdash
0 setlinecap
np
110.53 386.42 m
35.25 0 l
o
0.75 setlinewidth
[ 2.25 3.75] 0 setdash
1 setlinecap
np
128.15 365.14 m
0 11.32 l
o
np
128.15 434.86 m
0 -34.70 l
o
0.75 setlinewidth
[] 0 setdash
np
119.34 365.14 m
17.63 0 l
o
np
119.34 434.86 m
17.63 0 l
o
np
110.53 376.46 m
35.25 0 l
0 23.70 l
-35.25 0 l
0 -23.70 l
o
128.15 436.54 2.70 c p1
128.15 435.79 2.70 c p1
128.15 435.87 2.70 c p1
128.15 483.22 2.70 c p1
128.15 451.73 2.70 c p1
128.15 439.18 2.70 c p1
128.15 439.18 2.70 c p1
128.15 441.47 2.70 c p1
128.15 455.16 2.70 c p1
128.15 455.16 2.70 c p1
128.15 439.21 2.70 c p1
128.15 447.17 2.70 c p1
128.15 474.40 2.70 c p1
128.15 438.12 2.70 c p1
128.15 448.22 2.70 c p1
128.15 452.20 2.70 c p1
128.15 452.20 2.70 c p1
128.15 458.17 2.70 c p1
128.15 471.79 2.70 c p1
128.15 469.70 2.70 c p1
128.15 471.62 2.70 c p1
128.15 488.54 2.70 c p1
128.15 476.79 2.70 c p1
128.15 440.22 2.70 c p1
18.00 276.94 577.28 564.94 cl
0 0 0 srgb
0.75 setlinewidth
[] 0 setdash
1 setlinecap
1 setlinejoin
10.00 setmiterlimit
np
77.04 365.14 m
0 135.00 l
o
np
77.04 365.14 m
-7.20 0 l
o
np
77.04 387.64 m
-7.20 0 l
o
np
77.04 410.14 m
-7.20 0 l
o
np
77.04 432.64 m
-7.20 0 l
o
np
77.04 455.14 m
-7.20 0 l
o
np
77.04 477.64 m
-7.20 0 l
o
np
77.04 500.14 m
-7.20 0 l
o
/Font1 findfont 12 s
59.76 365.14 (1.00) .5 90 t
59.76 410.14 (1.10) .5 90 t
59.76 455.14 (1.20) .5 90 t
59.76 500.14 (1.30) .5 90 t
np
77.04 350.38 m
190.36 0 l
0 155.52 l
-190.36 0 l
0 -155.52 l
o
77.04 350.38 267.40 505.90 cl
0.4000 0.4000 0.4000 srgb
1.50 setlinewidth
[] 0 setdash
1 setlinecap
1 setlinejoin
10.00 setmiterlimit
np
128.15 370.17 m
3.64 -6.30 l
-7.27 0 l
3.63 6.30 l
o
0 0 0 srgb
2.25 setlinewidth
[] 0 setdash
0 setlinecap
np
198.66 420.64 m
35.25 0 l
o
0.75 setlinewidth
[ 2.25 3.75] 0 setdash
1 setlinecap
np
216.28 365.14 m
0 34.85 l
o
np
216.28 528.61 m
0 -77.08 l
o
0.75 setlinewidth
[] 0 setdash
np
207.47 365.14 m
17.63 0 l
o
np
207.47 528.61 m
17.63 0 l
o
np
198.66 399.99 m
35.25 0 l
0 51.54 l
-35.25 0 l
0 -51.54 l
o
216.28 535.49 2.70 c p1
216.28 541.45 2.70 c p1
216.28 549.29 2.70 c p1
216.28 561.85 2.70 c p1
216.28 565.30 2.70 c p1
216.28 565.36 2.70 c p1
216.28 530.53 2.70 c p1
216.28 533.42 2.70 c p1
216.28 535.58 2.70 c p1
216.28 538.02 2.70 c p1
216.28 540.31 2.70 c p1
216.28 546.28 2.70 c p1
216.28 530.02 2.70 c p1
216.28 530.86 2.70 c p1
216.28 537.64 2.70 c p1
216.28 539.10 2.70 c p1
216.28 542.22 2.70 c p1
216.28 544.74 2.70 c p1
216.28 547.52 2.70 c p1
216.28 555.31 2.70 c p1
216.28 556.70 2.70 c p1
216.28 556.77 2.70 c p1
216.28 561.90 2.70 c p1
216.28 531.34 2.70 c p1
216.28 534.30 2.70 c p1
216.28 534.33 2.70 c p1
216.28 554.88 2.70 c p1
216.28 561.21 2.70 c p1
216.28 531.52 2.70 c p1
216.28 532.95 2.70 c p1
216.28 534.78 2.70 c p1
216.28 537.40 2.70 c p1
216.28 549.13 2.70 c p1
216.28 536.13 2.70 c p1
216.28 536.93 2.70 c p1
216.28 552.26 2.70 c p1
216.28 552.26 2.70 c p1
216.28 538.30 2.70 c p1
216.28 539.71 2.70 c p1
216.28 539.71 2.70 c p1
216.28 540.54 2.70 c p1
216.28 546.08 2.70 c p1
216.28 558.51 2.70 c p1
216.28 563.97 2.70 c p1
216.28 544.14 2.70 c p1
216.28 530.14 2.70 c p1
216.28 541.77 2.70 c p1
216.28 541.86 2.70 c p1
216.28 547.15 2.70 c p1
216.28 552.81 2.70 c p1
216.28 562.93 2.70 c p1
216.28 562.93 2.70 c p1
216.28 563.56 2.70 c p1
18.00 276.94 577.28 564.94 cl
0 0 0 srgb
0.75 setlinewidth
[] 0 setdash
1 setlinecap
1 setlinejoin
10.00 setmiterlimit
np
77.04 365.14 m
0 135.00 l
o
np
77.04 365.14 m
-7.20 0 l
o
np
77.04 387.64 m
-7.20 0 l
o
np
77.04 410.14 m
-7.20 0 l
o
np
77.04 432.64 m
-7.20 0 l
o
np
77.04 455.14 m
-7.20 0 l
o
np
77.04 477.64 m
-7.20 0 l
o
np
77.04 500.14 m
-7.20 0 l
o
/Font1 findfont 12 s
59.76 365.14 (1.00) .5 90 t
59.76 410.14 (1.10) .5 90 t
59.76 455.14 (1.20) .5 90 t
59.76 500.14 (1.30) .5 90 t
np
77.04 350.38 m
190.36 0 l
0 155.52 l
-190.36 0 l
0 -155.52 l
o
77.04 350.38 267.40 505.90 cl
0.4000 0.4000 0.4000 srgb
1.50 setlinewidth
[] 0 setdash
1 setlinecap
1 setlinejoin
10.00 setmiterlimit
np
216.28 379.23 m
3.64 -6.30 l
-7.27 0 l
3.63 6.30 l
o
356.68 350.38 547.04 505.90 cl
297.64 276.94 577.28 564.94 cl
/Font1 findfont 12 s
0 0 0 srgb
451.86 295.66 (1:10) .5 0 t
310.60 428.14 (1:10) .5 90 t
356.68 350.38 547.04 505.90 cl
0 0 0 srgb
0.75 setlinewidth
[] 0 setdash
1 setlinecap
1 setlinejoin
10.00 setmiterlimit
439.98 505.90 107.05 -72.00 r p1
1.50 setlinewidth
[] 0 setdash
np
443.22 491.50 m
21.60 0 l
o
np
443.22 477.10 m
21.60 0 l
o
1.50 setlinewidth
[ 4.50 7.50] 0 setdash
np
443.22 462.70 m
21.60 0 l
o
1.50 setlinewidth
[] 0 setdash
np
443.22 448.30 m
21.60 0 l
o
454.02 491.50 2.70 c p1
np
454.02 481.30 m
3.64 -6.29 l
-7.27 0 l
3.63 6.29 l
o
/bg { 0 0 0 srgb } def
453.52 462.20 1.00 1.00 r p2
453.52 447.80 1.00 1.00 r p2
/Font1 findfont 12 s
475.62 487.20 (2MPSO) 0 0 t
475.62 472.80 (2PSO) 0 0 t
475.62 458.40 (MAPSO min) 0 0 t
475.62 444.00 (MAPSO a) 0 ta
-0.240 (vg) tb gr
ep
%%Trailer
%%Pages: 1
%%EOF
