%!PS-Adobe-3.0
%%DocumentNeededResources: font Helvetica
%%+ font Helvetica-Bold
%%+ font Helvetica-Oblique
%%+ font Helvetica-BoldOblique
%%+ font Symbol
%%DocumentMedia: a4 595 841 0 () ()
%%Title: R Graphics Output
%%Creator: R Software
%%Pages: (atend)
%%Orientation: Landscape
%%BoundingBox: 18 18 577 824
%%EndComments
%%BeginProlog
/bp  { gs sRGB 595.00 0 translate 90 rotate gs } def
% begin .ps.prolog
/gs  { gsave } bind def
/gr  { grestore } bind def
/ep  { showpage gr gr } bind def
/m   { moveto } bind def
/l  { rlineto } bind def
/np  { newpath } bind def
/cp  { closepath } bind def
/f   { fill } bind def
/o   { stroke } bind def
/c   { newpath 0 360 arc } bind def
/r   { 4 2 roll moveto 1 copy 3 -1 roll exch 0 exch rlineto 0 rlineto -1 mul 0 exch rlineto closepath } bind def
/p1  { stroke } bind def
/p2  { gsave bg fill grestore newpath } bind def
/p3  { gsave bg fill grestore stroke } bind def
/p6  { gsave bg eofill grestore newpath } bind def
/p7  { gsave bg eofill grestore stroke } bind def
/t   { 5 -2 roll moveto gsave rotate
       1 index stringwidth pop
       mul neg 0 rmoveto show grestore } bind def
/ta  { 4 -2 roll moveto gsave rotate show } bind def
/tb  { 2 -1 roll 0 rmoveto show } bind def
/cl  { grestore gsave newpath 3 index 3 index moveto 1 index
       4 -1 roll lineto  exch 1 index lineto lineto
       closepath clip newpath } bind def
/rgb { setrgbcolor } bind def
/s   { scalefont setfont } bind def
% end   .ps.prolog
/sRGB { [ /CIEBasedABC
          << /DecodeLMN
               [ { dup 0.03928 le
                        {12.92321 div}
                        {0.055 add 1.055 div 2.4 exp }
                     ifelse
                 } bind dup dup
               ]
             /MatrixLMN [0.412457 0.212673 0.019334
                         0.357576 0.715152 0.119192
                         0.180437 0.072175 0.950301]
             /WhitePoint [0.9505 1.0 1.0890]
           >>
         ] setcolorspace } bind def
/srgb { setcolor } bind def
% begin encoding
/WinAnsiEncoding [
 /.notdef /.notdef /.notdef /.notdef /.notdef /.notdef /.notdef /.notdef
 /.notdef /.notdef /.notdef /.notdef /.notdef /.notdef /.notdef /.notdef
 /.notdef /.notdef /.notdef /.notdef /.notdef /.notdef /.notdef /.notdef
 /.notdef /.notdef /.notdef /.notdef /.notdef /.notdef /.notdef /.notdef
 /space /exclam /quotedbl /numbersign /dollar /percent /ampersand /quoteright
 /parenleft /parenright /asterisk /plus /comma /minus /period /slash
 /zero /one /two /three /four /five /six /seven
 /eight /nine /colon /semicolon /less /equal /greater /question
 /at /A /B /C /D /E /F /G
 /H /I /J /K /L /M /N /O
 /P /Q /R /S /T /U /V /W
 /X /Y /Z /bracketleft /backslash /bracketright /asciicircum /underscore
 /grave /a /b /c /d /e /f /g
 /h /i /j /k /l /m /n /o
 /p /q /r /s /t /u /v /w
 /x /y /z /braceleft /bar /braceright /asciitilde /.notdef
 /Euro /.notdef /quotesinglbase /florin /quotedblbase /ellipsis /dagger /daggerdbl
 /circumflex /perthousand /Scaron /guilsinglleft /OE /.notdef /Zcaron /.notdef
 /.notdef /quoteleft /quoteright /quotedblleft /quotedblright /bullet /endash /emdash
 /tilde /trademark /scaron /guilsinglright /oe /.notdef /zcaron /Ydieresis
 /space /exclamdown /cent /sterling /currency /yen /brokenbar /section
 /dieresis /copyright /ordfeminine /guillemotleft /logicalnot /hyphen /registered /macron
 /degree /plusminus /twosuperior /threesuperior /acute /mu /paragraph /periodcentered
 /cedilla /onesuperior /ordmasculine /guillemotright /onequarter /onehalf /threequarters /questiondown
 /Agrave /Aacute /Acircumflex /Atilde /Adieresis /Aring /AE /Ccedilla
 /Egrave /Eacute /Ecircumflex /Edieresis /Igrave /Iacute /Icircumflex /Idieresis
 /Eth /Ntilde /Ograve /Oacute /Ocircumflex /Otilde /Odieresis /multiply
 /Oslash /Ugrave /Uacute /Ucircumflex /Udieresis /Yacute /Thorn /germandbls
 /agrave /aacute /acircumflex /atilde /adieresis /aring /ae /ccedilla
 /egrave /eacute /ecircumflex /edieresis /igrave /iacute /icircumflex /idieresis
 /eth /ntilde /ograve /oacute /ocircumflex /otilde /odieresis /divide
 /oslash /ugrave /uacute /ucircumflex /udieresis /yacute /thorn /ydieresis
]
 def
% end encoding
%%IncludeResource: font Helvetica
/Helvetica findfont
dup length dict begin
  {1 index /FID ne {def} {pop pop} ifelse} forall
  /Encoding WinAnsiEncoding def
  currentdict
  end
/Font1 exch definefont pop
%%IncludeResource: font Helvetica-Bold
/Helvetica-Bold findfont
dup length dict begin
  {1 index /FID ne {def} {pop pop} ifelse} forall
  /Encoding WinAnsiEncoding def
  currentdict
  end
/Font2 exch definefont pop
%%IncludeResource: font Helvetica-Oblique
/Helvetica-Oblique findfont
dup length dict begin
  {1 index /FID ne {def} {pop pop} ifelse} forall
  /Encoding WinAnsiEncoding def
  currentdict
  end
/Font3 exch definefont pop
%%IncludeResource: font Helvetica-BoldOblique
/Helvetica-BoldOblique findfont
dup length dict begin
  {1 index /FID ne {def} {pop pop} ifelse} forall
  /Encoding WinAnsiEncoding def
  currentdict
  end
/Font4 exch definefont pop
%%IncludeResource: font Symbol
/Symbol findfont
dup length dict begin
  {1 index /FID ne {def} {pop pop} ifelse} forall
  currentdict
  end
/Font5 exch definefont pop
%%EndProlog
%%Page: 1 1
bp
90.00 205.20 809.49 548.48 cl
/bg { 0.7529 0 0 srgb } def
116.65 217.91 2.70 c p2
161.06 291.63 2.70 c p2
205.47 290.78 2.70 c p2
249.89 251.59 2.70 c p2
294.30 220.25 2.70 c p2
338.71 285.25 2.70 c p2
383.13 308.92 2.70 c p2
427.54 300.89 2.70 c p2
471.95 341.38 2.70 c p2
516.36 422.36 2.70 c p2
560.78 287.29 2.70 c p2
605.19 388.60 2.70 c p2
649.60 390.53 2.70 c p2
694.02 529.48 2.70 c p2
738.43 287.45 2.70 c p2
782.84 535.76 2.70 c p2
18.00 18.00 823.89 577.28 cl
0 0 0 srgb
0.75 setlinewidth
[] 0 setdash
1 setlinecap
1 setlinejoin
10.00 setmiterlimit
np
90.00 214.60 m
0 307.78 l
o
np
90.00 214.60 m
-7.20 0 l
o
np
90.00 317.19 m
-7.20 0 l
o
np
90.00 419.79 m
-7.20 0 l
o
np
90.00 522.38 m
-7.20 0 l
o
/Font1 findfont 12 s
72.72 214.60 (1.00) .5 90 t
72.72 317.19 (1.05) .5 90 t
72.72 419.79 (1.10) .5 90 t
72.72 522.38 (1.15) .5 90 t
np
90.00 205.20 m
719.49 0 l
0 343.28 l
-719.49 0 l
0 -343.28 l
o
18.00 18.00 823.89 577.28 cl
/Font1 findfont 12 s
0 0 0 srgb
406.39 35.28 (Benchmar) 0 ta
0.180 (k type) tb gr
18.00 18.00 823.89 577.28 cl
0 0 0 srgb
0.75 setlinewidth
[] 0 setdash
1 setlinecap
1 setlinejoin
10.00 setmiterlimit
np
116.65 205.20 m
666.19 0 l
o
np
116.65 205.20 m
0 -7.20 l
o
np
161.06 205.20 m
0 -7.20 l
o
np
205.47 205.20 m
0 -7.20 l
o
np
249.89 205.20 m
0 -7.20 l
o
np
294.30 205.20 m
0 -7.20 l
o
np
338.71 205.20 m
0 -7.20 l
o
np
383.13 205.20 m
0 -7.20 l
o
np
427.54 205.20 m
0 -7.20 l
o
np
471.95 205.20 m
0 -7.20 l
o
np
516.36 205.20 m
0 -7.20 l
o
np
560.78 205.20 m
0 -7.20 l
o
np
605.19 205.20 m
0 -7.20 l
o
np
649.60 205.20 m
0 -7.20 l
o
np
694.02 205.20 m
0 -7.20 l
o
np
738.43 205.20 m
0 -7.20 l
o
np
782.84 205.20 m
0 -7.20 l
o
/Font1 findfont 12 s
120.96 80.11 (nor) 90 ta
0.300 (mal reallyclusterd) tb gr
165.37 110.78 (nor) 90 ta
0.300 (mal unif) tb
-0.360 (or) tb
0.300 (m) tb gr
209.78 62.75 (nor) 90 ta
0.300 (mal pseudoclustered) tb gr
254.19 97.44 (nor) 90 ta
0.300 (mal str) tb
0.180 (uctured) tb gr
298.61 76.78 (unif) 90 ta
-0.360 (or) tb
0.300 (m reallyclusterd) tb gr
343.02 107.45 (unif) 90 ta
-0.360 (or) tb
0.300 (m unif) tb
-0.360 (or) tb
0.300 (m) tb gr
387.43 59.41 (unif) 90 ta
-0.360 (or) tb
0.300 (m pseudoclustered) tb gr
431.85 94.10 (unif) 90 ta
-0.360 (or) tb
0.300 (m str) tb
0.180 (uctured) tb gr
476.26 76.10 (sk) 90 ta
-0.240 (e) tb
-0.240 (w) tb
-0.120 (ed reallyclusterd) tb gr
520.67 106.78 (sk) 90 ta
-0.240 (e) tb
-0.240 (w) tb
-0.120 (ed unif) tb
-0.360 (or) tb
0.300 (m) tb gr
565.09 58.74 (sk) 90 ta
-0.240 (e) tb
-0.240 (w) tb
-0.120 (ed pseudoclustered) tb gr
609.50 93.43 (sk) 90 ta
-0.240 (e) tb
-0.240 (w) tb
-0.120 (ed str) tb
0.180 (uctured) tb gr
653.91 48.77 (moresk) 90 ta
-0.240 (e) tb
-0.240 (w) tb
-0.120 (ed reallyclusterd) tb gr
698.32 79.44 (moresk) 90 ta
-0.240 (e) tb
-0.240 (w) tb
-0.120 (ed unif) tb
-0.360 (or) tb
0.300 (m) tb gr
742.74 31.40 (moresk) 90 ta
-0.240 (e) tb
-0.240 (w) tb
-0.120 (ed pseudoclustered) tb gr
787.15 66.10 (moresk) 90 ta
-0.240 (e) tb
-0.240 (w) tb
-0.120 (ed str) tb
0.180 (uctured) tb gr
90.00 205.20 809.49 548.48 cl
/bg { 0 0 0.7529 srgb } def
116.65 233.10 2.70 c p2
161.06 243.88 2.70 c p2
205.47 282.21 2.70 c p2
249.89 302.53 2.70 c p2
294.30 235.48 2.70 c p2
338.71 279.91 2.70 c p2
383.13 245.44 2.70 c p2
427.54 286.63 2.70 c p2
471.95 257.62 2.70 c p2
516.36 301.81 2.70 c p2
560.78 299.62 2.70 c p2
605.19 274.74 2.70 c p2
649.60 323.74 2.70 c p2
694.02 260.76 2.70 c p2
738.43 244.51 2.70 c p2
782.84 354.62 2.70 c p2
/bg { 0 0.7529 0 srgb } def
116.65 219.44 2.70 c p2
161.06 254.14 2.70 c p2
205.47 295.01 2.70 c p2
249.89 259.88 2.70 c p2
294.30 231.57 2.70 c p2
338.71 252.58 2.70 c p2
383.13 240.15 2.70 c p2
427.54 248.85 2.70 c p2
471.95 239.55 2.70 c p2
516.36 270.81 2.70 c p2
560.78 279.03 2.70 c p2
605.19 279.48 2.70 c p2
649.60 279.20 2.70 c p2
694.02 271.97 2.70 c p2
738.43 257.19 2.70 c p2
782.84 309.48 2.70 c p2
0.7529 0 0 srgb
0.75 setlinewidth
[] 0 setdash
1 setlinecap
1 setlinejoin
10.00 setmiterlimit
np
72.23 334.38 m
44.42 0 l
44.41 0 l
44.41 0 l
44.42 0 l
44.41 0 l
44.41 0 l
44.42 0 l
44.41 0 l
44.41 0 l
44.41 0 l
44.42 0 l
44.41 0 l
44.41 0 l
44.42 0 l
44.41 0 l
44.41 0 l
41.05 0 l
o
0 0 0.7529 srgb
np
72.23 276.66 m
44.42 0 l
44.41 0 l
44.41 0 l
44.42 0 l
44.41 0 l
44.41 0 l
44.42 0 l
44.41 0 l
44.41 0 l
44.41 0 l
44.42 0 l
44.41 0 l
44.41 0 l
44.42 0 l
44.41 0 l
44.41 0 l
41.05 0 l
o
0 0.7529 0 srgb
np
72.23 261.77 m
44.42 0 l
44.41 0 l
44.41 0 l
44.42 0 l
44.41 0 l
44.41 0 l
44.42 0 l
44.41 0 l
44.41 0 l
44.41 0 l
44.42 0 l
44.41 0 l
44.41 0 l
44.42 0 l
44.41 0 l
44.41 0 l
41.05 0 l
o
0 0 0 srgb
90.00 548.48 103.96 -57.60 r p1
0.7529 0 0 srgb
1.50 setlinewidth
[] 0 setdash
np
100.80 534.08 m
21.60 0 l
o
0 0 0.7529 srgb
np
100.80 519.68 m
21.60 0 l
o
0 0.7529 0 srgb
np
100.80 505.28 m
21.60 0 l
o
/Font1 findfont 12 s
0 0 0 srgb
133.20 529.77 (2MPSO_1) 0 0 t
133.20 515.37 (2MPSO_2) 0 0 t
133.20 500.97 (2MPSO_3) 0 0 t
ep
%%Trailer
%%Pages: 1
%%EOF
