%!PS-Adobe-3.0 EPSF-3.0
%%Creator: cairo 1.11.2 (http://cairographics.org)
%%CreationDate: Thu Jun 26 16:08:49 2014
%%Pages: 1
%%DocumentData: Clean7Bit
%%LanguageLevel: 2
%%BoundingBox: 0 -1 317 695
%%EndComments
%%BeginProlog
/cairo_eps_state save def
/dict_count countdictstack def
/op_count count 1 sub def
userdict begin
/q { gsave } bind def
/Q { grestore } bind def
/cm { 6 array astore concat } bind def
/w { setlinewidth } bind def
/J { setlinecap } bind def
/j { setlinejoin } bind def
/M { setmiterlimit } bind def
/d { setdash } bind def
/m { moveto } bind def
/l { lineto } bind def
/c { curveto } bind def
/h { closepath } bind def
/re { exch dup neg 3 1 roll 5 3 roll moveto 0 rlineto
      0 exch rlineto 0 rlineto closepath } bind def
/S { stroke } bind def
/f { fill } bind def
/f* { eofill } bind def
/n { newpath } bind def
/W { clip } bind def
/W* { eoclip } bind def
/BT { } bind def
/ET { } bind def
/pdfmark where { pop globaldict /?pdfmark /exec load put }
    { globaldict begin /?pdfmark /pop load def /pdfmark
    /cleartomark load def end } ifelse
/BDC { mark 3 1 roll /BDC pdfmark } bind def
/EMC { mark /EMC pdfmark } bind def
/cairo_store_point { /cairo_point_y exch def /cairo_point_x exch def } def
/Tj { show currentpoint cairo_store_point } bind def
/TJ {
  {
    dup
    type /stringtype eq
    { show } { -0.001 mul 0 cairo_font_matrix dtransform rmoveto } ifelse
  } forall
  currentpoint cairo_store_point
} bind def
/cairo_selectfont { cairo_font_matrix aload pop pop pop 0 0 6 array astore
    cairo_font exch selectfont cairo_point_x cairo_point_y moveto } bind def
/Tf { pop /cairo_font exch def /cairo_font_matrix where
      { pop cairo_selectfont } if } bind def
/Td { matrix translate cairo_font_matrix matrix concatmatrix dup
      /cairo_font_matrix exch def dup 4 get exch 5 get cairo_store_point
      /cairo_font where { pop cairo_selectfont } if } bind def
/Tm { 2 copy 8 2 roll 6 array astore /cairo_font_matrix exch def
      cairo_store_point /cairo_font where { pop cairo_selectfont } if } bind def
/g { setgray } bind def
/rg { setrgbcolor } bind def
/d1 { setcachedevice } bind def
%%EndProlog
%%Page: 1 1
%%BeginPageSetup
%%PageBoundingBox: 0 -1 317 695
%%EndPageSetup
q 0 -1 317 696 rectclip q
0 694.622 317 -695 re W n
1 g
151.758 511.884 m 140.258 509.665 l 140.258 489.884 l 162.898 489.884 l
 162.898 509.665 l h
f*
0 g
2 w
1 J
1 j
[] 0.0 d
10 M 151.758 511.884 m 140.258 509.665 l 140.258 489.884 l 162.898 489.884 l
 162.898 509.665 l h
S
155.43 500.45 3.621 -3.516 re f*
154.859 496.493 m 154.859 502.794 l 154.27 502.794 l 154.27 495.923 l 159.047
 495.923 l 159.047 496.493 l h
146.086 494.434 m 145.367 494.434 144.789 493.864 144.789 493.165 c 144.789
 492.462 145.367 491.891 146.086 491.891 c 146.809 491.891 147.398 492.462
 147.398 493.165 c 147.398 493.864 146.809 494.434 146.086 494.434 c h
155.309 494.434 m 154.586 494.434 153.996 493.864 153.996 493.165 c 153.996
 492.462 154.586 491.891 155.309 491.891 c 156.027 491.891 156.609 492.462
 156.609 493.165 c 156.609 493.864 156.027 494.434 155.309 494.434 c h
153.547 493.165 m 153.547 494.114 154.336 494.872 155.309 494.872 c 155.566
 494.872 155.809 494.825 156.039 494.723 c 156.039 494.973 l 156.039 495.173
 155.867 495.333 155.656 495.333 c 153.668 495.344 l 153.668 501.552 l 152.77
 501.552 l 152.77 496.024 l 145.656 496.024 l 145.477 496.024 145.328 495.864
 145.328 495.665 c 145.328 494.704 l 145.559 494.813 145.816 494.872 146.086
 494.872 c 147.059 494.872 147.848 494.114 147.848 493.165 c 147.848 493.044
 147.836 492.923 147.809 492.813 c 153.586 492.813 l 153.559 492.923 153.547
 493.044 153.547 493.165 c h
150.93 498.153 m 147.137 498.165 l 147.008 498.165 146.906 498.262 146.906
 498.384 c 146.906 501.743 l 146.906 501.844 146.996 501.923 147.109 501.923
 c 150.527 501.923 l 150.637 501.923 150.746 501.844 150.758 501.743 c 151.137
 498.372 l 151.148 498.255 151.059 498.153 150.93 498.153 c h
152.227 496.962 m 151.559 502.684 l 151.539 502.852 151.387 502.981 151.219
 502.981 c 146.219 502.981 l 146.047 502.981 145.918 502.852 145.918 502.684
 c 145.918 496.962 l 145.918 496.755 146.066 496.583 146.258 496.583 c 151.93
 496.583 l 152.117 496.583 152.258 496.755 152.227 496.962 c h
f*
40.617 511.884 m 40.617 514.923 43.082 517.384 46.117 517.384 c 49.156 
517.384 51.617 514.923 51.617 511.884 c 51.617 508.844 49.156 506.384 46.117
 506.384 c 43.082 506.384 40.617 508.844 40.617 511.884 c h
f*
0.67992 w
40.617 511.884 m 40.617 514.923 43.082 517.384 46.117 517.384 c 49.156 
517.384 51.617 514.923 51.617 511.884 c 51.617 508.844 49.156 506.384 46.117
 506.384 c 43.082 506.384 40.617 508.844 40.617 511.884 c h
S
178.117 407.384 m 178.117 410.423 180.586 412.884 183.617 412.884 c 186.656
 412.884 189.117 410.423 189.117 407.384 c 189.117 404.344 186.656 401.884
 183.617 401.884 c 180.586 401.884 178.117 404.344 178.117 407.384 c h
f*
178.117 407.384 m 178.117 410.423 180.586 412.884 183.617 412.884 c 186.656
 412.884 189.117 410.423 189.117 407.384 c 189.117 404.344 186.656 401.884
 183.617 401.884 c 180.586 401.884 178.117 404.344 178.117 407.384 c h
S
63.324 368.184 m 63.324 371.212 65.785 373.684 68.824 373.684 c 71.859 
373.684 74.324 371.212 74.324 368.184 c 74.324 365.141 71.859 362.684 68.824
 362.684 c 65.785 362.684 63.324 365.141 63.324 368.184 c h
f*
63.324 368.184 m 63.324 371.212 65.785 373.684 68.824 373.684 c 71.859 
373.684 74.324 371.212 74.324 368.184 c 74.324 365.141 71.859 362.684 68.824
 362.684 c 65.785 362.684 63.324 365.141 63.324 368.184 c h
S
244.117 599.884 m 244.117 602.923 246.586 605.384 249.617 605.384 c 252.656
 605.384 255.117 602.923 255.117 599.884 c 255.117 596.852 252.656 594.384
 249.617 594.384 c 246.586 594.384 244.117 596.852 244.117 599.884 c h
f*
244.117 599.884 m 244.117 602.923 246.586 605.384 249.617 605.384 c 252.656
 605.384 255.117 602.923 255.117 599.884 c 255.117 596.852 252.656 594.384
 249.617 594.384 c 246.586 594.384 244.117 596.852 244.117 599.884 c h
S
92.996 522.884 m 92.996 525.923 95.457 528.384 98.496 528.384 c 101.539
 528.384 103.996 525.923 103.996 522.884 c 103.996 519.844 101.539 517.384
 98.496 517.384 c 95.457 517.384 92.996 519.844 92.996 522.884 c h
f*
92.996 522.884 m 92.996 525.923 95.457 528.384 98.496 528.384 c 101.539
 528.384 103.996 525.923 103.996 522.884 c 103.996 519.844 101.539 517.384
 98.496 517.384 c 95.457 517.384 92.996 519.844 92.996 522.884 c h
S
35.117 621.184 m 35.117 624.223 37.582 626.684 40.617 626.684 c 43.656 
626.684 46.117 624.223 46.117 621.184 c 46.117 618.141 43.656 615.684 40.617
 615.684 c 37.582 615.684 35.117 618.141 35.117 621.184 c h
f*
35.117 621.184 m 35.117 624.223 37.582 626.684 40.617 626.684 c 43.656 
626.684 46.117 624.223 46.117 621.184 c 46.117 618.141 43.656 615.684 40.617
 615.684 c 37.582 615.684 35.117 618.141 35.117 621.184 c h
S
302.93 671.384 m 302.93 674.423 305.387 676.884 308.43 676.884 c 311.469
 676.884 313.93 674.423 313.93 671.384 c 313.93 668.352 311.469 665.884 
308.43 665.884 c 305.387 665.884 302.93 668.352 302.93 671.384 c h
f*
302.93 671.384 m 302.93 674.423 305.387 676.884 308.43 676.884 c 311.469
 676.884 313.93 674.423 313.93 671.384 c 313.93 668.352 311.469 665.884 
308.43 665.884 c 305.387 665.884 302.93 668.352 302.93 671.384 c h
S
151.898 671.384 m 151.898 674.423 154.359 676.884 157.398 676.884 c 160.438
 676.884 162.898 674.423 162.898 671.384 c 162.898 668.352 160.438 665.884
 157.398 665.884 c 154.359 665.884 151.898 668.352 151.898 671.384 c h
f*
151.898 671.384 m 151.898 674.423 154.359 676.884 157.398 676.884 c 160.438
 676.884 162.898 674.423 162.898 671.384 c 162.898 668.352 160.438 665.884
 157.398 665.884 c 154.359 665.884 151.898 668.352 151.898 671.384 c h
S
260.617 446.583 m 260.617 449.622 263.086 452.094 266.117 452.094 c 269.156
 452.094 271.617 449.622 271.617 446.583 c 271.617 443.552 269.156 441.083
 266.117 441.083 c 263.086 441.083 260.617 443.552 260.617 446.583 c h
f*
260.617 446.583 m 260.617 449.622 263.086 452.094 266.117 452.094 c 269.156
 452.094 271.617 449.622 271.617 446.583 c 271.617 443.552 269.156 441.083
 266.117 441.083 c 263.086 441.083 260.617 443.552 260.617 446.583 c h
S
244.117 561.384 m 244.117 564.423 246.586 566.884 249.617 566.884 c 252.656
 566.884 255.117 564.423 255.117 561.384 c 255.117 558.352 252.656 555.884
 249.617 555.884 c 246.586 555.884 244.117 558.352 244.117 561.384 c h
f*
244.117 561.384 m 244.117 564.423 246.586 566.884 249.617 566.884 c 252.656
 566.884 255.117 564.423 255.117 561.384 c 255.117 558.352 252.656 555.884
 249.617 555.884 c 246.586 555.884 244.117 558.352 244.117 561.384 c h
S
0.75 w
155.578 489.884 m 181.93 417.532 l S
183.617 412.884 m 178.309 417.915 l 180.598 417.641 182.879 418.473 184.457
 420.141 c h
f*
178.117 407.384 m 77.406 373.641 l S
72.711 372.075 m 77.875 377.243 l 77.555 374.962 78.324 372.673 79.953 
371.044 c h
f*
68.824 373.684 m 46.953 501.505 l S
46.117 506.384 m 50.445 500.493 l 48.242 501.153 45.855 500.755 43.996 
499.384 c h
f*
46.117 511.884 m 135.336 502.583 l S
140.258 502.063 m 133.418 499.493 l 134.648 501.434 134.906 503.844 134.086
 505.993 c h
f*
162.898 495.731 m 257.727 452.532 l S
262.227 450.473 m 254.93 450.212 l 256.719 451.665 257.719 453.864 257.637
 456.165 c h
f*
266.117 446.583 m 250.359 550.993 l S
249.617 555.884 m 253.828 549.903 l 251.637 550.614 249.246 550.255 247.367
 548.934 c h
f*
249.617 561.384 m 302.27 663.102 l S
304.539 667.493 m 304.438 660.184 l 303.078 662.044 300.93 663.165 298.629
 663.192 c h
f*
302.93 671.384 m 167.848 671.384 l S
162.898 671.384 m 169.438 674.653 l 168.406 672.602 168.406 670.173 169.438
 668.114 c h
f*
157.398 671.384 m 241.797 606.782 l S
245.727 603.774 m 238.547 605.153 l 240.617 606.165 242.086 608.083 242.527
 610.344 c h
f*
249.617 599.884 m 164.188 513.614 l S
160.707 510.102 m 162.977 517.044 l 163.719 514.864 165.438 513.165 167.629
 512.442 c h
f*
143.02 510.192 m 47.859 613.653 l S
44.508 617.294 m 51.34 614.692 l 49.129 614.052 47.348 612.415 46.527 610.262
 c h
f*
40.617 621.184 m 92.156 531.075 l S
94.609 526.774 m 88.527 530.833 l 90.828 530.954 92.93 532.165 94.199 534.075
 c h
f*
98.496 522.884 m 135.688 507.473 l S
140.258 505.575 m 132.969 505.063 l 134.707 506.563 135.629 508.802 135.469
 511.102 c h
f*
[ 5.25 3.75] 0 d
2.117 571.282 m 244.117 406.282 l S
[ 5.25 3.75] 0 d
123.117 694.481 m 244.117 406.282 l S
[ 5.25 3.75] 0 d
243.527 407.704 m 288.117 357.884 l S
1 g
114.508 437.942 m 108.727 433.731 l 110.938 426.934 l 118.086 426.934 l
 120.289 433.731 l h
f*
2.75 w
[] 0.0 d
114.508 437.942 m 108.727 433.731 l 110.938 426.934 l 118.086 426.934 l
 120.289 433.731 l h
S
125.848 574.005 m 120.066 569.802 l 122.277 563.005 l 129.418 563.005 l
 131.629 569.802 l h
f*
125.848 574.005 m 120.066 569.802 l 122.277 563.005 l 129.418 563.005 l
 131.629 569.802 l h
S
290.43 574.005 m 284.648 569.802 l 286.859 563.005 l 294.008 563.005 l 
296.207 569.802 l h
f*
290.43 574.005 m 284.648 569.802 l 286.859 563.005 l 294.008 563.005 l 
296.207 569.802 l h
S
225.059 598.934 m 219.277 594.731 l 221.488 587.934 l 228.637 587.934 l
 230.848 594.731 l h
f*
0 g
225.059 598.934 m 219.277 594.731 l 221.488 587.934 l 228.637 587.934 l
 230.848 594.731 l h
S
1 g
69.156 485.544 m 63.375 481.344 l 65.582 474.544 l 72.73 474.544 l 74.941
 481.344 l h
f*
0 g
69.156 485.544 m 63.375 481.344 l 65.582 474.544 l 72.73 474.544 l 74.941
 481.344 l h
S
1 g
114.508 551.192 m 108.727 546.993 l 110.938 540.192 l 118.086 540.192 l
 120.289 546.993 l h
f*
0 g
114.508 551.192 m 108.727 546.993 l 110.938 540.192 l 118.086 540.192 l
 120.289 546.993 l h
S
2 w
225.066 592.852 m 290.43 567.923 l S
280.379 566.923 m 290.43 567.923 l 283.598 575.364 l S
114.508 545.114 m 125.848 567.923 l S
125.879 557.813 m 125.848 567.923 l 117.777 561.844 l S
69.16 479.462 m 114.508 431.852 l S
105.008 435.282 m 114.508 431.852 l 111.547 441.524 l S
0.74902 g
0.75 w
144.93 154.415 m 49.773 257.876 l S
46.422 261.516 m 53.254 258.915 l 51.043 258.274 49.262 256.634 48.441 
254.485 c h
f*
42.531 265.407 m 149.301 313.575 l S
153.813 315.606 m 149.191 309.934 l 149.281 312.235 148.293 314.446 146.5
 315.907 c h
f*
159.313 315.606 m 102.301 177.184 l S
100.41 172.606 m 99.883 179.895 l 101.391 178.165 103.633 177.247 105.93
 177.407 c h
f*
1 g
153.672 156.106 m 142.172 153.884 l 142.172 134.106 l 164.813 134.106 l
 164.813 153.884 l h
f*
0 g
2 w
153.672 156.106 m 142.172 153.884 l 142.172 134.106 l 164.813 134.106 l
 164.813 153.884 l h
S
157.34 144.673 3.625 -3.516 re f*
156.77 140.716 m 156.77 147.016 l 156.18 147.016 l 156.18 140.145 l 160.961
 140.145 l 160.961 140.716 l h
148 138.657 m 147.281 138.657 146.703 138.087 146.703 137.384 c 146.703
 136.684 147.281 136.114 148 136.114 c 148.723 136.114 149.313 136.684 149.313
 137.384 c 149.313 138.087 148.723 138.657 148 138.657 c h
157.223 138.657 m 156.5 138.657 155.91 138.087 155.91 137.384 c 155.91 
136.684 156.5 136.114 157.223 136.114 c 157.941 136.114 158.52 136.684 158.52
 137.384 c 158.52 138.087 157.941 138.657 157.223 138.657 c h
155.461 137.384 m 155.461 138.337 156.25 139.094 157.223 139.094 c 157.48
 139.094 157.723 139.044 157.953 138.946 c 157.953 139.196 l 157.953 139.395
 157.781 139.555 157.57 139.555 c 155.582 139.563 l 155.582 145.774 l 154.68
 145.774 l 154.68 140.247 l 147.57 140.247 l 147.391 140.247 147.242 140.087
 147.242 139.884 c 147.242 138.927 l 147.473 139.036 147.73 139.094 148 
139.094 c 148.973 139.094 149.762 138.337 149.762 137.384 c 149.762 137.266
 149.75 137.145 149.723 137.036 c 155.5 137.036 l 155.473 137.145 155.461
 137.266 155.461 137.384 c h
152.84 142.376 m 149.051 142.384 l 148.922 142.384 148.82 142.485 148.82
 142.606 c 148.82 145.966 l 148.82 146.063 148.91 146.145 149.02 146.145
 c 152.441 146.145 l 152.551 146.145 152.66 146.063 152.672 145.966 c 153.051
 142.594 l 153.063 142.473 152.973 142.376 152.84 142.376 c h
154.141 141.184 m 153.473 146.907 l 153.453 147.075 153.301 147.204 153.133
 147.204 c 148.133 147.204 l 147.961 147.204 147.832 147.075 147.832 146.907
 c 147.832 141.184 l 147.832 140.973 147.98 140.805 148.172 140.805 c 153.84
 140.805 l 154.031 140.805 154.172 140.973 154.141 141.184 c h
f*
42.531 156.106 m 42.531 159.145 44.996 161.606 48.031 161.606 c 51.07 161.606
 53.531 159.145 53.531 156.106 c 53.531 153.063 51.07 150.606 48.031 150.606
 c 44.996 150.606 42.531 153.063 42.531 156.106 c h
f*
0.67992 w
42.531 156.106 m 42.531 159.145 44.996 161.606 48.031 161.606 c 51.07 161.606
 53.531 159.145 53.531 156.106 c 53.531 153.063 51.07 150.606 48.031 150.606
 c 44.996 150.606 42.531 153.063 42.531 156.106 c h
S
180.031 51.606 m 180.031 54.645 182.5 57.106 185.531 57.106 c 188.57 57.106
 191.031 54.645 191.031 51.606 c 191.031 48.563 188.57 46.106 185.531 46.106
 c 182.5 46.106 180.031 48.563 180.031 51.606 c h
f*
180.031 51.606 m 180.031 54.645 182.5 57.106 185.531 57.106 c 188.57 57.106
 191.031 54.645 191.031 51.606 c 191.031 48.563 188.57 46.106 185.531 46.106
 c 182.5 46.106 180.031 48.563 180.031 51.606 c h
S
65.234 12.407 m 65.234 15.434 67.699 17.907 70.734 17.907 c 73.773 17.907
 76.234 15.434 76.234 12.407 c 76.234 9.364 73.773 6.907 70.734 6.907 c 
67.699 6.907 65.234 9.364 65.234 12.407 c h
f*
65.234 12.407 m 65.234 15.434 67.699 17.907 70.734 17.907 c 73.773 17.907
 76.234 15.434 76.234 12.407 c 76.234 9.364 73.773 6.907 70.734 6.907 c 
67.699 6.907 65.234 9.364 65.234 12.407 c h
S
246.031 244.106 m 246.031 247.145 248.5 249.606 251.531 249.606 c 254.57
 249.606 257.031 247.145 257.031 244.106 c 257.031 241.075 254.57 238.606
 251.531 238.606 c 248.5 238.606 246.031 241.075 246.031 244.106 c h
f*
246.031 244.106 m 246.031 247.145 248.5 249.606 251.531 249.606 c 254.57
 249.606 257.031 247.145 257.031 244.106 c 257.031 241.075 254.57 238.606
 251.531 238.606 c 248.5 238.606 246.031 241.075 246.031 244.106 c h
S
94.91 167.106 m 94.91 170.145 97.371 172.606 100.41 172.606 c 103.453 172.606
 105.91 170.145 105.91 167.106 c 105.91 164.063 103.453 161.606 100.41 161.606
 c 97.371 161.606 94.91 164.063 94.91 167.106 c h
f*
94.91 167.106 m 94.91 170.145 97.371 172.606 100.41 172.606 c 103.453 172.606
 105.91 170.145 105.91 167.106 c 105.91 164.063 103.453 161.606 100.41 161.606
 c 97.371 161.606 94.91 164.063 94.91 167.106 c h
S
37.031 265.407 m 37.031 268.446 39.496 270.907 42.531 270.907 c 45.57 270.907
 48.031 268.446 48.031 265.407 c 48.031 262.364 45.57 259.907 42.531 259.907
 c 39.496 259.907 37.031 262.364 37.031 265.407 c h
f*
37.031 265.407 m 37.031 268.446 39.496 270.907 42.531 270.907 c 45.57 270.907
 48.031 268.446 48.031 265.407 c 48.031 262.364 45.57 259.907 42.531 259.907
 c 39.496 259.907 37.031 262.364 37.031 265.407 c h
S
304.84 315.606 m 304.84 318.645 307.301 321.106 310.34 321.106 c 313.383
 321.106 315.84 318.645 315.84 315.606 c 315.84 312.575 313.383 310.106 
310.34 310.106 c 307.301 310.106 304.84 312.575 304.84 315.606 c h
f*
304.84 315.606 m 304.84 318.645 307.301 321.106 310.34 321.106 c 313.383
 321.106 315.84 318.645 315.84 315.606 c 315.84 312.575 313.383 310.106 
310.34 310.106 c 307.301 310.106 304.84 312.575 304.84 315.606 c h
S
153.813 315.606 m 153.813 318.645 156.27 321.106 159.313 321.106 c 162.352
 321.106 164.813 318.645 164.813 315.606 c 164.813 312.575 162.352 310.106
 159.313 310.106 c 156.27 310.106 153.813 312.575 153.813 315.606 c h
f*
153.813 315.606 m 153.813 318.645 156.27 321.106 159.313 321.106 c 162.352
 321.106 164.813 318.645 164.813 315.606 c 164.813 312.575 162.352 310.106
 159.313 310.106 c 156.27 310.106 153.813 312.575 153.813 315.606 c h
S
262.531 90.805 m 262.531 93.844 265 96.313 268.031 96.313 c 271.07 96.313
 273.531 93.844 273.531 90.805 c 273.531 87.774 271.07 85.305 268.031 85.305
 c 265 85.305 262.531 87.774 262.531 90.805 c h
f*
262.531 90.805 m 262.531 93.844 265 96.313 268.031 96.313 c 271.07 96.313
 273.531 93.844 273.531 90.805 c 273.531 87.774 271.07 85.305 268.031 85.305
 c 265 85.305 262.531 87.774 262.531 90.805 c h
S
246.031 205.606 m 246.031 208.645 248.5 211.106 251.531 211.106 c 254.57
 211.106 257.031 208.645 257.031 205.606 c 257.031 202.575 254.57 200.106
 251.531 200.106 c 248.5 200.106 246.031 202.575 246.031 205.606 c h
f*
246.031 205.606 m 246.031 208.645 248.5 211.106 251.531 211.106 c 254.57
 211.106 257.031 208.645 257.031 205.606 c 257.031 202.575 254.57 200.106
 251.531 200.106 c 248.5 200.106 246.031 202.575 246.031 205.606 c h
S
0.75 w
157.492 134.106 m 183.84 61.755 l S
185.531 57.106 m 180.223 62.134 l 182.512 61.864 184.793 62.696 186.371
 64.364 c h
f*
268.031 90.805 m 252.27 195.216 l S
251.531 200.106 m 255.742 194.126 l 253.551 194.837 251.16 194.473 249.281
 193.157 c h
f*
70.734 17.907 m 143.633 129.954 l S
146.332 134.106 m 145.512 126.844 l 144.34 128.825 142.313 130.145 140.031
 130.407 c h
f*
48.031 156.106 m 137.25 146.805 l S
142.172 146.286 m 135.332 143.716 l 136.563 145.657 136.82 148.063 136 
150.216 c h
f*
185.531 51.606 m 80.895 14.075 l S
76.234 12.407 m 81.289 17.684 l 81.016 15.407 81.832 13.126 83.496 11.536
 c h
f*
164.813 139.473 m 258.102 93.016 l S
262.531 90.805 m 255.223 90.794 l 257.063 92.184 258.141 94.356 258.141
 96.657 c h
f*
251.531 205.606 m 304.18 307.325 l S
306.453 311.716 m 306.352 304.407 l 304.992 306.266 302.84 307.384 300.543
 307.415 c h
f*
310.34 315.606 m 254.832 253.305 l S
251.531 249.606 m 253.441 256.665 l 254.301 254.524 256.102 252.915 258.332
 252.313 c h
f*
251.531 244.106 m 166.102 157.837 l S
162.621 154.325 m 164.891 161.266 l 165.633 159.087 167.352 157.384 169.543
 156.665 c h
f*
100.41 167.106 m 58.352 157.235 l S
53.531 156.106 m 59.152 160.786 l 58.621 158.544 59.172 156.184 60.645 
154.415 c h
f*
1 g
116.422 82.165 m 110.641 77.954 l 112.852 71.157 l 120 71.157 l 122.203
 77.954 l h
f*
0 g
2.75 w
116.422 82.165 m 110.641 77.954 l 112.852 71.157 l 120 71.157 l 122.203
 77.954 l h
S
1 g
127.762 218.223 m 121.98 214.024 l 124.191 207.223 l 131.332 207.223 l 
133.543 214.024 l h
f*
0 g
127.762 218.223 m 121.98 214.024 l 124.191 207.223 l 131.332 207.223 l 
133.543 214.024 l h
S
1 g
292.172 218.223 m 286.391 214.024 l 288.602 207.223 l 295.742 207.223 l
 297.953 214.024 l h
f*
0 g
292.172 218.223 m 286.391 214.024 l 288.602 207.223 l 295.742 207.223 l
 297.953 214.024 l h
S
0.75 w
[ 5.25 3.75] 0 d
3.039 155.454 m 207.121 129.837 l S
[ 5.25 3.75] 0 d
207.133 129.786 m 297.84 30.723 l S
[ 5.25 3.75] 0 d
197.371 336.864 m 207.133 129.634 l S
[] 0.0 d
42.531 265.407 m 94.07 175.294 l S
96.52 170.997 m 90.441 175.055 l 92.742 175.177 94.84 176.384 96.109 178.294
 c h
f*
153.859 156.063 m 159.141 310.665 l S
159.313 315.606 m 162.352 308.966 l 160.332 310.063 157.91 310.145 155.82
 309.184 c h
f*
159.313 315.606 m 52.543 267.446 l S
48.031 265.407 m 52.648 271.075 l 52.559 268.774 53.555 266.563 55.34 265.114
 c h
f*
0.647059 g
[ 5.25 3.75] 0 d
0.203 213.665 m 242.211 48.665 l S
[ 5.25 3.75] 0 d
121.211 336.864 m 242.211 48.665 l S
[ 5.25 3.75] 0 d
241.609 50.075 m 286.211 0.266 l S
Q Q
showpage
%%Trailer
count op_count sub {pop} repeat
countdictstack dict_count sub {end} repeat
cairo_eps_state restore
%%EOF
