%!PS-Adobe-3.0 EPSF-3.0
%%DocumentNeededResources: font Helvetica
%%+ font Helvetica-Bold
%%+ font Helvetica-Oblique
%%+ font Helvetica-BoldOblique
%%+ font Symbol
%%Title: R Graphics Output
%%Creator: R Software
%%Pages: (atend)
%%BoundingBox: 0 0 618 403
%%EndComments
%%BeginProlog
/bp  { gs sRGB gs } def
% begin .ps.prolog
/gs  { gsave } bind def
/gr  { grestore } bind def
/ep  { showpage gr gr } bind def
/m   { moveto } bind def
/l  { rlineto } bind def
/np  { newpath } bind def
/cp  { closepath } bind def
/f   { fill } bind def
/o   { stroke } bind def
/c   { newpath 0 360 arc } bind def
/r   { 4 2 roll moveto 1 copy 3 -1 roll exch 0 exch rlineto 0 rlineto -1 mul 0 exch rlineto closepath } bind def
/p1  { stroke } bind def
/p2  { gsave bg fill grestore newpath } bind def
/p3  { gsave bg fill grestore stroke } bind def
/p6  { gsave bg eofill grestore newpath } bind def
/p7  { gsave bg eofill grestore stroke } bind def
/t   { 5 -2 roll moveto gsave rotate
       1 index stringwidth pop
       mul neg 0 rmoveto show grestore } bind def
/ta  { 4 -2 roll moveto gsave rotate show } bind def
/tb  { 2 -1 roll 0 rmoveto show } bind def
/cl  { grestore gsave newpath 3 index 3 index moveto 1 index
       4 -1 roll lineto  exch 1 index lineto lineto
       closepath clip newpath } bind def
/rgb { setrgbcolor } bind def
/s   { scalefont setfont } bind def
% end   .ps.prolog
/sRGB { [ /CIEBasedABC
          << /DecodeLMN
               [ { dup 0.03928 le
                        {12.92321 div}
                        {0.055 add 1.055 div 2.4 exp }
                     ifelse
                 } bind dup dup
               ]
             /MatrixLMN [0.412457 0.212673 0.019334
                         0.357576 0.715152 0.119192
                         0.180437 0.072175 0.950301]
             /WhitePoint [0.9505 1.0 1.0890]
           >>
         ] setcolorspace } bind def
/srgb { setcolor } bind def
% begin encoding
/WinAnsiEncoding [
 /.notdef /.notdef /.notdef /.notdef /.notdef /.notdef /.notdef /.notdef
 /.notdef /.notdef /.notdef /.notdef /.notdef /.notdef /.notdef /.notdef
 /.notdef /.notdef /.notdef /.notdef /.notdef /.notdef /.notdef /.notdef
 /.notdef /.notdef /.notdef /.notdef /.notdef /.notdef /.notdef /.notdef
 /space /exclam /quotedbl /numbersign /dollar /percent /ampersand /quoteright
 /parenleft /parenright /asterisk /plus /comma /minus /period /slash
 /zero /one /two /three /four /five /six /seven
 /eight /nine /colon /semicolon /less /equal /greater /question
 /at /A /B /C /D /E /F /G
 /H /I /J /K /L /M /N /O
 /P /Q /R /S /T /U /V /W
 /X /Y /Z /bracketleft /backslash /bracketright /asciicircum /underscore
 /grave /a /b /c /d /e /f /g
 /h /i /j /k /l /m /n /o
 /p /q /r /s /t /u /v /w
 /x /y /z /braceleft /bar /braceright /asciitilde /.notdef
 /Euro /.notdef /quotesinglbase /florin /quotedblbase /ellipsis /dagger /daggerdbl
 /circumflex /perthousand /Scaron /guilsinglleft /OE /.notdef /Zcaron /.notdef
 /.notdef /quoteleft /quoteright /quotedblleft /quotedblright /bullet /endash /emdash
 /tilde /trademark /scaron /guilsinglright /oe /.notdef /zcaron /Ydieresis
 /space /exclamdown /cent /sterling /currency /yen /brokenbar /section
 /dieresis /copyright /ordfeminine /guillemotleft /logicalnot /hyphen /registered /macron
 /degree /plusminus /twosuperior /threesuperior /acute /mu /paragraph /periodcentered
 /cedilla /onesuperior /ordmasculine /guillemotright /onequarter /onehalf /threequarters /questiondown
 /Agrave /Aacute /Acircumflex /Atilde /Adieresis /Aring /AE /Ccedilla
 /Egrave /Eacute /Ecircumflex /Edieresis /Igrave /Iacute /Icircumflex /Idieresis
 /Eth /Ntilde /Ograve /Oacute /Ocircumflex /Otilde /Odieresis /multiply
 /Oslash /Ugrave /Uacute /Ucircumflex /Udieresis /Yacute /Thorn /germandbls
 /agrave /aacute /acircumflex /atilde /adieresis /aring /ae /ccedilla
 /egrave /eacute /ecircumflex /edieresis /igrave /iacute /icircumflex /idieresis
 /eth /ntilde /ograve /oacute /ocircumflex /otilde /odieresis /divide
 /oslash /ugrave /uacute /ucircumflex /udieresis /yacute /thorn /ydieresis
]
 def
% end encoding
%%IncludeResource: font Helvetica
/Helvetica findfont
dup length dict begin
  {1 index /FID ne {def} {pop pop} ifelse} forall
  /Encoding WinAnsiEncoding def
  currentdict
  end
/Font1 exch definefont pop
%%IncludeResource: font Helvetica-Bold
/Helvetica-Bold findfont
dup length dict begin
  {1 index /FID ne {def} {pop pop} ifelse} forall
  /Encoding WinAnsiEncoding def
  currentdict
  end
/Font2 exch definefont pop
%%IncludeResource: font Helvetica-Oblique
/Helvetica-Oblique findfont
dup length dict begin
  {1 index /FID ne {def} {pop pop} ifelse} forall
  /Encoding WinAnsiEncoding def
  currentdict
  end
/Font3 exch definefont pop
%%IncludeResource: font Helvetica-BoldOblique
/Helvetica-BoldOblique findfont
dup length dict begin
  {1 index /FID ne {def} {pop pop} ifelse} forall
  /Encoding WinAnsiEncoding def
  currentdict
  end
/Font4 exch definefont pop
%%IncludeResource: font Symbol
/Symbol findfont
dup length dict begin
  {1 index /FID ne {def} {pop pop} ifelse} forall
  currentdict
  end
/Font5 exch definefont pop
%%EndProlog
%%Page: 1 1
bp
/bg { 1 1 1 srgb } def
0.00 0.00 618.00 402.75 r p2
23.90 225.28 297.05 378.85 cl
0.00 0.00 618.00 402.75 cl
0 0 0 srgb
0.75 setlinewidth
[] 0 setdash
1 setlinecap
1 setlinejoin
10.00 setmiterlimit
np
34.02 225.28 m
252.91 0 l
o
np
34.02 225.28 m
0 -5.98 l
o
np
97.25 225.28 m
0 -5.98 l
o
np
160.48 225.28 m
0 -5.98 l
o
np
223.70 225.28 m
0 -5.98 l
o
np
286.93 225.28 m
0 -5.98 l
o
/Font1 findfont 13 s
34.02 203.77 (1) .5 0 t
97.25 203.77 (2) .5 0 t
160.48 203.77 (3) .5 0 t
223.70 203.77 (4) .5 0 t
286.93 203.77 (5) .5 0 t
np
23.90 239.85 m
0 133.31 l
o
np
23.90 239.85 m
-5.97 0 l
o
np
23.90 262.07 m
-5.97 0 l
o
np
23.90 284.29 m
-5.97 0 l
o
np
23.90 306.51 m
-5.97 0 l
o
np
23.90 328.72 m
-5.97 0 l
o
np
23.90 350.94 m
-5.97 0 l
o
np
23.90 373.16 m
-5.97 0 l
o
9.56 239.85 (1.00) .5 90 t
9.56 284.29 (1.10) .5 90 t
9.56 328.72 (1.20) .5 90 t
9.56 373.16 (1.30) .5 90 t
np
23.90 225.28 m
273.15 0 l
0 153.57 l
-273.15 0 l
0 -153.57 l
o
0.00 201.38 309.00 402.75 cl
/Font2 findfont 16 s
0 0 0 srgb
115.13 385.05 (c) 0 ta
-0.160 (hristofides) tb gr
/Font1 findfont 13 s
160.48 179.86 (1:n) .5 0 t
23.90 225.28 297.05 378.85 cl
0 0 0 srgb
0.75 setlinewidth
[ 2.25 3.75] 0 setdash
1 setlinecap
1 setlinejoin
10.00 setmiterlimit
np
0.00 276.17 m
34.02 0 l
63.23 0 l
63.23 0 l
63.22 0 l
63.23 0 l
63.23 0 l
o
0.75 setlinewidth
[] 0 setdash
np
0.00 295.34 m
34.02 0 l
63.23 0 l
63.23 0 l
63.22 0 l
63.23 0 l
63.23 0 l
o
0.4000 0.2000 0.2000 srgb
34.02 306.41 2.24 c p1
1.50 setlinewidth
[] 0 setdash
np
34.02 277.80 m
0 57.22 l
o
np
31.97 277.80 m
4.10 0 l
o
np
31.97 335.02 m
4.10 0 l
o
34.02 253.98 2.24 c p1
0.3608 0.4000 0.2000 srgb
0.75 setlinewidth
[] 0 setdash
np
97.25 283.16 m
3.02 -5.23 l
-6.04 0 l
3.02 5.23 l
o
1.50 setlinewidth
[] 0 setdash
np
97.25 257.95 m
0 43.44 l
o
np
95.20 257.95 m
4.10 0 l
o
np
95.20 301.39 m
4.10 0 l
o
np
97.25 252.00 m
3.02 -5.23 l
-6.04 0 l
3.02 5.23 l
o
0.2000 0.4000 0.2784 srgb
0.75 setlinewidth
[] 0 setdash
np
157.31 290.92 m
6.34 0 l
o
np
160.48 287.75 m
0 6.34 l
o
1.50 setlinewidth
[] 0 setdash
np
160.48 258.83 m
0 64.18 l
o
np
158.43 258.83 m
4.09 0 l
o
np
158.43 323.01 m
4.09 0 l
o
np
157.31 255.40 m
6.34 0 l
o
np
160.48 252.23 m
0 6.34 l
o
0.2000 0.2784 0.4000 srgb
0.75 setlinewidth
[] 0 setdash
np
221.46 292.39 m
4.48 4.48 l
o
np
221.46 296.87 m
4.48 -4.48 l
o
1.50 setlinewidth
[] 0 setdash
np
223.70 262.13 m
0 65.01 l
o
np
221.66 262.13 m
4.09 0 l
o
np
221.66 327.14 m
4.09 0 l
o
np
221.46 260.56 m
4.48 4.48 l
o
np
221.46 265.04 m
4.48 -4.48 l
o
0.3608 0.2000 0.4000 srgb
0.75 setlinewidth
[] 0 setdash
np
283.76 273.06 m
3.17 3.17 l
3.17 -3.17 l
-3.17 -3.16 l
-3.17 3.16 l
o
1.50 setlinewidth
[] 0 setdash
np
286.93 252.21 m
0 41.70 l
o
np
284.88 252.21 m
4.10 0 l
o
np
284.88 293.91 m
4.10 0 l
o
np
283.76 245.16 m
3.17 3.17 l
3.17 -3.17 l
-3.17 -3.17 l
-3.17 3.17 l
o
332.90 225.28 606.05 378.85 cl
0.00 0.00 618.00 402.75 cl
0 0 0 srgb
0.75 setlinewidth
[] 0 setdash
1 setlinecap
1 setlinejoin
10.00 setmiterlimit
np
343.02 225.28 m
252.91 0 l
o
np
343.02 225.28 m
0 -5.98 l
o
np
406.25 225.28 m
0 -5.98 l
o
np
469.48 225.28 m
0 -5.98 l
o
np
532.70 225.28 m
0 -5.98 l
o
np
595.93 225.28 m
0 -5.98 l
o
/Font1 findfont 13 s
343.02 203.77 (1) .5 0 t
406.25 203.77 (2) .5 0 t
469.48 203.77 (3) .5 0 t
532.70 203.77 (4) .5 0 t
595.93 203.77 (5) .5 0 t
np
332.90 239.85 m
0 133.31 l
o
np
332.90 239.85 m
-5.97 0 l
o
np
332.90 262.07 m
-5.97 0 l
o
np
332.90 284.29 m
-5.97 0 l
o
np
332.90 306.51 m
-5.97 0 l
o
np
332.90 328.72 m
-5.97 0 l
o
np
332.90 350.94 m
-5.97 0 l
o
np
332.90 373.16 m
-5.97 0 l
o
318.56 239.85 (1.00) .5 90 t
318.56 284.29 (1.10) .5 90 t
318.56 328.72 (1.20) .5 90 t
318.56 373.16 (1.30) .5 90 t
np
332.90 225.28 m
273.15 0 l
0 153.57 l
-273.15 0 l
0 -153.57 l
o
309.00 201.38 618.00 402.75 cl
/Font2 findfont 16 s
0 0 0 srgb
469.48 385.05 (fisher) .5 0 t
/Font1 findfont 13 s
469.48 179.86 (1:n) .5 0 t
294.66 302.06 (1:n) .5 90 t
332.90 225.28 606.05 378.85 cl
0 0 0 srgb
0.75 setlinewidth
[ 2.25 3.75] 0 setdash
1 setlinecap
1 setlinejoin
10.00 setmiterlimit
np
279.79 291.89 m
63.23 0 l
63.23 0 l
63.23 0 l
63.22 0 l
63.23 0 l
22.07 0 l
o
0.75 setlinewidth
[] 0 setdash
np
279.79 318.00 m
63.23 0 l
63.23 0 l
63.23 0 l
63.22 0 l
63.23 0 l
22.07 0 l
o
0.4000 0.2000 0.2000 srgb
343.02 314.48 2.24 c p1
1.50 setlinewidth
[] 0 setdash
np
343.02 290.54 m
0 47.88 l
o
np
340.97 290.54 m
4.10 0 l
o
np
340.97 338.42 m
4.10 0 l
o
343.02 270.19 2.24 c p1
0.3608 0.4000 0.2000 srgb
0.75 setlinewidth
[] 0 setdash
np
406.25 285.47 m
3.02 -5.23 l
-6.04 0 l
3.02 5.23 l
o
1.50 setlinewidth
[] 0 setdash
np
406.25 256.09 m
0 51.79 l
o
np
404.20 256.09 m
4.10 0 l
o
np
404.20 307.88 m
4.10 0 l
o
np
406.25 247.45 m
3.02 -5.23 l
-6.04 0 l
3.02 5.23 l
o
0.2000 0.4000 0.2784 srgb
0.75 setlinewidth
[] 0 setdash
np
466.31 313.18 m
6.34 0 l
o
np
469.48 310.01 m
0 6.34 l
o
1.50 setlinewidth
[] 0 setdash
np
469.48 277.18 m
0 72.00 l
o
np
467.43 277.18 m
4.09 0 l
o
np
467.43 349.18 m
4.09 0 l
o
np
466.31 260.74 m
6.34 0 l
o
np
469.48 257.57 m
0 6.34 l
o
0.2000 0.2784 0.4000 srgb
0.75 setlinewidth
[] 0 setdash
np
530.46 288.05 m
4.48 4.48 l
o
np
530.46 292.53 m
4.48 -4.48 l
o
1.50 setlinewidth
[] 0 setdash
np
532.70 263.11 m
0 54.36 l
o
np
530.65 263.11 m
4.10 0 l
o
np
530.65 317.47 m
4.10 0 l
o
np
530.46 248.98 m
4.48 4.48 l
o
np
530.46 253.46 m
4.48 -4.48 l
o
0.3608 0.2000 0.4000 srgb
0.75 setlinewidth
[] 0 setdash
np
592.76 297.67 m
3.17 3.17 l
3.17 -3.17 l
-3.17 -3.17 l
-3.17 3.17 l
o
1.50 setlinewidth
[] 0 setdash
np
595.93 269.29 m
0 56.76 l
o
np
593.88 269.29 m
4.10 0 l
o
np
593.88 326.05 m
4.10 0 l
o
np
592.76 264.08 m
3.17 3.17 l
3.17 -3.17 l
-3.17 -3.17 l
-3.17 3.17 l
o
23.90 23.90 297.05 177.47 cl
0.00 0.00 618.00 402.75 cl
0 0 0 srgb
0.75 setlinewidth
[] 0 setdash
1 setlinecap
1 setlinejoin
10.00 setmiterlimit
np
34.02 23.90 m
252.91 0 l
o
np
34.02 23.90 m
0 -5.97 l
o
np
97.25 23.90 m
0 -5.97 l
o
np
160.48 23.90 m
0 -5.97 l
o
np
223.70 23.90 m
0 -5.97 l
o
np
286.93 23.90 m
0 -5.97 l
o
/Font1 findfont 13 s
34.02 2.39 (1) .5 0 t
97.25 2.39 (2) .5 0 t
160.48 2.39 (3) .5 0 t
223.70 2.39 (4) .5 0 t
286.93 2.39 (5) .5 0 t
np
23.90 38.48 m
0 133.30 l
o
np
23.90 38.48 m
-5.97 0 l
o
np
23.90 60.70 m
-5.97 0 l
o
np
23.90 82.91 m
-5.97 0 l
o
np
23.90 105.13 m
-5.97 0 l
o
np
23.90 127.35 m
-5.97 0 l
o
np
23.90 149.57 m
-5.97 0 l
o
np
23.90 171.78 m
-5.97 0 l
o
9.56 38.48 (1.00) .5 90 t
9.56 82.91 (1.10) .5 90 t
9.56 127.35 (1.20) .5 90 t
9.56 171.78 (1.30) .5 90 t
np
23.90 23.90 m
273.15 0 l
0 153.57 l
-273.15 0 l
0 -153.57 l
o
0.00 0.00 309.00 201.38 cl
/Font2 findfont 16 s
0 0 0 srgb
134.24 183.68 (taillar) 0 ta
-0.320 (d) tb gr
23.90 23.90 297.05 177.47 cl
0 0 0 srgb
0.75 setlinewidth
[ 2.25 3.75] 0 setdash
1 setlinecap
1 setlinejoin
10.00 setmiterlimit
np
0.00 35.60 m
34.02 0 l
63.23 0 l
63.23 0 l
63.22 0 l
63.23 0 l
63.23 0 l
o
0.75 setlinewidth
[] 0 setdash
np
0.00 50.78 m
34.02 0 l
63.23 0 l
63.23 0 l
63.22 0 l
63.23 0 l
63.23 0 l
o
0.4000 0.2000 0.2000 srgb
34.02 117.89 2.24 c p1
1.50 setlinewidth
[] 0 setdash
np
34.02 86.30 m
0 63.19 l
o
np
31.97 86.30 m
4.10 0 l
o
np
31.97 149.49 m
4.10 0 l
o
34.02 59.86 2.24 c p1
0.3608 0.4000 0.2000 srgb
0.75 setlinewidth
[] 0 setdash
np
97.25 72.29 m
3.02 -5.23 l
-6.04 0 l
3.02 5.23 l
o
1.50 setlinewidth
[] 0 setdash
np
97.25 51.20 m
0 35.21 l
o
np
95.20 51.20 m
4.10 0 l
o
np
95.20 86.41 m
4.10 0 l
o
np
97.25 51.38 m
3.02 -5.23 l
-6.04 0 l
3.02 5.23 l
o
0.2000 0.4000 0.2784 srgb
0.75 setlinewidth
[] 0 setdash
np
157.31 84.56 m
6.34 0 l
o
np
160.48 81.39 m
0 6.34 l
o
1.50 setlinewidth
[] 0 setdash
np
160.48 57.04 m
0 55.05 l
o
np
158.43 57.04 m
4.09 0 l
o
np
158.43 112.09 m
4.09 0 l
o
np
157.31 52.73 m
6.34 0 l
o
np
160.48 49.56 m
0 6.34 l
o
0.2000 0.2784 0.4000 srgb
0.75 setlinewidth
[] 0 setdash
np
221.46 77.89 m
4.48 4.48 l
o
np
221.46 82.37 m
4.48 -4.48 l
o
1.50 setlinewidth
[] 0 setdash
np
223.70 57.65 m
0 44.96 l
o
np
221.66 57.65 m
4.09 0 l
o
np
221.66 102.61 m
4.09 0 l
o
np
221.46 51.53 m
4.48 4.49 l
o
np
221.46 56.02 m
4.48 -4.49 l
o
0.3608 0.2000 0.4000 srgb
0.75 setlinewidth
[] 0 setdash
np
283.76 65.67 m
3.17 3.17 l
3.17 -3.17 l
-3.17 -3.17 l
-3.17 3.17 l
o
1.50 setlinewidth
[] 0 setdash
np
286.93 43.55 m
0 44.23 l
o
np
284.88 43.55 m
4.10 0 l
o
np
284.88 87.78 m
4.10 0 l
o
np
283.76 41.38 m
3.17 3.17 l
3.17 -3.17 l
-3.17 -3.16 l
-3.17 3.16 l
o
332.90 23.90 606.05 177.47 cl
309.00 0.00 618.00 201.38 cl
/Font1 findfont 13 s
0 0 0 srgb
294.66 100.69 (1:10) .5 90 t
332.90 23.90 606.05 177.47 cl
/bg { 1 1 1 srgb } def
0 0 0 srgb
0.75 setlinewidth
[] 0 setdash
1 setlinecap
1 setlinejoin
10.00 setmiterlimit
417.48 177.47 188.56 -95.62 r p3
0.4000 0.2000 0.2000 srgb
1.50 setlinewidth
[] 0 setdash
np
420.17 165.52 m
17.93 0 l
o
0.3608 0.4000 0.2000 srgb
np
420.17 153.57 m
17.93 0 l
o
0.2000 0.4000 0.2784 srgb
np
420.17 141.62 m
17.93 0 l
o
0.2000 0.2784 0.4000 srgb
np
420.17 129.66 m
17.93 0 l
o
0.3608 0.2000 0.4000 srgb
np
420.17 117.71 m
17.93 0 l
o
0 0 0 srgb
np
420.17 105.76 m
17.93 0 l
o
np
420.17 93.81 m
17.93 0 l
o
0.4000 0.2000 0.2000 srgb
429.14 165.52 2.24 c p1
0.3608 0.4000 0.2000 srgb
np
429.14 157.05 m
3.02 -5.23 l
-6.04 0 l
3.02 5.23 l
o
0.2000 0.4000 0.2784 srgb
np
425.97 141.62 m
6.34 0 l
o
np
429.14 138.45 m
0 6.33 l
o
0.2000 0.2784 0.4000 srgb
np
426.90 127.42 m
4.48 4.48 l
o
np
426.90 131.90 m
4.48 -4.48 l
o
0.3608 0.2000 0.4000 srgb
np
425.97 117.71 m
3.17 3.17 l
3.17 -3.17 l
-3.17 -3.17 l
-3.17 3.17 l
o
0 0 0 srgb
np
429.14 102.27 m
3.02 5.23 l
-6.04 0 l
3.02 -5.23 l
o
426.90 91.57 4.48 4.48 r p1
np
426.90 91.57 m
4.48 4.48 l
o
np
426.90 96.05 m
4.48 -4.48 l
o
/Font1 findfont 13 s
447.07 160.85 (2PSO 1/40/500/500) 0 0 t
447.07 148.90 (2PSOv2 2OPT 1/40/250/800) 0 0 t
447.07 136.95 (2PSOv2x2 2OPT 1/40/500/1) 0 0 t
447.07 125.00 (2PSOv2x3 2OPT 1/40/500/1) 0 0 t
447.07 113.04 (2PSOv2x3+4 2OPT 1/100/1000/500) 0 0 t
447.07 101.09 (MAPSO min) 0 0 t
447.07 89.14 (MAPSO a) 0 ta
-0.260 (vg) tb gr
ep
%%Trailer
%%Pages: 1
%%EOF
