%!PS-Adobe-3.0 EPSF-3.0
%%DocumentNeededResources: font Helvetica
%%+ font Helvetica-Bold
%%+ font Helvetica-Oblique
%%+ font Helvetica-BoldOblique
%%+ font Symbol
%%Title: R Graphics Output
%%Creator: R Software
%%Pages: (atend)
%%BoundingBox: 0 0 375 563
%%EndComments
%%BeginProlog
/bp  { gs sRGB gs } def
% begin .ps.prolog
/gs  { gsave } bind def
/gr  { grestore } bind def
/ep  { showpage gr gr } bind def
/m   { moveto } bind def
/l  { rlineto } bind def
/np  { newpath } bind def
/cp  { closepath } bind def
/f   { fill } bind def
/o   { stroke } bind def
/c   { newpath 0 360 arc } bind def
/r   { 4 2 roll moveto 1 copy 3 -1 roll exch 0 exch rlineto 0 rlineto -1 mul 0 exch rlineto closepath } bind def
/p1  { stroke } bind def
/p2  { gsave bg fill grestore newpath } bind def
/p3  { gsave bg fill grestore stroke } bind def
/p6  { gsave bg eofill grestore newpath } bind def
/p7  { gsave bg eofill grestore stroke } bind def
/t   { 5 -2 roll moveto gsave rotate
       1 index stringwidth pop
       mul neg 0 rmoveto show grestore } bind def
/ta  { 4 -2 roll moveto gsave rotate show } bind def
/tb  { 2 -1 roll 0 rmoveto show } bind def
/cl  { grestore gsave newpath 3 index 3 index moveto 1 index
       4 -1 roll lineto  exch 1 index lineto lineto
       closepath clip newpath } bind def
/rgb { setrgbcolor } bind def
/s   { scalefont setfont } bind def
% end   .ps.prolog
/sRGB { [ /CIEBasedABC
          << /DecodeLMN
               [ { dup 0.03928 le
                        {12.92321 div}
                        {0.055 add 1.055 div 2.4 exp }
                     ifelse
                 } bind dup dup
               ]
             /MatrixLMN [0.412457 0.212673 0.019334
                         0.357576 0.715152 0.119192
                         0.180437 0.072175 0.950301]
             /WhitePoint [0.9505 1.0 1.0890]
           >>
         ] setcolorspace } bind def
/srgb { setcolor } bind def
% begin encoding
/WinAnsiEncoding [
 /.notdef /.notdef /.notdef /.notdef /.notdef /.notdef /.notdef /.notdef
 /.notdef /.notdef /.notdef /.notdef /.notdef /.notdef /.notdef /.notdef
 /.notdef /.notdef /.notdef /.notdef /.notdef /.notdef /.notdef /.notdef
 /.notdef /.notdef /.notdef /.notdef /.notdef /.notdef /.notdef /.notdef
 /space /exclam /quotedbl /numbersign /dollar /percent /ampersand /quoteright
 /parenleft /parenright /asterisk /plus /comma /minus /period /slash
 /zero /one /two /three /four /five /six /seven
 /eight /nine /colon /semicolon /less /equal /greater /question
 /at /A /B /C /D /E /F /G
 /H /I /J /K /L /M /N /O
 /P /Q /R /S /T /U /V /W
 /X /Y /Z /bracketleft /backslash /bracketright /asciicircum /underscore
 /grave /a /b /c /d /e /f /g
 /h /i /j /k /l /m /n /o
 /p /q /r /s /t /u /v /w
 /x /y /z /braceleft /bar /braceright /asciitilde /.notdef
 /Euro /.notdef /quotesinglbase /florin /quotedblbase /ellipsis /dagger /daggerdbl
 /circumflex /perthousand /Scaron /guilsinglleft /OE /.notdef /Zcaron /.notdef
 /.notdef /quoteleft /quoteright /quotedblleft /quotedblright /bullet /endash /emdash
 /tilde /trademark /scaron /guilsinglright /oe /.notdef /zcaron /Ydieresis
 /space /exclamdown /cent /sterling /currency /yen /brokenbar /section
 /dieresis /copyright /ordfeminine /guillemotleft /logicalnot /hyphen /registered /macron
 /degree /plusminus /twosuperior /threesuperior /acute /mu /paragraph /periodcentered
 /cedilla /onesuperior /ordmasculine /guillemotright /onequarter /onehalf /threequarters /questiondown
 /Agrave /Aacute /Acircumflex /Atilde /Adieresis /Aring /AE /Ccedilla
 /Egrave /Eacute /Ecircumflex /Edieresis /Igrave /Iacute /Icircumflex /Idieresis
 /Eth /Ntilde /Ograve /Oacute /Ocircumflex /Otilde /Odieresis /multiply
 /Oslash /Ugrave /Uacute /Ucircumflex /Udieresis /Yacute /Thorn /germandbls
 /agrave /aacute /acircumflex /atilde /adieresis /aring /ae /ccedilla
 /egrave /eacute /ecircumflex /edieresis /igrave /iacute /icircumflex /idieresis
 /eth /ntilde /ograve /oacute /ocircumflex /otilde /odieresis /divide
 /oslash /ugrave /uacute /ucircumflex /udieresis /yacute /thorn /ydieresis
]
 def
% end encoding
%%IncludeResource: font Helvetica
/Helvetica findfont
dup length dict begin
  {1 index /FID ne {def} {pop pop} ifelse} forall
  /Encoding WinAnsiEncoding def
  currentdict
  end
/Font1 exch definefont pop
%%IncludeResource: font Helvetica-Bold
/Helvetica-Bold findfont
dup length dict begin
  {1 index /FID ne {def} {pop pop} ifelse} forall
  /Encoding WinAnsiEncoding def
  currentdict
  end
/Font2 exch definefont pop
%%IncludeResource: font Helvetica-Oblique
/Helvetica-Oblique findfont
dup length dict begin
  {1 index /FID ne {def} {pop pop} ifelse} forall
  /Encoding WinAnsiEncoding def
  currentdict
  end
/Font3 exch definefont pop
%%IncludeResource: font Helvetica-BoldOblique
/Helvetica-BoldOblique findfont
dup length dict begin
  {1 index /FID ne {def} {pop pop} ifelse} forall
  /Encoding WinAnsiEncoding def
  currentdict
  end
/Font4 exch definefont pop
%%IncludeResource: font Symbol
/Symbol findfont
dup length dict begin
  {1 index /FID ne {def} {pop pop} ifelse} forall
  currentdict
  end
/Font5 exch definefont pop
%%EndProlog
%%Page: 1 1
bp
/bg { 1 1 1 srgb } def
0.00 0.00 375.00 562.50 r p2
19.01 501.15 115.50 543.49 cl
0.00 0.00 375.00 562.50 cl
0 0 0 srgb
0.75 setlinewidth
[] 0 setdash
1 setlinecap
1 setlinejoin
10.00 setmiterlimit
np
22.58 501.15 m
89.34 0 l
o
np
22.58 501.15 m
0 -4.75 l
o
np
37.47 501.15 m
0 -4.75 l
o
np
52.36 501.15 m
0 -4.75 l
o
np
67.25 501.15 m
0 -4.75 l
o
np
82.14 501.15 m
0 -4.75 l
o
np
97.03 501.15 m
0 -4.75 l
o
np
111.92 501.15 m
0 -4.75 l
o
/Font1 findfont 11 s
22.58 484.04 (1.0) .5 0 t
52.36 484.04 (2.0) .5 0 t
82.14 484.04 (3.0) .5 0 t
111.92 484.04 (4.0) .5 0 t
np
19.01 505.17 m
0 36.75 l
o
np
19.01 505.17 m
-4.75 0 l
o
np
19.01 511.30 m
-4.75 0 l
o
np
19.01 517.42 m
-4.75 0 l
o
np
19.01 523.55 m
-4.75 0 l
o
np
19.01 529.67 m
-4.75 0 l
o
np
19.01 535.80 m
-4.75 0 l
o
np
19.01 541.92 m
-4.75 0 l
o
7.60 505.17 (1.00) .5 90 t
7.60 535.80 (1.25) .5 90 t
np
19.01 501.15 m
96.49 0 l
0 42.34 l
-96.49 0 l
0 -42.34 l
o
0.00 482.14 125.00 562.50 cl
/Font2 findfont 13 s
0 0 0 srgb
67.25 548.33 (c100bD.vrp) .5 0 t
/Font1 findfont 11 s
67.25 465.04 (1:n) .5 0 t
19.01 501.15 115.50 543.49 cl
0 0 0 srgb
0.75 setlinewidth
[ 2.25 3.75] 0 setdash
1 setlinecap
1 setlinejoin
10.00 setmiterlimit
np
0.00 510.88 m
22.58 0 l
29.78 0 l
29.78 0 l
29.78 0 l
29.78 0 l
o
0.75 setlinewidth
[] 0 setdash
np
0.00 513.25 m
22.58 0 l
29.78 0 l
29.78 0 l
29.78 0 l
29.78 0 l
o
0.4000 0.2000 0.2000 srgb
22.58 508.41 1.78 c p1
1.50 setlinewidth
[] 0 setdash
np
22.58 505.74 m
0 5.33 l
o
np
21.86 505.74 m
1.45 0 l
o
np
21.86 511.07 m
1.45 0 l
o
22.58 505.34 1.78 c p1
0.3020 0.4000 0.2000 srgb
0.75 setlinewidth
[] 0 setdash
np
52.36 514.05 m
2.40 -4.16 l
-4.80 0 l
2.40 4.16 l
o
1.50 setlinewidth
[] 0 setdash
np
52.36 508.62 m
0 5.31 l
o
np
51.64 508.62 m
1.45 0 l
o
np
51.64 513.93 m
1.45 0 l
o
np
52.36 509.33 m
2.40 -4.15 l
-4.80 0 l
2.40 4.15 l
o
0.2000 0.4000 0.4000 srgb
0.75 setlinewidth
[] 0 setdash
np
79.62 508.55 m
5.04 0 l
o
np
82.14 506.03 m
0 5.04 l
o
1.50 setlinewidth
[] 0 setdash
np
82.14 505.05 m
0 7.01 l
o
np
81.42 505.05 m
1.45 0 l
o
np
81.42 512.06 m
1.45 0 l
o
np
79.62 505.34 m
5.04 0 l
o
np
82.14 502.82 m
0 5.04 l
o
0.3020 0.2000 0.4000 srgb
0.75 setlinewidth
[] 0 setdash
np
110.14 514.79 m
3.56 3.56 l
o
np
110.14 518.35 m
3.56 -3.56 l
o
1.50 setlinewidth
[] 0 setdash
np
111.92 508.38 m
0 16.38 l
o
np
111.20 508.38 m
1.45 0 l
o
np
111.20 524.76 m
1.45 0 l
o
np
110.14 503.39 m
3.56 3.56 l
o
np
110.14 506.95 m
3.56 -3.56 l
o
144.01 501.15 240.50 543.49 cl
0.00 0.00 375.00 562.50 cl
0 0 0 srgb
0.75 setlinewidth
[] 0 setdash
1 setlinecap
1 setlinejoin
10.00 setmiterlimit
np
147.58 501.15 m
89.34 0 l
o
np
147.58 501.15 m
0 -4.75 l
o
np
162.47 501.15 m
0 -4.75 l
o
np
177.36 501.15 m
0 -4.75 l
o
np
192.25 501.15 m
0 -4.75 l
o
np
207.14 501.15 m
0 -4.75 l
o
np
222.03 501.15 m
0 -4.75 l
o
np
236.92 501.15 m
0 -4.75 l
o
/Font1 findfont 11 s
147.58 484.04 (1.0) .5 0 t
177.36 484.04 (2.0) .5 0 t
207.14 484.04 (3.0) .5 0 t
236.92 484.04 (4.0) .5 0 t
np
144.01 505.17 m
0 36.75 l
o
np
144.01 505.17 m
-4.75 0 l
o
np
144.01 511.30 m
-4.75 0 l
o
np
144.01 517.42 m
-4.75 0 l
o
np
144.01 523.55 m
-4.75 0 l
o
np
144.01 529.67 m
-4.75 0 l
o
np
144.01 535.80 m
-4.75 0 l
o
np
144.01 541.92 m
-4.75 0 l
o
132.60 505.17 (1.00) .5 90 t
132.60 535.80 (1.25) .5 90 t
np
144.01 501.15 m
96.49 0 l
0 42.34 l
-96.49 0 l
0 -42.34 l
o
125.00 482.14 250.00 562.50 cl
/Font2 findfont 13 s
0 0 0 srgb
192.25 548.33 (c100D.vrp) .5 0 t
/Font1 findfont 11 s
192.25 465.04 (1:n) .5 0 t
113.60 522.32 (1:n) .5 90 t
144.01 501.15 240.50 543.49 cl
0 0 0 srgb
0.75 setlinewidth
[ 2.25 3.75] 0 setdash
1 setlinecap
1 setlinejoin
10.00 setmiterlimit
np
117.80 506.79 m
29.78 0 l
29.78 0 l
29.78 0 l
29.78 0 l
29.78 0 l
o
0.75 setlinewidth
[] 0 setdash
np
117.80 509.30 m
29.78 0 l
29.78 0 l
29.78 0 l
29.78 0 l
29.78 0 l
o
0.4000 0.2000 0.2000 srgb
147.58 518.17 1.78 c p1
1.50 setlinewidth
[] 0 setdash
np
147.58 512.88 m
0 10.58 l
o
np
146.86 512.88 m
1.45 0 l
o
np
146.86 523.46 m
1.45 0 l
o
147.58 507.28 1.78 c p1
0.3020 0.4000 0.2000 srgb
0.75 setlinewidth
[] 0 setdash
np
177.36 511.36 m
2.40 -4.15 l
-4.80 0 l
2.40 4.15 l
o
1.50 setlinewidth
[] 0 setdash
np
177.36 505.70 m
0 5.79 l
o
np
176.64 505.70 m
1.45 0 l
o
np
176.64 511.49 m
1.45 0 l
o
np
177.36 507.94 m
2.40 -4.16 l
-4.80 0 l
2.40 4.16 l
o
0.2000 0.4000 0.4000 srgb
0.75 setlinewidth
[] 0 setdash
np
204.62 532.27 m
5.04 0 l
o
np
207.14 529.74 m
0 5.05 l
o
1.50 setlinewidth
[] 0 setdash
np
207.14 521.88 m
0 20.77 l
o
np
206.42 521.88 m
1.45 0 l
o
np
206.42 542.65 m
1.45 0 l
o
np
204.62 512.34 m
5.04 0 l
o
np
207.14 509.82 m
0 5.04 l
o
0.3020 0.2000 0.4000 srgb
0.75 setlinewidth
[] 0 setdash
np
235.14 513.89 m
3.56 3.56 l
o
np
235.14 517.45 m
3.56 -3.56 l
o
1.50 setlinewidth
[] 0 setdash
np
236.92 511.83 m
0 7.67 l
o
np
236.20 511.83 m
1.45 0 l
o
np
236.20 519.50 m
1.45 0 l
o
np
235.14 506.25 m
3.56 3.56 l
o
np
235.14 509.81 m
3.56 -3.56 l
o
269.01 501.15 365.50 543.49 cl
0.00 0.00 375.00 562.50 cl
0 0 0 srgb
0.75 setlinewidth
[] 0 setdash
1 setlinecap
1 setlinejoin
10.00 setmiterlimit
np
272.58 501.15 m
89.34 0 l
o
np
272.58 501.15 m
0 -4.75 l
o
np
287.47 501.15 m
0 -4.75 l
o
np
302.36 501.15 m
0 -4.75 l
o
np
317.25 501.15 m
0 -4.75 l
o
np
332.14 501.15 m
0 -4.75 l
o
np
347.03 501.15 m
0 -4.75 l
o
np
361.92 501.15 m
0 -4.75 l
o
/Font1 findfont 11 s
272.58 484.04 (1.0) .5 0 t
302.36 484.04 (2.0) .5 0 t
332.14 484.04 (3.0) .5 0 t
361.92 484.04 (4.0) .5 0 t
np
269.01 505.17 m
0 36.75 l
o
np
269.01 505.17 m
-4.75 0 l
o
np
269.01 511.30 m
-4.75 0 l
o
np
269.01 517.42 m
-4.75 0 l
o
np
269.01 523.55 m
-4.75 0 l
o
np
269.01 529.67 m
-4.75 0 l
o
np
269.01 535.80 m
-4.75 0 l
o
np
269.01 541.92 m
-4.75 0 l
o
257.60 505.17 (1.00) .5 90 t
257.60 535.80 (1.25) .5 90 t
np
269.01 501.15 m
96.49 0 l
0 42.34 l
-96.49 0 l
0 -42.34 l
o
250.00 482.14 375.00 562.50 cl
/Font2 findfont 13 s
0 0 0 srgb
317.25 548.33 (c120D.vrp) .5 0 t
/Font1 findfont 11 s
317.25 465.04 (1:n) .5 0 t
238.60 522.32 (1:n) .5 90 t
269.01 501.15 365.50 543.49 cl
0 0 0 srgb
0.75 setlinewidth
[ 2.25 3.75] 0 setdash
1 setlinecap
1 setlinejoin
10.00 setmiterlimit
np
242.80 523.93 m
29.78 0 l
29.78 0 l
29.78 0 l
29.78 0 l
13.08 0 l
o
0.75 setlinewidth
[] 0 setdash
np
242.80 532.28 m
29.78 0 l
29.78 0 l
29.78 0 l
29.78 0 l
13.08 0 l
o
0.4000 0.2000 0.2000 srgb
272.58 516.91 1.78 c p1
1.50 setlinewidth
[] 0 setdash
np
272.58 506.55 m
0 20.71 l
o
np
271.86 506.55 m
1.45 0 l
o
np
271.86 527.26 m
1.45 0 l
o
272.58 507.26 1.78 c p1
0.3020 0.4000 0.2000 srgb
0.75 setlinewidth
[] 0 setdash
np
302.36 519.26 m
2.40 -4.16 l
-4.80 0 l
2.40 4.16 l
o
1.50 setlinewidth
[] 0 setdash
np
302.36 508.73 m
0 15.52 l
o
np
301.64 508.73 m
1.45 0 l
o
np
301.64 524.25 m
1.45 0 l
o
np
302.36 507.94 m
2.40 -4.16 l
-4.80 0 l
2.40 4.16 l
o
0.2000 0.4000 0.4000 srgb
0.75 setlinewidth
[] 0 setdash
np
329.62 522.65 m
5.04 0 l
o
np
332.14 520.13 m
0 5.04 l
o
1.50 setlinewidth
[] 0 setdash
np
332.14 510.32 m
0 24.66 l
o
np
331.42 510.32 m
1.45 0 l
o
np
331.42 534.98 m
1.45 0 l
o
np
329.62 508.18 m
5.04 0 l
o
np
332.14 505.65 m
0 5.05 l
o
0.3020 0.2000 0.4000 srgb
0.75 setlinewidth
[] 0 setdash
np
360.14 518.34 m
3.56 3.56 l
o
np
360.14 521.90 m
3.56 -3.56 l
o
1.50 setlinewidth
[] 0 setdash
np
361.92 512.78 m
0 14.68 l
o
np
361.20 512.78 m
1.45 0 l
o
np
361.20 527.46 m
1.45 0 l
o
np
360.14 505.83 m
3.56 3.57 l
o
np
360.14 509.40 m
3.56 -3.57 l
o
19.01 420.79 115.50 463.13 cl
0.00 0.00 375.00 562.50 cl
0 0 0 srgb
0.75 setlinewidth
[] 0 setdash
1 setlinecap
1 setlinejoin
10.00 setmiterlimit
np
22.58 420.79 m
89.34 0 l
o
np
22.58 420.79 m
0 -4.75 l
o
np
37.47 420.79 m
0 -4.75 l
o
np
52.36 420.79 m
0 -4.75 l
o
np
67.25 420.79 m
0 -4.75 l
o
np
82.14 420.79 m
0 -4.75 l
o
np
97.03 420.79 m
0 -4.75 l
o
np
111.92 420.79 m
0 -4.75 l
o
/Font1 findfont 11 s
22.58 403.69 (1.0) .5 0 t
52.36 403.69 (2.0) .5 0 t
82.14 403.69 (3.0) .5 0 t
111.92 403.69 (4.0) .5 0 t
np
19.01 424.81 m
0 36.76 l
o
np
19.01 424.81 m
-4.75 0 l
o
np
19.01 430.94 m
-4.75 0 l
o
np
19.01 437.06 m
-4.75 0 l
o
np
19.01 443.19 m
-4.75 0 l
o
np
19.01 449.32 m
-4.75 0 l
o
np
19.01 455.44 m
-4.75 0 l
o
np
19.01 461.57 m
-4.75 0 l
o
7.60 424.81 (1.00) .5 90 t
7.60 455.44 (1.25) .5 90 t
np
19.01 420.79 m
96.49 0 l
0 42.34 l
-96.49 0 l
0 -42.34 l
o
0.00 401.79 125.00 482.14 cl
/Font2 findfont 13 s
0 0 0 srgb
67.25 467.97 (c150D.vrp) .5 0 t
/Font1 findfont 11 s
67.25 384.68 (1:n) .5 0 t
19.01 420.79 115.50 463.13 cl
0 0 0 srgb
0.75 setlinewidth
[ 2.25 3.75] 0 setdash
1 setlinecap
1 setlinejoin
10.00 setmiterlimit
np
0.00 445.87 m
22.58 0 l
29.78 0 l
29.78 0 l
29.78 0 l
29.78 0 l
o
0.75 setlinewidth
[] 0 setdash
np
0.00 452.19 m
22.58 0 l
29.78 0 l
29.78 0 l
29.78 0 l
29.78 0 l
o
0.4000 0.2000 0.2000 srgb
22.58 439.30 1.78 c p1
1.50 setlinewidth
[] 0 setdash
np
22.58 434.70 m
0 9.19 l
o
np
21.86 434.70 m
1.45 0 l
o
np
21.86 443.89 m
1.45 0 l
o
22.58 431.83 1.78 c p1
0.3020 0.4000 0.2000 srgb
0.75 setlinewidth
[] 0 setdash
np
52.36 435.69 m
2.40 -4.15 l
-4.80 0 l
2.40 4.15 l
o
1.50 setlinewidth
[] 0 setdash
np
52.36 429.86 m
0 6.12 l
o
np
51.64 429.86 m
1.45 0 l
o
np
51.64 435.98 m
1.45 0 l
o
np
52.36 431.21 m
2.40 -4.15 l
-4.80 0 l
2.40 4.15 l
o
0.2000 0.4000 0.4000 srgb
0.75 setlinewidth
[] 0 setdash
np
79.62 449.89 m
5.04 0 l
o
np
82.14 447.37 m
0 5.04 l
o
1.50 setlinewidth
[] 0 setdash
np
82.14 442.97 m
0 13.85 l
o
np
81.42 442.97 m
1.45 0 l
o
np
81.42 456.82 m
1.45 0 l
o
np
79.62 431.91 m
5.04 0 l
o
np
82.14 429.39 m
0 5.04 l
o
0.3020 0.2000 0.4000 srgb
0.75 setlinewidth
[] 0 setdash
np
110.14 435.42 m
3.56 3.57 l
o
np
110.14 438.99 m
3.56 -3.57 l
o
1.50 setlinewidth
[] 0 setdash
np
111.92 430.23 m
0 13.95 l
o
np
111.20 430.23 m
1.45 0 l
o
np
111.20 444.18 m
1.45 0 l
o
np
110.14 423.03 m
3.56 3.56 l
o
np
110.14 426.59 m
3.56 -3.56 l
o
144.01 420.79 240.50 463.13 cl
0.00 0.00 375.00 562.50 cl
0 0 0 srgb
0.75 setlinewidth
[] 0 setdash
1 setlinecap
1 setlinejoin
10.00 setmiterlimit
np
147.58 420.79 m
89.34 0 l
o
np
147.58 420.79 m
0 -4.75 l
o
np
162.47 420.79 m
0 -4.75 l
o
np
177.36 420.79 m
0 -4.75 l
o
np
192.25 420.79 m
0 -4.75 l
o
np
207.14 420.79 m
0 -4.75 l
o
np
222.03 420.79 m
0 -4.75 l
o
np
236.92 420.79 m
0 -4.75 l
o
/Font1 findfont 11 s
147.58 403.69 (1.0) .5 0 t
177.36 403.69 (2.0) .5 0 t
207.14 403.69 (3.0) .5 0 t
236.92 403.69 (4.0) .5 0 t
np
144.01 424.81 m
0 36.76 l
o
np
144.01 424.81 m
-4.75 0 l
o
np
144.01 430.94 m
-4.75 0 l
o
np
144.01 437.06 m
-4.75 0 l
o
np
144.01 443.19 m
-4.75 0 l
o
np
144.01 449.32 m
-4.75 0 l
o
np
144.01 455.44 m
-4.75 0 l
o
np
144.01 461.57 m
-4.75 0 l
o
132.60 424.81 (1.00) .5 90 t
132.60 455.44 (1.25) .5 90 t
np
144.01 420.79 m
96.49 0 l
0 42.34 l
-96.49 0 l
0 -42.34 l
o
125.00 401.79 250.00 482.14 cl
/Font2 findfont 13 s
0 0 0 srgb
192.25 467.97 (c199D.vrp) .5 0 t
/Font1 findfont 11 s
192.25 384.68 (1:n) .5 0 t
113.60 441.96 (1:n) .5 90 t
144.01 420.79 240.50 463.13 cl
0 0 0 srgb
0.75 setlinewidth
[ 2.25 3.75] 0 setdash
1 setlinecap
1 setlinejoin
10.00 setmiterlimit
np
117.80 442.26 m
29.78 0 l
29.78 0 l
29.78 0 l
29.78 0 l
29.78 0 l
o
0.75 setlinewidth
[] 0 setdash
np
117.80 446.68 m
29.78 0 l
29.78 0 l
29.78 0 l
29.78 0 l
29.78 0 l
o
0.4000 0.2000 0.2000 srgb
147.58 430.18 1.78 c p1
1.50 setlinewidth
[] 0 setdash
np
147.58 428.00 m
0 4.37 l
o
np
146.86 428.00 m
1.45 0 l
o
np
146.86 432.37 m
1.45 0 l
o
147.58 425.84 1.78 c p1
0.3020 0.4000 0.2000 srgb
0.75 setlinewidth
[] 0 setdash
np
177.36 432.16 m
2.40 -4.16 l
-4.80 0 l
2.40 4.16 l
o
1.50 setlinewidth
[] 0 setdash
np
177.36 425.13 m
0 8.52 l
o
np
176.64 425.13 m
1.45 0 l
o
np
176.64 433.65 m
1.45 0 l
o
np
177.36 427.58 m
2.40 -4.15 l
-4.80 0 l
2.40 4.15 l
o
0.2000 0.4000 0.4000 srgb
0.75 setlinewidth
[] 0 setdash
np
204.62 440.77 m
5.04 0 l
o
np
207.14 438.25 m
0 5.04 l
o
1.50 setlinewidth
[] 0 setdash
np
207.14 434.53 m
0 12.49 l
o
np
206.42 434.53 m
1.45 0 l
o
np
206.42 447.02 m
1.45 0 l
o
np
204.62 429.19 m
5.04 0 l
o
np
207.14 426.67 m
0 5.04 l
o
0.3020 0.2000 0.4000 srgb
0.75 setlinewidth
[] 0 setdash
np
235.14 432.37 m
3.56 3.56 l
o
np
235.14 435.93 m
3.56 -3.56 l
o
1.50 setlinewidth
[] 0 setdash
np
236.92 426.26 m
0 15.78 l
o
np
236.20 426.26 m
1.45 0 l
o
np
236.20 442.04 m
1.45 0 l
o
np
235.14 424.64 m
3.56 3.56 l
o
np
235.14 428.20 m
3.56 -3.56 l
o
269.01 420.79 365.50 463.13 cl
0.00 0.00 375.00 562.50 cl
0 0 0 srgb
0.75 setlinewidth
[] 0 setdash
1 setlinecap
1 setlinejoin
10.00 setmiterlimit
np
272.58 420.79 m
89.34 0 l
o
np
272.58 420.79 m
0 -4.75 l
o
np
287.47 420.79 m
0 -4.75 l
o
np
302.36 420.79 m
0 -4.75 l
o
np
317.25 420.79 m
0 -4.75 l
o
np
332.14 420.79 m
0 -4.75 l
o
np
347.03 420.79 m
0 -4.75 l
o
np
361.92 420.79 m
0 -4.75 l
o
/Font1 findfont 11 s
272.58 403.69 (1.0) .5 0 t
302.36 403.69 (2.0) .5 0 t
332.14 403.69 (3.0) .5 0 t
361.92 403.69 (4.0) .5 0 t
np
269.01 424.81 m
0 36.76 l
o
np
269.01 424.81 m
-4.75 0 l
o
np
269.01 430.94 m
-4.75 0 l
o
np
269.01 437.06 m
-4.75 0 l
o
np
269.01 443.19 m
-4.75 0 l
o
np
269.01 449.32 m
-4.75 0 l
o
np
269.01 455.44 m
-4.75 0 l
o
np
269.01 461.57 m
-4.75 0 l
o
257.60 424.81 (1.00) .5 90 t
257.60 455.44 (1.25) .5 90 t
np
269.01 420.79 m
96.49 0 l
0 42.34 l
-96.49 0 l
0 -42.34 l
o
250.00 401.79 375.00 482.14 cl
/Font2 findfont 13 s
0 0 0 srgb
317.25 467.97 (c50D.vrp) .5 0 t
/Font1 findfont 11 s
317.25 384.68 (1:n) .5 0 t
238.60 441.96 (1:n) .5 90 t
269.01 420.79 365.50 463.13 cl
0 0 0 srgb
0.75 setlinewidth
[ 2.25 3.75] 0 setdash
1 setlinecap
1 setlinejoin
10.00 setmiterlimit
np
242.80 422.39 m
29.78 0 l
29.78 0 l
29.78 0 l
29.78 0 l
13.08 0 l
o
0.75 setlinewidth
[] 0 setdash
np
242.80 430.65 m
29.78 0 l
29.78 0 l
29.78 0 l
29.78 0 l
13.08 0 l
o
0.4000 0.2000 0.2000 srgb
272.58 434.00 1.78 c p1
1.50 setlinewidth
[] 0 setdash
np
272.58 427.35 m
0 13.29 l
o
np
271.86 427.35 m
1.45 0 l
o
np
271.86 440.64 m
1.45 0 l
o
272.58 426.15 1.78 c p1
0.3020 0.4000 0.2000 srgb
0.75 setlinewidth
[] 0 setdash
np
302.36 432.97 m
2.40 -4.16 l
-4.80 0 l
2.40 4.16 l
o
1.50 setlinewidth
[] 0 setdash
np
302.36 427.68 m
0 5.03 l
o
np
301.64 427.68 m
1.45 0 l
o
np
301.64 432.71 m
1.45 0 l
o
np
302.36 430.66 m
2.40 -4.15 l
-4.80 0 l
2.40 4.15 l
o
0.2000 0.4000 0.4000 srgb
0.75 setlinewidth
[] 0 setdash
np
329.62 444.20 m
5.04 0 l
o
np
332.14 441.68 m
0 5.04 l
o
1.50 setlinewidth
[] 0 setdash
np
332.14 435.67 m
0 17.07 l
o
np
331.42 435.67 m
1.45 0 l
o
np
331.42 452.74 m
1.45 0 l
o
np
329.62 424.81 m
5.04 0 l
o
np
332.14 422.29 m
0 5.04 l
o
0.3020 0.2000 0.4000 srgb
0.75 setlinewidth
[] 0 setdash
np
360.14 430.39 m
3.56 3.57 l
o
np
360.14 433.96 m
3.56 -3.57 l
o
1.50 setlinewidth
[] 0 setdash
np
361.92 427.45 m
0 9.45 l
o
np
361.20 427.45 m
1.45 0 l
o
np
361.20 436.90 m
1.45 0 l
o
np
360.14 425.15 m
3.56 3.57 l
o
np
360.14 428.72 m
3.56 -3.57 l
o
19.01 340.44 115.50 382.78 cl
0.00 0.00 375.00 562.50 cl
0 0 0 srgb
0.75 setlinewidth
[] 0 setdash
1 setlinecap
1 setlinejoin
10.00 setmiterlimit
np
22.58 340.44 m
89.34 0 l
o
np
22.58 340.44 m
0 -4.76 l
o
np
37.47 340.44 m
0 -4.76 l
o
np
52.36 340.44 m
0 -4.76 l
o
np
67.25 340.44 m
0 -4.76 l
o
np
82.14 340.44 m
0 -4.76 l
o
np
97.03 340.44 m
0 -4.76 l
o
np
111.92 340.44 m
0 -4.76 l
o
/Font1 findfont 11 s
22.58 323.33 (1.0) .5 0 t
52.36 323.33 (2.0) .5 0 t
82.14 323.33 (3.0) .5 0 t
111.92 323.33 (4.0) .5 0 t
np
19.01 344.46 m
0 36.75 l
o
np
19.01 344.46 m
-4.75 0 l
o
np
19.01 350.58 m
-4.75 0 l
o
np
19.01 356.71 m
-4.75 0 l
o
np
19.01 362.83 m
-4.75 0 l
o
np
19.01 368.96 m
-4.75 0 l
o
np
19.01 375.08 m
-4.75 0 l
o
np
19.01 381.21 m
-4.75 0 l
o
7.60 344.46 (1.00) .5 90 t
7.60 375.08 (1.25) .5 90 t
np
19.01 340.44 m
96.49 0 l
0 42.34 l
-96.49 0 l
0 -42.34 l
o
0.00 321.43 125.00 401.79 cl
/Font2 findfont 13 s
0 0 0 srgb
67.25 387.61 (c75D.vrp) .5 0 t
/Font1 findfont 11 s
67.25 304.32 (1:n) .5 0 t
19.01 340.44 115.50 382.78 cl
0 0 0 srgb
0.75 setlinewidth
[ 2.25 3.75] 0 setdash
1 setlinecap
1 setlinejoin
10.00 setmiterlimit
np
0.00 347.44 m
22.58 0 l
29.78 0 l
29.78 0 l
29.78 0 l
29.78 0 l
o
0.75 setlinewidth
[] 0 setdash
np
0.00 352.01 m
22.58 0 l
29.78 0 l
29.78 0 l
29.78 0 l
29.78 0 l
o
0.4000 0.2000 0.2000 srgb
22.58 355.12 1.78 c p1
1.50 setlinewidth
[] 0 setdash
np
22.58 350.96 m
0 8.31 l
o
np
21.86 350.96 m
1.45 0 l
o
np
21.86 359.27 m
1.45 0 l
o
22.58 348.22 1.78 c p1
0.3020 0.4000 0.2000 srgb
0.75 setlinewidth
[] 0 setdash
np
52.36 351.60 m
2.40 -4.16 l
-4.80 0 l
2.40 4.16 l
o
1.50 setlinewidth
[] 0 setdash
np
52.36 345.48 m
0 6.69 l
o
np
51.64 345.48 m
1.45 0 l
o
np
51.64 352.17 m
1.45 0 l
o
np
52.36 347.23 m
2.40 -4.16 l
-4.80 0 l
2.40 4.16 l
o
0.2000 0.4000 0.4000 srgb
0.75 setlinewidth
[] 0 setdash
np
79.62 358.70 m
5.04 0 l
o
np
82.14 356.18 m
0 5.04 l
o
1.50 setlinewidth
[] 0 setdash
np
82.14 351.77 m
0 13.85 l
o
np
81.42 351.77 m
1.45 0 l
o
np
81.42 365.62 m
1.45 0 l
o
np
79.62 344.83 m
5.04 0 l
o
np
82.14 342.31 m
0 5.04 l
o
0.3020 0.2000 0.4000 srgb
0.75 setlinewidth
[] 0 setdash
np
110.14 348.31 m
3.56 3.57 l
o
np
110.14 351.88 m
3.56 -3.57 l
o
1.50 setlinewidth
[] 0 setdash
np
111.92 347.30 m
0 5.59 l
o
np
111.20 347.30 m
1.45 0 l
o
np
111.20 352.89 m
1.45 0 l
o
np
110.14 345.31 m
3.56 3.57 l
o
np
110.14 348.88 m
3.56 -3.57 l
o
144.01 340.44 240.50 382.78 cl
0.00 0.00 375.00 562.50 cl
0 0 0 srgb
0.75 setlinewidth
[] 0 setdash
1 setlinecap
1 setlinejoin
10.00 setmiterlimit
np
147.58 340.44 m
89.34 0 l
o
np
147.58 340.44 m
0 -4.76 l
o
np
162.47 340.44 m
0 -4.76 l
o
np
177.36 340.44 m
0 -4.76 l
o
np
192.25 340.44 m
0 -4.76 l
o
np
207.14 340.44 m
0 -4.76 l
o
np
222.03 340.44 m
0 -4.76 l
o
np
236.92 340.44 m
0 -4.76 l
o
/Font1 findfont 11 s
147.58 323.33 (1.0) .5 0 t
177.36 323.33 (2.0) .5 0 t
207.14 323.33 (3.0) .5 0 t
236.92 323.33 (4.0) .5 0 t
np
144.01 344.46 m
0 36.75 l
o
np
144.01 344.46 m
-4.75 0 l
o
np
144.01 350.58 m
-4.75 0 l
o
np
144.01 356.71 m
-4.75 0 l
o
np
144.01 362.83 m
-4.75 0 l
o
np
144.01 368.96 m
-4.75 0 l
o
np
144.01 375.08 m
-4.75 0 l
o
np
144.01 381.21 m
-4.75 0 l
o
132.60 344.46 (1.00) .5 90 t
132.60 375.08 (1.25) .5 90 t
np
144.01 340.44 m
96.49 0 l
0 42.34 l
-96.49 0 l
0 -42.34 l
o
125.00 321.43 250.00 401.79 cl
/Font2 findfont 13 s
0 0 0 srgb
192.25 387.61 (f134D.vrp) .5 0 t
/Font1 findfont 11 s
192.25 304.32 (1:n) .5 0 t
113.60 361.61 (1:n) .5 90 t
144.01 340.44 240.50 382.78 cl
0 0 0 srgb
0.75 setlinewidth
[ 2.25 3.75] 0 setdash
1 setlinecap
1 setlinejoin
10.00 setmiterlimit
np
117.80 376.47 m
29.78 0 l
29.78 0 l
29.78 0 l
29.78 0 l
29.78 0 l
o
0.75 setlinewidth
[] 0 setdash
np
117.80 387.10 m
29.78 0 l
29.78 0 l
29.78 0 l
29.78 0 l
29.78 0 l
o
0.4000 0.2000 0.2000 srgb
147.58 350.33 1.78 c p1
1.50 setlinewidth
[] 0 setdash
np
147.58 348.17 m
0 4.32 l
o
np
146.86 348.17 m
1.45 0 l
o
np
146.86 352.49 m
1.45 0 l
o
147.58 347.44 1.78 c p1
0.3020 0.4000 0.2000 srgb
0.75 setlinewidth
[] 0 setdash
np
177.36 351.67 m
2.40 -4.16 l
-4.80 0 l
2.40 4.16 l
o
1.50 setlinewidth
[] 0 setdash
np
177.36 345.85 m
0 6.10 l
o
np
176.64 345.85 m
1.45 0 l
o
np
176.64 351.95 m
1.45 0 l
o
np
177.36 347.23 m
2.40 -4.16 l
-4.80 0 l
2.40 4.16 l
o
0.2000 0.4000 0.4000 srgb
0.75 setlinewidth
[] 0 setdash
np
204.62 359.55 m
5.04 0 l
o
np
207.14 357.03 m
0 5.04 l
o
1.50 setlinewidth
[] 0 setdash
np
207.14 356.29 m
0 6.52 l
o
np
206.42 356.29 m
1.45 0 l
o
np
206.42 362.81 m
1.45 0 l
o
np
204.62 352.63 m
5.04 0 l
o
np
207.14 350.11 m
0 5.04 l
o
0.3020 0.2000 0.4000 srgb
0.75 setlinewidth
[] 0 setdash
np
235.14 355.15 m
3.56 3.57 l
o
np
235.14 358.72 m
3.56 -3.57 l
o
1.50 setlinewidth
[] 0 setdash
np
236.92 351.46 m
0 10.95 l
o
np
236.20 351.46 m
1.45 0 l
o
np
236.20 362.41 m
1.45 0 l
o
np
235.14 346.51 m
3.56 3.57 l
o
np
235.14 350.08 m
3.56 -3.57 l
o
269.01 340.44 365.50 382.78 cl
0.00 0.00 375.00 562.50 cl
0 0 0 srgb
0.75 setlinewidth
[] 0 setdash
1 setlinecap
1 setlinejoin
10.00 setmiterlimit
np
272.58 340.44 m
89.34 0 l
o
np
272.58 340.44 m
0 -4.76 l
o
np
287.47 340.44 m
0 -4.76 l
o
np
302.36 340.44 m
0 -4.76 l
o
np
317.25 340.44 m
0 -4.76 l
o
np
332.14 340.44 m
0 -4.76 l
o
np
347.03 340.44 m
0 -4.76 l
o
np
361.92 340.44 m
0 -4.76 l
o
/Font1 findfont 11 s
272.58 323.33 (1.0) .5 0 t
302.36 323.33 (2.0) .5 0 t
332.14 323.33 (3.0) .5 0 t
361.92 323.33 (4.0) .5 0 t
np
269.01 344.46 m
0 36.75 l
o
np
269.01 344.46 m
-4.75 0 l
o
np
269.01 350.58 m
-4.75 0 l
o
np
269.01 356.71 m
-4.75 0 l
o
np
269.01 362.83 m
-4.75 0 l
o
np
269.01 368.96 m
-4.75 0 l
o
np
269.01 375.08 m
-4.75 0 l
o
np
269.01 381.21 m
-4.75 0 l
o
257.60 344.46 (1.00) .5 90 t
257.60 375.08 (1.25) .5 90 t
np
269.01 340.44 m
96.49 0 l
0 42.34 l
-96.49 0 l
0 -42.34 l
o
250.00 321.43 375.00 401.79 cl
/Font2 findfont 13 s
0 0 0 srgb
317.25 387.61 (f71D.vrp) .5 0 t
/Font1 findfont 11 s
317.25 304.32 (1:n) .5 0 t
238.60 361.61 (1:n) .5 90 t
269.01 340.44 365.50 382.78 cl
0 0 0 srgb
0.75 setlinewidth
[ 2.25 3.75] 0 setdash
1 setlinecap
1 setlinejoin
10.00 setmiterlimit
np
242.80 343.06 m
29.78 0 l
29.78 0 l
29.78 0 l
29.78 0 l
13.08 0 l
o
0.75 setlinewidth
[] 0 setdash
np
242.80 346.95 m
29.78 0 l
29.78 0 l
29.78 0 l
29.78 0 l
13.08 0 l
o
0.4000 0.2000 0.2000 srgb
272.58 355.54 1.78 c p1
1.50 setlinewidth
[] 0 setdash
np
272.58 347.51 m
0 16.07 l
o
np
271.86 347.51 m
1.45 0 l
o
np
271.86 363.58 m
1.45 0 l
o
272.58 345.41 1.78 c p1
0.3020 0.4000 0.2000 srgb
0.75 setlinewidth
[] 0 setdash
np
302.36 353.34 m
2.40 -4.16 l
-4.80 0 l
2.40 4.16 l
o
1.50 setlinewidth
[] 0 setdash
np
302.36 345.24 m
0 10.66 l
o
np
301.64 345.24 m
1.45 0 l
o
np
301.64 355.90 m
1.45 0 l
o
np
302.36 347.38 m
2.40 -4.15 l
-4.80 0 l
2.40 4.15 l
o
0.2000 0.4000 0.4000 srgb
0.75 setlinewidth
[] 0 setdash
np
329.62 372.23 m
5.04 0 l
o
np
332.14 369.71 m
0 5.04 l
o
1.50 setlinewidth
[] 0 setdash
np
332.14 362.24 m
0 19.97 l
o
np
331.42 362.24 m
1.45 0 l
o
np
331.42 382.21 m
1.45 0 l
o
np
329.62 354.64 m
5.04 0 l
o
np
332.14 352.12 m
0 5.04 l
o
0.3020 0.2000 0.4000 srgb
0.75 setlinewidth
[] 0 setdash
np
360.14 355.10 m
3.56 3.57 l
o
np
360.14 358.67 m
3.56 -3.57 l
o
1.50 setlinewidth
[] 0 setdash
np
361.92 348.01 m
0 17.75 l
o
np
361.20 348.01 m
1.45 0 l
o
np
361.20 365.76 m
1.45 0 l
o
np
360.14 342.67 m
3.56 3.57 l
o
np
360.14 346.24 m
3.56 -3.57 l
o
19.01 260.08 115.50 302.42 cl
0.00 0.00 375.00 562.50 cl
0 0 0 srgb
0.75 setlinewidth
[] 0 setdash
1 setlinecap
1 setlinejoin
10.00 setmiterlimit
np
22.58 260.08 m
89.34 0 l
o
np
22.58 260.08 m
0 -4.75 l
o
np
37.47 260.08 m
0 -4.75 l
o
np
52.36 260.08 m
0 -4.75 l
o
np
67.25 260.08 m
0 -4.75 l
o
np
82.14 260.08 m
0 -4.75 l
o
np
97.03 260.08 m
0 -4.75 l
o
np
111.92 260.08 m
0 -4.75 l
o
/Font1 findfont 11 s
22.58 242.97 (1.0) .5 0 t
52.36 242.97 (2.0) .5 0 t
82.14 242.97 (3.0) .5 0 t
111.92 242.97 (4.0) .5 0 t
np
19.01 264.10 m
0 36.75 l
o
np
19.01 264.10 m
-4.75 0 l
o
np
19.01 270.22 m
-4.75 0 l
o
np
19.01 276.35 m
-4.75 0 l
o
np
19.01 282.48 m
-4.75 0 l
o
np
19.01 288.60 m
-4.75 0 l
o
np
19.01 294.73 m
-4.75 0 l
o
np
19.01 300.85 m
-4.75 0 l
o
7.60 264.10 (1.00) .5 90 t
7.60 294.73 (1.25) .5 90 t
np
19.01 260.08 m
96.49 0 l
0 42.34 l
-96.49 0 l
0 -42.34 l
o
0.00 241.07 125.00 321.43 cl
/Font2 findfont 13 s
0 0 0 srgb
67.25 307.26 (tai100aD.vrp) .5 0 t
/Font1 findfont 11 s
67.25 223.96 (1:n) .5 0 t
19.01 260.08 115.50 302.42 cl
0 0 0 srgb
0.75 setlinewidth
[ 2.25 3.75] 0 setdash
1 setlinecap
1 setlinejoin
10.00 setmiterlimit
np
0.00 263.03 m
22.58 0 l
29.78 0 l
29.78 0 l
29.78 0 l
29.78 0 l
o
0.75 setlinewidth
[] 0 setdash
np
0.00 265.02 m
22.58 0 l
29.78 0 l
29.78 0 l
29.78 0 l
29.78 0 l
o
0.4000 0.2000 0.2000 srgb
22.58 274.31 1.78 c p1
1.50 setlinewidth
[] 0 setdash
np
22.58 268.03 m
0 12.56 l
o
np
21.86 268.03 m
1.45 0 l
o
np
21.86 280.59 m
1.45 0 l
o
22.58 264.10 1.78 c p1
0.3020 0.4000 0.2000 srgb
0.75 setlinewidth
[] 0 setdash
np
52.36 270.48 m
2.40 -4.16 l
-4.80 0 l
2.40 4.16 l
o
1.50 setlinewidth
[] 0 setdash
np
52.36 265.73 m
0 3.95 l
o
np
51.64 265.73 m
1.45 0 l
o
np
51.64 269.68 m
1.45 0 l
o
np
52.36 267.91 m
2.40 -4.15 l
-4.80 0 l
2.40 4.15 l
o
0.2000 0.4000 0.4000 srgb
0.75 setlinewidth
[] 0 setdash
np
79.62 292.50 m
5.04 0 l
o
np
82.14 289.98 m
0 5.04 l
o
1.50 setlinewidth
[] 0 setdash
np
82.14 281.20 m
0 22.60 l
o
np
81.42 281.20 m
1.45 0 l
o
np
81.42 303.80 m
1.45 0 l
o
np
79.62 270.77 m
5.04 0 l
o
np
82.14 268.25 m
0 5.04 l
o
0.3020 0.2000 0.4000 srgb
0.75 setlinewidth
[] 0 setdash
np
110.14 270.94 m
3.56 3.57 l
o
np
110.14 274.51 m
3.56 -3.57 l
o
1.50 setlinewidth
[] 0 setdash
np
111.92 268.19 m
0 9.07 l
o
np
111.20 268.19 m
1.45 0 l
o
np
111.20 277.26 m
1.45 0 l
o
np
110.14 266.68 m
3.56 3.56 l
o
np
110.14 270.24 m
3.56 -3.56 l
o
144.01 260.08 240.50 302.42 cl
0.00 0.00 375.00 562.50 cl
0 0 0 srgb
0.75 setlinewidth
[] 0 setdash
1 setlinecap
1 setlinejoin
10.00 setmiterlimit
np
147.58 260.08 m
89.34 0 l
o
np
147.58 260.08 m
0 -4.75 l
o
np
162.47 260.08 m
0 -4.75 l
o
np
177.36 260.08 m
0 -4.75 l
o
np
192.25 260.08 m
0 -4.75 l
o
np
207.14 260.08 m
0 -4.75 l
o
np
222.03 260.08 m
0 -4.75 l
o
np
236.92 260.08 m
0 -4.75 l
o
/Font1 findfont 11 s
147.58 242.97 (1.0) .5 0 t
177.36 242.97 (2.0) .5 0 t
207.14 242.97 (3.0) .5 0 t
236.92 242.97 (4.0) .5 0 t
np
144.01 264.10 m
0 36.75 l
o
np
144.01 264.10 m
-4.75 0 l
o
np
144.01 270.22 m
-4.75 0 l
o
np
144.01 276.35 m
-4.75 0 l
o
np
144.01 282.48 m
-4.75 0 l
o
np
144.01 288.60 m
-4.75 0 l
o
np
144.01 294.73 m
-4.75 0 l
o
np
144.01 300.85 m
-4.75 0 l
o
132.60 264.10 (1.00) .5 90 t
132.60 294.73 (1.25) .5 90 t
np
144.01 260.08 m
96.49 0 l
0 42.34 l
-96.49 0 l
0 -42.34 l
o
125.00 241.07 250.00 321.43 cl
/Font2 findfont 13 s
0 0 0 srgb
192.25 307.26 (tai100bD.vrp) .5 0 t
/Font1 findfont 11 s
192.25 223.96 (1:n) .5 0 t
113.60 281.25 (1:n) .5 90 t
144.01 260.08 240.50 302.42 cl
0 0 0 srgb
0.75 setlinewidth
[ 2.25 3.75] 0 setdash
1 setlinecap
1 setlinejoin
10.00 setmiterlimit
np
117.80 269.79 m
29.78 0 l
29.78 0 l
29.78 0 l
29.78 0 l
29.78 0 l
o
0.75 setlinewidth
[] 0 setdash
np
117.80 274.47 m
29.78 0 l
29.78 0 l
29.78 0 l
29.78 0 l
29.78 0 l
o
0.4000 0.2000 0.2000 srgb
147.58 277.37 1.78 c p1
1.50 setlinewidth
[] 0 setdash
np
147.58 271.24 m
0 12.26 l
o
np
146.86 271.24 m
1.45 0 l
o
np
146.86 283.50 m
1.45 0 l
o
147.58 269.42 1.78 c p1
0.3020 0.4000 0.2000 srgb
0.75 setlinewidth
[] 0 setdash
np
177.36 272.66 m
2.40 -4.16 l
-4.80 0 l
2.40 4.16 l
o
1.50 setlinewidth
[] 0 setdash
np
177.36 266.42 m
0 6.93 l
o
np
176.64 266.42 m
1.45 0 l
o
np
176.64 273.35 m
1.45 0 l
o
np
177.36 266.87 m
2.40 -4.16 l
-4.80 0 l
2.40 4.16 l
o
0.2000 0.4000 0.4000 srgb
0.75 setlinewidth
[] 0 setdash
np
204.62 291.96 m
5.04 0 l
o
np
207.14 289.44 m
0 5.04 l
o
1.50 setlinewidth
[] 0 setdash
np
207.14 281.91 m
0 20.10 l
o
np
206.42 281.91 m
1.45 0 l
o
np
206.42 302.01 m
1.45 0 l
o
np
204.62 272.63 m
5.04 0 l
o
np
207.14 270.11 m
0 5.04 l
o
0.3020 0.2000 0.4000 srgb
0.75 setlinewidth
[] 0 setdash
np
235.14 273.20 m
3.56 3.57 l
o
np
235.14 276.77 m
3.56 -3.57 l
o
1.50 setlinewidth
[] 0 setdash
np
236.92 272.19 m
0 5.59 l
o
np
236.20 272.19 m
1.45 0 l
o
np
236.20 277.78 m
1.45 0 l
o
np
235.14 270.40 m
3.56 3.56 l
o
np
235.14 273.96 m
3.56 -3.56 l
o
269.01 260.08 365.50 302.42 cl
0.00 0.00 375.00 562.50 cl
0 0 0 srgb
0.75 setlinewidth
[] 0 setdash
1 setlinecap
1 setlinejoin
10.00 setmiterlimit
np
272.58 260.08 m
89.34 0 l
o
np
272.58 260.08 m
0 -4.75 l
o
np
287.47 260.08 m
0 -4.75 l
o
np
302.36 260.08 m
0 -4.75 l
o
np
317.25 260.08 m
0 -4.75 l
o
np
332.14 260.08 m
0 -4.75 l
o
np
347.03 260.08 m
0 -4.75 l
o
np
361.92 260.08 m
0 -4.75 l
o
/Font1 findfont 11 s
272.58 242.97 (1.0) .5 0 t
302.36 242.97 (2.0) .5 0 t
332.14 242.97 (3.0) .5 0 t
361.92 242.97 (4.0) .5 0 t
np
269.01 264.10 m
0 36.75 l
o
np
269.01 264.10 m
-4.75 0 l
o
np
269.01 270.22 m
-4.75 0 l
o
np
269.01 276.35 m
-4.75 0 l
o
np
269.01 282.48 m
-4.75 0 l
o
np
269.01 288.60 m
-4.75 0 l
o
np
269.01 294.73 m
-4.75 0 l
o
np
269.01 300.85 m
-4.75 0 l
o
257.60 264.10 (1.00) .5 90 t
257.60 294.73 (1.25) .5 90 t
np
269.01 260.08 m
96.49 0 l
0 42.34 l
-96.49 0 l
0 -42.34 l
o
250.00 241.07 375.00 321.43 cl
/Font2 findfont 13 s
0 0 0 srgb
317.25 307.26 (tai100cD.vrp) .5 0 t
/Font1 findfont 11 s
317.25 223.96 (1:n) .5 0 t
238.60 281.25 (1:n) .5 90 t
269.01 260.08 365.50 302.42 cl
0 0 0 srgb
0.75 setlinewidth
[ 2.25 3.75] 0 setdash
1 setlinecap
1 setlinejoin
10.00 setmiterlimit
np
242.80 263.59 m
29.78 0 l
29.78 0 l
29.78 0 l
29.78 0 l
13.08 0 l
o
0.75 setlinewidth
[] 0 setdash
np
242.80 268.52 m
29.78 0 l
29.78 0 l
29.78 0 l
29.78 0 l
13.08 0 l
o
0.4000 0.2000 0.2000 srgb
272.58 273.47 1.78 c p1
1.50 setlinewidth
[] 0 setdash
np
272.58 270.51 m
0 5.92 l
o
np
271.86 270.51 m
1.45 0 l
o
np
271.86 276.43 m
1.45 0 l
o
272.58 268.94 1.78 c p1
0.3020 0.4000 0.2000 srgb
0.75 setlinewidth
[] 0 setdash
np
302.36 270.93 m
2.40 -4.16 l
-4.80 0 l
2.40 4.16 l
o
1.50 setlinewidth
[] 0 setdash
np
302.36 266.29 m
0 3.75 l
o
np
301.64 266.29 m
1.45 0 l
o
np
301.64 270.04 m
1.45 0 l
o
np
302.36 266.87 m
2.40 -4.16 l
-4.80 0 l
2.40 4.16 l
o
0.2000 0.4000 0.4000 srgb
0.75 setlinewidth
[] 0 setdash
np
329.62 278.48 m
5.04 0 l
o
np
332.14 275.96 m
0 5.04 l
o
1.50 setlinewidth
[] 0 setdash
np
332.14 272.85 m
0 11.26 l
o
np
331.42 272.85 m
1.45 0 l
o
np
331.42 284.11 m
1.45 0 l
o
np
329.62 269.63 m
5.04 0 l
o
np
332.14 267.11 m
0 5.04 l
o
0.3020 0.2000 0.4000 srgb
0.75 setlinewidth
[] 0 setdash
np
360.14 270.88 m
3.56 3.57 l
o
np
360.14 274.45 m
3.56 -3.57 l
o
1.50 setlinewidth
[] 0 setdash
np
361.92 264.84 m
0 15.65 l
o
np
361.20 264.84 m
1.45 0 l
o
np
361.20 280.49 m
1.45 0 l
o
np
360.14 266.15 m
3.56 3.56 l
o
np
360.14 269.71 m
3.56 -3.56 l
o
19.01 179.72 115.50 222.06 cl
0.00 0.00 375.00 562.50 cl
0 0 0 srgb
0.75 setlinewidth
[] 0 setdash
1 setlinecap
1 setlinejoin
10.00 setmiterlimit
np
22.58 179.72 m
89.34 0 l
o
np
22.58 179.72 m
0 -4.75 l
o
np
37.47 179.72 m
0 -4.75 l
o
np
52.36 179.72 m
0 -4.75 l
o
np
67.25 179.72 m
0 -4.75 l
o
np
82.14 179.72 m
0 -4.75 l
o
np
97.03 179.72 m
0 -4.75 l
o
np
111.92 179.72 m
0 -4.75 l
o
/Font1 findfont 11 s
22.58 162.62 (1.0) .5 0 t
52.36 162.62 (2.0) .5 0 t
82.14 162.62 (3.0) .5 0 t
111.92 162.62 (4.0) .5 0 t
np
19.01 183.74 m
0 36.76 l
o
np
19.01 183.74 m
-4.75 0 l
o
np
19.01 189.87 m
-4.75 0 l
o
np
19.01 195.99 m
-4.75 0 l
o
np
19.01 202.12 m
-4.75 0 l
o
np
19.01 208.24 m
-4.75 0 l
o
np
19.01 214.37 m
-4.75 0 l
o
np
19.01 220.50 m
-4.75 0 l
o
7.60 183.74 (1.00) .5 90 t
7.60 214.37 (1.25) .5 90 t
np
19.01 179.72 m
96.49 0 l
0 42.34 l
-96.49 0 l
0 -42.34 l
o
0.00 160.71 125.00 241.07 cl
/Font2 findfont 13 s
0 0 0 srgb
67.25 226.90 (tai100dD.vrp) .5 0 t
/Font1 findfont 11 s
67.25 143.61 (1:n) .5 0 t
19.01 179.72 115.50 222.06 cl
0 0 0 srgb
0.75 setlinewidth
[ 2.25 3.75] 0 setdash
1 setlinecap
1 setlinejoin
10.00 setmiterlimit
np
0.00 191.43 m
22.58 0 l
29.78 0 l
29.78 0 l
29.78 0 l
29.78 0 l
o
0.75 setlinewidth
[] 0 setdash
np
0.00 197.79 m
22.58 0 l
29.78 0 l
29.78 0 l
29.78 0 l
29.78 0 l
o
0.4000 0.2000 0.2000 srgb
22.58 198.55 1.78 c p1
1.50 setlinewidth
[] 0 setdash
np
22.58 193.56 m
0 9.98 l
o
np
21.86 193.56 m
1.45 0 l
o
np
21.86 203.54 m
1.45 0 l
o
22.58 190.07 1.78 c p1
0.3020 0.4000 0.2000 srgb
0.75 setlinewidth
[] 0 setdash
np
52.36 192.45 m
2.40 -4.16 l
-4.80 0 l
2.40 4.16 l
o
1.50 setlinewidth
[] 0 setdash
np
52.36 186.38 m
0 6.59 l
o
np
51.64 186.38 m
1.45 0 l
o
np
51.64 192.97 m
1.45 0 l
o
np
52.36 189.36 m
2.40 -4.15 l
-4.80 0 l
2.40 4.15 l
o
0.2000 0.4000 0.4000 srgb
0.75 setlinewidth
[] 0 setdash
np
79.62 218.42 m
5.04 0 l
o
np
82.14 215.90 m
0 5.04 l
o
1.50 setlinewidth
[] 0 setdash
np
82.14 207.99 m
0 20.86 l
o
np
81.42 207.99 m
1.45 0 l
o
np
81.42 228.85 m
1.45 0 l
o
np
79.62 192.91 m
5.04 0 l
o
np
82.14 190.39 m
0 5.04 l
o
0.3020 0.2000 0.4000 srgb
0.75 setlinewidth
[] 0 setdash
np
110.14 189.52 m
3.56 3.56 l
o
np
110.14 193.08 m
3.56 -3.56 l
o
1.50 setlinewidth
[] 0 setdash
np
111.92 185.58 m
0 11.44 l
o
np
111.20 185.58 m
1.45 0 l
o
np
111.20 197.02 m
1.45 0 l
o
np
110.14 181.96 m
3.56 3.56 l
o
np
110.14 185.52 m
3.56 -3.56 l
o
144.01 179.72 240.50 222.06 cl
0.00 0.00 375.00 562.50 cl
0 0 0 srgb
0.75 setlinewidth
[] 0 setdash
1 setlinecap
1 setlinejoin
10.00 setmiterlimit
np
147.58 179.72 m
89.34 0 l
o
np
147.58 179.72 m
0 -4.75 l
o
np
162.47 179.72 m
0 -4.75 l
o
np
177.36 179.72 m
0 -4.75 l
o
np
192.25 179.72 m
0 -4.75 l
o
np
207.14 179.72 m
0 -4.75 l
o
np
222.03 179.72 m
0 -4.75 l
o
np
236.92 179.72 m
0 -4.75 l
o
/Font1 findfont 11 s
147.58 162.62 (1.0) .5 0 t
177.36 162.62 (2.0) .5 0 t
207.14 162.62 (3.0) .5 0 t
236.92 162.62 (4.0) .5 0 t
np
144.01 183.74 m
0 36.76 l
o
np
144.01 183.74 m
-4.75 0 l
o
np
144.01 189.87 m
-4.75 0 l
o
np
144.01 195.99 m
-4.75 0 l
o
np
144.01 202.12 m
-4.75 0 l
o
np
144.01 208.24 m
-4.75 0 l
o
np
144.01 214.37 m
-4.75 0 l
o
np
144.01 220.50 m
-4.75 0 l
o
132.60 183.74 (1.00) .5 90 t
132.60 214.37 (1.25) .5 90 t
np
144.01 179.72 m
96.49 0 l
0 42.34 l
-96.49 0 l
0 -42.34 l
o
125.00 160.71 250.00 241.07 cl
/Font2 findfont 13 s
0 0 0 srgb
192.25 226.90 (tai150aD.vrp) .5 0 t
/Font1 findfont 11 s
192.25 143.61 (1:n) .5 0 t
113.60 200.89 (1:n) .5 90 t
144.01 179.72 240.50 222.06 cl
0 0 0 srgb
0.75 setlinewidth
[ 2.25 3.75] 0 setdash
1 setlinecap
1 setlinejoin
10.00 setmiterlimit
np
117.80 180.48 m
29.78 0 l
29.78 0 l
29.78 0 l
29.78 0 l
29.78 0 l
o
0.75 setlinewidth
[] 0 setdash
np
117.80 184.73 m
29.78 0 l
29.78 0 l
29.78 0 l
29.78 0 l
29.78 0 l
o
0.4000 0.2000 0.2000 srgb
147.58 194.83 1.78 c p1
1.50 setlinewidth
[] 0 setdash
np
147.58 190.92 m
0 7.81 l
o
np
146.86 190.92 m
1.45 0 l
o
np
146.86 198.73 m
1.45 0 l
o
147.58 188.04 1.78 c p1
0.3020 0.4000 0.2000 srgb
0.75 setlinewidth
[] 0 setdash
np
177.36 189.55 m
2.40 -4.16 l
-4.80 0 l
2.40 4.16 l
o
1.50 setlinewidth
[] 0 setdash
np
177.36 184.22 m
0 5.11 l
o
np
176.64 184.22 m
1.45 0 l
o
np
176.64 189.33 m
1.45 0 l
o
np
177.36 186.51 m
2.40 -4.15 l
-4.80 0 l
2.40 4.15 l
o
0.2000 0.4000 0.4000 srgb
0.75 setlinewidth
[] 0 setdash
np
204.62 212.47 m
5.04 0 l
o
np
207.14 209.95 m
0 5.04 l
o
1.50 setlinewidth
[] 0 setdash
np
207.14 201.01 m
0 22.91 l
o
np
206.42 201.01 m
1.45 0 l
o
np
206.42 223.92 m
1.45 0 l
o
np
204.62 193.79 m
5.04 0 l
o
np
207.14 191.27 m
0 5.04 l
o
0.3020 0.2000 0.4000 srgb
0.75 setlinewidth
[] 0 setdash
np
235.14 197.32 m
3.56 3.56 l
o
np
235.14 200.88 m
3.56 -3.56 l
o
1.50 setlinewidth
[] 0 setdash
np
236.92 190.65 m
0 16.90 l
o
np
236.20 190.65 m
1.45 0 l
o
np
236.20 207.55 m
1.45 0 l
o
np
235.14 187.54 m
3.56 3.57 l
o
np
235.14 191.11 m
3.56 -3.57 l
o
269.01 179.72 365.50 222.06 cl
0.00 0.00 375.00 562.50 cl
0 0 0 srgb
0.75 setlinewidth
[] 0 setdash
1 setlinecap
1 setlinejoin
10.00 setmiterlimit
np
272.58 179.72 m
89.34 0 l
o
np
272.58 179.72 m
0 -4.75 l
o
np
287.47 179.72 m
0 -4.75 l
o
np
302.36 179.72 m
0 -4.75 l
o
np
317.25 179.72 m
0 -4.75 l
o
np
332.14 179.72 m
0 -4.75 l
o
np
347.03 179.72 m
0 -4.75 l
o
np
361.92 179.72 m
0 -4.75 l
o
/Font1 findfont 11 s
272.58 162.62 (1.0) .5 0 t
302.36 162.62 (2.0) .5 0 t
332.14 162.62 (3.0) .5 0 t
361.92 162.62 (4.0) .5 0 t
np
269.01 183.74 m
0 36.76 l
o
np
269.01 183.74 m
-4.75 0 l
o
np
269.01 189.87 m
-4.75 0 l
o
np
269.01 195.99 m
-4.75 0 l
o
np
269.01 202.12 m
-4.75 0 l
o
np
269.01 208.24 m
-4.75 0 l
o
np
269.01 214.37 m
-4.75 0 l
o
np
269.01 220.50 m
-4.75 0 l
o
257.60 183.74 (1.00) .5 90 t
257.60 214.37 (1.25) .5 90 t
np
269.01 179.72 m
96.49 0 l
0 42.34 l
-96.49 0 l
0 -42.34 l
o
250.00 160.71 375.00 241.07 cl
/Font2 findfont 13 s
0 0 0 srgb
317.25 226.90 (tai150bD.vrp) .5 0 t
/Font1 findfont 11 s
317.25 143.61 (1:n) .5 0 t
238.60 200.89 (1:n) .5 90 t
269.01 179.72 365.50 222.06 cl
0 0 0 srgb
0.75 setlinewidth
[ 2.25 3.75] 0 setdash
1 setlinecap
1 setlinejoin
10.00 setmiterlimit
np
242.80 180.47 m
29.78 0 l
29.78 0 l
29.78 0 l
29.78 0 l
13.08 0 l
o
0.75 setlinewidth
[] 0 setdash
np
242.80 184.43 m
29.78 0 l
29.78 0 l
29.78 0 l
29.78 0 l
13.08 0 l
o
0.4000 0.2000 0.2000 srgb
272.58 191.14 1.78 c p1
1.50 setlinewidth
[] 0 setdash
np
272.58 188.50 m
0 5.28 l
o
np
271.86 188.50 m
1.45 0 l
o
np
271.86 193.78 m
1.45 0 l
o
272.58 186.43 1.78 c p1
0.3020 0.4000 0.2000 srgb
0.75 setlinewidth
[] 0 setdash
np
302.36 190.10 m
2.40 -4.15 l
-4.80 0 l
2.40 4.15 l
o
1.50 setlinewidth
[] 0 setdash
np
302.36 185.26 m
0 4.15 l
o
np
301.64 185.26 m
1.45 0 l
o
np
301.64 189.41 m
1.45 0 l
o
np
302.36 186.51 m
2.40 -4.15 l
-4.80 0 l
2.40 4.15 l
o
0.2000 0.4000 0.4000 srgb
0.75 setlinewidth
[] 0 setdash
np
329.62 198.85 m
5.04 0 l
o
np
332.14 196.33 m
0 5.04 l
o
1.50 setlinewidth
[] 0 setdash
np
332.14 193.58 m
0 10.53 l
o
np
331.42 193.58 m
1.45 0 l
o
np
331.42 204.11 m
1.45 0 l
o
np
329.62 190.72 m
5.04 0 l
o
np
332.14 188.20 m
0 5.04 l
o
0.3020 0.2000 0.4000 srgb
0.75 setlinewidth
[] 0 setdash
np
360.14 188.36 m
3.56 3.56 l
o
np
360.14 191.92 m
3.56 -3.56 l
o
1.50 setlinewidth
[] 0 setdash
np
361.92 188.81 m
0 2.66 l
o
np
361.20 188.81 m
1.45 0 l
o
np
361.20 191.47 m
1.45 0 l
o
np
360.14 186.55 m
3.56 3.57 l
o
np
360.14 190.12 m
3.56 -3.57 l
o
19.01 99.37 115.50 141.71 cl
0.00 0.00 375.00 562.50 cl
0 0 0 srgb
0.75 setlinewidth
[] 0 setdash
1 setlinecap
1 setlinejoin
10.00 setmiterlimit
np
22.58 99.37 m
89.34 0 l
o
np
22.58 99.37 m
0 -4.76 l
o
np
37.47 99.37 m
0 -4.76 l
o
np
52.36 99.37 m
0 -4.76 l
o
np
67.25 99.37 m
0 -4.76 l
o
np
82.14 99.37 m
0 -4.76 l
o
np
97.03 99.37 m
0 -4.76 l
o
np
111.92 99.37 m
0 -4.76 l
o
/Font1 findfont 11 s
22.58 82.26 (1.0) .5 0 t
52.36 82.26 (2.0) .5 0 t
82.14 82.26 (3.0) .5 0 t
111.92 82.26 (4.0) .5 0 t
np
19.01 103.38 m
0 36.76 l
o
np
19.01 103.38 m
-4.75 0 l
o
np
19.01 109.51 m
-4.75 0 l
o
np
19.01 115.64 m
-4.75 0 l
o
np
19.01 121.76 m
-4.75 0 l
o
np
19.01 127.89 m
-4.75 0 l
o
np
19.01 134.01 m
-4.75 0 l
o
np
19.01 140.14 m
-4.75 0 l
o
7.60 103.38 (1.00) .5 90 t
7.60 134.01 (1.25) .5 90 t
np
19.01 99.37 m
96.49 0 l
0 42.34 l
-96.49 0 l
0 -42.34 l
o
0.00 80.36 125.00 160.71 cl
/Font2 findfont 13 s
0 0 0 srgb
67.25 146.54 (tai150cD.vrp) .5 0 t
/Font1 findfont 11 s
67.25 63.25 (1:n) .5 0 t
19.01 99.37 115.50 141.71 cl
0 0 0 srgb
0.75 setlinewidth
[ 2.25 3.75] 0 setdash
1 setlinecap
1 setlinejoin
10.00 setmiterlimit
np
0.00 102.55 m
22.58 0 l
29.78 0 l
29.78 0 l
29.78 0 l
29.78 0 l
o
0.75 setlinewidth
[] 0 setdash
np
0.00 110.27 m
22.58 0 l
29.78 0 l
29.78 0 l
29.78 0 l
29.78 0 l
o
0.4000 0.2000 0.2000 srgb
22.58 117.54 1.78 c p1
1.50 setlinewidth
[] 0 setdash
np
22.58 113.88 m
0 7.33 l
o
np
21.86 113.88 m
1.45 0 l
o
np
21.86 121.21 m
1.45 0 l
o
22.58 112.35 1.78 c p1
0.3020 0.4000 0.2000 srgb
0.75 setlinewidth
[] 0 setdash
np
52.36 111.26 m
2.40 -4.16 l
-4.80 0 l
2.40 4.16 l
o
1.50 setlinewidth
[] 0 setdash
np
52.36 106.31 m
0 4.35 l
o
np
51.64 106.31 m
1.45 0 l
o
np
51.64 110.66 m
1.45 0 l
o
np
52.36 107.49 m
2.40 -4.15 l
-4.80 0 l
2.40 4.15 l
o
0.2000 0.4000 0.4000 srgb
0.75 setlinewidth
[] 0 setdash
np
79.62 123.91 m
5.04 0 l
o
np
82.14 121.39 m
0 5.04 l
o
1.50 setlinewidth
[] 0 setdash
np
82.14 120.57 m
0 6.67 l
o
np
81.42 120.57 m
1.45 0 l
o
np
81.42 127.24 m
1.45 0 l
o
np
79.62 115.58 m
5.04 0 l
o
np
82.14 113.06 m
0 5.04 l
o
0.3020 0.2000 0.4000 srgb
0.75 setlinewidth
[] 0 setdash
np
110.14 111.72 m
3.56 3.56 l
o
np
110.14 115.28 m
3.56 -3.56 l
o
1.50 setlinewidth
[] 0 setdash
np
111.92 107.60 m
0 11.80 l
o
np
111.20 107.60 m
1.45 0 l
o
np
111.20 119.40 m
1.45 0 l
o
np
110.14 101.60 m
3.56 3.57 l
o
np
110.14 105.17 m
3.56 -3.57 l
o
144.01 99.37 240.50 141.71 cl
0.00 0.00 375.00 562.50 cl
0 0 0 srgb
0.75 setlinewidth
[] 0 setdash
1 setlinecap
1 setlinejoin
10.00 setmiterlimit
np
147.58 99.37 m
89.34 0 l
o
np
147.58 99.37 m
0 -4.76 l
o
np
162.47 99.37 m
0 -4.76 l
o
np
177.36 99.37 m
0 -4.76 l
o
np
192.25 99.37 m
0 -4.76 l
o
np
207.14 99.37 m
0 -4.76 l
o
np
222.03 99.37 m
0 -4.76 l
o
np
236.92 99.37 m
0 -4.76 l
o
/Font1 findfont 11 s
147.58 82.26 (1.0) .5 0 t
177.36 82.26 (2.0) .5 0 t
207.14 82.26 (3.0) .5 0 t
236.92 82.26 (4.0) .5 0 t
np
144.01 103.38 m
0 36.76 l
o
np
144.01 103.38 m
-4.75 0 l
o
np
144.01 109.51 m
-4.75 0 l
o
np
144.01 115.64 m
-4.75 0 l
o
np
144.01 121.76 m
-4.75 0 l
o
np
144.01 127.89 m
-4.75 0 l
o
np
144.01 134.01 m
-4.75 0 l
o
np
144.01 140.14 m
-4.75 0 l
o
132.60 103.38 (1.00) .5 90 t
132.60 134.01 (1.25) .5 90 t
np
144.01 99.37 m
96.49 0 l
0 42.34 l
-96.49 0 l
0 -42.34 l
o
125.00 80.36 250.00 160.71 cl
/Font2 findfont 13 s
0 0 0 srgb
192.25 146.54 (tai150dD.vrp) .5 0 t
/Font1 findfont 11 s
192.25 63.25 (1:n) .5 0 t
113.60 120.54 (1:n) .5 90 t
144.01 99.37 240.50 141.71 cl
0 0 0 srgb
0.75 setlinewidth
[ 2.25 3.75] 0 setdash
1 setlinecap
1 setlinejoin
10.00 setmiterlimit
np
117.80 100.27 m
29.78 0 l
29.78 0 l
29.78 0 l
29.78 0 l
29.78 0 l
o
0.75 setlinewidth
[] 0 setdash
np
117.80 105.60 m
29.78 0 l
29.78 0 l
29.78 0 l
29.78 0 l
29.78 0 l
o
0.4000 0.2000 0.2000 srgb
147.58 113.32 1.78 c p1
1.50 setlinewidth
[] 0 setdash
np
147.58 109.57 m
0 7.50 l
o
np
146.86 109.57 m
1.45 0 l
o
np
146.86 117.07 m
1.45 0 l
o
147.58 107.29 1.78 c p1
0.3020 0.4000 0.2000 srgb
0.75 setlinewidth
[] 0 setdash
np
177.36 108.37 m
2.40 -4.16 l
-4.80 0 l
2.40 4.16 l
o
1.50 setlinewidth
[] 0 setdash
np
177.36 103.44 m
0 4.31 l
o
np
176.64 103.44 m
1.45 0 l
o
np
176.64 107.75 m
1.45 0 l
o
np
177.36 106.15 m
2.40 -4.15 l
-4.80 0 l
2.40 4.15 l
o
0.2000 0.4000 0.4000 srgb
0.75 setlinewidth
[] 0 setdash
np
204.62 126.01 m
5.04 0 l
o
np
207.14 123.49 m
0 5.04 l
o
1.50 setlinewidth
[] 0 setdash
np
207.14 116.60 m
0 18.83 l
o
np
206.42 116.60 m
1.45 0 l
o
np
206.42 135.43 m
1.45 0 l
o
np
204.62 108.06 m
5.04 0 l
o
np
207.14 105.54 m
0 5.04 l
o
0.3020 0.2000 0.4000 srgb
0.75 setlinewidth
[] 0 setdash
np
235.14 110.58 m
3.56 3.56 l
o
np
235.14 114.14 m
3.56 -3.56 l
o
1.50 setlinewidth
[] 0 setdash
np
236.92 108.53 m
0 7.66 l
o
np
236.20 108.53 m
1.45 0 l
o
np
236.20 116.19 m
1.45 0 l
o
np
235.14 104.56 m
3.56 3.56 l
o
np
235.14 108.12 m
3.56 -3.56 l
o
269.01 99.37 365.50 141.71 cl
0.00 0.00 375.00 562.50 cl
0 0 0 srgb
0.75 setlinewidth
[] 0 setdash
1 setlinecap
1 setlinejoin
10.00 setmiterlimit
np
272.58 99.37 m
89.34 0 l
o
np
272.58 99.37 m
0 -4.76 l
o
np
287.47 99.37 m
0 -4.76 l
o
np
302.36 99.37 m
0 -4.76 l
o
np
317.25 99.37 m
0 -4.76 l
o
np
332.14 99.37 m
0 -4.76 l
o
np
347.03 99.37 m
0 -4.76 l
o
np
361.92 99.37 m
0 -4.76 l
o
/Font1 findfont 11 s
272.58 82.26 (1.0) .5 0 t
302.36 82.26 (2.0) .5 0 t
332.14 82.26 (3.0) .5 0 t
361.92 82.26 (4.0) .5 0 t
np
269.01 103.38 m
0 36.76 l
o
np
269.01 103.38 m
-4.75 0 l
o
np
269.01 109.51 m
-4.75 0 l
o
np
269.01 115.64 m
-4.75 0 l
o
np
269.01 121.76 m
-4.75 0 l
o
np
269.01 127.89 m
-4.75 0 l
o
np
269.01 134.01 m
-4.75 0 l
o
np
269.01 140.14 m
-4.75 0 l
o
257.60 103.38 (1.00) .5 90 t
257.60 134.01 (1.25) .5 90 t
np
269.01 99.37 m
96.49 0 l
0 42.34 l
-96.49 0 l
0 -42.34 l
o
250.00 80.36 375.00 160.71 cl
/Font2 findfont 13 s
0 0 0 srgb
317.25 146.54 (tai75aD.vrp) .5 0 t
/Font1 findfont 11 s
317.25 63.25 (1:n) .5 0 t
238.60 120.54 (1:n) .5 90 t
269.01 99.37 365.50 141.71 cl
0 0 0 srgb
0.75 setlinewidth
[ 2.25 3.75] 0 setdash
1 setlinecap
1 setlinejoin
10.00 setmiterlimit
np
242.80 107.05 m
29.78 0 l
29.78 0 l
29.78 0 l
29.78 0 l
13.08 0 l
o
0.75 setlinewidth
[] 0 setdash
np
242.80 110.91 m
29.78 0 l
29.78 0 l
29.78 0 l
29.78 0 l
13.08 0 l
o
0.4000 0.2000 0.2000 srgb
272.58 118.62 1.78 c p1
1.50 setlinewidth
[] 0 setdash
np
272.58 112.19 m
0 12.85 l
o
np
271.86 112.19 m
1.45 0 l
o
np
271.86 125.04 m
1.45 0 l
o
272.58 108.49 1.78 c p1
0.3020 0.4000 0.2000 srgb
0.75 setlinewidth
[] 0 setdash
np
302.36 115.39 m
2.40 -4.16 l
-4.80 0 l
2.40 4.16 l
o
1.50 setlinewidth
[] 0 setdash
np
302.36 106.41 m
0 12.41 l
o
np
301.64 106.41 m
1.45 0 l
o
np
301.64 118.82 m
1.45 0 l
o
np
302.36 106.15 m
2.40 -4.15 l
-4.80 0 l
2.40 4.15 l
o
0.2000 0.4000 0.4000 srgb
0.75 setlinewidth
[] 0 setdash
np
329.62 131.49 m
5.04 0 l
o
np
332.14 128.97 m
0 5.04 l
o
1.50 setlinewidth
[] 0 setdash
np
332.14 120.05 m
0 22.89 l
o
np
331.42 120.05 m
1.45 0 l
o
np
331.42 142.94 m
1.45 0 l
o
np
329.62 112.44 m
5.04 0 l
o
np
332.14 109.92 m
0 5.04 l
o
0.3020 0.2000 0.4000 srgb
0.75 setlinewidth
[] 0 setdash
np
360.14 116.02 m
3.56 3.57 l
o
np
360.14 119.59 m
3.56 -3.57 l
o
1.50 setlinewidth
[] 0 setdash
np
361.92 110.43 m
0 14.74 l
o
np
361.20 110.43 m
1.45 0 l
o
np
361.20 125.17 m
1.45 0 l
o
np
360.14 107.42 m
3.56 3.56 l
o
np
360.14 110.98 m
3.56 -3.56 l
o
19.01 19.01 115.50 61.35 cl
0.00 0.00 375.00 562.50 cl
0 0 0 srgb
0.75 setlinewidth
[] 0 setdash
1 setlinecap
1 setlinejoin
10.00 setmiterlimit
np
22.58 19.01 m
89.34 0 l
o
np
22.58 19.01 m
0 -4.75 l
o
np
37.47 19.01 m
0 -4.75 l
o
np
52.36 19.01 m
0 -4.75 l
o
np
67.25 19.01 m
0 -4.75 l
o
np
82.14 19.01 m
0 -4.75 l
o
np
97.03 19.01 m
0 -4.75 l
o
np
111.92 19.01 m
0 -4.75 l
o
/Font1 findfont 11 s
22.58 1.90 (1.0) .5 0 t
52.36 1.90 (2.0) .5 0 t
82.14 1.90 (3.0) .5 0 t
111.92 1.90 (4.0) .5 0 t
np
19.01 23.03 m
0 36.75 l
o
np
19.01 23.03 m
-4.75 0 l
o
np
19.01 29.15 m
-4.75 0 l
o
np
19.01 35.28 m
-4.75 0 l
o
np
19.01 41.40 m
-4.75 0 l
o
np
19.01 47.53 m
-4.75 0 l
o
np
19.01 53.66 m
-4.75 0 l
o
np
19.01 59.78 m
-4.75 0 l
o
7.60 23.03 (1.00) .5 90 t
7.60 53.66 (1.25) .5 90 t
np
19.01 19.01 m
96.49 0 l
0 42.34 l
-96.49 0 l
0 -42.34 l
o
0.00 0.00 125.00 80.36 cl
/Font2 findfont 13 s
0 0 0 srgb
67.25 66.19 (tai75bD.vrp) .5 0 t
19.01 19.01 115.50 61.35 cl
0 0 0 srgb
0.75 setlinewidth
[ 2.25 3.75] 0 setdash
1 setlinecap
1 setlinejoin
10.00 setmiterlimit
np
0.00 22.61 m
22.58 0 l
29.78 0 l
29.78 0 l
29.78 0 l
29.78 0 l
o
0.75 setlinewidth
[] 0 setdash
np
0.00 25.25 m
22.58 0 l
29.78 0 l
29.78 0 l
29.78 0 l
29.78 0 l
o
0.4000 0.2000 0.2000 srgb
22.58 30.47 1.78 c p1
1.50 setlinewidth
[] 0 setdash
np
22.58 27.86 m
0 5.23 l
o
np
21.86 27.86 m
1.45 0 l
o
np
21.86 33.09 m
1.45 0 l
o
22.58 26.05 1.78 c p1
0.3020 0.4000 0.2000 srgb
0.75 setlinewidth
[] 0 setdash
np
52.36 31.66 m
2.40 -4.15 l
-4.80 0 l
2.40 4.15 l
o
1.50 setlinewidth
[] 0 setdash
np
52.36 24.21 m
0 9.36 l
o
np
51.64 24.21 m
1.45 0 l
o
np
51.64 33.57 m
1.45 0 l
o
np
52.36 25.80 m
2.40 -4.16 l
-4.80 0 l
2.40 4.16 l
o
0.2000 0.4000 0.4000 srgb
0.75 setlinewidth
[] 0 setdash
np
79.62 37.63 m
5.04 0 l
o
np
82.14 35.11 m
0 5.04 l
o
1.50 setlinewidth
[] 0 setdash
np
82.14 31.52 m
0 12.21 l
o
np
81.42 31.52 m
1.45 0 l
o
np
81.42 43.73 m
1.45 0 l
o
np
79.62 28.25 m
5.04 0 l
o
np
82.14 25.73 m
0 5.04 l
o
0.3020 0.2000 0.4000 srgb
0.75 setlinewidth
[] 0 setdash
np
110.14 31.28 m
3.56 3.56 l
o
np
110.14 34.84 m
3.56 -3.56 l
o
1.50 setlinewidth
[] 0 setdash
np
111.92 29.64 m
0 6.84 l
o
np
111.20 29.64 m
1.45 0 l
o
np
111.20 36.48 m
1.45 0 l
o
np
110.14 26.09 m
3.56 3.56 l
o
np
110.14 29.65 m
3.56 -3.56 l
o
144.01 19.01 240.50 61.35 cl
0.00 0.00 375.00 562.50 cl
0 0 0 srgb
0.75 setlinewidth
[] 0 setdash
1 setlinecap
1 setlinejoin
10.00 setmiterlimit
np
147.58 19.01 m
89.34 0 l
o
np
147.58 19.01 m
0 -4.75 l
o
np
162.47 19.01 m
0 -4.75 l
o
np
177.36 19.01 m
0 -4.75 l
o
np
192.25 19.01 m
0 -4.75 l
o
np
207.14 19.01 m
0 -4.75 l
o
np
222.03 19.01 m
0 -4.75 l
o
np
236.92 19.01 m
0 -4.75 l
o
/Font1 findfont 11 s
147.58 1.90 (1.0) .5 0 t
177.36 1.90 (2.0) .5 0 t
207.14 1.90 (3.0) .5 0 t
236.92 1.90 (4.0) .5 0 t
np
144.01 23.03 m
0 36.75 l
o
np
144.01 23.03 m
-4.75 0 l
o
np
144.01 29.15 m
-4.75 0 l
o
np
144.01 35.28 m
-4.75 0 l
o
np
144.01 41.40 m
-4.75 0 l
o
np
144.01 47.53 m
-4.75 0 l
o
np
144.01 53.66 m
-4.75 0 l
o
np
144.01 59.78 m
-4.75 0 l
o
132.60 23.03 (1.00) .5 90 t
132.60 53.66 (1.25) .5 90 t
np
144.01 19.01 m
96.49 0 l
0 42.34 l
-96.49 0 l
0 -42.34 l
o
125.00 0.00 250.00 80.36 cl
/Font2 findfont 13 s
0 0 0 srgb
192.25 66.19 (tai75cD.vrp) .5 0 t
/Font1 findfont 11 s
113.60 40.18 (1:n) .5 90 t
144.01 19.01 240.50 61.35 cl
0 0 0 srgb
0.75 setlinewidth
[ 2.25 3.75] 0 setdash
1 setlinecap
1 setlinejoin
10.00 setmiterlimit
np
117.80 24.35 m
29.78 0 l
29.78 0 l
29.78 0 l
29.78 0 l
29.78 0 l
o
0.75 setlinewidth
[] 0 setdash
np
117.80 27.32 m
29.78 0 l
29.78 0 l
29.78 0 l
29.78 0 l
29.78 0 l
o
0.4000 0.2000 0.2000 srgb
147.58 39.16 1.78 c p1
1.50 setlinewidth
[] 0 setdash
np
147.58 29.84 m
0 18.63 l
o
np
146.86 29.84 m
1.45 0 l
o
np
146.86 48.47 m
1.45 0 l
o
147.58 25.57 1.78 c p1
0.3020 0.4000 0.2000 srgb
0.75 setlinewidth
[] 0 setdash
np
177.36 31.21 m
2.40 -4.16 l
-4.80 0 l
2.40 4.16 l
o
1.50 setlinewidth
[] 0 setdash
np
177.36 25.07 m
0 6.73 l
o
np
176.64 25.07 m
1.45 0 l
o
np
176.64 31.80 m
1.45 0 l
o
np
177.36 25.80 m
2.40 -4.16 l
-4.80 0 l
2.40 4.16 l
o
0.2000 0.4000 0.4000 srgb
0.75 setlinewidth
[] 0 setdash
np
204.62 51.74 m
5.04 0 l
o
np
207.14 49.22 m
0 5.04 l
o
1.50 setlinewidth
[] 0 setdash
np
207.14 38.98 m
0 25.52 l
o
np
206.42 38.98 m
1.45 0 l
o
np
206.42 64.50 m
1.45 0 l
o
np
204.62 25.78 m
5.04 0 l
o
np
207.14 23.26 m
0 5.04 l
o
0.3020 0.2000 0.4000 srgb
0.75 setlinewidth
[] 0 setdash
np
235.14 30.14 m
3.56 3.57 l
o
np
235.14 33.71 m
3.56 -3.57 l
o
1.50 setlinewidth
[] 0 setdash
np
236.92 28.80 m
0 6.25 l
o
np
236.20 28.80 m
1.45 0 l
o
np
236.20 35.05 m
1.45 0 l
o
np
235.14 25.45 m
3.56 3.56 l
o
np
235.14 29.01 m
3.56 -3.56 l
o
269.01 19.01 365.50 61.35 cl
0.00 0.00 375.00 562.50 cl
0 0 0 srgb
0.75 setlinewidth
[] 0 setdash
1 setlinecap
1 setlinejoin
10.00 setmiterlimit
np
272.58 19.01 m
89.34 0 l
o
np
272.58 19.01 m
0 -4.75 l
o
np
287.47 19.01 m
0 -4.75 l
o
np
302.36 19.01 m
0 -4.75 l
o
np
317.25 19.01 m
0 -4.75 l
o
np
332.14 19.01 m
0 -4.75 l
o
np
347.03 19.01 m
0 -4.75 l
o
np
361.92 19.01 m
0 -4.75 l
o
/Font1 findfont 11 s
272.58 1.90 (1.0) .5 0 t
302.36 1.90 (2.0) .5 0 t
332.14 1.90 (3.0) .5 0 t
361.92 1.90 (4.0) .5 0 t
np
269.01 23.03 m
0 36.75 l
o
np
269.01 23.03 m
-4.75 0 l
o
np
269.01 29.15 m
-4.75 0 l
o
np
269.01 35.28 m
-4.75 0 l
o
np
269.01 41.40 m
-4.75 0 l
o
np
269.01 47.53 m
-4.75 0 l
o
np
269.01 53.66 m
-4.75 0 l
o
np
269.01 59.78 m
-4.75 0 l
o
257.60 23.03 (1.00) .5 90 t
257.60 53.66 (1.25) .5 90 t
np
269.01 19.01 m
96.49 0 l
0 42.34 l
-96.49 0 l
0 -42.34 l
o
250.00 0.00 375.00 80.36 cl
/Font2 findfont 13 s
0 0 0 srgb
317.25 66.19 (tai75dD.vrp) .5 0 t
/Font1 findfont 11 s
238.60 40.18 (1:n) .5 90 t
269.01 19.01 365.50 61.35 cl
0 0 0 srgb
0.75 setlinewidth
[ 2.25 3.75] 0 setdash
1 setlinecap
1 setlinejoin
10.00 setmiterlimit
np
242.80 20.48 m
29.78 0 l
29.78 0 l
29.78 0 l
29.78 0 l
13.08 0 l
o
0.75 setlinewidth
[] 0 setdash
np
242.80 22.37 m
29.78 0 l
29.78 0 l
29.78 0 l
29.78 0 l
13.08 0 l
o
0.4000 0.2000 0.2000 srgb
272.58 29.47 1.78 c p1
1.50 setlinewidth
[] 0 setdash
np
272.58 26.10 m
0 6.74 l
o
np
271.86 26.10 m
1.45 0 l
o
np
271.86 32.84 m
1.45 0 l
o
272.58 26.32 1.78 c p1
0.3020 0.4000 0.2000 srgb
0.75 setlinewidth
[] 0 setdash
np
302.36 28.36 m
2.40 -4.15 l
-4.80 0 l
2.40 4.15 l
o
1.50 setlinewidth
[] 0 setdash
np
302.36 24.25 m
0 2.69 l
o
np
301.64 24.25 m
1.45 0 l
o
np
301.64 26.94 m
1.45 0 l
o
np
302.36 25.80 m
2.40 -4.16 l
-4.80 0 l
2.40 4.16 l
o
0.2000 0.4000 0.4000 srgb
0.75 setlinewidth
[] 0 setdash
np
329.62 37.23 m
5.04 0 l
o
np
332.14 34.71 m
0 5.04 l
o
1.50 setlinewidth
[] 0 setdash
np
332.14 28.96 m
0 16.54 l
o
np
331.42 28.96 m
1.45 0 l
o
np
331.42 45.50 m
1.45 0 l
o
np
329.62 26.59 m
5.04 0 l
o
np
332.14 24.07 m
0 5.04 l
o
0.3020 0.2000 0.4000 srgb
0.75 setlinewidth
[] 0 setdash
np
360.14 25.71 m
3.56 3.56 l
o
np
360.14 29.27 m
3.56 -3.56 l
o
1.50 setlinewidth
[] 0 setdash
np
361.92 23.02 m
0 8.93 l
o
np
361.20 23.02 m
1.45 0 l
o
np
361.20 31.95 m
1.45 0 l
o
np
360.14 21.49 m
3.56 3.56 l
o
np
360.14 25.05 m
3.56 -3.56 l
o
ep
%%Trailer
%%Pages: 1
%%EOF
