%!PS-Adobe-3.0
%%DocumentNeededResources: font Helvetica
%%+ font Helvetica-Bold
%%+ font Helvetica-Oblique
%%+ font Helvetica-BoldOblique
%%+ font Symbol
%%DocumentMedia: a4 595 841 0 () ()
%%Title: R Graphics Output
%%Creator: R Software
%%Pages: (atend)
%%Orientation: Portrait
%%BoundingBox: 18 205 577 637
%%EndComments
%%BeginProlog
/bp  { gs sRGB gs } def
% begin .ps.prolog
/gs  { gsave } bind def
/gr  { grestore } bind def
/ep  { showpage gr gr } bind def
/m   { moveto } bind def
/l  { rlineto } bind def
/np  { newpath } bind def
/cp  { closepath } bind def
/f   { fill } bind def
/o   { stroke } bind def
/c   { newpath 0 360 arc } bind def
/r   { 4 2 roll moveto 1 copy 3 -1 roll exch 0 exch rlineto 0 rlineto -1 mul 0 exch rlineto closepath } bind def
/p1  { stroke } bind def
/p2  { gsave bg fill grestore newpath } bind def
/p3  { gsave bg fill grestore stroke } bind def
/p6  { gsave bg eofill grestore newpath } bind def
/p7  { gsave bg eofill grestore stroke } bind def
/t   { 5 -2 roll moveto gsave rotate
       1 index stringwidth pop
       mul neg 0 rmoveto show grestore } bind def
/ta  { 4 -2 roll moveto gsave rotate show } bind def
/tb  { 2 -1 roll 0 rmoveto show } bind def
/cl  { grestore gsave newpath 3 index 3 index moveto 1 index
       4 -1 roll lineto  exch 1 index lineto lineto
       closepath clip newpath } bind def
/rgb { setrgbcolor } bind def
/s   { scalefont setfont } bind def
% end   .ps.prolog
/sRGB { [ /CIEBasedABC
          << /DecodeLMN
               [ { dup 0.03928 le
                        {12.92321 div}
                        {0.055 add 1.055 div 2.4 exp }
                     ifelse
                 } bind dup dup
               ]
             /MatrixLMN [0.412457 0.212673 0.019334
                         0.357576 0.715152 0.119192
                         0.180437 0.072175 0.950301]
             /WhitePoint [0.9505 1.0 1.0890]
           >>
         ] setcolorspace } bind def
/srgb { setcolor } bind def
% begin encoding
/WinAnsiEncoding [
 /.notdef /.notdef /.notdef /.notdef /.notdef /.notdef /.notdef /.notdef
 /.notdef /.notdef /.notdef /.notdef /.notdef /.notdef /.notdef /.notdef
 /.notdef /.notdef /.notdef /.notdef /.notdef /.notdef /.notdef /.notdef
 /.notdef /.notdef /.notdef /.notdef /.notdef /.notdef /.notdef /.notdef
 /space /exclam /quotedbl /numbersign /dollar /percent /ampersand /quoteright
 /parenleft /parenright /asterisk /plus /comma /minus /period /slash
 /zero /one /two /three /four /five /six /seven
 /eight /nine /colon /semicolon /less /equal /greater /question
 /at /A /B /C /D /E /F /G
 /H /I /J /K /L /M /N /O
 /P /Q /R /S /T /U /V /W
 /X /Y /Z /bracketleft /backslash /bracketright /asciicircum /underscore
 /grave /a /b /c /d /e /f /g
 /h /i /j /k /l /m /n /o
 /p /q /r /s /t /u /v /w
 /x /y /z /braceleft /bar /braceright /asciitilde /.notdef
 /Euro /.notdef /quotesinglbase /florin /quotedblbase /ellipsis /dagger /daggerdbl
 /circumflex /perthousand /Scaron /guilsinglleft /OE /.notdef /Zcaron /.notdef
 /.notdef /quoteleft /quoteright /quotedblleft /quotedblright /bullet /endash /emdash
 /tilde /trademark /scaron /guilsinglright /oe /.notdef /zcaron /Ydieresis
 /space /exclamdown /cent /sterling /currency /yen /brokenbar /section
 /dieresis /copyright /ordfeminine /guillemotleft /logicalnot /hyphen /registered /macron
 /degree /plusminus /twosuperior /threesuperior /acute /mu /paragraph /periodcentered
 /cedilla /onesuperior /ordmasculine /guillemotright /onequarter /onehalf /threequarters /questiondown
 /Agrave /Aacute /Acircumflex /Atilde /Adieresis /Aring /AE /Ccedilla
 /Egrave /Eacute /Ecircumflex /Edieresis /Igrave /Iacute /Icircumflex /Idieresis
 /Eth /Ntilde /Ograve /Oacute /Ocircumflex /Otilde /Odieresis /multiply
 /Oslash /Ugrave /Uacute /Ucircumflex /Udieresis /Yacute /Thorn /germandbls
 /agrave /aacute /acircumflex /atilde /adieresis /aring /ae /ccedilla
 /egrave /eacute /ecircumflex /edieresis /igrave /iacute /icircumflex /idieresis
 /eth /ntilde /ograve /oacute /ocircumflex /otilde /odieresis /divide
 /oslash /ugrave /uacute /ucircumflex /udieresis /yacute /thorn /ydieresis
]
 def
% end encoding
%%IncludeResource: font Helvetica
/Helvetica findfont
dup length dict begin
  {1 index /FID ne {def} {pop pop} ifelse} forall
  /Encoding WinAnsiEncoding def
  currentdict
  end
/Font1 exch definefont pop
%%IncludeResource: font Helvetica-Bold
/Helvetica-Bold findfont
dup length dict begin
  {1 index /FID ne {def} {pop pop} ifelse} forall
  /Encoding WinAnsiEncoding def
  currentdict
  end
/Font2 exch definefont pop
%%IncludeResource: font Helvetica-Oblique
/Helvetica-Oblique findfont
dup length dict begin
  {1 index /FID ne {def} {pop pop} ifelse} forall
  /Encoding WinAnsiEncoding def
  currentdict
  end
/Font3 exch definefont pop
%%IncludeResource: font Helvetica-BoldOblique
/Helvetica-BoldOblique findfont
dup length dict begin
  {1 index /FID ne {def} {pop pop} ifelse} forall
  /Encoding WinAnsiEncoding def
  currentdict
  end
/Font4 exch definefont pop
%%IncludeResource: font Symbol
/Symbol findfont
dup length dict begin
  {1 index /FID ne {def} {pop pop} ifelse} forall
  currentdict
  end
/Font5 exch definefont pop
%%EndProlog
%%Page: 1 1
bp
18.00 204.94 577.28 636.94 cl
0 0 0 srgb
0.75 setlinewidth
[] 0 setdash
1 setlinecap
1 setlinejoin
10.00 setmiterlimit
np
94.45 278.38 m
435.18 0 l
o
np
94.45 278.38 m
0 -7.20 l
o
np
181.48 278.38 m
0 -7.20 l
o
np
268.52 278.38 m
0 -7.20 l
o
np
355.56 278.38 m
0 -7.20 l
o
np
442.59 278.38 m
0 -7.20 l
o
np
529.63 278.38 m
0 -7.20 l
o
/Font1 findfont 12 s
94.45 252.46 (0) .5 0 t
181.48 252.46 (20) .5 0 t
268.52 252.46 (40) .5 0 t
355.56 252.46 (60) .5 0 t
442.59 252.46 (80) .5 0 t
529.63 252.46 (100) .5 0 t
np
77.04 289.48 m
0 277.33 l
o
np
77.04 289.48 m
-7.20 0 l
o
np
77.04 358.81 m
-7.20 0 l
o
np
77.04 428.14 m
-7.20 0 l
o
np
77.04 497.48 m
-7.20 0 l
o
np
77.04 566.81 m
-7.20 0 l
o
59.76 289.48 (0) .5 90 t
59.76 358.81 (20) .5 90 t
59.76 428.14 (40) .5 90 t
59.76 497.48 (60) .5 90 t
59.76 566.81 (80) .5 90 t
np
77.04 278.38 m
470.00 0 l
0 299.52 l
-470.00 0 l
0 -299.52 l
o
18.00 204.94 577.28 636.94 cl
/Font2 findfont 14 s
0 0 0 srgb
255.23 602.40 (V) 0 ta
-0.700 (ehic) tb
-0.280 (le sc) tb
-0.140 (hedule) tb gr
/Font1 findfont 12 s
312.04 223.66 (Planned time) .5 0 t
30.96 428.14 (Planned distance) .5 90 t
77.04 278.38 547.04 577.90 cl
0 0 0 srgb
0.75 setlinewidth
[ 2.25 3.75] 0 setdash
1 setlinecap
1 setlinejoin
10.00 setmiterlimit
np
94.45 254.81 m
0 381.33 l
o
np
116.21 254.81 m
0 381.33 l
o
np
137.97 254.81 m
0 381.33 l
o
np
159.72 254.81 m
0 381.33 l
o
np
181.48 254.81 m
0 381.33 l
o
np
203.24 254.81 m
0 381.33 l
o
np
225.00 254.81 m
0 381.33 l
o
np
246.76 254.81 m
0 381.33 l
o
np
268.52 254.81 m
0 381.33 l
o
np
290.28 254.81 m
0 381.33 l
o
np
312.04 254.81 m
0 381.33 l
o
np
333.80 254.81 m
0 381.33 l
o
np
355.56 254.81 m
0 381.33 l
o
np
377.31 254.81 m
0 381.33 l
o
np
399.07 254.81 m
0 381.33 l
o
np
420.83 254.81 m
0 381.33 l
o
np
442.59 254.81 m
0 381.33 l
o
np
464.35 254.81 m
0 381.33 l
o
np
486.11 254.81 m
0 381.33 l
o
np
507.87 254.81 m
0 381.33 l
o
np
529.63 254.81 m
0 381.33 l
o
0 0.3922 0 srgb
1.50 setlinewidth
[] 0 setdash
np
486.11 254.81 m
0 381.33 l
o
np
529.63 254.81 m
0 381.33 l
o
0 0 1 srgb
np
94.45 254.81 m
0 381.33 l
o
np
116.21 254.81 m
0 381.33 l
o
0 0 0 srgb
1.50 setlinewidth
[ 4.50 7.50] 0 setdash
np
94.45 289.48 m
73.98 0 l
95.74 69.33 l
8.70 0 l
47.87 34.67 l
8.71 0 l
95.73 69.33 l
8.71 0 l
95.74 62.40 l
47.65 0 l
o
1 0 0 srgb
np
94.45 289.48 m
21.76 0 l
95.74 69.33 l
8.70 0 l
47.87 34.67 l
8.70 0 l
95.74 69.33 l
8.71 0 l
95.74 62.40 l
99.87 0 l
o
1.50 setlinewidth
[] 0 setdash
np
233.71 358.81 m
8.70 0 l
47.87 34.67 l
8.70 0 l
95.74 69.33 l
8.71 0 l
95.74 62.40 l
78.11 0 l
o
0 0.3922 0 srgb
np
94.45 289.48 m
43.52 0 l
95.74 69.33 l
o
0 0 1 srgb
3.75 setlinewidth
[] 0 setdash
np
95.32 288.61 m
18.71 0 l
o
0 0.3922 0 srgb
np
486.98 288.61 m
41.78 0 l
o
/bg { 1 1 1 srgb } def
0 0 0 srgb
0.75 setlinewidth
[] 0 setdash
77.04 577.90 273.59 -86.40 r p3
1.50 setlinewidth
[ 4.50 7.50] 0 setdash
np
87.84 563.50 m
21.60 0 l
o
1 0 0 srgb
np
87.84 549.10 m
21.60 0 l
o
0 0.3922 0 srgb
1.50 setlinewidth
[] 0 setdash
np
87.84 534.70 m
21.60 0 l
o
0 0 1 srgb
np
87.84 520.30 m
21.60 0 l
o
0 0.3922 0 srgb
np
87.84 505.90 m
21.60 0 l
o
/Font1 findfont 12 s
0 0 0 srgb
120.24 559.20 (Schedule f) 0 ta
-0.360 (or latest possib) tb
-0.240 (le commitment) tb gr
120.24 544.80 (Schedule f) 0 ta
-0.360 (or ear) tb
0.180 (liest possib) tb
-0.240 (le commitment) tb gr
120.24 530.40 (Schedule f) 0 ta
-0.360 (or the actual commitment) tb gr
120.24 516.00 (Max assumed optimization time) 0 0 t
120.24 501.60 (T) 0 ta
-1.440 (ac) tb gr
ep
%%Trailer
%%Pages: 1
%%EOF
