0,150	0	551,173821179946
0,150	1	551,173821179946
0,150	2	513,23296520433
0,150	3	509,793612827193
0,150	4	496,248258411773
0,150	5	459,342107338254
0,150	6	459,342107338254
0,150	7	459,342107338254
0,150	8	453,180566266184
0,150	9	451,976403077463
0,150	10	451,976403077463
0,150	11	451,976403077463
0,150	12	450,980442576418
0,150	13	450,980442576418
0,150	14	450,980442576418
0,150	15	450,685937216911
0,150	16	450,685937216911
0,150	17	450,685937216911
0,150	18	450,685937216911
0,150	19	450,685937216911
0,150	20	450,685937216911
0,150	21	449,256474967512
0,150	22	449,256474967512
0,150	23	449,256474967512
0,150	24	449,256474967512
0,150	25	449,256474967512
0,150	26	449,256474967512
0,150	27	449,256474967512
0,150	28	449,256474967512
0,150	29	449,256474967512
0,150	30	449,256474967512
0,150	31	449,256474967512
0,150	32	449,256474967512
0,150	33	449,256474967512
0,150	34	449,256474967512
0,150	35	449,256474967512
0,150	36	449,256474967512
0,150	37	449,256474967512
0,150	38	449,256474967512
0,150	39	449,256474967512
0,150	40	449,256474967512
0,150	41	449,256474967512
0,150	42	449,256474967512
0,150	43	449,256474967512
0,150	44	449,256474967512
0,150	45	449,256474967512
0,150	46	449,256474967512
0,150	47	449,256474967512
0,150	48	449,256474967512
0,150	49	449,256474967512
0,150	50	449,256474967512
0,150	51	449,256474967512
0,150	52	449,256474967512
0,150	53	449,256474967512
0,150	54	449,256474967512
0,150	55	449,256474967512
0,150	56	449,256474967512
0,150	57	449,256474967512
0,150	58	449,256474967512
0,150	59	449,256474967512
0,150	60	449,256474967512
0,150	61	449,256474967512
0,150	62	449,256474967512
0,150	63	449,256474967512
0,150	64	449,256474967512
0,150	65	449,256474967512
0,150	66	449,256474967512
0,150	67	449,256474967512
0,150	68	449,256474967512
0,150	69	449,256474967512
0,150	70	449,256474967512
0,150	71	449,256474967512
0,150	72	449,256474967512
0,150	73	449,256474967512
0,150	74	449,256474967512
0,150	75	449,256474967512
0,150	76	449,256474967512
0,150	77	449,256474967512
0,150	78	449,256474967512
0,150	79	449,256474967512
0,150	80	449,256474967512
0,150	81	449,256474967512
0,150	82	449,256474967512
0,150	83	449,256474967512
0,150	84	449,256474967512
0,150	85	449,256474967512
0,150	86	449,256474967512
0,150	87	449,256474967512
0,150	88	449,256474967512
0,150	89	449,256474967512
0,150	90	449,256474967512
0,150	91	449,256474967512
0,150	92	449,256474967512
0,150	93	449,256474967512
0,150	94	449,256474967512
0,150	95	449,256474967512
0,150	96	449,256474967512
0,150	97	449,256474967512
0,150	98	449,256474967512
0,150	99	449,256474967512
0,150	100	449,256474967512
0,150	101	449,256474967512
0,150	102	449,256474967512
0,150	103	449,256474967512
0,150	104	449,256474967512
0,150	105	449,256474967512
0,150	106	449,256474967512
0,150	107	449,256474967512
0,150	108	449,256474967512
0,150	109	449,256474967512
0,150	110	449,256474967512
0,150	111	449,256474967512
0,150	112	449,256474967512
0,150	113	449,256474967512
0,150	114	449,256474967512
0,150	115	449,256474967512
0,150	116	449,256474967512
0,150	117	449,256474967512
0,150	118	449,256474967512
0,150	119	449,256474967512
0,150	120	449,256474967512
0,150	121	449,256474967512
0,150	122	449,256474967512
0,150	123	449,256474967512
0,150	124	449,256474967512
0,150	125	449,256474967512
0,150	126	449,256474967512
0,150	127	449,256474967512
0,150	128	449,256474967512
0,150	129	449,256474967512
0,150	130	449,256474967512
0,150	131	449,256474967512
0,150	132	449,256474967512
0,150	133	449,256474967512
0,150	134	449,256474967512
0,150	135	449,256474967512
0,150	136	449,256474967512
0,150	137	449,256474967512
0,150	138	449,256474967512
0,150	139	449,256474967512
0,150	140	449,256474967512
0,150	141	449,256474967512
0,150	142	449,256474967512
0,150	143	449,256474967512
0,150	144	449,256474967512
0,150	145	449,256474967512
0,150	146	449,256474967512
0,150	147	449,256474967512
0,150	148	449,256474967512
0,150	149	449,256474967512
0,150	150	449,256474967512
0,150	151	449,256474967512
0,150	152	449,256474967512
0,150	153	449,256474967512
0,150	154	449,256474967512
0,150	155	449,256474967512
0,150	156	449,256474967512
0,150	157	449,256474967512
0,150	158	449,256474967512
0,150	159	449,256474967512
0,150	160	449,256474967512
0,150	161	449,256474967512
0,150	162	449,256474967512
0,150	163	449,256474967512
0,150	164	449,256474967512
0,150	165	449,256474967512
0,150	166	449,256474967512
0,150	167	449,256474967512
0,150	168	449,256474967512
0,150	169	449,256474967512
0,150	170	449,256474967512
0,150	171	449,256474967512
0,150	172	449,256474967512
0,150	173	449,256474967512
0,150	174	449,256474967512
0,150	175	449,256474967512
0,150	176	449,256474967512
0,150	177	449,256474967512
0,150	178	449,256474967512
0,150	179	449,256474967512
0,150	180	449,256474967512
0,150	181	449,256474967512
0,150	182	449,256474967512
0,150	183	449,256474967512
0,150	184	449,256474967512
0,150	185	449,256474967512
0,150	186	449,256474967512
0,150	187	449,256474967512
0,150	188	449,256474967512
0,150	189	449,256474967512
0,150	190	449,256474967512
0,150	191	449,256474967512
0,150	192	449,256474967512
0,150	193	449,256474967512
0,150	194	449,256474967512
0,150	195	449,256474967512
0,150	196	449,256474967512
0,150	197	449,256474967512
0,150	198	449,256474967512
0,150	199	449,256474967512
0,150	200	449,256474967512
0,150	201	449,256474967512
0,150	202	449,256474967512
0,150	203	449,256474967512
0,150	204	449,256474967512
0,150	205	449,256474967512
0,150	206	449,256474967512
0,150	207	449,256474967512
0,150	208	449,256474967512
0,150	209	449,256474967512
0,150	210	449,256474967512
0,150	211	449,256474967512
0,150	212	449,256474967512
0,150	213	449,256474967512
0,150	214	449,256474967512
0,150	215	449,256474967512
0,150	216	449,256474967512
0,150	217	449,256474967512
0,150	218	449,256474967512
0,150	219	449,256474967512
0,150	220	449,256474967512
0,150	221	449,256474967512
0,150	222	449,256474967512
0,150	223	449,256474967512
0,150	224	449,256474967512
0,150	225	449,256474967512
0,150	226	449,256474967512
0,150	227	449,256474967512
0,150	228	449,256474967512
0,150	229	449,256474967512
0,150	230	449,256474967512
0,150	231	449,256474967512
0,150	232	449,256474967512
0,150	233	449,256474967512
0,150	234	449,256474967512
0,150	235	449,256474967512
0,150	236	449,256474967512
0,150	237	449,256474967512
0,150	238	449,256474967512
0,150	239	449,256474967512
0,150	240	449,256474967512
0,150	241	449,256474967512
0,150	242	449,256474967512
0,150	243	449,256474967512
0,150	244	449,256474967512
0,150	245	449,256474967512
0,150	246	449,256474967512
0,150	247	449,256474967512
0,150	248	449,256474967512
0,150	249	449,256474967512
0,150	250	449,256474967512
0,150	251	449,256474967512
0,150	252	449,256474967512
0,150	253	449,256474967512
0,150	254	449,256474967512
0,150	255	449,256474967512
0,150	256	449,256474967512
0,150	257	449,256474967512
0,150	258	449,256474967512
0,150	259	449,256474967512
0,150	260	449,256474967512
0,150	261	449,256474967512
0,150	262	449,256474967512
0,150	263	449,256474967512
0,150	264	449,256474967512
0,150	265	449,256474967512
0,150	266	449,256474967512
0,150	267	449,256474967512
0,150	268	449,256474967512
0,150	269	449,256474967512
0,150	270	449,256474967512
0,150	271	449,256474967512
0,150	272	449,256474967512
0,150	273	449,256474967512
0,150	274	449,256474967512
0,150	275	449,256474967512
0,150	276	449,256474967512
0,150	277	449,256474967512
0,150	278	449,256474967512
0,150	279	449,256474967512
0,150	280	449,256474967512
0,150	281	449,256474967512
0,150	282	449,256474967512
0,150	283	449,256474967512
0,150	284	449,256474967512
0,150	285	449,256474967512
0,150	286	449,256474967512
0,150	287	449,256474967512
0,150	288	449,256474967512
0,150	289	449,256474967512
0,150	290	449,256474967512
0,150	291	449,256474967512
0,150	292	449,256474967512
0,150	293	449,256474967512
0,150	294	449,256474967512
0,150	295	449,256474967512
0,150	296	449,256474967512
0,150	297	449,256474967512
0,150	298	449,256474967512
0,150	299	449,256474967512
0,150	300	449,256474967512
0,150	301	449,256474967512
0,150	302	449,256474967512
0,150	303	449,256474967512
0,150	304	449,256474967512
0,150	305	449,256474967512
0,150	306	449,256474967512
0,150	307	449,256474967512
0,150	308	449,256474967512
0,150	309	449,256474967512
0,150	310	449,256474967512
0,150	311	449,256474967512
0,150	312	449,256474967512
0,150	313	449,256474967512
0,150	314	449,256474967512
0,150	315	449,256474967512
0,150	316	449,256474967512
0,150	317	449,256474967512
0,150	318	449,256474967512
0,150	319	449,256474967512
0,150	320	449,256474967512
0,150	321	449,256474967512
0,150	322	449,256474967512
0,150	323	449,256474967512
0,150	324	449,256474967512
0,150	325	449,256474967512
0,150	326	449,256474967512
0,150	327	449,256474967512
0,150	328	449,256474967512
0,150	329	449,256474967512
0,150	330	449,256474967512
0,150	331	449,256474967512
0,150	332	449,256474967512
0,150	333	449,256474967512
0,150	334	449,256474967512
0,150	335	449,256474967512
0,150	336	449,256474967512
0,150	337	449,256474967512
0,150	338	449,256474967512
0,150	339	449,256474967512
0,150	340	449,256474967512
0,150	341	449,256474967512
0,150	342	449,256474967512
0,150	343	449,256474967512
0,150	344	449,256474967512
0,150	345	449,256474967512
0,150	346	449,256474967512
0,150	347	449,256474967512
0,150	348	449,256474967512
0,150	349	449,256474967512
0,150	350	449,256474967512
0,150	351	449,256474967512
0,150	352	449,256474967512
0,150	353	449,256474967512
0,150	354	449,256474967512
0,150	355	449,256474967512
0,150	356	449,256474967512
0,150	357	449,256474967512
0,150	358	449,256474967512
0,150	359	449,256474967512
0,150	360	449,256474967512
0,150	361	449,256474967512
0,150	362	449,256474967512
0,150	363	449,256474967512
0,150	364	449,256474967512
0,150	365	449,256474967512
0,150	366	449,256474967512
0,150	367	449,256474967512
0,150	368	449,256474967512
0,150	369	449,256474967512
0,150	370	449,256474967512
0,150	371	449,256474967512
0,150	372	449,256474967512
0,150	373	449,256474967512
0,150	374	449,256474967512
0,150	375	449,256474967512
0,150	376	449,256474967512
0,150	377	449,256474967512
0,150	378	449,256474967512
0,150	379	449,256474967512
0,150	380	449,256474967512
0,150	381	449,256474967512
0,150	382	449,256474967512
0,150	383	449,256474967512
0,150	384	449,256474967512
0,150	385	449,256474967512
0,150	386	449,256474967512
0,150	387	449,256474967512
0,150	388	449,256474967512
0,150	389	449,256474967512
0,150	390	449,256474967512
0,150	391	449,256474967512
0,150	392	449,256474967512
0,150	393	449,256474967512
0,150	394	449,256474967512
0,150	395	449,256474967512
0,150	396	449,256474967512
0,150	397	449,256474967512
0,150	398	449,256474967512
0,150	399	449,256474967512
0,150	400	449,256474967512
0,150	401	449,256474967512
0,150	402	449,256474967512
0,150	403	449,256474967512
0,150	404	449,256474967512
0,150	405	449,256474967512
0,150	406	449,256474967512
0,150	407	449,256474967512
0,150	408	449,256474967512
0,150	409	449,256474967512
0,150	410	449,256474967512
0,150	411	449,256474967512
0,150	412	449,256474967512
0,150	413	449,256474967512
0,150	414	449,256474967512
0,150	415	449,256474967512
0,150	416	449,256474967512
0,150	417	449,256474967512
0,150	418	449,256474967512
0,150	419	449,256474967512
0,150	420	449,256474967512
0,150	421	449,256474967512
0,150	422	449,256474967512
0,150	423	449,256474967512
0,150	424	449,256474967512
0,150	425	449,256474967512
0,150	426	449,256474967512
0,150	427	449,256474967512
0,150	428	449,256474967512
0,150	429	449,256474967512
0,150	430	449,256474967512
0,150	431	449,256474967512
0,150	432	449,256474967512
0,150	433	449,256474967512
0,150	434	449,256474967512
0,150	435	449,256474967512
0,150	436	449,256474967512
0,150	437	449,256474967512
0,150	438	449,256474967512
0,150	439	449,256474967512
0,150	440	449,256474967512
0,150	441	449,256474967512
0,150	442	449,256474967512
