0,800	0	569,69742223487
0,800	1	569,69742223487
0,800	2	569,69742223487
0,800	3	569,69742223487
0,800	4	569,69742223487
0,800	5	569,69742223487
0,800	6	569,69742223487
0,800	7	569,69742223487
0,800	8	569,69742223487
0,800	9	569,69742223487
0,800	10	569,69742223487
0,800	11	569,69742223487
0,800	12	569,69742223487
0,800	13	569,69742223487
0,800	14	569,69742223487
0,800	15	569,69742223487
0,800	16	569,69742223487
0,800	17	569,69742223487
0,800	18	569,69742223487
0,800	19	569,69742223487
0,800	20	569,69742223487
0,800	21	569,69742223487
0,800	22	569,69742223487
0,800	23	569,69742223487
0,800	24	569,69742223487
0,800	25	569,69742223487
0,800	26	569,69742223487
0,800	27	569,69742223487
0,800	28	569,69742223487
0,800	29	569,69742223487
0,800	30	569,69742223487
0,800	31	569,69742223487
0,800	32	569,69742223487
0,800	33	569,69742223487
0,800	34	569,69742223487
0,800	35	569,69742223487
0,800	36	569,69742223487
0,800	37	569,69742223487
0,800	38	569,69742223487
0,800	39	569,69742223487
0,800	40	569,69742223487
0,800	41	569,69742223487
0,800	42	569,69742223487
0,800	43	569,69742223487
0,800	44	569,69742223487
0,800	45	569,69742223487
0,800	46	569,69742223487
0,800	47	569,69742223487
0,800	48	569,69742223487
0,800	49	569,69742223487
0,800	50	569,69742223487
0,800	51	569,69742223487
0,800	52	569,69742223487
0,800	53	569,69742223487
0,800	54	569,69742223487
0,800	55	569,69742223487
0,800	56	569,69742223487
0,800	57	569,69742223487
0,800	58	569,69742223487
0,800	59	569,69742223487
0,800	60	569,69742223487
0,800	61	569,69742223487
0,800	62	569,69742223487
0,800	63	569,69742223487
0,800	64	569,69742223487
0,800	65	569,69742223487
0,800	66	569,69742223487
0,800	67	569,69742223487
0,800	68	569,69742223487
0,800	69	569,69742223487
0,800	70	569,69742223487
0,800	71	569,69742223487
0,800	72	569,69742223487
0,800	73	569,69742223487
0,800	74	569,69742223487
0,800	75	569,69742223487
0,800	76	569,69742223487
0,800	77	569,69742223487
0,800	78	569,69742223487
0,800	79	569,69742223487
0,800	80	569,69742223487
0,800	81	569,69742223487
0,800	82	569,69742223487
0,800	83	569,69742223487
0,800	84	569,69742223487
0,800	85	569,69742223487
0,800	86	569,69742223487
0,800	87	569,69742223487
0,800	88	569,69742223487
0,800	89	569,69742223487
0,800	90	569,69742223487
0,800	91	569,69742223487
0,800	92	569,69742223487
0,800	93	569,69742223487
0,800	94	569,69742223487
0,800	95	569,69742223487
0,800	96	569,69742223487
0,800	97	569,69742223487
0,800	98	569,69742223487
0,800	99	569,69742223487
0,800	100	569,69742223487
0,800	101	569,69742223487
0,800	102	569,69742223487
0,800	103	569,69742223487
0,800	104	569,69742223487
0,800	105	569,69742223487
0,800	106	569,69742223487
0,800	107	569,69742223487
0,800	108	569,69742223487
0,800	109	569,69742223487
0,800	110	569,69742223487
0,800	111	569,69742223487
0,800	112	569,69742223487
0,800	113	569,69742223487
0,800	114	569,69742223487
0,800	115	569,69742223487
0,800	116	569,69742223487
0,800	117	569,69742223487
0,800	118	569,69742223487
0,800	119	569,69742223487
0,800	120	569,69742223487
0,800	121	569,69742223487
0,800	122	569,69742223487
0,800	123	569,69742223487
0,800	124	569,69742223487
0,800	125	569,69742223487
0,800	126	569,69742223487
0,800	127	569,69742223487
0,800	128	569,69742223487
0,800	129	569,69742223487
0,800	130	569,69742223487
0,800	131	569,69742223487
0,800	132	569,69742223487
0,800	133	569,69742223487
0,800	134	569,69742223487
0,800	135	569,69742223487
0,800	136	569,69742223487
0,800	137	569,69742223487
0,800	138	569,69742223487
0,800	139	569,69742223487
0,800	140	569,69742223487
0,800	141	569,69742223487
0,800	142	569,69742223487
0,800	143	569,69742223487
0,800	144	569,69742223487
0,800	145	569,69742223487
0,800	146	569,69742223487
0,800	147	569,69742223487
0,800	148	569,69742223487
0,800	149	569,69742223487
0,800	150	569,69742223487
0,800	151	569,69742223487
0,800	152	569,69742223487
0,800	153	569,69742223487
0,800	154	569,69742223487
0,800	155	569,69742223487
0,800	156	569,69742223487
0,800	157	569,69742223487
0,800	158	569,69742223487
0,800	159	569,69742223487
0,800	160	569,69742223487
0,800	161	569,69742223487
0,800	162	569,69742223487
0,800	163	569,69742223487
0,800	164	569,69742223487
0,800	165	569,69742223487
0,800	166	569,69742223487
0,800	167	569,69742223487
0,800	168	569,69742223487
0,800	169	569,69742223487
0,800	170	569,69742223487
0,800	171	569,69742223487
0,800	172	569,69742223487
0,800	173	569,69742223487
0,800	174	569,69742223487
0,800	175	569,69742223487
0,800	176	569,69742223487
0,800	177	569,69742223487
0,800	178	569,69742223487
0,800	179	569,69742223487
0,800	180	569,69742223487
0,800	181	569,69742223487
0,800	182	569,69742223487
0,800	183	569,69742223487
0,800	184	569,69742223487
0,800	185	569,69742223487
0,800	186	569,69742223487
0,800	187	569,69742223487
0,800	188	569,69742223487
0,800	189	569,69742223487
0,800	190	569,69742223487
0,800	191	569,69742223487
0,800	192	569,69742223487
0,800	193	569,69742223487
0,800	194	569,69742223487
0,800	195	569,69742223487
0,800	196	569,69742223487
0,800	197	569,69742223487
0,800	198	569,69742223487
0,800	199	569,69742223487
0,800	200	569,69742223487
0,800	201	569,69742223487
0,800	202	569,69742223487
0,800	203	569,69742223487
0,800	204	569,69742223487
0,800	205	569,69742223487
0,800	206	569,69742223487
0,800	207	569,69742223487
0,800	208	569,69742223487
0,800	209	569,69742223487
0,800	210	569,69742223487
0,800	211	569,69742223487
0,800	212	569,69742223487
0,800	213	569,69742223487
0,800	214	569,69742223487
0,800	215	569,69742223487
0,800	216	569,69742223487
0,800	217	569,69742223487
0,800	218	569,69742223487
0,800	219	569,69742223487
0,800	220	569,69742223487
0,800	221	569,69742223487
0,800	222	569,69742223487
0,800	223	569,69742223487
0,800	224	569,69742223487
0,800	225	569,69742223487
0,800	226	569,69742223487
0,800	227	569,69742223487
0,800	228	569,69742223487
0,800	229	569,69742223487
0,800	230	569,69742223487
0,800	231	569,69742223487
0,800	232	569,69742223487
0,800	233	569,69742223487
0,800	234	569,69742223487
0,800	235	569,69742223487
0,800	236	569,69742223487
0,800	237	569,69742223487
0,800	238	569,69742223487
0,800	239	569,69742223487
0,800	240	569,69742223487
0,800	241	569,69742223487
0,800	242	569,69742223487
0,800	243	569,69742223487
0,800	244	569,69742223487
0,800	245	569,69742223487
0,800	246	569,69742223487
0,800	247	569,69742223487
0,800	248	569,69742223487
0,800	249	569,69742223487
0,800	250	569,69742223487
0,800	251	569,69742223487
0,800	252	569,69742223487
0,800	253	569,69742223487
0,800	254	569,69742223487
0,800	255	569,69742223487
0,800	256	569,69742223487
0,800	257	569,69742223487
0,800	258	569,69742223487
0,800	259	569,69742223487
0,800	260	569,69742223487
0,800	261	569,69742223487
0,800	262	569,69742223487
0,800	263	569,69742223487
0,800	264	569,69742223487
0,800	265	569,69742223487
0,800	266	569,69742223487
0,800	267	569,69742223487
0,800	268	569,69742223487
0,800	269	569,69742223487
0,800	270	569,69742223487
0,800	271	569,69742223487
0,800	272	569,69742223487
0,800	273	569,69742223487
0,800	274	569,69742223487
0,800	275	569,69742223487
0,800	276	569,69742223487
0,800	277	569,69742223487
0,800	278	569,69742223487
0,800	279	569,69742223487
0,800	280	569,69742223487
0,800	281	569,69742223487
0,800	282	569,69742223487
0,800	283	569,69742223487
0,800	284	569,69742223487
0,800	285	569,69742223487
0,800	286	569,69742223487
0,800	287	569,69742223487
0,800	288	569,69742223487
0,800	289	569,69742223487
0,800	290	569,69742223487
0,800	291	569,69742223487
0,800	292	569,69742223487
0,800	293	569,69742223487
0,800	294	569,69742223487
0,800	295	569,69742223487
0,800	296	569,69742223487
0,800	297	569,69742223487
0,800	298	569,69742223487
0,800	299	569,69742223487
0,800	300	569,69742223487
0,800	301	569,69742223487
0,800	302	569,69742223487
0,800	303	569,69742223487
0,800	304	569,69742223487
0,800	305	569,69742223487
0,800	306	569,69742223487
0,800	307	569,69742223487
0,800	308	569,69742223487
0,800	309	569,69742223487
0,800	310	569,69742223487
0,800	311	569,69742223487
0,800	312	569,69742223487
0,800	313	569,69742223487
0,800	314	569,69742223487
0,800	315	569,69742223487
0,800	316	569,69742223487
0,800	317	569,69742223487
0,800	318	569,69742223487
0,800	319	569,69742223487
0,800	320	569,69742223487
0,800	321	569,69742223487
0,800	322	569,69742223487
0,800	323	569,69742223487
0,800	324	569,69742223487
0,800	325	569,69742223487
0,800	326	569,69742223487
0,800	327	569,69742223487
0,800	328	569,69742223487
0,800	329	569,69742223487
0,800	330	569,69742223487
0,800	331	569,69742223487
0,800	332	569,69742223487
0,800	333	569,69742223487
0,800	334	569,69742223487
0,800	335	569,69742223487
0,800	336	569,69742223487
0,800	337	569,69742223487
0,800	338	569,69742223487
0,800	339	569,69742223487
0,800	340	569,69742223487
0,800	341	569,69742223487
0,800	342	569,69742223487
0,800	343	569,69742223487
0,800	344	569,69742223487
0,800	345	569,69742223487
0,800	346	569,69742223487
0,800	347	569,69742223487
0,800	348	569,69742223487
0,800	349	569,69742223487
0,800	350	569,69742223487
0,800	351	569,69742223487
0,800	352	569,69742223487
0,800	353	569,69742223487
0,800	354	569,69742223487
0,800	355	569,69742223487
0,800	356	569,69742223487
0,800	357	569,69742223487
0,800	358	569,69742223487
0,800	359	569,69742223487
0,800	360	569,69742223487
0,800	361	569,69742223487
0,800	362	569,69742223487
0,800	363	569,69742223487
0,800	364	569,69742223487
0,800	365	569,69742223487
0,800	366	569,69742223487
0,800	367	569,69742223487
0,800	368	569,69742223487
0,800	369	569,69742223487
0,800	370	569,69742223487
0,800	371	569,69742223487
0,800	372	569,69742223487
0,800	373	569,69742223487
0,800	374	569,69742223487
0,800	375	569,69742223487
0,800	376	569,69742223487
0,800	377	569,69742223487
0,800	378	569,69742223487
0,800	379	569,69742223487
0,800	380	569,69742223487
0,800	381	569,69742223487
0,800	382	569,69742223487
0,800	383	569,69742223487
0,800	384	569,69742223487
0,800	385	569,69742223487
0,800	386	569,69742223487
0,800	387	569,69742223487
0,800	388	569,69742223487
0,800	389	569,69742223487
0,800	390	569,69742223487
0,800	391	569,69742223487
0,800	392	569,69742223487
0,800	393	569,69742223487
0,800	394	569,69742223487
0,800	395	569,69742223487
0,800	396	569,69742223487
0,800	397	569,69742223487
0,800	398	569,69742223487
0,800	399	569,69742223487
0,800	400	569,69742223487
0,800	401	569,69742223487
0,800	402	569,69742223487
0,800	403	569,69742223487
0,800	404	569,69742223487
0,800	405	569,69742223487
0,800	406	569,69742223487
0,800	407	569,69742223487
0,800	408	569,69742223487
0,800	409	569,69742223487
0,800	410	569,69742223487
0,800	411	569,69742223487
0,800	412	569,69742223487
0,800	413	569,69742223487
0,800	414	569,69742223487
0,800	415	569,69742223487
0,800	416	569,69742223487
0,800	417	569,69742223487
0,800	418	569,69742223487
0,800	419	569,69742223487
0,800	420	569,69742223487
0,800	421	569,69742223487
0,800	422	569,69742223487
0,800	423	569,69742223487
0,800	424	569,69742223487
0,800	425	569,69742223487
0,800	426	569,69742223487
0,800	427	569,69742223487
0,800	428	569,69742223487
0,800	429	569,69742223487
0,800	430	569,69742223487
0,800	431	569,69742223487
0,800	432	569,69742223487
0,800	433	569,69742223487
0,800	434	569,69742223487
0,800	435	569,69742223487
0,800	436	569,69742223487
0,800	437	569,69742223487
0,800	438	569,69742223487
0,800	439	569,69742223487
0,800	440	569,69742223487
0,800	441	569,69742223487
0,800	442	569,69742223487
