0,125	0	473,92584986112
0,125	1	453,479755296038
0,125	2	449,993953841355
0,125	3	448,99799334031
0,125	4	448,99799334031
0,125	5	448,99799334031
0,125	6	448,99799334031
0,125	7	448,99799334031
0,125	8	447,455645626031
0,125	9	447,455645626031
0,125	10	447,455645626031
0,125	11	447,455645626031
0,125	12	447,455645626031
0,125	13	447,455645626031
0,125	14	445,20978354619
0,125	15	445,20978354619
0,125	16	445,20978354619
0,125	17	445,20978354619
0,125	18	445,20978354619
0,125	19	445,20978354619
0,125	20	445,20978354619
0,125	21	445,20978354619
0,125	22	445,20978354619
0,125	23	445,20978354619
0,125	24	445,20978354619
0,125	25	445,20978354619
0,125	26	445,20978354619
0,125	27	445,20978354619
0,125	28	445,20978354619
0,125	29	445,20978354619
0,125	30	445,20978354619
0,125	31	445,20978354619
0,125	32	445,20978354619
0,125	33	445,20978354619
0,125	34	445,20978354619
0,125	35	445,20978354619
0,125	36	445,20978354619
0,125	37	445,20978354619
0,125	38	445,20978354619
0,125	39	445,20978354619
0,125	40	445,20978354619
0,125	41	445,20978354619
0,125	42	445,20978354619
0,125	43	445,20978354619
0,125	44	445,20978354619
0,125	45	445,20978354619
0,125	46	445,20978354619
0,125	47	445,20978354619
0,125	48	445,20978354619
0,125	49	445,20978354619
0,125	50	445,20978354619
0,125	51	445,20978354619
0,125	52	445,20978354619
0,125	53	445,20978354619
0,125	54	445,20978354619
0,125	55	445,20978354619
0,125	56	445,20978354619
0,125	57	445,20978354619
0,125	58	445,20978354619
0,125	59	445,20978354619
0,125	60	445,20978354619
0,125	61	445,20978354619
0,125	62	445,20978354619
0,125	63	445,20978354619
0,125	64	445,20978354619
0,125	65	445,20978354619
0,125	66	445,20978354619
0,125	67	445,20978354619
0,125	68	445,20978354619
0,125	69	445,20978354619
0,125	70	445,20978354619
0,125	71	445,20978354619
0,125	72	445,20978354619
0,125	73	445,20978354619
0,125	74	445,20978354619
0,125	75	445,20978354619
0,125	76	445,20978354619
0,125	77	445,20978354619
0,125	78	445,20978354619
0,125	79	445,20978354619
0,125	80	445,20978354619
0,125	81	445,20978354619
0,125	82	445,20978354619
0,125	83	445,20978354619
0,125	84	445,20978354619
0,125	85	445,20978354619
0,125	86	445,20978354619
0,125	87	445,20978354619
0,125	88	445,20978354619
0,125	89	445,20978354619
0,125	90	445,20978354619
0,125	91	445,20978354619
0,125	92	445,20978354619
0,125	93	445,20978354619
0,125	94	445,20978354619
0,125	95	445,20978354619
0,125	96	445,20978354619
0,125	97	445,20978354619
0,125	98	445,20978354619
0,125	99	445,20978354619
0,125	100	445,20978354619
0,125	101	445,20978354619
0,125	102	445,20978354619
0,125	103	445,20978354619
0,125	104	445,20978354619
0,125	105	445,20978354619
0,125	106	445,20978354619
0,125	107	445,20978354619
0,125	108	445,20978354619
0,125	109	445,20978354619
0,125	110	445,20978354619
0,125	111	445,20978354619
0,125	112	445,20978354619
0,125	113	445,20978354619
0,125	114	445,20978354619
0,125	115	445,20978354619
0,125	116	445,20978354619
0,125	117	445,20978354619
0,125	118	445,20978354619
0,125	119	445,20978354619
0,125	120	445,20978354619
0,125	121	445,20978354619
0,125	122	445,20978354619
0,125	123	445,20978354619
0,125	124	445,20978354619
0,125	125	445,20978354619
0,125	126	445,20978354619
0,125	127	445,20978354619
0,125	128	445,20978354619
0,125	129	445,20978354619
0,125	130	445,20978354619
0,125	131	445,20978354619
0,125	132	445,20978354619
0,125	133	445,20978354619
0,125	134	445,20978354619
0,125	135	445,20978354619
0,125	136	445,20978354619
0,125	137	445,20978354619
0,125	138	445,20978354619
0,125	139	445,20978354619
0,125	140	445,20978354619
0,125	141	445,20978354619
0,125	142	445,20978354619
0,125	143	445,20978354619
0,125	144	445,20978354619
0,125	145	445,20978354619
0,125	146	445,20978354619
0,125	147	445,20978354619
0,125	148	445,20978354619
0,125	149	445,20978354619
0,125	150	445,20978354619
0,125	151	445,20978354619
0,125	152	445,20978354619
0,125	153	445,20978354619
0,125	154	445,20978354619
0,125	155	445,20978354619
0,125	156	445,20978354619
0,125	157	445,20978354619
0,125	158	445,20978354619
0,125	159	445,20978354619
0,125	160	445,20978354619
0,125	161	445,20978354619
0,125	162	445,20978354619
0,125	163	445,20978354619
0,125	164	445,20978354619
0,125	165	445,20978354619
0,125	166	445,20978354619
0,125	167	445,20978354619
0,125	168	445,20978354619
0,125	169	445,20978354619
0,125	170	445,20978354619
0,125	171	445,20978354619
0,125	172	445,20978354619
0,125	173	445,20978354619
0,125	174	445,20978354619
0,125	175	445,20978354619
0,125	176	445,20978354619
0,125	177	445,20978354619
0,125	178	445,20978354619
0,125	179	445,20978354619
0,125	180	445,20978354619
0,125	181	445,20978354619
0,125	182	445,20978354619
0,125	183	445,20978354619
0,125	184	445,20978354619
0,125	185	445,20978354619
0,125	186	445,20978354619
0,125	187	445,20978354619
0,125	188	445,20978354619
0,125	189	445,20978354619
0,125	190	445,20978354619
0,125	191	445,20978354619
0,125	192	445,20978354619
0,125	193	445,20978354619
0,125	194	445,20978354619
0,125	195	445,20978354619
0,125	196	445,20978354619
0,125	197	445,20978354619
0,125	198	445,20978354619
0,125	199	445,20978354619
0,125	200	445,20978354619
0,125	201	445,20978354619
0,125	202	445,20978354619
0,125	203	445,20978354619
0,125	204	445,20978354619
0,125	205	445,20978354619
0,125	206	445,20978354619
0,125	207	445,20978354619
0,125	208	445,20978354619
0,125	209	445,20978354619
0,125	210	445,20978354619
0,125	211	445,20978354619
0,125	212	445,20978354619
0,125	213	445,20978354619
0,125	214	445,20978354619
0,125	215	445,20978354619
0,125	216	445,20978354619
0,125	217	445,20978354619
0,125	218	445,20978354619
0,125	219	445,20978354619
0,125	220	445,20978354619
0,125	221	445,20978354619
0,125	222	445,20978354619
0,125	223	445,20978354619
0,125	224	445,20978354619
0,125	225	445,20978354619
0,125	226	445,20978354619
0,125	227	445,20978354619
0,125	228	445,20978354619
0,125	229	445,20978354619
0,125	230	445,20978354619
0,125	231	445,20978354619
0,125	232	445,20978354619
0,125	233	445,20978354619
0,125	234	445,20978354619
0,125	235	445,20978354619
0,125	236	445,20978354619
0,125	237	445,20978354619
0,125	238	445,20978354619
0,125	239	445,20978354619
0,125	240	445,20978354619
0,125	241	445,20978354619
0,125	242	445,20978354619
0,125	243	445,20978354619
0,125	244	445,20978354619
0,125	245	445,20978354619
0,125	246	445,20978354619
0,125	247	445,20978354619
0,125	248	445,20978354619
0,125	249	445,20978354619
0,125	250	445,20978354619
0,125	251	445,20978354619
0,125	252	445,20978354619
0,125	253	445,20978354619
0,125	254	445,20978354619
0,125	255	445,20978354619
0,125	256	445,20978354619
0,125	257	445,20978354619
0,125	258	445,20978354619
0,125	259	445,20978354619
0,125	260	445,20978354619
0,125	261	445,20978354619
0,125	262	445,20978354619
0,125	263	445,20978354619
0,125	264	445,20978354619
0,125	265	445,20978354619
0,125	266	445,20978354619
0,125	267	445,20978354619
0,125	268	445,20978354619
0,125	269	445,20978354619
0,125	270	445,20978354619
0,125	271	445,20978354619
0,125	272	445,20978354619
0,125	273	445,20978354619
0,125	274	445,20978354619
0,125	275	445,20978354619
0,125	276	445,20978354619
0,125	277	445,20978354619
0,125	278	445,20978354619
0,125	279	445,20978354619
0,125	280	445,20978354619
0,125	281	445,20978354619
0,125	282	445,20978354619
0,125	283	445,20978354619
0,125	284	445,20978354619
0,125	285	445,20978354619
0,125	286	445,20978354619
0,125	287	445,20978354619
0,125	288	445,20978354619
0,125	289	445,20978354619
0,125	290	445,20978354619
0,125	291	445,20978354619
0,125	292	445,20978354619
0,125	293	445,20978354619
0,125	294	445,20978354619
0,125	295	445,20978354619
0,125	296	445,20978354619
0,125	297	445,20978354619
0,125	298	445,20978354619
0,125	299	445,20978354619
0,125	300	445,20978354619
0,125	301	445,20978354619
0,125	302	445,20978354619
0,125	303	445,20978354619
0,125	304	445,20978354619
0,125	305	445,20978354619
0,125	306	445,20978354619
0,125	307	445,20978354619
0,125	308	445,20978354619
0,125	309	445,20978354619
0,125	310	445,20978354619
0,125	311	445,20978354619
0,125	312	445,20978354619
0,125	313	445,20978354619
0,125	314	445,20978354619
0,125	315	445,20978354619
0,125	316	445,20978354619
0,125	317	445,20978354619
0,125	318	445,20978354619
0,125	319	445,20978354619
0,125	320	445,20978354619
0,125	321	445,20978354619
0,125	322	445,20978354619
0,125	323	445,20978354619
0,125	324	445,20978354619
0,125	325	445,20978354619
0,125	326	445,20978354619
0,125	327	445,20978354619
0,125	328	445,20978354619
0,125	329	445,20978354619
0,125	330	445,20978354619
0,125	331	445,20978354619
0,125	332	445,20978354619
0,125	333	445,20978354619
0,125	334	445,20978354619
0,125	335	445,20978354619
0,125	336	445,20978354619
0,125	337	445,20978354619
0,125	338	445,20978354619
0,125	339	445,20978354619
0,125	340	445,20978354619
0,125	341	445,20978354619
0,125	342	445,20978354619
0,125	343	445,20978354619
0,125	344	445,20978354619
0,125	345	445,20978354619
0,125	346	445,20978354619
0,125	347	445,20978354619
0,125	348	445,20978354619
0,125	349	445,20978354619
0,125	350	445,20978354619
0,125	351	445,20978354619
0,125	352	445,20978354619
0,125	353	445,20978354619
0,125	354	445,20978354619
0,125	355	445,20978354619
0,125	356	445,20978354619
0,125	357	445,20978354619
0,125	358	445,20978354619
0,125	359	445,20978354619
0,125	360	445,20978354619
0,125	361	445,20978354619
0,125	362	445,20978354619
0,125	363	445,20978354619
0,125	364	445,20978354619
0,125	365	445,20978354619
0,125	366	445,20978354619
0,125	367	445,20978354619
0,125	368	445,20978354619
0,125	369	445,20978354619
0,125	370	445,20978354619
0,125	371	445,20978354619
0,125	372	445,20978354619
0,125	373	445,20978354619
0,125	374	445,20978354619
0,125	375	445,20978354619
0,125	376	445,20978354619
0,125	377	445,20978354619
0,125	378	445,20978354619
0,125	379	445,20978354619
0,125	380	445,20978354619
0,125	381	445,20978354619
0,125	382	445,20978354619
0,125	383	445,20978354619
0,125	384	445,20978354619
0,125	385	445,20978354619
0,125	386	445,20978354619
0,125	387	445,20978354619
0,125	388	445,20978354619
0,125	389	445,20978354619
0,125	390	445,20978354619
0,125	391	445,20978354619
0,125	392	445,20978354619
0,125	393	445,20978354619
0,125	394	445,20978354619
0,125	395	445,20978354619
0,125	396	445,20978354619
0,125	397	445,20978354619
0,125	398	445,20978354619
0,125	399	445,20978354619
0,125	400	445,20978354619
0,125	401	445,20978354619
0,125	402	445,20978354619
0,125	403	445,20978354619
0,125	404	445,20978354619
0,125	405	445,20978354619
0,125	406	445,20978354619
0,125	407	445,20978354619
0,125	408	445,20978354619
0,125	409	445,20978354619
0,125	410	445,20978354619
0,125	411	445,20978354619
0,125	412	445,20978354619
0,125	413	445,20978354619
0,125	414	445,20978354619
0,125	415	445,20978354619
0,125	416	445,20978354619
0,125	417	445,20978354619
0,125	418	445,20978354619
0,125	419	445,20978354619
0,125	420	445,20978354619
0,125	421	445,20978354619
0,125	422	445,20978354619
0,125	423	445,20978354619
0,125	424	445,20978354619
0,125	425	445,20978354619
0,125	426	445,20978354619
0,125	427	445,20978354619
0,125	428	445,20978354619
0,125	429	445,20978354619
0,125	430	445,20978354619
0,125	431	445,20978354619
0,125	432	445,20978354619
0,125	433	445,20978354619
0,125	434	445,20978354619
0,125	435	445,20978354619
0,125	436	445,20978354619
0,125	437	445,20978354619
0,125	438	445,20978354619
0,125	439	445,20978354619
0,125	440	445,20978354619
0,125	441	445,20978354619
0,125	442	445,20978354619
