0,425	0	570,144664946418
0,425	1	570,144664946418
0,425	2	570,144664946418
0,425	3	570,144664946418
0,425	4	570,144664946418
0,425	5	570,144664946418
0,425	6	570,144664946418
0,425	7	570,144664946418
0,425	8	570,144664946418
0,425	9	570,144664946418
0,425	10	570,144664946418
0,425	11	570,144664946418
0,425	12	570,144664946418
0,425	13	570,144664946418
0,425	14	570,144664946418
0,425	15	570,144664946418
0,425	16	570,144664946418
0,425	17	570,144664946418
0,425	18	570,144664946418
0,425	19	570,144664946418
0,425	20	570,144664946418
0,425	21	570,144664946418
0,425	22	570,144664946418
0,425	23	570,144664946418
0,425	24	570,144664946418
0,425	25	558,807711324202
0,425	26	558,807711324202
0,425	27	558,807711324202
0,425	28	558,807711324202
0,425	29	558,807711324202
0,425	30	558,807711324202
0,425	31	558,807711324202
0,425	32	558,807711324202
0,425	33	558,807711324202
0,425	34	558,807711324202
0,425	35	558,807711324202
0,425	36	558,807711324202
0,425	37	558,807711324202
0,425	38	558,807711324202
0,425	39	558,807711324202
0,425	40	558,807711324202
0,425	41	558,807711324202
0,425	42	558,807711324202
0,425	43	558,807711324202
0,425	44	558,807711324202
0,425	45	558,807711324202
0,425	46	558,807711324202
0,425	47	558,807711324202
0,425	48	558,807711324202
0,425	49	558,807711324202
0,425	50	558,807711324202
0,425	51	558,807711324202
0,425	52	558,807711324202
0,425	53	558,807711324202
0,425	54	558,807711324202
0,425	55	558,807711324202
0,425	56	558,807711324202
0,425	57	558,807711324202
0,425	58	558,807711324202
0,425	59	558,807711324202
0,425	60	558,807711324202
0,425	61	558,807711324202
0,425	62	558,807711324202
0,425	63	558,807711324202
0,425	64	558,807711324202
0,425	65	558,807711324202
0,425	66	558,807711324202
0,425	67	558,807711324202
0,425	68	558,807711324202
0,425	69	558,807711324202
0,425	70	558,807711324202
0,425	71	558,807711324202
0,425	72	558,807711324202
0,425	73	558,807711324202
0,425	74	558,807711324202
0,425	75	558,807711324202
0,425	76	558,807711324202
0,425	77	558,807711324202
0,425	78	558,807711324202
0,425	79	558,807711324202
0,425	80	558,807711324202
0,425	81	558,807711324202
0,425	82	558,807711324202
0,425	83	558,807711324202
0,425	84	558,807711324202
0,425	85	558,807711324202
0,425	86	558,807711324202
0,425	87	558,807711324202
0,425	88	558,807711324202
0,425	89	558,807711324202
0,425	90	558,807711324202
0,425	91	558,807711324202
0,425	92	558,807711324202
0,425	93	558,807711324202
0,425	94	558,807711324202
0,425	95	558,807711324202
0,425	96	558,807711324202
0,425	97	558,807711324202
0,425	98	558,807711324202
0,425	99	558,807711324202
0,425	100	558,807711324202
0,425	101	558,807711324202
0,425	102	558,807711324202
0,425	103	558,807711324202
0,425	104	558,807711324202
0,425	105	558,807711324202
0,425	106	558,807711324202
0,425	107	558,807711324202
0,425	108	558,807711324202
0,425	109	558,807711324202
0,425	110	558,807711324202
0,425	111	558,807711324202
0,425	112	558,807711324202
0,425	113	558,807711324202
0,425	114	558,807711324202
0,425	115	558,807711324202
0,425	116	558,807711324202
0,425	117	558,807711324202
0,425	118	558,807711324202
0,425	119	558,807711324202
0,425	120	558,807711324202
0,425	121	558,807711324202
0,425	122	558,807711324202
0,425	123	558,807711324202
0,425	124	558,807711324202
0,425	125	558,807711324202
0,425	126	558,807711324202
0,425	127	558,807711324202
0,425	128	558,807711324202
0,425	129	558,807711324202
0,425	130	558,807711324202
0,425	131	558,807711324202
0,425	132	558,807711324202
0,425	133	558,807711324202
0,425	134	558,807711324202
0,425	135	558,807711324202
0,425	136	558,807711324202
0,425	137	558,807711324202
0,425	138	558,807711324202
0,425	139	558,807711324202
0,425	140	558,807711324202
0,425	141	558,807711324202
0,425	142	558,807711324202
0,425	143	558,807711324202
0,425	144	558,807711324202
0,425	145	558,807711324202
0,425	146	558,807711324202
0,425	147	558,807711324202
0,425	148	558,807711324202
0,425	149	558,807711324202
0,425	150	558,807711324202
0,425	151	558,807711324202
0,425	152	558,807711324202
0,425	153	558,807711324202
0,425	154	558,807711324202
0,425	155	558,807711324202
0,425	156	558,807711324202
0,425	157	558,807711324202
0,425	158	558,807711324202
0,425	159	558,807711324202
0,425	160	558,807711324202
0,425	161	558,807711324202
0,425	162	558,807711324202
0,425	163	558,807711324202
0,425	164	558,807711324202
0,425	165	558,807711324202
0,425	166	558,807711324202
0,425	167	558,807711324202
0,425	168	558,807711324202
0,425	169	558,807711324202
0,425	170	558,807711324202
0,425	171	558,807711324202
0,425	172	558,807711324202
0,425	173	558,807711324202
0,425	174	558,807711324202
0,425	175	558,807711324202
0,425	176	558,807711324202
0,425	177	558,807711324202
0,425	178	558,807711324202
0,425	179	558,807711324202
0,425	180	558,807711324202
0,425	181	558,807711324202
0,425	182	558,807711324202
0,425	183	558,807711324202
0,425	184	558,807711324202
0,425	185	558,807711324202
0,425	186	558,807711324202
0,425	187	558,807711324202
0,425	188	558,807711324202
0,425	189	558,807711324202
0,425	190	558,807711324202
0,425	191	558,807711324202
0,425	192	558,807711324202
0,425	193	558,807711324202
0,425	194	558,807711324202
0,425	195	558,807711324202
0,425	196	558,807711324202
0,425	197	558,807711324202
0,425	198	558,807711324202
0,425	199	558,807711324202
0,425	200	558,807711324202
0,425	201	558,807711324202
0,425	202	558,807711324202
0,425	203	558,807711324202
0,425	204	558,807711324202
0,425	205	558,807711324202
0,425	206	558,807711324202
0,425	207	558,807711324202
0,425	208	558,807711324202
0,425	209	558,807711324202
0,425	210	558,807711324202
0,425	211	558,807711324202
0,425	212	558,807711324202
0,425	213	558,807711324202
0,425	214	558,807711324202
0,425	215	558,807711324202
0,425	216	558,807711324202
0,425	217	558,807711324202
0,425	218	558,807711324202
0,425	219	558,807711324202
0,425	220	558,807711324202
0,425	221	558,807711324202
0,425	222	558,807711324202
0,425	223	558,807711324202
0,425	224	558,807711324202
0,425	225	558,807711324202
0,425	226	558,807711324202
0,425	227	558,807711324202
0,425	228	558,807711324202
0,425	229	558,807711324202
0,425	230	558,807711324202
0,425	231	558,807711324202
0,425	232	558,807711324202
0,425	233	558,807711324202
0,425	234	558,807711324202
0,425	235	558,807711324202
0,425	236	558,807711324202
0,425	237	558,807711324202
0,425	238	558,807711324202
0,425	239	558,807711324202
0,425	240	558,807711324202
0,425	241	558,807711324202
0,425	242	558,807711324202
0,425	243	558,807711324202
0,425	244	558,807711324202
0,425	245	558,807711324202
0,425	246	558,807711324202
0,425	247	558,807711324202
0,425	248	558,807711324202
0,425	249	558,807711324202
0,425	250	558,807711324202
0,425	251	558,807711324202
0,425	252	558,807711324202
0,425	253	558,807711324202
0,425	254	558,807711324202
0,425	255	558,807711324202
0,425	256	558,807711324202
0,425	257	558,807711324202
0,425	258	558,807711324202
0,425	259	558,807711324202
0,425	260	558,807711324202
0,425	261	558,807711324202
0,425	262	558,807711324202
0,425	263	558,807711324202
0,425	264	558,807711324202
0,425	265	558,807711324202
0,425	266	558,807711324202
0,425	267	558,807711324202
0,425	268	558,807711324202
0,425	269	558,807711324202
0,425	270	558,807711324202
0,425	271	558,807711324202
0,425	272	558,807711324202
0,425	273	558,807711324202
0,425	274	558,807711324202
0,425	275	558,807711324202
0,425	276	558,807711324202
0,425	277	558,807711324202
0,425	278	558,807711324202
0,425	279	558,807711324202
0,425	280	558,807711324202
0,425	281	558,807711324202
0,425	282	558,807711324202
0,425	283	558,807711324202
0,425	284	558,807711324202
0,425	285	558,807711324202
0,425	286	558,807711324202
0,425	287	558,807711324202
0,425	288	558,807711324202
0,425	289	558,807711324202
0,425	290	558,807711324202
0,425	291	558,807711324202
0,425	292	558,807711324202
0,425	293	558,807711324202
0,425	294	558,807711324202
0,425	295	558,807711324202
0,425	296	558,807711324202
0,425	297	558,807711324202
0,425	298	558,807711324202
0,425	299	558,807711324202
0,425	300	558,807711324202
0,425	301	558,807711324202
0,425	302	558,807711324202
0,425	303	558,807711324202
0,425	304	558,807711324202
0,425	305	558,807711324202
0,425	306	558,807711324202
0,425	307	558,807711324202
0,425	308	558,807711324202
0,425	309	558,807711324202
0,425	310	558,807711324202
0,425	311	558,807711324202
0,425	312	558,807711324202
0,425	313	558,807711324202
0,425	314	558,807711324202
0,425	315	558,807711324202
0,425	316	558,807711324202
0,425	317	558,807711324202
0,425	318	558,807711324202
0,425	319	558,807711324202
0,425	320	558,807711324202
0,425	321	558,807711324202
0,425	322	558,807711324202
0,425	323	558,807711324202
0,425	324	558,807711324202
0,425	325	558,807711324202
0,425	326	558,807711324202
0,425	327	558,807711324202
0,425	328	558,807711324202
0,425	329	558,807711324202
0,425	330	558,807711324202
0,425	331	558,807711324202
0,425	332	558,807711324202
0,425	333	558,807711324202
0,425	334	558,807711324202
0,425	335	558,807711324202
0,425	336	558,807711324202
0,425	337	558,807711324202
0,425	338	558,807711324202
0,425	339	558,807711324202
0,425	340	558,807711324202
0,425	341	558,807711324202
0,425	342	558,807711324202
0,425	343	558,807711324202
0,425	344	558,807711324202
0,425	345	558,807711324202
0,425	346	558,807711324202
0,425	347	558,807711324202
0,425	348	558,807711324202
0,425	349	558,807711324202
0,425	350	558,807711324202
0,425	351	558,807711324202
0,425	352	558,807711324202
0,425	353	558,807711324202
0,425	354	558,807711324202
0,425	355	558,807711324202
0,425	356	558,807711324202
0,425	357	558,807711324202
0,425	358	558,807711324202
0,425	359	558,807711324202
0,425	360	558,807711324202
0,425	361	558,807711324202
0,425	362	558,807711324202
0,425	363	558,807711324202
0,425	364	558,807711324202
0,425	365	558,807711324202
0,425	366	558,807711324202
0,425	367	558,807711324202
0,425	368	558,807711324202
0,425	369	558,807711324202
0,425	370	558,807711324202
0,425	371	558,807711324202
0,425	372	558,807711324202
0,425	373	558,807711324202
0,425	374	558,807711324202
0,425	375	558,807711324202
0,425	376	558,807711324202
0,425	377	558,807711324202
0,425	378	558,807711324202
0,425	379	558,807711324202
0,425	380	558,807711324202
0,425	381	558,807711324202
0,425	382	558,807711324202
0,425	383	558,807711324202
0,425	384	558,807711324202
0,425	385	558,807711324202
0,425	386	558,807711324202
0,425	387	558,807711324202
0,425	388	558,807711324202
0,425	389	558,807711324202
0,425	390	558,807711324202
0,425	391	558,807711324202
0,425	392	558,807711324202
0,425	393	558,807711324202
0,425	394	558,807711324202
0,425	395	558,807711324202
0,425	396	558,807711324202
0,425	397	558,807711324202
0,425	398	558,807711324202
0,425	399	558,807711324202
0,425	400	558,807711324202
0,425	401	558,807711324202
0,425	402	558,807711324202
0,425	403	558,807711324202
0,425	404	558,807711324202
0,425	405	558,807711324202
0,425	406	558,807711324202
0,425	407	558,807711324202
0,425	408	558,807711324202
0,425	409	558,807711324202
0,425	410	558,807711324202
0,425	411	558,807711324202
0,425	412	558,807711324202
0,425	413	558,807711324202
0,425	414	558,807711324202
0,425	415	558,807711324202
0,425	416	558,807711324202
0,425	417	558,807711324202
0,425	418	558,807711324202
0,425	419	558,807711324202
0,425	420	558,807711324202
0,425	421	558,807711324202
0,425	422	558,807711324202
0,425	423	558,807711324202
0,425	424	558,807711324202
0,425	425	558,807711324202
0,425	426	558,807711324202
0,425	427	558,807711324202
0,425	428	558,807711324202
0,425	429	558,807711324202
0,425	430	558,807711324202
0,425	431	558,807711324202
0,425	432	558,807711324202
0,425	433	558,807711324202
0,425	434	558,807711324202
0,425	435	558,807711324202
0,425	436	558,807711324202
0,425	437	558,807711324202
0,425	438	558,807711324202
0,425	439	558,807711324202
0,425	440	558,807711324202
0,425	441	558,807711324202
0,425	442	558,807711324202
