0,225	0	586,213091868314
0,225	1	520,758849386644
0,225	2	520,758849386644
0,225	3	520,238626226
0,225	4	513,356517656674
0,225	5	505,273636356045
0,225	6	505,273636356045
0,225	7	495,17589223625
0,225	8	495,17589223625
0,225	9	495,17589223625
0,225	10	495,17589223625
0,225	11	493,600871245879
0,225	12	493,600871245879
0,225	13	493,600871245879
0,225	14	493,600871245879
0,225	15	488,820452354652
0,225	16	488,820452354652
0,225	17	488,820452354652
0,225	18	488,820452354652
0,225	19	488,820452354652
0,225	20	488,820452354652
0,225	21	488,820452354652
0,225	22	488,820452354652
0,225	23	488,820452354652
0,225	24	488,820452354652
0,225	25	488,820452354652
0,225	26	486,984624091648
0,225	27	486,984624091648
0,225	28	486,984624091648
0,225	29	486,984624091648
0,225	30	486,984624091648
0,225	31	486,063908110729
0,225	32	486,063908110729
0,225	33	486,063908110729
0,225	34	486,063908110729
0,225	35	486,063908110729
0,225	36	486,063908110729
0,225	37	486,063908110729
0,225	38	486,063908110729
0,225	39	483,9845152902
0,225	40	483,9845152902
0,225	41	483,9845152902
0,225	42	483,9845152902
0,225	43	483,9845152902
0,225	44	483,9845152902
0,225	45	483,9845152902
0,225	46	483,9845152902
0,225	47	483,9845152902
0,225	48	483,9845152902
0,225	49	483,9845152902
0,225	50	483,9845152902
0,225	51	483,9845152902
0,225	52	483,9845152902
0,225	53	483,9845152902
0,225	54	483,9845152902
0,225	55	483,9845152902
0,225	56	483,9845152902
0,225	57	483,9845152902
0,225	58	483,9845152902
0,225	59	483,9845152902
0,225	60	483,9845152902
0,225	61	483,9845152902
0,225	62	483,9845152902
0,225	63	483,9845152902
0,225	64	483,9845152902
0,225	65	483,9845152902
0,225	66	483,9845152902
0,225	67	483,9845152902
0,225	68	483,9845152902
0,225	69	483,9845152902
0,225	70	483,9845152902
0,225	71	483,9845152902
0,225	72	483,9845152902
0,225	73	483,9845152902
0,225	74	483,9845152902
0,225	75	483,9845152902
0,225	76	483,9845152902
0,225	77	483,9845152902
0,225	78	483,9845152902
0,225	79	483,9845152902
0,225	80	483,9845152902
0,225	81	483,9845152902
0,225	82	483,9845152902
0,225	83	483,9845152902
0,225	84	483,9845152902
0,225	85	483,9845152902
0,225	86	483,9845152902
0,225	87	483,9845152902
0,225	88	483,9845152902
0,225	89	483,9845152902
0,225	90	483,9845152902
0,225	91	483,9845152902
0,225	92	483,9845152902
0,225	93	483,9845152902
0,225	94	483,9845152902
0,225	95	483,9845152902
0,225	96	483,9845152902
0,225	97	483,9845152902
0,225	98	483,9845152902
0,225	99	483,9845152902
0,225	100	483,9845152902
0,225	101	483,9845152902
0,225	102	483,9845152902
0,225	103	483,9845152902
0,225	104	483,179437187256
0,225	105	483,179437187256
0,225	106	483,179437187256
0,225	107	483,179437187256
0,225	108	483,179437187256
0,225	109	483,179437187256
0,225	110	483,179437187256
0,225	111	483,179437187256
0,225	112	483,179437187256
0,225	113	483,179437187256
0,225	114	483,179437187256
0,225	115	483,179437187256
0,225	116	483,179437187256
0,225	117	483,179437187256
0,225	118	483,179437187256
0,225	119	483,179437187256
0,225	120	483,179437187256
0,225	121	483,179437187256
0,225	122	483,179437187256
0,225	123	483,179437187256
0,225	124	483,179437187256
0,225	125	483,179437187256
0,225	126	483,179437187256
0,225	127	483,179437187256
0,225	128	483,179437187256
0,225	129	483,179437187256
0,225	130	483,179437187256
0,225	131	483,179437187256
0,225	132	483,179437187256
0,225	133	483,179437187256
0,225	134	483,179437187256
0,225	135	483,179437187256
0,225	136	483,179437187256
0,225	137	483,179437187256
0,225	138	483,179437187256
0,225	139	483,179437187256
0,225	140	483,179437187256
0,225	141	483,179437187256
0,225	142	483,179437187256
0,225	143	483,179437187256
0,225	144	483,179437187256
0,225	145	483,179437187256
0,225	146	483,179437187256
0,225	147	483,179437187256
0,225	148	483,179437187256
0,225	149	483,179437187256
0,225	150	483,179437187256
0,225	151	483,179437187256
0,225	152	483,179437187256
0,225	153	483,179437187256
0,225	154	483,179437187256
0,225	155	483,179437187256
0,225	156	483,179437187256
0,225	157	483,179437187256
0,225	158	483,179437187256
0,225	159	483,179437187256
0,225	160	483,179437187256
0,225	161	483,179437187256
0,225	162	483,179437187256
0,225	163	483,179437187256
0,225	164	483,179437187256
0,225	165	483,179437187256
0,225	166	483,179437187256
0,225	167	483,179437187256
0,225	168	483,179437187256
0,225	169	483,179437187256
0,225	170	483,179437187256
0,225	171	483,179437187256
0,225	172	483,179437187256
0,225	173	483,179437187256
0,225	174	483,179437187256
0,225	175	483,179437187256
0,225	176	483,179437187256
0,225	177	483,179437187256
0,225	178	483,179437187256
0,225	179	483,179437187256
0,225	180	483,179437187256
0,225	181	483,179437187256
0,225	182	483,179437187256
0,225	183	483,179437187256
0,225	184	483,179437187256
0,225	185	483,179437187256
0,225	186	483,179437187256
0,225	187	483,179437187256
0,225	188	483,179437187256
0,225	189	483,179437187256
0,225	190	483,179437187256
0,225	191	483,179437187256
0,225	192	483,179437187256
0,225	193	483,179437187256
0,225	194	483,179437187256
0,225	195	483,179437187256
0,225	196	483,179437187256
0,225	197	483,179437187256
0,225	198	483,179437187256
0,225	199	483,179437187256
0,225	200	483,179437187256
0,225	201	483,179437187256
0,225	202	483,179437187256
0,225	203	483,179437187256
0,225	204	483,179437187256
0,225	205	483,179437187256
0,225	206	483,179437187256
0,225	207	483,179437187256
0,225	208	483,179437187256
0,225	209	483,179437187256
0,225	210	483,179437187256
0,225	211	483,179437187256
0,225	212	483,179437187256
0,225	213	483,179437187256
0,225	214	483,179437187256
0,225	215	483,179437187256
0,225	216	483,179437187256
0,225	217	483,179437187256
0,225	218	483,179437187256
0,225	219	483,179437187256
0,225	220	483,179437187256
0,225	221	483,179437187256
0,225	222	483,179437187256
0,225	223	483,179437187256
0,225	224	483,179437187256
0,225	225	483,179437187256
0,225	226	483,179437187256
0,225	227	483,179437187256
0,225	228	483,179437187256
0,225	229	483,179437187256
0,225	230	483,179437187256
0,225	231	483,179437187256
0,225	232	483,179437187256
0,225	233	483,179437187256
0,225	234	483,179437187256
0,225	235	483,179437187256
0,225	236	483,179437187256
0,225	237	483,179437187256
0,225	238	483,179437187256
0,225	239	483,179437187256
0,225	240	483,179437187256
0,225	241	483,179437187256
0,225	242	483,179437187256
0,225	243	483,179437187256
0,225	244	483,179437187256
0,225	245	483,179437187256
0,225	246	483,179437187256
0,225	247	483,179437187256
0,225	248	483,179437187256
0,225	249	483,179437187256
0,225	250	483,179437187256
0,225	251	483,179437187256
0,225	252	483,179437187256
0,225	253	483,179437187256
0,225	254	483,179437187256
0,225	255	483,179437187256
0,225	256	483,179437187256
0,225	257	483,179437187256
0,225	258	483,179437187256
0,225	259	483,179437187256
0,225	260	483,179437187256
0,225	261	483,179437187256
0,225	262	483,179437187256
0,225	263	483,179437187256
0,225	264	483,179437187256
0,225	265	483,179437187256
0,225	266	483,179437187256
0,225	267	483,179437187256
0,225	268	483,179437187256
0,225	269	483,179437187256
0,225	270	483,179437187256
0,225	271	483,179437187256
0,225	272	483,179437187256
0,225	273	483,179437187256
0,225	274	483,179437187256
0,225	275	483,179437187256
0,225	276	483,179437187256
0,225	277	483,179437187256
0,225	278	483,179437187256
0,225	279	483,179437187256
0,225	280	483,179437187256
0,225	281	483,179437187256
0,225	282	483,179437187256
0,225	283	483,179437187256
0,225	284	483,179437187256
0,225	285	483,179437187256
0,225	286	483,179437187256
0,225	287	483,179437187256
0,225	288	483,179437187256
0,225	289	483,179437187256
0,225	290	483,179437187256
0,225	291	483,179437187256
0,225	292	483,179437187256
0,225	293	483,179437187256
0,225	294	483,179437187256
0,225	295	483,179437187256
0,225	296	483,179437187256
0,225	297	483,179437187256
0,225	298	483,179437187256
0,225	299	483,179437187256
0,225	300	483,179437187256
0,225	301	483,179437187256
0,225	302	483,179437187256
0,225	303	483,179437187256
0,225	304	483,179437187256
0,225	305	483,179437187256
0,225	306	483,179437187256
0,225	307	483,179437187256
0,225	308	483,179437187256
0,225	309	483,179437187256
0,225	310	483,179437187256
0,225	311	483,179437187256
0,225	312	483,179437187256
0,225	313	483,179437187256
0,225	314	483,179437187256
0,225	315	483,179437187256
0,225	316	483,179437187256
0,225	317	483,179437187256
0,225	318	483,179437187256
0,225	319	483,179437187256
0,225	320	483,179437187256
0,225	321	483,179437187256
0,225	322	483,179437187256
0,225	323	483,179437187256
0,225	324	483,179437187256
0,225	325	483,179437187256
0,225	326	483,179437187256
0,225	327	483,179437187256
0,225	328	483,179437187256
0,225	329	483,179437187256
0,225	330	483,179437187256
0,225	331	483,179437187256
0,225	332	483,179437187256
0,225	333	483,179437187256
0,225	334	483,179437187256
0,225	335	483,179437187256
0,225	336	483,179437187256
0,225	337	483,179437187256
0,225	338	483,179437187256
0,225	339	483,179437187256
0,225	340	483,179437187256
0,225	341	483,179437187256
0,225	342	483,179437187256
0,225	343	483,179437187256
0,225	344	483,179437187256
0,225	345	483,179437187256
0,225	346	483,179437187256
0,225	347	483,179437187256
0,225	348	483,179437187256
0,225	349	483,179437187256
0,225	350	483,179437187256
0,225	351	483,179437187256
0,225	352	483,179437187256
0,225	353	483,179437187256
0,225	354	483,179437187256
0,225	355	483,179437187256
0,225	356	483,179437187256
0,225	357	483,179437187256
0,225	358	483,179437187256
0,225	359	483,179437187256
0,225	360	483,179437187256
0,225	361	483,179437187256
0,225	362	483,179437187256
0,225	363	483,179437187256
0,225	364	483,179437187256
0,225	365	483,179437187256
0,225	366	483,179437187256
0,225	367	483,179437187256
0,225	368	483,179437187256
0,225	369	483,179437187256
0,225	370	483,179437187256
0,225	371	483,179437187256
0,225	372	483,179437187256
0,225	373	483,179437187256
0,225	374	483,179437187256
0,225	375	483,179437187256
0,225	376	483,179437187256
0,225	377	483,179437187256
0,225	378	483,179437187256
0,225	379	483,179437187256
0,225	380	483,179437187256
0,225	381	483,179437187256
0,225	382	483,179437187256
0,225	383	483,179437187256
0,225	384	483,179437187256
0,225	385	483,179437187256
0,225	386	483,179437187256
0,225	387	483,179437187256
0,225	388	483,179437187256
0,225	389	483,179437187256
0,225	390	483,179437187256
0,225	391	483,179437187256
0,225	392	483,179437187256
0,225	393	483,179437187256
0,225	394	483,179437187256
0,225	395	483,179437187256
0,225	396	483,179437187256
0,225	397	483,179437187256
0,225	398	483,179437187256
0,225	399	483,179437187256
0,225	400	483,179437187256
0,225	401	483,179437187256
0,225	402	483,179437187256
0,225	403	483,179437187256
0,225	404	483,179437187256
0,225	405	483,179437187256
0,225	406	483,179437187256
0,225	407	483,179437187256
0,225	408	483,179437187256
0,225	409	483,179437187256
0,225	410	483,179437187256
0,225	411	483,179437187256
0,225	412	483,179437187256
0,225	413	483,179437187256
0,225	414	483,179437187256
0,225	415	483,179437187256
0,225	416	483,179437187256
0,225	417	483,179437187256
0,225	418	483,179437187256
0,225	419	483,179437187256
0,225	420	483,179437187256
0,225	421	483,179437187256
0,225	422	483,179437187256
0,225	423	483,179437187256
0,225	424	483,179437187256
0,225	425	483,179437187256
0,225	426	483,179437187256
0,225	427	483,179437187256
0,225	428	483,179437187256
0,225	429	483,179437187256
0,225	430	483,179437187256
0,225	431	483,179437187256
0,225	432	483,179437187256
0,225	433	483,179437187256
0,225	434	483,179437187256
0,225	435	483,179437187256
0,225	436	483,179437187256
0,225	437	483,179437187256
0,225	438	483,179437187256
0,225	439	483,179437187256
0,225	440	483,179437187256
0,225	441	483,179437187256
0,225	442	483,179437187256
