0,300	0	533,403488737509
0,300	1	523,246361507693
0,300	2	523,246361507693
0,300	3	523,246361507693
0,300	4	523,246361507693
0,300	5	519,262790058415
0,300	6	519,262790058415
0,300	7	519,262790058415
0,300	8	519,262790058415
0,300	9	519,262790058415
0,300	10	519,262790058415
0,300	11	519,262790058415
0,300	12	519,262790058415
0,300	13	519,262790058415
0,300	14	519,262790058415
0,300	15	519,262790058415
0,300	16	519,262790058415
0,300	17	519,262790058415
0,300	18	519,262790058415
0,300	19	519,262790058415
0,300	20	519,262790058415
0,300	21	519,262790058415
0,300	22	519,262790058415
0,300	23	519,262790058415
0,300	24	519,262790058415
0,300	25	519,262790058415
0,300	26	519,262790058415
0,300	27	519,262790058415
0,300	28	519,262790058415
0,300	29	519,262790058415
0,300	30	519,262790058415
0,300	31	519,262790058415
0,300	32	519,262790058415
0,300	33	519,262790058415
0,300	34	519,262790058415
0,300	35	519,262790058415
0,300	36	519,262790058415
0,300	37	519,262790058415
0,300	38	519,262790058415
0,300	39	519,262790058415
0,300	40	519,262790058415
0,300	41	519,262790058415
0,300	42	519,262790058415
0,300	43	519,262790058415
0,300	44	514,607531282173
0,300	45	514,607531282173
0,300	46	514,607531282173
0,300	47	514,607531282173
0,300	48	514,607531282173
0,300	49	514,607531282173
0,300	50	514,607531282173
0,300	51	514,607531282173
0,300	52	514,607531282173
0,300	53	514,607531282173
0,300	54	514,607531282173
0,300	55	514,607531282173
0,300	56	514,607531282173
0,300	57	514,607531282173
0,300	58	514,607531282173
0,300	59	514,607531282173
0,300	60	514,607531282173
0,300	61	514,607531282173
0,300	62	514,607531282173
0,300	63	514,607531282173
0,300	64	514,607531282173
0,300	65	514,607531282173
0,300	66	514,607531282173
0,300	67	514,607531282173
0,300	68	514,607531282173
0,300	69	514,607531282173
0,300	70	514,607531282173
0,300	71	514,607531282173
0,300	72	514,607531282173
0,300	73	514,607531282173
0,300	74	514,607531282173
0,300	75	514,607531282173
0,300	76	514,607531282173
0,300	77	514,607531282173
0,300	78	514,607531282173
0,300	79	514,607531282173
0,300	80	514,607531282173
0,300	81	514,607531282173
0,300	82	514,607531282173
0,300	83	514,607531282173
0,300	84	514,607531282173
0,300	85	514,607531282173
0,300	86	514,607531282173
0,300	87	514,607531282173
0,300	88	514,607531282173
0,300	89	514,607531282173
0,300	90	514,607531282173
0,300	91	514,607531282173
0,300	92	514,607531282173
0,300	93	514,607531282173
0,300	94	514,607531282173
0,300	95	514,607531282173
0,300	96	514,607531282173
0,300	97	514,607531282173
0,300	98	514,607531282173
0,300	99	514,607531282173
0,300	100	514,607531282173
0,300	101	514,607531282173
0,300	102	514,607531282173
0,300	103	514,607531282173
0,300	104	514,607531282173
0,300	105	514,607531282173
0,300	106	514,607531282173
0,300	107	514,607531282173
0,300	108	514,607531282173
0,300	109	514,607531282173
0,300	110	514,607531282173
0,300	111	514,607531282173
0,300	112	514,607531282173
0,300	113	514,607531282173
0,300	114	514,607531282173
0,300	115	514,607531282173
0,300	116	514,607531282173
0,300	117	514,607531282173
0,300	118	514,607531282173
0,300	119	514,607531282173
0,300	120	514,607531282173
0,300	121	514,607531282173
0,300	122	514,607531282173
0,300	123	514,607531282173
0,300	124	514,607531282173
0,300	125	514,607531282173
0,300	126	514,607531282173
0,300	127	514,607531282173
0,300	128	514,607531282173
0,300	129	514,607531282173
0,300	130	514,607531282173
0,300	131	514,607531282173
0,300	132	514,607531282173
0,300	133	514,607531282173
0,300	134	514,607531282173
0,300	135	514,607531282173
0,300	136	514,607531282173
0,300	137	514,607531282173
0,300	138	514,607531282173
0,300	139	514,607531282173
0,300	140	514,607531282173
0,300	141	514,607531282173
0,300	142	514,607531282173
0,300	143	514,607531282173
0,300	144	514,607531282173
0,300	145	514,607531282173
0,300	146	514,607531282173
0,300	147	514,607531282173
0,300	148	514,607531282173
0,300	149	514,607531282173
0,300	150	514,607531282173
0,300	151	514,607531282173
0,300	152	514,607531282173
0,300	153	514,607531282173
0,300	154	514,607531282173
0,300	155	514,607531282173
0,300	156	514,607531282173
0,300	157	514,607531282173
0,300	158	514,607531282173
0,300	159	514,607531282173
0,300	160	514,607531282173
0,300	161	514,607531282173
0,300	162	514,607531282173
0,300	163	514,607531282173
0,300	164	514,607531282173
0,300	165	514,607531282173
0,300	166	514,607531282173
0,300	167	514,607531282173
0,300	168	514,607531282173
0,300	169	514,607531282173
0,300	170	514,607531282173
0,300	171	514,607531282173
0,300	172	514,607531282173
0,300	173	514,607531282173
0,300	174	514,607531282173
0,300	175	514,607531282173
0,300	176	514,607531282173
0,300	177	514,607531282173
0,300	178	514,607531282173
0,300	179	514,607531282173
0,300	180	514,607531282173
0,300	181	514,607531282173
0,300	182	514,607531282173
0,300	183	514,607531282173
0,300	184	514,607531282173
0,300	185	514,607531282173
0,300	186	514,607531282173
0,300	187	514,607531282173
0,300	188	514,607531282173
0,300	189	514,607531282173
0,300	190	514,607531282173
0,300	191	514,607531282173
0,300	192	514,607531282173
0,300	193	514,607531282173
0,300	194	514,607531282173
0,300	195	514,607531282173
0,300	196	514,607531282173
0,300	197	514,607531282173
0,300	198	514,607531282173
0,300	199	514,607531282173
0,300	200	514,607531282173
0,300	201	514,607531282173
0,300	202	514,607531282173
0,300	203	514,607531282173
0,300	204	514,607531282173
0,300	205	514,607531282173
0,300	206	514,607531282173
0,300	207	514,607531282173
0,300	208	514,607531282173
0,300	209	514,607531282173
0,300	210	514,607531282173
0,300	211	514,607531282173
0,300	212	514,607531282173
0,300	213	514,607531282173
0,300	214	514,607531282173
0,300	215	514,607531282173
0,300	216	514,607531282173
0,300	217	514,607531282173
0,300	218	514,607531282173
0,300	219	514,607531282173
0,300	220	514,607531282173
0,300	221	514,607531282173
0,300	222	514,607531282173
0,300	223	514,607531282173
0,300	224	514,607531282173
0,300	225	514,607531282173
0,300	226	514,607531282173
0,300	227	514,607531282173
0,300	228	514,607531282173
0,300	229	514,607531282173
0,300	230	514,350545788841
0,300	231	514,350545788841
0,300	232	514,350545788841
0,300	233	514,350545788841
0,300	234	514,350545788841
0,300	235	514,350545788841
0,300	236	514,350545788841
0,300	237	514,350545788841
0,300	238	514,350545788841
0,300	239	514,350545788841
0,300	240	514,350545788841
0,300	241	514,350545788841
0,300	242	514,350545788841
0,300	243	514,350545788841
0,300	244	514,350545788841
0,300	245	514,350545788841
0,300	246	514,350545788841
0,300	247	514,350545788841
0,300	248	514,350545788841
0,300	249	514,350545788841
0,300	250	514,350545788841
0,300	251	514,350545788841
0,300	252	514,350545788841
0,300	253	514,350545788841
0,300	254	514,350545788841
0,300	255	514,350545788841
0,300	256	514,350545788841
0,300	257	514,350545788841
0,300	258	514,350545788841
0,300	259	514,350545788841
0,300	260	514,350545788841
0,300	261	514,350545788841
0,300	262	514,350545788841
0,300	263	514,350545788841
0,300	264	514,350545788841
0,300	265	514,350545788841
0,300	266	514,350545788841
0,300	267	514,350545788841
0,300	268	514,350545788841
0,300	269	514,350545788841
0,300	270	514,350545788841
0,300	271	514,350545788841
0,300	272	514,350545788841
0,300	273	514,350545788841
0,300	274	514,350545788841
0,300	275	514,350545788841
0,300	276	514,350545788841
0,300	277	514,350545788841
0,300	278	514,350545788841
0,300	279	514,350545788841
0,300	280	514,350545788841
0,300	281	514,350545788841
0,300	282	514,350545788841
0,300	283	514,350545788841
0,300	284	514,350545788841
0,300	285	514,350545788841
0,300	286	514,350545788841
0,300	287	514,350545788841
0,300	288	514,350545788841
0,300	289	514,350545788841
0,300	290	514,350545788841
0,300	291	514,350545788841
0,300	292	514,350545788841
0,300	293	514,350545788841
0,300	294	514,350545788841
0,300	295	514,350545788841
0,300	296	514,350545788841
0,300	297	514,350545788841
0,300	298	514,350545788841
0,300	299	514,350545788841
0,300	300	514,350545788841
0,300	301	514,350545788841
0,300	302	514,350545788841
0,300	303	514,350545788841
0,300	304	514,350545788841
0,300	305	514,350545788841
0,300	306	514,350545788841
0,300	307	514,350545788841
0,300	308	514,350545788841
0,300	309	514,350545788841
0,300	310	514,350545788841
0,300	311	514,350545788841
0,300	312	514,350545788841
0,300	313	514,350545788841
0,300	314	514,350545788841
0,300	315	514,350545788841
0,300	316	514,350545788841
0,300	317	514,350545788841
0,300	318	514,350545788841
0,300	319	514,350545788841
0,300	320	514,350545788841
0,300	321	514,350545788841
0,300	322	514,350545788841
0,300	323	514,350545788841
0,300	324	514,350545788841
0,300	325	514,350545788841
0,300	326	514,350545788841
0,300	327	514,350545788841
0,300	328	514,350545788841
0,300	329	514,350545788841
0,300	330	514,350545788841
0,300	331	514,350545788841
0,300	332	514,350545788841
0,300	333	514,350545788841
0,300	334	514,350545788841
0,300	335	514,350545788841
0,300	336	514,350545788841
0,300	337	514,350545788841
0,300	338	514,350545788841
0,300	339	514,350545788841
0,300	340	514,350545788841
0,300	341	514,350545788841
0,300	342	514,350545788841
0,300	343	514,350545788841
0,300	344	514,350545788841
0,300	345	514,350545788841
0,300	346	514,350545788841
0,300	347	514,350545788841
0,300	348	514,350545788841
0,300	349	514,350545788841
0,300	350	514,350545788841
0,300	351	514,350545788841
0,300	352	514,350545788841
0,300	353	514,350545788841
0,300	354	514,350545788841
0,300	355	514,350545788841
0,300	356	514,350545788841
0,300	357	514,350545788841
0,300	358	514,350545788841
0,300	359	514,350545788841
0,300	360	514,350545788841
0,300	361	514,350545788841
0,300	362	514,350545788841
0,300	363	514,350545788841
0,300	364	514,350545788841
0,300	365	514,350545788841
0,300	366	514,350545788841
0,300	367	514,350545788841
0,300	368	514,350545788841
0,300	369	514,350545788841
0,300	370	514,350545788841
0,300	371	514,350545788841
0,300	372	514,350545788841
0,300	373	514,350545788841
0,300	374	514,350545788841
0,300	375	514,350545788841
0,300	376	514,350545788841
0,300	377	514,350545788841
0,300	378	514,350545788841
0,300	379	514,350545788841
0,300	380	514,350545788841
0,300	381	514,350545788841
0,300	382	514,350545788841
0,300	383	514,350545788841
0,300	384	514,350545788841
0,300	385	514,350545788841
0,300	386	514,350545788841
0,300	387	514,350545788841
0,300	388	514,350545788841
0,300	389	514,350545788841
0,300	390	514,350545788841
0,300	391	514,350545788841
0,300	392	514,350545788841
0,300	393	514,350545788841
0,300	394	514,350545788841
0,300	395	514,350545788841
0,300	396	514,350545788841
0,300	397	514,350545788841
0,300	398	514,350545788841
0,300	399	514,350545788841
0,300	400	514,350545788841
0,300	401	514,350545788841
0,300	402	514,350545788841
0,300	403	514,350545788841
0,300	404	514,350545788841
0,300	405	514,350545788841
0,300	406	514,350545788841
0,300	407	514,350545788841
0,300	408	514,350545788841
0,300	409	514,350545788841
0,300	410	514,350545788841
0,300	411	514,350545788841
0,300	412	514,350545788841
0,300	413	514,350545788841
0,300	414	514,350545788841
0,300	415	514,350545788841
0,300	416	514,350545788841
0,300	417	514,350545788841
0,300	418	514,350545788841
0,300	419	514,350545788841
0,300	420	514,350545788841
0,300	421	514,350545788841
0,300	422	514,350545788841
0,300	423	514,350545788841
0,300	424	514,350545788841
0,300	425	514,350545788841
0,300	426	514,350545788841
0,300	427	514,350545788841
0,300	428	514,350545788841
0,300	429	514,350545788841
0,300	430	514,350545788841
0,300	431	514,350545788841
0,300	432	514,350545788841
0,300	433	514,350545788841
0,300	434	514,350545788841
0,300	435	514,350545788841
0,300	436	514,350545788841
0,300	437	514,350545788841
0,300	438	514,350545788841
0,300	439	514,350545788841
0,300	440	514,350545788841
0,300	441	514,350545788841
0,300	442	514,350545788841
