0,675	0	952,447834005328
0,675	1	569,69742223487
0,675	2	569,69742223487
0,675	3	569,69742223487
0,675	4	569,69742223487
0,675	5	569,69742223487
0,675	6	569,69742223487
0,675	7	569,69742223487
0,675	8	569,69742223487
0,675	9	569,69742223487
0,675	10	569,69742223487
0,675	11	569,69742223487
0,675	12	569,69742223487
0,675	13	569,69742223487
0,675	14	569,69742223487
0,675	15	569,69742223487
0,675	16	569,69742223487
0,675	17	569,69742223487
0,675	18	569,69742223487
0,675	19	569,69742223487
0,675	20	569,69742223487
0,675	21	569,69742223487
0,675	22	569,69742223487
0,675	23	569,69742223487
0,675	24	569,69742223487
0,675	25	569,69742223487
0,675	26	569,69742223487
0,675	27	569,69742223487
0,675	28	569,69742223487
0,675	29	569,69742223487
0,675	30	569,69742223487
0,675	31	569,69742223487
0,675	32	569,69742223487
0,675	33	569,69742223487
0,675	34	569,69742223487
0,675	35	569,69742223487
0,675	36	569,69742223487
0,675	37	569,69742223487
0,675	38	569,69742223487
0,675	39	569,69742223487
0,675	40	569,69742223487
0,675	41	569,69742223487
0,675	42	569,69742223487
0,675	43	569,69742223487
0,675	44	569,69742223487
0,675	45	569,69742223487
0,675	46	569,69742223487
0,675	47	569,69742223487
0,675	48	569,69742223487
0,675	49	569,69742223487
0,675	50	569,69742223487
0,675	51	569,69742223487
0,675	52	569,69742223487
0,675	53	569,69742223487
0,675	54	569,69742223487
0,675	55	569,69742223487
0,675	56	569,69742223487
0,675	57	569,69742223487
0,675	58	569,69742223487
0,675	59	569,69742223487
0,675	60	569,69742223487
0,675	61	569,69742223487
0,675	62	569,69742223487
0,675	63	569,69742223487
0,675	64	569,69742223487
0,675	65	569,69742223487
0,675	66	569,69742223487
0,675	67	569,69742223487
0,675	68	569,69742223487
0,675	69	569,69742223487
0,675	70	569,69742223487
0,675	71	569,69742223487
0,675	72	569,69742223487
0,675	73	569,69742223487
0,675	74	569,69742223487
0,675	75	569,69742223487
0,675	76	569,69742223487
0,675	77	569,69742223487
0,675	78	569,69742223487
0,675	79	569,69742223487
0,675	80	569,69742223487
0,675	81	569,69742223487
0,675	82	569,69742223487
0,675	83	569,69742223487
0,675	84	569,69742223487
0,675	85	569,69742223487
0,675	86	569,69742223487
0,675	87	569,69742223487
0,675	88	569,69742223487
0,675	89	569,69742223487
0,675	90	569,69742223487
0,675	91	569,69742223487
0,675	92	569,69742223487
0,675	93	569,69742223487
0,675	94	569,69742223487
0,675	95	569,69742223487
0,675	96	569,69742223487
0,675	97	569,69742223487
0,675	98	569,69742223487
0,675	99	569,69742223487
0,675	100	569,69742223487
0,675	101	569,69742223487
0,675	102	569,69742223487
0,675	103	569,69742223487
0,675	104	569,69742223487
0,675	105	569,69742223487
0,675	106	569,69742223487
0,675	107	569,69742223487
0,675	108	569,69742223487
0,675	109	569,69742223487
0,675	110	569,69742223487
0,675	111	569,69742223487
0,675	112	569,69742223487
0,675	113	569,69742223487
0,675	114	569,69742223487
0,675	115	569,69742223487
0,675	116	569,69742223487
0,675	117	569,69742223487
0,675	118	569,69742223487
0,675	119	569,69742223487
0,675	120	569,69742223487
0,675	121	569,69742223487
0,675	122	569,69742223487
0,675	123	569,69742223487
0,675	124	569,69742223487
0,675	125	569,69742223487
0,675	126	569,69742223487
0,675	127	569,69742223487
0,675	128	569,69742223487
0,675	129	569,69742223487
0,675	130	569,69742223487
0,675	131	569,69742223487
0,675	132	569,69742223487
0,675	133	569,69742223487
0,675	134	569,69742223487
0,675	135	569,69742223487
0,675	136	569,69742223487
0,675	137	569,69742223487
0,675	138	569,69742223487
0,675	139	569,69742223487
0,675	140	569,69742223487
0,675	141	569,69742223487
0,675	142	569,69742223487
0,675	143	569,69742223487
0,675	144	569,69742223487
0,675	145	569,69742223487
0,675	146	569,69742223487
0,675	147	569,69742223487
0,675	148	569,69742223487
0,675	149	569,69742223487
0,675	150	569,69742223487
0,675	151	569,69742223487
0,675	152	569,69742223487
0,675	153	569,69742223487
0,675	154	569,69742223487
0,675	155	569,69742223487
0,675	156	569,69742223487
0,675	157	569,69742223487
0,675	158	569,69742223487
0,675	159	569,69742223487
0,675	160	569,69742223487
0,675	161	569,69742223487
0,675	162	569,69742223487
0,675	163	569,69742223487
0,675	164	569,69742223487
0,675	165	569,69742223487
0,675	166	569,69742223487
0,675	167	569,69742223487
0,675	168	569,69742223487
0,675	169	569,69742223487
0,675	170	569,69742223487
0,675	171	569,69742223487
0,675	172	569,69742223487
0,675	173	569,69742223487
0,675	174	569,69742223487
0,675	175	569,69742223487
0,675	176	569,69742223487
0,675	177	569,69742223487
0,675	178	569,69742223487
0,675	179	569,69742223487
0,675	180	569,69742223487
0,675	181	569,69742223487
0,675	182	569,69742223487
0,675	183	569,69742223487
0,675	184	569,69742223487
0,675	185	569,69742223487
0,675	186	569,69742223487
0,675	187	569,69742223487
0,675	188	569,69742223487
0,675	189	569,69742223487
0,675	190	569,69742223487
0,675	191	569,69742223487
0,675	192	569,69742223487
0,675	193	569,69742223487
0,675	194	569,69742223487
0,675	195	569,69742223487
0,675	196	569,69742223487
0,675	197	569,69742223487
0,675	198	569,69742223487
0,675	199	569,69742223487
0,675	200	569,69742223487
0,675	201	569,69742223487
0,675	202	569,69742223487
0,675	203	569,69742223487
0,675	204	569,69742223487
0,675	205	569,69742223487
0,675	206	569,69742223487
0,675	207	569,69742223487
0,675	208	569,69742223487
0,675	209	569,69742223487
0,675	210	569,69742223487
0,675	211	569,69742223487
0,675	212	569,69742223487
0,675	213	569,69742223487
0,675	214	569,69742223487
0,675	215	569,69742223487
0,675	216	569,69742223487
0,675	217	569,69742223487
0,675	218	569,69742223487
0,675	219	569,69742223487
0,675	220	569,69742223487
0,675	221	569,69742223487
0,675	222	569,69742223487
0,675	223	569,69742223487
0,675	224	569,69742223487
0,675	225	569,69742223487
0,675	226	569,69742223487
0,675	227	569,69742223487
0,675	228	569,69742223487
0,675	229	569,69742223487
0,675	230	569,69742223487
0,675	231	569,69742223487
0,675	232	569,69742223487
0,675	233	569,69742223487
0,675	234	569,69742223487
0,675	235	569,69742223487
0,675	236	569,69742223487
0,675	237	569,69742223487
0,675	238	569,69742223487
0,675	239	569,69742223487
0,675	240	569,69742223487
0,675	241	569,69742223487
0,675	242	569,69742223487
0,675	243	569,69742223487
0,675	244	569,69742223487
0,675	245	569,69742223487
0,675	246	569,69742223487
0,675	247	569,69742223487
0,675	248	569,69742223487
0,675	249	569,69742223487
0,675	250	569,69742223487
0,675	251	569,69742223487
0,675	252	569,69742223487
0,675	253	569,69742223487
0,675	254	569,69742223487
0,675	255	569,69742223487
0,675	256	569,69742223487
0,675	257	569,69742223487
0,675	258	569,69742223487
0,675	259	569,69742223487
0,675	260	569,69742223487
0,675	261	569,69742223487
0,675	262	569,69742223487
0,675	263	569,69742223487
0,675	264	569,69742223487
0,675	265	569,69742223487
0,675	266	569,69742223487
0,675	267	569,69742223487
0,675	268	569,69742223487
0,675	269	569,69742223487
0,675	270	569,69742223487
0,675	271	569,69742223487
0,675	272	569,69742223487
0,675	273	569,69742223487
0,675	274	569,69742223487
0,675	275	569,69742223487
0,675	276	569,69742223487
0,675	277	569,69742223487
0,675	278	569,69742223487
0,675	279	569,69742223487
0,675	280	569,69742223487
0,675	281	569,69742223487
0,675	282	569,69742223487
0,675	283	569,69742223487
0,675	284	569,69742223487
0,675	285	569,69742223487
0,675	286	569,69742223487
0,675	287	569,69742223487
0,675	288	569,69742223487
0,675	289	569,69742223487
0,675	290	569,69742223487
0,675	291	569,69742223487
0,675	292	569,69742223487
0,675	293	569,69742223487
0,675	294	569,69742223487
0,675	295	569,69742223487
0,675	296	569,69742223487
0,675	297	569,69742223487
0,675	298	569,69742223487
0,675	299	569,69742223487
0,675	300	569,69742223487
0,675	301	569,69742223487
0,675	302	569,69742223487
0,675	303	569,69742223487
0,675	304	569,69742223487
0,675	305	569,69742223487
0,675	306	569,69742223487
0,675	307	569,69742223487
0,675	308	569,69742223487
0,675	309	569,69742223487
0,675	310	569,69742223487
0,675	311	569,69742223487
0,675	312	569,69742223487
0,675	313	569,69742223487
0,675	314	569,69742223487
0,675	315	569,69742223487
0,675	316	569,69742223487
0,675	317	569,69742223487
0,675	318	569,69742223487
0,675	319	569,69742223487
0,675	320	569,69742223487
0,675	321	569,69742223487
0,675	322	569,69742223487
0,675	323	569,69742223487
0,675	324	569,69742223487
0,675	325	569,69742223487
0,675	326	569,69742223487
0,675	327	569,69742223487
0,675	328	569,69742223487
0,675	329	569,69742223487
0,675	330	569,69742223487
0,675	331	569,69742223487
0,675	332	569,69742223487
0,675	333	569,69742223487
0,675	334	569,69742223487
0,675	335	569,69742223487
0,675	336	569,69742223487
0,675	337	569,69742223487
0,675	338	569,69742223487
0,675	339	569,69742223487
0,675	340	569,69742223487
0,675	341	569,69742223487
0,675	342	569,69742223487
0,675	343	569,69742223487
0,675	344	569,69742223487
0,675	345	569,69742223487
0,675	346	569,69742223487
0,675	347	569,69742223487
0,675	348	569,69742223487
0,675	349	569,69742223487
0,675	350	569,69742223487
0,675	351	569,69742223487
0,675	352	569,69742223487
0,675	353	569,69742223487
0,675	354	569,69742223487
0,675	355	569,69742223487
0,675	356	569,69742223487
0,675	357	569,69742223487
0,675	358	569,69742223487
0,675	359	569,69742223487
0,675	360	569,69742223487
0,675	361	569,69742223487
0,675	362	569,69742223487
0,675	363	569,69742223487
0,675	364	569,69742223487
0,675	365	569,69742223487
0,675	366	569,69742223487
0,675	367	569,69742223487
0,675	368	569,69742223487
0,675	369	569,69742223487
0,675	370	569,69742223487
0,675	371	569,69742223487
0,675	372	569,69742223487
0,675	373	569,69742223487
0,675	374	569,69742223487
0,675	375	569,69742223487
0,675	376	569,69742223487
0,675	377	569,69742223487
0,675	378	569,69742223487
0,675	379	569,69742223487
0,675	380	569,69742223487
0,675	381	569,69742223487
0,675	382	569,69742223487
0,675	383	569,69742223487
0,675	384	569,69742223487
0,675	385	569,69742223487
0,675	386	569,69742223487
0,675	387	569,69742223487
0,675	388	569,69742223487
0,675	389	569,69742223487
0,675	390	569,69742223487
0,675	391	569,69742223487
0,675	392	569,69742223487
0,675	393	569,69742223487
0,675	394	569,69742223487
0,675	395	569,69742223487
0,675	396	569,69742223487
0,675	397	569,69742223487
0,675	398	569,69742223487
0,675	399	569,69742223487
0,675	400	569,69742223487
0,675	401	569,69742223487
0,675	402	569,69742223487
0,675	403	569,69742223487
0,675	404	569,69742223487
0,675	405	569,69742223487
0,675	406	569,69742223487
0,675	407	569,69742223487
0,675	408	569,69742223487
0,675	409	569,69742223487
0,675	410	569,69742223487
0,675	411	569,69742223487
0,675	412	569,69742223487
0,675	413	569,69742223487
0,675	414	569,69742223487
0,675	415	569,69742223487
0,675	416	569,69742223487
0,675	417	569,69742223487
0,675	418	569,69742223487
0,675	419	569,69742223487
0,675	420	569,69742223487
0,675	421	569,69742223487
0,675	422	569,69742223487
0,675	423	569,69742223487
0,675	424	569,69742223487
0,675	425	569,69742223487
0,675	426	569,69742223487
0,675	427	569,69742223487
0,675	428	569,69742223487
0,675	429	569,69742223487
0,675	430	569,69742223487
0,675	431	569,69742223487
0,675	432	569,69742223487
0,675	433	569,69742223487
0,675	434	569,69742223487
0,675	435	569,69742223487
0,675	436	569,69742223487
0,675	437	569,69742223487
0,675	438	569,69742223487
0,675	439	569,69742223487
0,675	440	569,69742223487
0,675	441	569,69742223487
0,675	442	569,69742223487
