0,600	0	569,69742223487
0,600	1	569,69742223487
0,600	2	569,69742223487
0,600	3	569,69742223487
0,600	4	569,69742223487
0,600	5	569,69742223487
0,600	6	569,69742223487
0,600	7	569,69742223487
0,600	8	569,69742223487
0,600	9	569,69742223487
0,600	10	569,69742223487
0,600	11	569,69742223487
0,600	12	569,69742223487
0,600	13	569,69742223487
0,600	14	569,69742223487
0,600	15	569,69742223487
0,600	16	569,69742223487
0,600	17	569,69742223487
0,600	18	569,69742223487
0,600	19	569,69742223487
0,600	20	569,69742223487
0,600	21	569,69742223487
0,600	22	569,69742223487
0,600	23	569,69742223487
0,600	24	569,69742223487
0,600	25	569,69742223487
0,600	26	569,69742223487
0,600	27	569,69742223487
0,600	28	569,69742223487
0,600	29	569,69742223487
0,600	30	569,69742223487
0,600	31	569,69742223487
0,600	32	569,69742223487
0,600	33	569,69742223487
0,600	34	569,69742223487
0,600	35	569,69742223487
0,600	36	569,69742223487
0,600	37	569,69742223487
0,600	38	569,69742223487
0,600	39	569,69742223487
0,600	40	569,69742223487
0,600	41	569,69742223487
0,600	42	569,69742223487
0,600	43	569,69742223487
0,600	44	569,69742223487
0,600	45	569,69742223487
0,600	46	569,69742223487
0,600	47	569,69742223487
0,600	48	569,69742223487
0,600	49	569,69742223487
0,600	50	569,69742223487
0,600	51	569,69742223487
0,600	52	569,69742223487
0,600	53	569,69742223487
0,600	54	569,69742223487
0,600	55	569,69742223487
0,600	56	569,69742223487
0,600	57	569,69742223487
0,600	58	569,69742223487
0,600	59	569,69742223487
0,600	60	569,69742223487
0,600	61	569,69742223487
0,600	62	569,69742223487
0,600	63	569,69742223487
0,600	64	569,69742223487
0,600	65	569,69742223487
0,600	66	569,69742223487
0,600	67	569,69742223487
0,600	68	569,69742223487
0,600	69	569,69742223487
0,600	70	569,69742223487
0,600	71	569,69742223487
0,600	72	569,69742223487
0,600	73	569,69742223487
0,600	74	569,69742223487
0,600	75	569,69742223487
0,600	76	569,69742223487
0,600	77	569,69742223487
0,600	78	569,69742223487
0,600	79	569,69742223487
0,600	80	569,69742223487
0,600	81	569,69742223487
0,600	82	569,69742223487
0,600	83	569,69742223487
0,600	84	569,69742223487
0,600	85	569,69742223487
0,600	86	569,69742223487
0,600	87	569,69742223487
0,600	88	569,69742223487
0,600	89	569,69742223487
0,600	90	569,69742223487
0,600	91	569,69742223487
0,600	92	569,69742223487
0,600	93	569,69742223487
0,600	94	569,69742223487
0,600	95	569,69742223487
0,600	96	569,69742223487
0,600	97	569,69742223487
0,600	98	569,69742223487
0,600	99	569,69742223487
0,600	100	569,69742223487
0,600	101	569,69742223487
0,600	102	569,69742223487
0,600	103	569,69742223487
0,600	104	569,69742223487
0,600	105	569,69742223487
0,600	106	569,69742223487
0,600	107	569,69742223487
0,600	108	569,69742223487
0,600	109	569,69742223487
0,600	110	569,69742223487
0,600	111	569,69742223487
0,600	112	569,69742223487
0,600	113	569,69742223487
0,600	114	569,69742223487
0,600	115	569,69742223487
0,600	116	569,69742223487
0,600	117	569,69742223487
0,600	118	569,69742223487
0,600	119	569,69742223487
0,600	120	569,69742223487
0,600	121	569,69742223487
0,600	122	569,69742223487
0,600	123	569,69742223487
0,600	124	569,69742223487
0,600	125	569,69742223487
0,600	126	569,69742223487
0,600	127	569,69742223487
0,600	128	569,69742223487
0,600	129	569,69742223487
0,600	130	569,69742223487
0,600	131	569,69742223487
0,600	132	569,69742223487
0,600	133	569,69742223487
0,600	134	569,69742223487
0,600	135	569,69742223487
0,600	136	569,69742223487
0,600	137	569,69742223487
0,600	138	569,69742223487
0,600	139	569,69742223487
0,600	140	569,69742223487
0,600	141	569,69742223487
0,600	142	569,69742223487
0,600	143	569,69742223487
0,600	144	569,69742223487
0,600	145	569,69742223487
0,600	146	569,69742223487
0,600	147	569,69742223487
0,600	148	569,69742223487
0,600	149	569,69742223487
0,600	150	569,69742223487
0,600	151	569,69742223487
0,600	152	569,69742223487
0,600	153	569,69742223487
0,600	154	569,69742223487
0,600	155	569,69742223487
0,600	156	569,69742223487
0,600	157	569,69742223487
0,600	158	569,69742223487
0,600	159	569,69742223487
0,600	160	569,69742223487
0,600	161	569,69742223487
0,600	162	569,69742223487
0,600	163	569,69742223487
0,600	164	569,69742223487
0,600	165	569,69742223487
0,600	166	569,69742223487
0,600	167	569,69742223487
0,600	168	569,69742223487
0,600	169	569,69742223487
0,600	170	569,69742223487
0,600	171	569,69742223487
0,600	172	569,69742223487
0,600	173	569,69742223487
0,600	174	569,69742223487
0,600	175	569,69742223487
0,600	176	569,69742223487
0,600	177	569,69742223487
0,600	178	569,69742223487
0,600	179	569,69742223487
0,600	180	569,69742223487
0,600	181	569,69742223487
0,600	182	569,69742223487
0,600	183	569,69742223487
0,600	184	569,69742223487
0,600	185	569,69742223487
0,600	186	569,69742223487
0,600	187	569,69742223487
0,600	188	569,69742223487
0,600	189	569,69742223487
0,600	190	569,69742223487
0,600	191	569,69742223487
0,600	192	569,69742223487
0,600	193	569,69742223487
0,600	194	569,69742223487
0,600	195	569,69742223487
0,600	196	569,69742223487
0,600	197	569,69742223487
0,600	198	569,69742223487
0,600	199	569,69742223487
0,600	200	569,69742223487
0,600	201	569,69742223487
0,600	202	569,69742223487
0,600	203	569,69742223487
0,600	204	569,69742223487
0,600	205	569,69742223487
0,600	206	569,69742223487
0,600	207	569,69742223487
0,600	208	569,69742223487
0,600	209	569,69742223487
0,600	210	569,69742223487
0,600	211	569,69742223487
0,600	212	569,69742223487
0,600	213	569,69742223487
0,600	214	569,69742223487
0,600	215	569,69742223487
0,600	216	569,69742223487
0,600	217	569,69742223487
0,600	218	569,69742223487
0,600	219	569,69742223487
0,600	220	569,69742223487
0,600	221	569,69742223487
0,600	222	569,69742223487
0,600	223	569,69742223487
0,600	224	569,69742223487
0,600	225	569,69742223487
0,600	226	569,69742223487
0,600	227	569,69742223487
0,600	228	569,69742223487
0,600	229	569,69742223487
0,600	230	569,69742223487
0,600	231	569,69742223487
0,600	232	569,69742223487
0,600	233	569,69742223487
0,600	234	569,69742223487
0,600	235	569,69742223487
0,600	236	569,69742223487
0,600	237	569,69742223487
0,600	238	569,69742223487
0,600	239	569,69742223487
0,600	240	569,69742223487
0,600	241	569,69742223487
0,600	242	569,69742223487
0,600	243	569,69742223487
0,600	244	569,69742223487
0,600	245	569,69742223487
0,600	246	569,69742223487
0,600	247	569,69742223487
0,600	248	569,69742223487
0,600	249	569,69742223487
0,600	250	569,69742223487
0,600	251	569,69742223487
0,600	252	569,69742223487
0,600	253	569,69742223487
0,600	254	569,69742223487
0,600	255	569,69742223487
0,600	256	569,69742223487
0,600	257	569,69742223487
0,600	258	569,69742223487
0,600	259	569,69742223487
0,600	260	569,69742223487
0,600	261	569,69742223487
0,600	262	569,69742223487
0,600	263	569,69742223487
0,600	264	569,69742223487
0,600	265	569,69742223487
0,600	266	569,69742223487
0,600	267	569,69742223487
0,600	268	569,69742223487
0,600	269	569,69742223487
0,600	270	569,69742223487
0,600	271	569,69742223487
0,600	272	569,69742223487
0,600	273	569,69742223487
0,600	274	569,69742223487
0,600	275	569,69742223487
0,600	276	569,69742223487
0,600	277	569,69742223487
0,600	278	569,69742223487
0,600	279	569,69742223487
0,600	280	569,69742223487
0,600	281	569,69742223487
0,600	282	569,69742223487
0,600	283	569,69742223487
0,600	284	569,69742223487
0,600	285	569,69742223487
0,600	286	569,69742223487
0,600	287	569,69742223487
0,600	288	569,69742223487
0,600	289	569,69742223487
0,600	290	569,69742223487
0,600	291	569,69742223487
0,600	292	569,69742223487
0,600	293	569,69742223487
0,600	294	569,69742223487
0,600	295	569,69742223487
0,600	296	569,69742223487
0,600	297	569,69742223487
0,600	298	569,69742223487
0,600	299	569,69742223487
0,600	300	569,69742223487
0,600	301	569,69742223487
0,600	302	569,69742223487
0,600	303	569,69742223487
0,600	304	569,69742223487
0,600	305	569,69742223487
0,600	306	569,69742223487
0,600	307	569,69742223487
0,600	308	569,69742223487
0,600	309	569,69742223487
0,600	310	569,69742223487
0,600	311	569,69742223487
0,600	312	569,69742223487
0,600	313	569,69742223487
0,600	314	569,69742223487
0,600	315	569,69742223487
0,600	316	569,69742223487
0,600	317	569,69742223487
0,600	318	569,69742223487
0,600	319	569,69742223487
0,600	320	569,69742223487
0,600	321	569,69742223487
0,600	322	569,69742223487
0,600	323	569,69742223487
0,600	324	569,69742223487
0,600	325	569,69742223487
0,600	326	569,69742223487
0,600	327	569,69742223487
0,600	328	569,69742223487
0,600	329	569,69742223487
0,600	330	569,69742223487
0,600	331	569,69742223487
0,600	332	569,69742223487
0,600	333	569,69742223487
0,600	334	569,69742223487
0,600	335	569,69742223487
0,600	336	569,69742223487
0,600	337	569,69742223487
0,600	338	569,69742223487
0,600	339	569,69742223487
0,600	340	569,69742223487
0,600	341	569,69742223487
0,600	342	569,69742223487
0,600	343	569,69742223487
0,600	344	569,69742223487
0,600	345	569,69742223487
0,600	346	569,69742223487
0,600	347	569,69742223487
0,600	348	569,69742223487
0,600	349	569,69742223487
0,600	350	569,69742223487
0,600	351	569,69742223487
0,600	352	569,69742223487
0,600	353	569,69742223487
0,600	354	569,69742223487
0,600	355	569,69742223487
0,600	356	569,69742223487
0,600	357	569,69742223487
0,600	358	569,69742223487
0,600	359	569,69742223487
0,600	360	569,69742223487
0,600	361	569,69742223487
0,600	362	569,69742223487
0,600	363	569,69742223487
0,600	364	569,69742223487
0,600	365	569,69742223487
0,600	366	569,69742223487
0,600	367	569,69742223487
0,600	368	569,69742223487
0,600	369	569,69742223487
0,600	370	569,69742223487
0,600	371	569,69742223487
0,600	372	569,69742223487
0,600	373	569,69742223487
0,600	374	569,69742223487
0,600	375	569,69742223487
0,600	376	569,69742223487
0,600	377	569,69742223487
0,600	378	569,69742223487
0,600	379	569,69742223487
0,600	380	569,69742223487
0,600	381	569,69742223487
0,600	382	569,69742223487
0,600	383	569,69742223487
0,600	384	569,69742223487
0,600	385	569,69742223487
0,600	386	569,69742223487
0,600	387	569,69742223487
0,600	388	569,69742223487
0,600	389	569,69742223487
0,600	390	569,69742223487
0,600	391	569,69742223487
0,600	392	569,69742223487
0,600	393	569,69742223487
0,600	394	569,69742223487
0,600	395	569,69742223487
0,600	396	569,69742223487
0,600	397	569,69742223487
0,600	398	569,69742223487
0,600	399	569,69742223487
0,600	400	569,69742223487
0,600	401	569,69742223487
0,600	402	569,69742223487
0,600	403	569,69742223487
0,600	404	569,69742223487
0,600	405	569,69742223487
0,600	406	569,69742223487
0,600	407	569,69742223487
0,600	408	569,69742223487
0,600	409	569,69742223487
0,600	410	569,69742223487
0,600	411	569,69742223487
0,600	412	569,69742223487
0,600	413	569,69742223487
0,600	414	569,69742223487
0,600	415	569,69742223487
0,600	416	569,69742223487
0,600	417	569,69742223487
0,600	418	569,69742223487
0,600	419	569,69742223487
0,600	420	569,69742223487
0,600	421	569,69742223487
0,600	422	569,69742223487
0,600	423	569,69742223487
0,600	424	569,69742223487
0,600	425	569,69742223487
0,600	426	569,69742223487
0,600	427	569,69742223487
0,600	428	569,69742223487
0,600	429	569,69742223487
0,600	430	569,69742223487
0,600	431	569,69742223487
0,600	432	569,69742223487
0,600	433	569,69742223487
0,600	434	569,69742223487
0,600	435	569,69742223487
0,600	436	569,69742223487
0,600	437	569,69742223487
0,600	438	569,69742223487
0,600	439	569,69742223487
0,600	440	569,69742223487
0,600	441	569,69742223487
0,600	442	569,69742223487
