0,400	0	567,024865368665
0,400	1	567,024865368665
0,400	2	567,024865368665
0,400	3	567,024865368665
0,400	4	567,024865368665
0,400	5	567,024865368665
0,400	6	567,024865368665
0,400	7	567,024865368665
0,400	8	567,024865368665
0,400	9	567,024865368665
0,400	10	567,024865368665
0,400	11	567,024865368665
0,400	12	567,024865368665
0,400	13	567,024865368665
0,400	14	567,024865368665
0,400	15	567,024865368665
0,400	16	567,024865368665
0,400	17	567,024865368665
0,400	18	566,161766019757
0,400	19	566,161766019757
0,400	20	566,161766019757
0,400	21	558,807711324202
0,400	22	558,807711324202
0,400	23	558,807711324202
0,400	24	558,807711324202
0,400	25	558,807711324202
0,400	26	558,807711324202
0,400	27	558,807711324202
0,400	28	558,807711324202
0,400	29	558,807711324202
0,400	30	558,807711324202
0,400	31	558,807711324202
0,400	32	558,807711324202
0,400	33	558,807711324202
0,400	34	558,807711324202
0,400	35	558,807711324202
0,400	36	558,807711324202
0,400	37	558,807711324202
0,400	38	558,807711324202
0,400	39	558,807711324202
0,400	40	558,807711324202
0,400	41	558,807711324202
0,400	42	558,807711324202
0,400	43	558,807711324202
0,400	44	558,807711324202
0,400	45	558,807711324202
0,400	46	558,807711324202
0,400	47	558,807711324202
0,400	48	558,807711324202
0,400	49	558,807711324202
0,400	50	558,807711324202
0,400	51	558,807711324202
0,400	52	558,807711324202
0,400	53	558,807711324202
0,400	54	558,807711324202
0,400	55	558,807711324202
0,400	56	558,807711324202
0,400	57	558,807711324202
0,400	58	558,807711324202
0,400	59	558,807711324202
0,400	60	558,807711324202
0,400	61	558,807711324202
0,400	62	558,807711324202
0,400	63	558,807711324202
0,400	64	558,807711324202
0,400	65	558,807711324202
0,400	66	558,807711324202
0,400	67	558,807711324202
0,400	68	558,807711324202
0,400	69	558,807711324202
0,400	70	558,807711324202
0,400	71	558,807711324202
0,400	72	558,807711324202
0,400	73	558,807711324202
0,400	74	558,807711324202
0,400	75	558,807711324202
0,400	76	558,807711324202
0,400	77	558,807711324202
0,400	78	558,807711324202
0,400	79	558,807711324202
0,400	80	558,807711324202
0,400	81	558,807711324202
0,400	82	558,807711324202
0,400	83	558,807711324202
0,400	84	558,807711324202
0,400	85	558,807711324202
0,400	86	558,807711324202
0,400	87	558,807711324202
0,400	88	558,807711324202
0,400	89	558,807711324202
0,400	90	558,807711324202
0,400	91	558,807711324202
0,400	92	558,807711324202
0,400	93	558,807711324202
0,400	94	558,807711324202
0,400	95	558,807711324202
0,400	96	558,807711324202
0,400	97	558,807711324202
0,400	98	558,807711324202
0,400	99	558,807711324202
0,400	100	558,807711324202
0,400	101	558,807711324202
0,400	102	558,807711324202
0,400	103	558,807711324202
0,400	104	558,807711324202
0,400	105	558,807711324202
0,400	106	558,807711324202
0,400	107	558,807711324202
0,400	108	558,807711324202
0,400	109	558,807711324202
0,400	110	558,807711324202
0,400	111	558,807711324202
0,400	112	558,807711324202
0,400	113	558,807711324202
0,400	114	558,807711324202
0,400	115	558,807711324202
0,400	116	558,807711324202
0,400	117	558,807711324202
0,400	118	558,807711324202
0,400	119	558,807711324202
0,400	120	558,807711324202
0,400	121	558,807711324202
0,400	122	558,807711324202
0,400	123	558,807711324202
0,400	124	558,807711324202
0,400	125	558,807711324202
0,400	126	558,807711324202
0,400	127	558,807711324202
0,400	128	558,807711324202
0,400	129	558,807711324202
0,400	130	558,807711324202
0,400	131	558,807711324202
0,400	132	558,807711324202
0,400	133	558,807711324202
0,400	134	558,807711324202
0,400	135	558,807711324202
0,400	136	558,807711324202
0,400	137	558,807711324202
0,400	138	558,807711324202
0,400	139	558,807711324202
0,400	140	558,807711324202
0,400	141	558,807711324202
0,400	142	558,807711324202
0,400	143	558,807711324202
0,400	144	558,807711324202
0,400	145	558,807711324202
0,400	146	558,807711324202
0,400	147	558,807711324202
0,400	148	558,807711324202
0,400	149	558,807711324202
0,400	150	558,807711324202
0,400	151	558,807711324202
0,400	152	558,807711324202
0,400	153	558,807711324202
0,400	154	558,807711324202
0,400	155	558,807711324202
0,400	156	558,807711324202
0,400	157	558,807711324202
0,400	158	558,807711324202
0,400	159	558,807711324202
0,400	160	558,807711324202
0,400	161	558,807711324202
0,400	162	558,807711324202
0,400	163	558,807711324202
0,400	164	558,807711324202
0,400	165	558,807711324202
0,400	166	558,807711324202
0,400	167	558,807711324202
0,400	168	558,807711324202
0,400	169	558,807711324202
0,400	170	558,807711324202
0,400	171	558,807711324202
0,400	172	558,807711324202
0,400	173	558,807711324202
0,400	174	558,807711324202
0,400	175	558,807711324202
0,400	176	558,807711324202
0,400	177	558,807711324202
0,400	178	558,807711324202
0,400	179	558,807711324202
0,400	180	558,807711324202
0,400	181	558,807711324202
0,400	182	558,807711324202
0,400	183	558,807711324202
0,400	184	558,807711324202
0,400	185	558,807711324202
0,400	186	558,807711324202
0,400	187	558,807711324202
0,400	188	558,807711324202
0,400	189	558,807711324202
0,400	190	558,807711324202
0,400	191	558,807711324202
0,400	192	558,807711324202
0,400	193	558,807711324202
0,400	194	558,807711324202
0,400	195	558,807711324202
0,400	196	558,807711324202
0,400	197	558,807711324202
0,400	198	558,807711324202
0,400	199	558,807711324202
0,400	200	558,807711324202
0,400	201	558,807711324202
0,400	202	558,807711324202
0,400	203	558,807711324202
0,400	204	558,807711324202
0,400	205	558,807711324202
0,400	206	558,807711324202
0,400	207	558,807711324202
0,400	208	558,807711324202
0,400	209	558,807711324202
0,400	210	558,807711324202
0,400	211	558,807711324202
0,400	212	558,807711324202
0,400	213	558,807711324202
0,400	214	558,807711324202
0,400	215	558,807711324202
0,400	216	558,807711324202
0,400	217	558,807711324202
0,400	218	558,807711324202
0,400	219	558,807711324202
0,400	220	558,807711324202
0,400	221	558,807711324202
0,400	222	558,807711324202
0,400	223	558,807711324202
0,400	224	558,807711324202
0,400	225	558,807711324202
0,400	226	558,807711324202
0,400	227	558,807711324202
0,400	228	558,807711324202
0,400	229	558,807711324202
0,400	230	558,807711324202
0,400	231	558,807711324202
0,400	232	558,807711324202
0,400	233	558,807711324202
0,400	234	558,807711324202
0,400	235	558,807711324202
0,400	236	558,807711324202
0,400	237	558,807711324202
0,400	238	558,807711324202
0,400	239	558,807711324202
0,400	240	558,807711324202
0,400	241	558,807711324202
0,400	242	558,807711324202
0,400	243	558,807711324202
0,400	244	558,807711324202
0,400	245	558,807711324202
0,400	246	558,807711324202
0,400	247	558,807711324202
0,400	248	558,807711324202
0,400	249	558,807711324202
0,400	250	558,807711324202
0,400	251	558,807711324202
0,400	252	558,807711324202
0,400	253	558,807711324202
0,400	254	558,807711324202
0,400	255	558,807711324202
0,400	256	558,807711324202
0,400	257	558,807711324202
0,400	258	558,807711324202
0,400	259	558,807711324202
0,400	260	558,807711324202
0,400	261	558,807711324202
0,400	262	558,807711324202
0,400	263	558,807711324202
0,400	264	558,807711324202
0,400	265	558,807711324202
0,400	266	558,807711324202
0,400	267	558,807711324202
0,400	268	558,807711324202
0,400	269	558,807711324202
0,400	270	558,807711324202
0,400	271	558,807711324202
0,400	272	558,807711324202
0,400	273	558,807711324202
0,400	274	558,807711324202
0,400	275	558,807711324202
0,400	276	558,807711324202
0,400	277	558,807711324202
0,400	278	558,807711324202
0,400	279	558,807711324202
0,400	280	558,807711324202
0,400	281	558,807711324202
0,400	282	558,807711324202
0,400	283	558,807711324202
0,400	284	558,807711324202
0,400	285	558,807711324202
0,400	286	558,807711324202
0,400	287	558,807711324202
0,400	288	558,807711324202
0,400	289	558,807711324202
0,400	290	558,807711324202
0,400	291	558,807711324202
0,400	292	558,807711324202
0,400	293	558,807711324202
0,400	294	558,807711324202
0,400	295	558,807711324202
0,400	296	558,807711324202
0,400	297	558,807711324202
0,400	298	558,807711324202
0,400	299	558,807711324202
0,400	300	558,807711324202
0,400	301	558,807711324202
0,400	302	558,807711324202
0,400	303	558,807711324202
0,400	304	558,807711324202
0,400	305	558,807711324202
0,400	306	558,807711324202
0,400	307	558,807711324202
0,400	308	558,807711324202
0,400	309	558,807711324202
0,400	310	558,807711324202
0,400	311	558,807711324202
0,400	312	558,807711324202
0,400	313	558,807711324202
0,400	314	558,807711324202
0,400	315	558,807711324202
0,400	316	558,807711324202
0,400	317	558,807711324202
0,400	318	558,807711324202
0,400	319	558,807711324202
0,400	320	558,807711324202
0,400	321	558,807711324202
0,400	322	558,807711324202
0,400	323	558,807711324202
0,400	324	558,807711324202
0,400	325	558,807711324202
0,400	326	558,807711324202
0,400	327	558,807711324202
0,400	328	558,807711324202
0,400	329	558,807711324202
0,400	330	558,807711324202
0,400	331	558,807711324202
0,400	332	558,807711324202
0,400	333	558,807711324202
0,400	334	558,807711324202
0,400	335	558,807711324202
0,400	336	558,807711324202
0,400	337	558,807711324202
0,400	338	558,807711324202
0,400	339	558,807711324202
0,400	340	558,807711324202
0,400	341	558,807711324202
0,400	342	558,807711324202
0,400	343	558,807711324202
0,400	344	558,807711324202
0,400	345	558,807711324202
0,400	346	558,807711324202
0,400	347	558,807711324202
0,400	348	558,807711324202
0,400	349	558,807711324202
0,400	350	558,807711324202
0,400	351	558,807711324202
0,400	352	558,807711324202
0,400	353	558,807711324202
0,400	354	558,807711324202
0,400	355	558,807711324202
0,400	356	558,807711324202
0,400	357	558,807711324202
0,400	358	558,807711324202
0,400	359	558,807711324202
0,400	360	558,807711324202
0,400	361	558,807711324202
0,400	362	558,807711324202
0,400	363	558,807711324202
0,400	364	558,807711324202
0,400	365	558,807711324202
0,400	366	558,807711324202
0,400	367	558,807711324202
0,400	368	558,807711324202
0,400	369	558,807711324202
0,400	370	558,807711324202
0,400	371	558,807711324202
0,400	372	558,807711324202
0,400	373	558,807711324202
0,400	374	558,807711324202
0,400	375	558,807711324202
0,400	376	558,807711324202
0,400	377	558,807711324202
0,400	378	558,807711324202
0,400	379	558,807711324202
0,400	380	558,807711324202
0,400	381	558,807711324202
0,400	382	558,807711324202
0,400	383	558,807711324202
0,400	384	558,807711324202
0,400	385	558,807711324202
0,400	386	558,807711324202
0,400	387	558,807711324202
0,400	388	558,807711324202
0,400	389	558,807711324202
0,400	390	558,807711324202
0,400	391	558,807711324202
0,400	392	558,807711324202
0,400	393	558,807711324202
0,400	394	558,807711324202
0,400	395	558,807711324202
0,400	396	558,807711324202
0,400	397	558,807711324202
0,400	398	558,807711324202
0,400	399	558,807711324202
0,400	400	558,807711324202
0,400	401	558,807711324202
0,400	402	558,807711324202
0,400	403	558,807711324202
0,400	404	558,807711324202
0,400	405	558,807711324202
0,400	406	558,807711324202
0,400	407	558,807711324202
0,400	408	558,807711324202
0,400	409	558,807711324202
0,400	410	558,807711324202
0,400	411	558,807711324202
0,400	412	558,807711324202
0,400	413	558,807711324202
0,400	414	558,807711324202
0,400	415	558,807711324202
0,400	416	558,807711324202
0,400	417	558,807711324202
0,400	418	558,807711324202
0,400	419	558,807711324202
0,400	420	558,807711324202
0,400	421	558,807711324202
0,400	422	558,807711324202
0,400	423	558,807711324202
0,400	424	558,807711324202
0,400	425	558,807711324202
0,400	426	558,807711324202
0,400	427	558,807711324202
0,400	428	558,807711324202
0,400	429	558,807711324202
0,400	430	558,807711324202
0,400	431	558,807711324202
0,400	432	558,807711324202
0,400	433	558,807711324202
0,400	434	558,807711324202
0,400	435	558,807711324202
0,400	436	558,807711324202
0,400	437	558,807711324202
0,400	438	558,807711324202
0,400	439	558,807711324202
0,400	440	558,807711324202
0,400	441	558,807711324202
0,400	442	558,807711324202
