0,700	0	569,69742223487
0,700	1	569,69742223487
0,700	2	569,69742223487
0,700	3	569,69742223487
0,700	4	569,69742223487
0,700	5	569,69742223487
0,700	6	569,69742223487
0,700	7	569,69742223487
0,700	8	569,69742223487
0,700	9	569,69742223487
0,700	10	569,69742223487
0,700	11	569,69742223487
0,700	12	569,69742223487
0,700	13	569,69742223487
0,700	14	569,69742223487
0,700	15	569,69742223487
0,700	16	569,69742223487
0,700	17	569,69742223487
0,700	18	569,69742223487
0,700	19	569,69742223487
0,700	20	569,69742223487
0,700	21	569,69742223487
0,700	22	569,69742223487
0,700	23	569,69742223487
0,700	24	569,69742223487
0,700	25	569,69742223487
0,700	26	569,69742223487
0,700	27	569,69742223487
0,700	28	569,69742223487
0,700	29	569,69742223487
0,700	30	569,69742223487
0,700	31	569,69742223487
0,700	32	569,69742223487
0,700	33	569,69742223487
0,700	34	569,69742223487
0,700	35	569,69742223487
0,700	36	569,69742223487
0,700	37	569,69742223487
0,700	38	569,69742223487
0,700	39	569,69742223487
0,700	40	569,69742223487
0,700	41	569,69742223487
0,700	42	569,69742223487
0,700	43	569,69742223487
0,700	44	569,69742223487
0,700	45	569,69742223487
0,700	46	569,69742223487
0,700	47	569,69742223487
0,700	48	569,69742223487
0,700	49	569,69742223487
0,700	50	569,69742223487
0,700	51	569,69742223487
0,700	52	569,69742223487
0,700	53	569,69742223487
0,700	54	569,69742223487
0,700	55	569,69742223487
0,700	56	569,69742223487
0,700	57	569,69742223487
0,700	58	569,69742223487
0,700	59	569,69742223487
0,700	60	569,69742223487
0,700	61	569,69742223487
0,700	62	569,69742223487
0,700	63	569,69742223487
0,700	64	569,69742223487
0,700	65	569,69742223487
0,700	66	569,69742223487
0,700	67	569,69742223487
0,700	68	569,69742223487
0,700	69	569,69742223487
0,700	70	569,69742223487
0,700	71	569,69742223487
0,700	72	569,69742223487
0,700	73	569,69742223487
0,700	74	569,69742223487
0,700	75	569,69742223487
0,700	76	569,69742223487
0,700	77	569,69742223487
0,700	78	569,69742223487
0,700	79	569,69742223487
0,700	80	569,69742223487
0,700	81	569,69742223487
0,700	82	569,69742223487
0,700	83	569,69742223487
0,700	84	569,69742223487
0,700	85	569,69742223487
0,700	86	569,69742223487
0,700	87	569,69742223487
0,700	88	569,69742223487
0,700	89	569,69742223487
0,700	90	569,69742223487
0,700	91	569,69742223487
0,700	92	569,69742223487
0,700	93	569,69742223487
0,700	94	569,69742223487
0,700	95	569,69742223487
0,700	96	569,69742223487
0,700	97	569,69742223487
0,700	98	569,69742223487
0,700	99	569,69742223487
0,700	100	569,69742223487
0,700	101	569,69742223487
0,700	102	569,69742223487
0,700	103	569,69742223487
0,700	104	569,69742223487
0,700	105	569,69742223487
0,700	106	569,69742223487
0,700	107	569,69742223487
0,700	108	569,69742223487
0,700	109	569,69742223487
0,700	110	569,69742223487
0,700	111	569,69742223487
0,700	112	569,69742223487
0,700	113	569,69742223487
0,700	114	569,69742223487
0,700	115	569,69742223487
0,700	116	569,69742223487
0,700	117	569,69742223487
0,700	118	569,69742223487
0,700	119	569,69742223487
0,700	120	569,69742223487
0,700	121	569,69742223487
0,700	122	569,69742223487
0,700	123	569,69742223487
0,700	124	569,69742223487
0,700	125	569,69742223487
0,700	126	569,69742223487
0,700	127	569,69742223487
0,700	128	569,69742223487
0,700	129	569,69742223487
0,700	130	569,69742223487
0,700	131	569,69742223487
0,700	132	569,69742223487
0,700	133	569,69742223487
0,700	134	569,69742223487
0,700	135	569,69742223487
0,700	136	569,69742223487
0,700	137	569,69742223487
0,700	138	569,69742223487
0,700	139	569,69742223487
0,700	140	569,69742223487
0,700	141	569,69742223487
0,700	142	569,69742223487
0,700	143	569,69742223487
0,700	144	569,69742223487
0,700	145	569,69742223487
0,700	146	569,69742223487
0,700	147	569,69742223487
0,700	148	569,69742223487
0,700	149	569,69742223487
0,700	150	569,69742223487
0,700	151	569,69742223487
0,700	152	569,69742223487
0,700	153	569,69742223487
0,700	154	569,69742223487
0,700	155	569,69742223487
0,700	156	569,69742223487
0,700	157	569,69742223487
0,700	158	569,69742223487
0,700	159	569,69742223487
0,700	160	569,69742223487
0,700	161	569,69742223487
0,700	162	569,69742223487
0,700	163	569,69742223487
0,700	164	569,69742223487
0,700	165	569,69742223487
0,700	166	569,69742223487
0,700	167	569,69742223487
0,700	168	569,69742223487
0,700	169	569,69742223487
0,700	170	569,69742223487
0,700	171	569,69742223487
0,700	172	569,69742223487
0,700	173	569,69742223487
0,700	174	569,69742223487
0,700	175	569,69742223487
0,700	176	569,69742223487
0,700	177	569,69742223487
0,700	178	569,69742223487
0,700	179	569,69742223487
0,700	180	569,69742223487
0,700	181	569,69742223487
0,700	182	569,69742223487
0,700	183	569,69742223487
0,700	184	569,69742223487
0,700	185	569,69742223487
0,700	186	569,69742223487
0,700	187	569,69742223487
0,700	188	569,69742223487
0,700	189	569,69742223487
0,700	190	569,69742223487
0,700	191	569,69742223487
0,700	192	569,69742223487
0,700	193	569,69742223487
0,700	194	569,69742223487
0,700	195	569,69742223487
0,700	196	569,69742223487
0,700	197	569,69742223487
0,700	198	569,69742223487
0,700	199	569,69742223487
0,700	200	569,69742223487
0,700	201	569,69742223487
0,700	202	569,69742223487
0,700	203	569,69742223487
0,700	204	569,69742223487
0,700	205	569,69742223487
0,700	206	569,69742223487
0,700	207	569,69742223487
0,700	208	569,69742223487
0,700	209	569,69742223487
0,700	210	569,69742223487
0,700	211	569,69742223487
0,700	212	569,69742223487
0,700	213	569,69742223487
0,700	214	569,69742223487
0,700	215	569,69742223487
0,700	216	569,69742223487
0,700	217	569,69742223487
0,700	218	569,69742223487
0,700	219	569,69742223487
0,700	220	569,69742223487
0,700	221	569,69742223487
0,700	222	569,69742223487
0,700	223	569,69742223487
0,700	224	569,69742223487
0,700	225	569,69742223487
0,700	226	569,69742223487
0,700	227	569,69742223487
0,700	228	569,69742223487
0,700	229	569,69742223487
0,700	230	569,69742223487
0,700	231	569,69742223487
0,700	232	569,69742223487
0,700	233	569,69742223487
0,700	234	569,69742223487
0,700	235	569,69742223487
0,700	236	569,69742223487
0,700	237	569,69742223487
0,700	238	569,69742223487
0,700	239	569,69742223487
0,700	240	569,69742223487
0,700	241	569,69742223487
0,700	242	569,69742223487
0,700	243	569,69742223487
0,700	244	569,69742223487
0,700	245	569,69742223487
0,700	246	569,69742223487
0,700	247	569,69742223487
0,700	248	569,69742223487
0,700	249	569,69742223487
0,700	250	569,69742223487
0,700	251	569,69742223487
0,700	252	569,69742223487
0,700	253	569,69742223487
0,700	254	569,69742223487
0,700	255	569,69742223487
0,700	256	569,69742223487
0,700	257	569,69742223487
0,700	258	569,69742223487
0,700	259	569,69742223487
0,700	260	569,69742223487
0,700	261	569,69742223487
0,700	262	569,69742223487
0,700	263	569,69742223487
0,700	264	569,69742223487
0,700	265	569,69742223487
0,700	266	569,69742223487
0,700	267	569,69742223487
0,700	268	569,69742223487
0,700	269	569,69742223487
0,700	270	569,69742223487
0,700	271	569,69742223487
0,700	272	569,69742223487
0,700	273	569,69742223487
0,700	274	569,69742223487
0,700	275	569,69742223487
0,700	276	569,69742223487
0,700	277	569,69742223487
0,700	278	569,69742223487
0,700	279	569,69742223487
0,700	280	569,69742223487
0,700	281	569,69742223487
0,700	282	569,69742223487
0,700	283	569,69742223487
0,700	284	569,69742223487
0,700	285	569,69742223487
0,700	286	569,69742223487
0,700	287	569,69742223487
0,700	288	569,69742223487
0,700	289	569,69742223487
0,700	290	569,69742223487
0,700	291	569,69742223487
0,700	292	569,69742223487
0,700	293	569,69742223487
0,700	294	569,69742223487
0,700	295	569,69742223487
0,700	296	569,69742223487
0,700	297	569,69742223487
0,700	298	569,69742223487
0,700	299	569,69742223487
0,700	300	569,69742223487
0,700	301	569,69742223487
0,700	302	569,69742223487
0,700	303	569,69742223487
0,700	304	569,69742223487
0,700	305	569,69742223487
0,700	306	569,69742223487
0,700	307	569,69742223487
0,700	308	569,69742223487
0,700	309	569,69742223487
0,700	310	569,69742223487
0,700	311	569,69742223487
0,700	312	569,69742223487
0,700	313	569,69742223487
0,700	314	569,69742223487
0,700	315	569,69742223487
0,700	316	569,69742223487
0,700	317	569,69742223487
0,700	318	569,69742223487
0,700	319	569,69742223487
0,700	320	569,69742223487
0,700	321	569,69742223487
0,700	322	569,69742223487
0,700	323	569,69742223487
0,700	324	569,69742223487
0,700	325	569,69742223487
0,700	326	569,69742223487
0,700	327	569,69742223487
0,700	328	569,69742223487
0,700	329	569,69742223487
0,700	330	569,69742223487
0,700	331	569,69742223487
0,700	332	569,69742223487
0,700	333	569,69742223487
0,700	334	569,69742223487
0,700	335	569,69742223487
0,700	336	569,69742223487
0,700	337	569,69742223487
0,700	338	569,69742223487
0,700	339	569,69742223487
0,700	340	569,69742223487
0,700	341	569,69742223487
0,700	342	569,69742223487
0,700	343	569,69742223487
0,700	344	569,69742223487
0,700	345	569,69742223487
0,700	346	569,69742223487
0,700	347	569,69742223487
0,700	348	569,69742223487
0,700	349	569,69742223487
0,700	350	569,69742223487
0,700	351	569,69742223487
0,700	352	569,69742223487
0,700	353	569,69742223487
0,700	354	569,69742223487
0,700	355	569,69742223487
0,700	356	569,69742223487
0,700	357	569,69742223487
0,700	358	569,69742223487
0,700	359	569,69742223487
0,700	360	569,69742223487
0,700	361	569,69742223487
0,700	362	569,69742223487
0,700	363	569,69742223487
0,700	364	569,69742223487
0,700	365	569,69742223487
0,700	366	569,69742223487
0,700	367	569,69742223487
0,700	368	569,69742223487
0,700	369	569,69742223487
0,700	370	569,69742223487
0,700	371	569,69742223487
0,700	372	569,69742223487
0,700	373	569,69742223487
0,700	374	569,69742223487
0,700	375	569,69742223487
0,700	376	569,69742223487
0,700	377	569,69742223487
0,700	378	569,69742223487
0,700	379	569,69742223487
0,700	380	569,69742223487
0,700	381	569,69742223487
0,700	382	569,69742223487
0,700	383	569,69742223487
0,700	384	569,69742223487
0,700	385	569,69742223487
0,700	386	569,69742223487
0,700	387	569,69742223487
0,700	388	569,69742223487
0,700	389	569,69742223487
0,700	390	569,69742223487
0,700	391	569,69742223487
0,700	392	569,69742223487
0,700	393	569,69742223487
0,700	394	569,69742223487
0,700	395	569,69742223487
0,700	396	569,69742223487
0,700	397	569,69742223487
0,700	398	569,69742223487
0,700	399	569,69742223487
0,700	400	569,69742223487
0,700	401	569,69742223487
0,700	402	569,69742223487
0,700	403	569,69742223487
0,700	404	569,69742223487
0,700	405	569,69742223487
0,700	406	569,69742223487
0,700	407	569,69742223487
0,700	408	569,69742223487
0,700	409	569,69742223487
0,700	410	569,69742223487
0,700	411	569,69742223487
0,700	412	569,69742223487
0,700	413	569,69742223487
0,700	414	569,69742223487
0,700	415	569,69742223487
0,700	416	569,69742223487
0,700	417	569,69742223487
0,700	418	569,69742223487
0,700	419	569,69742223487
0,700	420	569,69742223487
0,700	421	569,69742223487
0,700	422	569,69742223487
0,700	423	569,69742223487
0,700	424	569,69742223487
0,700	425	569,69742223487
0,700	426	569,69742223487
0,700	427	569,69742223487
0,700	428	569,69742223487
0,700	429	569,69742223487
0,700	430	569,69742223487
0,700	431	569,69742223487
0,700	432	569,69742223487
0,700	433	569,69742223487
0,700	434	569,69742223487
0,700	435	569,69742223487
0,700	436	569,69742223487
0,700	437	569,69742223487
0,700	438	569,69742223487
0,700	439	569,69742223487
0,700	440	569,69742223487
0,700	441	569,69742223487
0,700	442	569,69742223487
