0,575	0	569,69742223487
0,575	1	569,69742223487
0,575	2	569,69742223487
0,575	3	569,69742223487
0,575	4	569,69742223487
0,575	5	569,69742223487
0,575	6	569,69742223487
0,575	7	569,69742223487
0,575	8	569,69742223487
0,575	9	569,69742223487
0,575	10	569,69742223487
0,575	11	569,69742223487
0,575	12	569,69742223487
0,575	13	569,69742223487
0,575	14	569,69742223487
0,575	15	569,69742223487
0,575	16	569,69742223487
0,575	17	569,69742223487
0,575	18	569,69742223487
0,575	19	569,69742223487
0,575	20	569,69742223487
0,575	21	569,69742223487
0,575	22	569,69742223487
0,575	23	569,69742223487
0,575	24	569,69742223487
0,575	25	569,69742223487
0,575	26	569,69742223487
0,575	27	569,69742223487
0,575	28	569,69742223487
0,575	29	569,69742223487
0,575	30	569,69742223487
0,575	31	569,69742223487
0,575	32	569,69742223487
0,575	33	569,69742223487
0,575	34	569,69742223487
0,575	35	569,69742223487
0,575	36	569,69742223487
0,575	37	569,69742223487
0,575	38	569,69742223487
0,575	39	569,69742223487
0,575	40	569,69742223487
0,575	41	569,69742223487
0,575	42	569,69742223487
0,575	43	569,69742223487
0,575	44	569,69742223487
0,575	45	569,69742223487
0,575	46	569,69742223487
0,575	47	569,69742223487
0,575	48	569,69742223487
0,575	49	569,69742223487
0,575	50	569,69742223487
0,575	51	569,69742223487
0,575	52	569,69742223487
0,575	53	569,69742223487
0,575	54	569,69742223487
0,575	55	569,69742223487
0,575	56	569,69742223487
0,575	57	569,69742223487
0,575	58	569,69742223487
0,575	59	569,69742223487
0,575	60	569,69742223487
0,575	61	569,69742223487
0,575	62	569,69742223487
0,575	63	569,69742223487
0,575	64	569,69742223487
0,575	65	569,69742223487
0,575	66	569,69742223487
0,575	67	569,69742223487
0,575	68	569,69742223487
0,575	69	569,69742223487
0,575	70	569,69742223487
0,575	71	569,69742223487
0,575	72	569,69742223487
0,575	73	569,69742223487
0,575	74	569,69742223487
0,575	75	569,69742223487
0,575	76	569,69742223487
0,575	77	569,69742223487
0,575	78	569,69742223487
0,575	79	569,69742223487
0,575	80	569,69742223487
0,575	81	569,69742223487
0,575	82	569,69742223487
0,575	83	569,69742223487
0,575	84	569,69742223487
0,575	85	569,69742223487
0,575	86	569,69742223487
0,575	87	569,69742223487
0,575	88	569,69742223487
0,575	89	569,69742223487
0,575	90	569,69742223487
0,575	91	569,69742223487
0,575	92	569,69742223487
0,575	93	569,69742223487
0,575	94	569,69742223487
0,575	95	569,69742223487
0,575	96	569,69742223487
0,575	97	569,69742223487
0,575	98	569,69742223487
0,575	99	569,69742223487
0,575	100	569,69742223487
0,575	101	569,69742223487
0,575	102	569,69742223487
0,575	103	569,69742223487
0,575	104	569,69742223487
0,575	105	569,69742223487
0,575	106	569,69742223487
0,575	107	569,69742223487
0,575	108	569,69742223487
0,575	109	569,69742223487
0,575	110	569,69742223487
0,575	111	569,69742223487
0,575	112	569,69742223487
0,575	113	569,69742223487
0,575	114	569,69742223487
0,575	115	569,69742223487
0,575	116	569,69742223487
0,575	117	569,69742223487
0,575	118	569,69742223487
0,575	119	569,69742223487
0,575	120	569,69742223487
0,575	121	569,69742223487
0,575	122	569,69742223487
0,575	123	569,69742223487
0,575	124	569,69742223487
0,575	125	569,69742223487
0,575	126	569,69742223487
0,575	127	569,69742223487
0,575	128	569,69742223487
0,575	129	569,69742223487
0,575	130	569,69742223487
0,575	131	569,69742223487
0,575	132	569,69742223487
0,575	133	569,69742223487
0,575	134	569,69742223487
0,575	135	569,69742223487
0,575	136	569,69742223487
0,575	137	569,69742223487
0,575	138	569,69742223487
0,575	139	569,69742223487
0,575	140	569,69742223487
0,575	141	569,69742223487
0,575	142	569,69742223487
0,575	143	569,69742223487
0,575	144	569,69742223487
0,575	145	569,69742223487
0,575	146	569,69742223487
0,575	147	569,69742223487
0,575	148	569,69742223487
0,575	149	569,69742223487
0,575	150	569,69742223487
0,575	151	569,69742223487
0,575	152	569,69742223487
0,575	153	569,69742223487
0,575	154	569,69742223487
0,575	155	569,69742223487
0,575	156	569,69742223487
0,575	157	569,69742223487
0,575	158	569,69742223487
0,575	159	569,69742223487
0,575	160	569,69742223487
0,575	161	569,69742223487
0,575	162	569,69742223487
0,575	163	569,69742223487
0,575	164	569,69742223487
0,575	165	569,69742223487
0,575	166	569,69742223487
0,575	167	569,69742223487
0,575	168	569,69742223487
0,575	169	569,69742223487
0,575	170	569,69742223487
0,575	171	569,69742223487
0,575	172	569,69742223487
0,575	173	569,69742223487
0,575	174	569,69742223487
0,575	175	569,69742223487
0,575	176	569,69742223487
0,575	177	569,69742223487
0,575	178	569,69742223487
0,575	179	569,69742223487
0,575	180	569,69742223487
0,575	181	569,69742223487
0,575	182	569,69742223487
0,575	183	569,69742223487
0,575	184	569,69742223487
0,575	185	569,69742223487
0,575	186	569,69742223487
0,575	187	569,69742223487
0,575	188	569,69742223487
0,575	189	569,69742223487
0,575	190	569,69742223487
0,575	191	569,69742223487
0,575	192	569,69742223487
0,575	193	569,69742223487
0,575	194	569,69742223487
0,575	195	569,69742223487
0,575	196	569,69742223487
0,575	197	569,69742223487
0,575	198	569,69742223487
0,575	199	569,69742223487
0,575	200	569,69742223487
0,575	201	569,69742223487
0,575	202	569,69742223487
0,575	203	569,69742223487
0,575	204	569,69742223487
0,575	205	569,69742223487
0,575	206	569,69742223487
0,575	207	569,69742223487
0,575	208	569,69742223487
0,575	209	569,69742223487
0,575	210	569,69742223487
0,575	211	569,69742223487
0,575	212	569,69742223487
0,575	213	569,69742223487
0,575	214	569,69742223487
0,575	215	569,69742223487
0,575	216	569,69742223487
0,575	217	569,69742223487
0,575	218	569,69742223487
0,575	219	569,69742223487
0,575	220	569,69742223487
0,575	221	569,69742223487
0,575	222	569,69742223487
0,575	223	569,69742223487
0,575	224	569,69742223487
0,575	225	569,69742223487
0,575	226	569,69742223487
0,575	227	569,69742223487
0,575	228	569,69742223487
0,575	229	569,69742223487
0,575	230	569,69742223487
0,575	231	569,69742223487
0,575	232	569,69742223487
0,575	233	569,69742223487
0,575	234	569,69742223487
0,575	235	569,69742223487
0,575	236	569,69742223487
0,575	237	569,69742223487
0,575	238	569,69742223487
0,575	239	569,69742223487
0,575	240	569,69742223487
0,575	241	569,69742223487
0,575	242	569,69742223487
0,575	243	569,69742223487
0,575	244	569,69742223487
0,575	245	569,69742223487
0,575	246	569,69742223487
0,575	247	569,69742223487
0,575	248	569,69742223487
0,575	249	569,69742223487
0,575	250	569,69742223487
0,575	251	569,69742223487
0,575	252	569,69742223487
0,575	253	569,69742223487
0,575	254	569,69742223487
0,575	255	569,69742223487
0,575	256	569,69742223487
0,575	257	569,69742223487
0,575	258	569,69742223487
0,575	259	569,69742223487
0,575	260	569,69742223487
0,575	261	569,69742223487
0,575	262	569,69742223487
0,575	263	569,69742223487
0,575	264	569,69742223487
0,575	265	569,69742223487
0,575	266	569,69742223487
0,575	267	569,69742223487
0,575	268	569,69742223487
0,575	269	569,69742223487
0,575	270	569,69742223487
0,575	271	569,69742223487
0,575	272	569,69742223487
0,575	273	569,69742223487
0,575	274	569,69742223487
0,575	275	569,69742223487
0,575	276	569,69742223487
0,575	277	569,69742223487
0,575	278	569,69742223487
0,575	279	569,69742223487
0,575	280	569,69742223487
0,575	281	569,69742223487
0,575	282	569,69742223487
0,575	283	569,69742223487
0,575	284	569,69742223487
0,575	285	569,69742223487
0,575	286	569,69742223487
0,575	287	569,69742223487
0,575	288	569,69742223487
0,575	289	569,69742223487
0,575	290	569,69742223487
0,575	291	569,69742223487
0,575	292	569,69742223487
0,575	293	569,69742223487
0,575	294	569,69742223487
0,575	295	569,69742223487
0,575	296	569,69742223487
0,575	297	569,69742223487
0,575	298	569,69742223487
0,575	299	569,69742223487
0,575	300	569,69742223487
0,575	301	569,69742223487
0,575	302	569,69742223487
0,575	303	569,69742223487
0,575	304	569,69742223487
0,575	305	569,69742223487
0,575	306	569,69742223487
0,575	307	569,69742223487
0,575	308	569,69742223487
0,575	309	569,69742223487
0,575	310	569,69742223487
0,575	311	569,69742223487
0,575	312	569,69742223487
0,575	313	569,69742223487
0,575	314	569,69742223487
0,575	315	569,69742223487
0,575	316	569,69742223487
0,575	317	569,69742223487
0,575	318	569,69742223487
0,575	319	569,69742223487
0,575	320	569,69742223487
0,575	321	569,69742223487
0,575	322	569,69742223487
0,575	323	569,69742223487
0,575	324	569,69742223487
0,575	325	569,69742223487
0,575	326	569,69742223487
0,575	327	569,69742223487
0,575	328	569,69742223487
0,575	329	569,69742223487
0,575	330	569,69742223487
0,575	331	569,69742223487
0,575	332	569,69742223487
0,575	333	569,69742223487
0,575	334	569,69742223487
0,575	335	569,69742223487
0,575	336	569,69742223487
0,575	337	569,69742223487
0,575	338	569,69742223487
0,575	339	569,69742223487
0,575	340	569,69742223487
0,575	341	569,69742223487
0,575	342	569,69742223487
0,575	343	569,69742223487
0,575	344	569,69742223487
0,575	345	569,69742223487
0,575	346	569,69742223487
0,575	347	569,69742223487
0,575	348	569,69742223487
0,575	349	569,69742223487
0,575	350	569,69742223487
0,575	351	569,69742223487
0,575	352	569,69742223487
0,575	353	569,69742223487
0,575	354	569,69742223487
0,575	355	569,69742223487
0,575	356	569,69742223487
0,575	357	569,69742223487
0,575	358	569,69742223487
0,575	359	569,69742223487
0,575	360	569,69742223487
0,575	361	569,69742223487
0,575	362	569,69742223487
0,575	363	569,69742223487
0,575	364	569,69742223487
0,575	365	569,69742223487
0,575	366	569,69742223487
0,575	367	569,69742223487
0,575	368	569,69742223487
0,575	369	569,69742223487
0,575	370	569,69742223487
0,575	371	569,69742223487
0,575	372	569,69742223487
0,575	373	569,69742223487
0,575	374	569,69742223487
0,575	375	569,69742223487
0,575	376	569,69742223487
0,575	377	569,69742223487
0,575	378	569,69742223487
0,575	379	569,69742223487
0,575	380	569,69742223487
0,575	381	569,69742223487
0,575	382	569,69742223487
0,575	383	569,69742223487
0,575	384	569,69742223487
0,575	385	569,69742223487
0,575	386	569,69742223487
0,575	387	569,69742223487
0,575	388	569,69742223487
0,575	389	569,69742223487
0,575	390	569,69742223487
0,575	391	569,69742223487
0,575	392	569,69742223487
0,575	393	569,69742223487
0,575	394	569,69742223487
0,575	395	569,69742223487
0,575	396	569,69742223487
0,575	397	569,69742223487
0,575	398	569,69742223487
0,575	399	569,69742223487
0,575	400	569,69742223487
0,575	401	569,69742223487
0,575	402	569,69742223487
0,575	403	569,69742223487
0,575	404	569,69742223487
0,575	405	569,69742223487
0,575	406	569,69742223487
0,575	407	569,69742223487
0,575	408	569,69742223487
0,575	409	569,69742223487
0,575	410	569,69742223487
0,575	411	569,69742223487
0,575	412	569,69742223487
0,575	413	569,69742223487
0,575	414	569,69742223487
0,575	415	569,69742223487
0,575	416	569,69742223487
0,575	417	569,69742223487
0,575	418	569,69742223487
0,575	419	569,69742223487
0,575	420	569,69742223487
0,575	421	569,69742223487
0,575	422	569,69742223487
0,575	423	569,69742223487
0,575	424	569,69742223487
0,575	425	569,69742223487
0,575	426	569,69742223487
0,575	427	569,69742223487
0,575	428	569,69742223487
0,575	429	569,69742223487
0,575	430	569,69742223487
0,575	431	569,69742223487
0,575	432	569,69742223487
0,575	433	569,69742223487
0,575	434	569,69742223487
0,575	435	569,69742223487
0,575	436	569,69742223487
0,575	437	569,69742223487
0,575	438	569,69742223487
0,575	439	569,69742223487
0,575	440	569,69742223487
0,575	441	569,69742223487
0,575	442	569,69742223487
