0,900	0	569,69742223487
0,900	1	569,69742223487
0,900	2	569,69742223487
0,900	3	569,69742223487
0,900	4	569,69742223487
0,900	5	569,69742223487
0,900	6	569,69742223487
0,900	7	569,69742223487
0,900	8	569,69742223487
0,900	9	569,69742223487
0,900	10	569,69742223487
0,900	11	569,69742223487
0,900	12	569,69742223487
0,900	13	569,69742223487
0,900	14	569,69742223487
0,900	15	569,69742223487
0,900	16	569,69742223487
0,900	17	569,69742223487
0,900	18	569,69742223487
0,900	19	569,69742223487
0,900	20	569,69742223487
0,900	21	569,69742223487
0,900	22	569,69742223487
0,900	23	569,69742223487
0,900	24	569,69742223487
0,900	25	569,69742223487
0,900	26	569,69742223487
0,900	27	569,69742223487
0,900	28	569,69742223487
0,900	29	569,69742223487
0,900	30	569,69742223487
0,900	31	569,69742223487
0,900	32	569,69742223487
0,900	33	569,69742223487
0,900	34	569,69742223487
0,900	35	569,69742223487
0,900	36	569,69742223487
0,900	37	569,69742223487
0,900	38	569,69742223487
0,900	39	569,69742223487
0,900	40	569,69742223487
0,900	41	569,69742223487
0,900	42	569,69742223487
0,900	43	569,69742223487
0,900	44	569,69742223487
0,900	45	569,69742223487
0,900	46	569,69742223487
0,900	47	569,69742223487
0,900	48	569,69742223487
0,900	49	569,69742223487
0,900	50	569,69742223487
0,900	51	569,69742223487
0,900	52	569,69742223487
0,900	53	569,69742223487
0,900	54	569,69742223487
0,900	55	569,69742223487
0,900	56	569,69742223487
0,900	57	569,69742223487
0,900	58	569,69742223487
0,900	59	569,69742223487
0,900	60	569,69742223487
0,900	61	569,69742223487
0,900	62	569,69742223487
0,900	63	569,69742223487
0,900	64	569,69742223487
0,900	65	569,69742223487
0,900	66	569,69742223487
0,900	67	569,69742223487
0,900	68	569,69742223487
0,900	69	569,69742223487
0,900	70	569,69742223487
0,900	71	569,69742223487
0,900	72	569,69742223487
0,900	73	569,69742223487
0,900	74	569,69742223487
0,900	75	569,69742223487
0,900	76	569,69742223487
0,900	77	569,69742223487
0,900	78	569,69742223487
0,900	79	569,69742223487
0,900	80	569,69742223487
0,900	81	569,69742223487
0,900	82	569,69742223487
0,900	83	569,69742223487
0,900	84	569,69742223487
0,900	85	569,69742223487
0,900	86	569,69742223487
0,900	87	569,69742223487
0,900	88	569,69742223487
0,900	89	569,69742223487
0,900	90	569,69742223487
0,900	91	569,69742223487
0,900	92	569,69742223487
0,900	93	569,69742223487
0,900	94	569,69742223487
0,900	95	569,69742223487
0,900	96	569,69742223487
0,900	97	569,69742223487
0,900	98	569,69742223487
0,900	99	569,69742223487
0,900	100	569,69742223487
0,900	101	569,69742223487
0,900	102	569,69742223487
0,900	103	569,69742223487
0,900	104	569,69742223487
0,900	105	569,69742223487
0,900	106	569,69742223487
0,900	107	569,69742223487
0,900	108	569,69742223487
0,900	109	569,69742223487
0,900	110	569,69742223487
0,900	111	569,69742223487
0,900	112	569,69742223487
0,900	113	569,69742223487
0,900	114	569,69742223487
0,900	115	569,69742223487
0,900	116	569,69742223487
0,900	117	569,69742223487
0,900	118	569,69742223487
0,900	119	569,69742223487
0,900	120	569,69742223487
0,900	121	569,69742223487
0,900	122	569,69742223487
0,900	123	569,69742223487
0,900	124	569,69742223487
0,900	125	569,69742223487
0,900	126	569,69742223487
0,900	127	569,69742223487
0,900	128	569,69742223487
0,900	129	569,69742223487
0,900	130	569,69742223487
0,900	131	569,69742223487
0,900	132	569,69742223487
0,900	133	569,69742223487
0,900	134	569,69742223487
0,900	135	569,69742223487
0,900	136	569,69742223487
0,900	137	569,69742223487
0,900	138	569,69742223487
0,900	139	569,69742223487
0,900	140	569,69742223487
0,900	141	569,69742223487
0,900	142	569,69742223487
0,900	143	569,69742223487
0,900	144	569,69742223487
0,900	145	569,69742223487
0,900	146	569,69742223487
0,900	147	569,69742223487
0,900	148	569,69742223487
0,900	149	569,69742223487
0,900	150	569,69742223487
0,900	151	569,69742223487
0,900	152	569,69742223487
0,900	153	569,69742223487
0,900	154	569,69742223487
0,900	155	569,69742223487
0,900	156	569,69742223487
0,900	157	569,69742223487
0,900	158	569,69742223487
0,900	159	569,69742223487
0,900	160	569,69742223487
0,900	161	569,69742223487
0,900	162	569,69742223487
0,900	163	569,69742223487
0,900	164	569,69742223487
0,900	165	569,69742223487
0,900	166	569,69742223487
0,900	167	569,69742223487
0,900	168	569,69742223487
0,900	169	569,69742223487
0,900	170	569,69742223487
0,900	171	569,69742223487
0,900	172	569,69742223487
0,900	173	569,69742223487
0,900	174	569,69742223487
0,900	175	569,69742223487
0,900	176	569,69742223487
0,900	177	569,69742223487
0,900	178	569,69742223487
0,900	179	569,69742223487
0,900	180	569,69742223487
0,900	181	569,69742223487
0,900	182	569,69742223487
0,900	183	569,69742223487
0,900	184	569,69742223487
0,900	185	569,69742223487
0,900	186	569,69742223487
0,900	187	569,69742223487
0,900	188	569,69742223487
0,900	189	569,69742223487
0,900	190	569,69742223487
0,900	191	569,69742223487
0,900	192	569,69742223487
0,900	193	569,69742223487
0,900	194	569,69742223487
0,900	195	569,69742223487
0,900	196	569,69742223487
0,900	197	569,69742223487
0,900	198	569,69742223487
0,900	199	569,69742223487
0,900	200	569,69742223487
0,900	201	569,69742223487
0,900	202	569,69742223487
0,900	203	569,69742223487
0,900	204	569,69742223487
0,900	205	569,69742223487
0,900	206	569,69742223487
0,900	207	569,69742223487
0,900	208	569,69742223487
0,900	209	569,69742223487
0,900	210	569,69742223487
0,900	211	569,69742223487
0,900	212	569,69742223487
0,900	213	569,69742223487
0,900	214	569,69742223487
0,900	215	569,69742223487
0,900	216	569,69742223487
0,900	217	569,69742223487
0,900	218	569,69742223487
0,900	219	569,69742223487
0,900	220	569,69742223487
0,900	221	569,69742223487
0,900	222	569,69742223487
0,900	223	569,69742223487
0,900	224	569,69742223487
0,900	225	569,69742223487
0,900	226	569,69742223487
0,900	227	569,69742223487
0,900	228	569,69742223487
0,900	229	569,69742223487
0,900	230	569,69742223487
0,900	231	569,69742223487
0,900	232	569,69742223487
0,900	233	569,69742223487
0,900	234	569,69742223487
0,900	235	569,69742223487
0,900	236	569,69742223487
0,900	237	569,69742223487
0,900	238	569,69742223487
0,900	239	569,69742223487
0,900	240	569,69742223487
0,900	241	569,69742223487
0,900	242	569,69742223487
0,900	243	569,69742223487
0,900	244	569,69742223487
0,900	245	569,69742223487
0,900	246	569,69742223487
0,900	247	569,69742223487
0,900	248	569,69742223487
0,900	249	569,69742223487
0,900	250	569,69742223487
0,900	251	569,69742223487
0,900	252	569,69742223487
0,900	253	569,69742223487
0,900	254	569,69742223487
0,900	255	569,69742223487
0,900	256	569,69742223487
0,900	257	569,69742223487
0,900	258	569,69742223487
0,900	259	569,69742223487
0,900	260	569,69742223487
0,900	261	569,69742223487
0,900	262	569,69742223487
0,900	263	569,69742223487
0,900	264	569,69742223487
0,900	265	569,69742223487
0,900	266	569,69742223487
0,900	267	569,69742223487
0,900	268	569,69742223487
0,900	269	569,69742223487
0,900	270	569,69742223487
0,900	271	569,69742223487
0,900	272	569,69742223487
0,900	273	569,69742223487
0,900	274	569,69742223487
0,900	275	569,69742223487
0,900	276	569,69742223487
0,900	277	569,69742223487
0,900	278	569,69742223487
0,900	279	569,69742223487
0,900	280	569,69742223487
0,900	281	569,69742223487
0,900	282	569,69742223487
0,900	283	569,69742223487
0,900	284	569,69742223487
0,900	285	569,69742223487
0,900	286	569,69742223487
0,900	287	569,69742223487
0,900	288	569,69742223487
0,900	289	569,69742223487
0,900	290	569,69742223487
0,900	291	569,69742223487
0,900	292	569,69742223487
0,900	293	569,69742223487
0,900	294	569,69742223487
0,900	295	569,69742223487
0,900	296	569,69742223487
0,900	297	569,69742223487
0,900	298	569,69742223487
0,900	299	569,69742223487
0,900	300	569,69742223487
0,900	301	569,69742223487
0,900	302	569,69742223487
0,900	303	569,69742223487
0,900	304	569,69742223487
0,900	305	569,69742223487
0,900	306	569,69742223487
0,900	307	569,69742223487
0,900	308	569,69742223487
0,900	309	569,69742223487
0,900	310	569,69742223487
0,900	311	569,69742223487
0,900	312	569,69742223487
0,900	313	569,69742223487
0,900	314	569,69742223487
0,900	315	569,69742223487
0,900	316	569,69742223487
0,900	317	569,69742223487
0,900	318	569,69742223487
0,900	319	569,69742223487
0,900	320	569,69742223487
0,900	321	569,69742223487
0,900	322	569,69742223487
0,900	323	569,69742223487
0,900	324	569,69742223487
0,900	325	569,69742223487
0,900	326	569,69742223487
0,900	327	569,69742223487
0,900	328	569,69742223487
0,900	329	569,69742223487
0,900	330	569,69742223487
0,900	331	569,69742223487
0,900	332	569,69742223487
0,900	333	569,69742223487
0,900	334	569,69742223487
0,900	335	569,69742223487
0,900	336	569,69742223487
0,900	337	569,69742223487
0,900	338	569,69742223487
0,900	339	569,69742223487
0,900	340	569,69742223487
0,900	341	569,69742223487
0,900	342	569,69742223487
0,900	343	569,69742223487
0,900	344	569,69742223487
0,900	345	569,69742223487
0,900	346	569,69742223487
0,900	347	569,69742223487
0,900	348	569,69742223487
0,900	349	569,69742223487
0,900	350	569,69742223487
0,900	351	569,69742223487
0,900	352	569,69742223487
0,900	353	569,69742223487
0,900	354	569,69742223487
0,900	355	569,69742223487
0,900	356	569,69742223487
0,900	357	569,69742223487
0,900	358	569,69742223487
0,900	359	569,69742223487
0,900	360	569,69742223487
0,900	361	569,69742223487
0,900	362	569,69742223487
0,900	363	569,69742223487
0,900	364	569,69742223487
0,900	365	569,69742223487
0,900	366	569,69742223487
0,900	367	569,69742223487
0,900	368	569,69742223487
0,900	369	569,69742223487
0,900	370	569,69742223487
0,900	371	569,69742223487
0,900	372	569,69742223487
0,900	373	569,69742223487
0,900	374	569,69742223487
0,900	375	569,69742223487
0,900	376	569,69742223487
0,900	377	569,69742223487
0,900	378	569,69742223487
0,900	379	569,69742223487
0,900	380	569,69742223487
0,900	381	569,69742223487
0,900	382	569,69742223487
0,900	383	569,69742223487
0,900	384	569,69742223487
0,900	385	569,69742223487
0,900	386	569,69742223487
0,900	387	569,69742223487
0,900	388	569,69742223487
0,900	389	569,69742223487
0,900	390	569,69742223487
0,900	391	569,69742223487
0,900	392	569,69742223487
0,900	393	569,69742223487
0,900	394	569,69742223487
0,900	395	569,69742223487
0,900	396	569,69742223487
0,900	397	569,69742223487
0,900	398	569,69742223487
0,900	399	569,69742223487
0,900	400	569,69742223487
0,900	401	569,69742223487
0,900	402	569,69742223487
0,900	403	569,69742223487
0,900	404	569,69742223487
0,900	405	569,69742223487
0,900	406	569,69742223487
0,900	407	569,69742223487
0,900	408	569,69742223487
0,900	409	569,69742223487
0,900	410	569,69742223487
0,900	411	569,69742223487
0,900	412	569,69742223487
0,900	413	569,69742223487
0,900	414	569,69742223487
0,900	415	569,69742223487
0,900	416	569,69742223487
0,900	417	569,69742223487
0,900	418	569,69742223487
0,900	419	569,69742223487
0,900	420	569,69742223487
0,900	421	569,69742223487
0,900	422	569,69742223487
0,900	423	569,69742223487
0,900	424	569,69742223487
0,900	425	569,69742223487
0,900	426	569,69742223487
0,900	427	569,69742223487
0,900	428	569,69742223487
0,900	429	569,69742223487
0,900	430	569,69742223487
0,900	431	569,69742223487
0,900	432	569,69742223487
0,900	433	569,69742223487
0,900	434	569,69742223487
0,900	435	569,69742223487
0,900	436	569,69742223487
0,900	437	569,69742223487
0,900	438	569,69742223487
0,900	439	569,69742223487
0,900	440	569,69742223487
0,900	441	569,69742223487
0,900	442	569,69742223487
