0,975	0	569,69742223487
0,975	1	569,69742223487
0,975	2	569,69742223487
0,975	3	569,69742223487
0,975	4	569,69742223487
0,975	5	569,69742223487
0,975	6	569,69742223487
0,975	7	569,69742223487
0,975	8	569,69742223487
0,975	9	569,69742223487
0,975	10	569,69742223487
0,975	11	569,69742223487
0,975	12	569,69742223487
0,975	13	569,69742223487
0,975	14	569,69742223487
0,975	15	569,69742223487
0,975	16	569,69742223487
0,975	17	569,69742223487
0,975	18	569,69742223487
0,975	19	569,69742223487
0,975	20	569,69742223487
0,975	21	569,69742223487
0,975	22	569,69742223487
0,975	23	569,69742223487
0,975	24	569,69742223487
0,975	25	569,69742223487
0,975	26	569,69742223487
0,975	27	569,69742223487
0,975	28	569,69742223487
0,975	29	569,69742223487
0,975	30	569,69742223487
0,975	31	569,69742223487
0,975	32	569,69742223487
0,975	33	569,69742223487
0,975	34	569,69742223487
0,975	35	569,69742223487
0,975	36	569,69742223487
0,975	37	569,69742223487
0,975	38	569,69742223487
0,975	39	569,69742223487
0,975	40	569,69742223487
0,975	41	569,69742223487
0,975	42	569,69742223487
0,975	43	569,69742223487
0,975	44	569,69742223487
0,975	45	569,69742223487
0,975	46	569,69742223487
0,975	47	569,69742223487
0,975	48	569,69742223487
0,975	49	569,69742223487
0,975	50	569,69742223487
0,975	51	569,69742223487
0,975	52	569,69742223487
0,975	53	569,69742223487
0,975	54	569,69742223487
0,975	55	569,69742223487
0,975	56	569,69742223487
0,975	57	569,69742223487
0,975	58	569,69742223487
0,975	59	569,69742223487
0,975	60	569,69742223487
0,975	61	569,69742223487
0,975	62	569,69742223487
0,975	63	569,69742223487
0,975	64	569,69742223487
0,975	65	569,69742223487
0,975	66	569,69742223487
0,975	67	569,69742223487
0,975	68	569,69742223487
0,975	69	569,69742223487
0,975	70	569,69742223487
0,975	71	569,69742223487
0,975	72	569,69742223487
0,975	73	569,69742223487
0,975	74	569,69742223487
0,975	75	569,69742223487
0,975	76	569,69742223487
0,975	77	569,69742223487
0,975	78	569,69742223487
0,975	79	569,69742223487
0,975	80	569,69742223487
0,975	81	569,69742223487
0,975	82	569,69742223487
0,975	83	569,69742223487
0,975	84	569,69742223487
0,975	85	569,69742223487
0,975	86	569,69742223487
0,975	87	569,69742223487
0,975	88	569,69742223487
0,975	89	569,69742223487
0,975	90	569,69742223487
0,975	91	569,69742223487
0,975	92	569,69742223487
0,975	93	569,69742223487
0,975	94	569,69742223487
0,975	95	569,69742223487
0,975	96	569,69742223487
0,975	97	569,69742223487
0,975	98	569,69742223487
0,975	99	569,69742223487
0,975	100	569,69742223487
0,975	101	569,69742223487
0,975	102	569,69742223487
0,975	103	569,69742223487
0,975	104	569,69742223487
0,975	105	569,69742223487
0,975	106	569,69742223487
0,975	107	569,69742223487
0,975	108	569,69742223487
0,975	109	569,69742223487
0,975	110	569,69742223487
0,975	111	569,69742223487
0,975	112	569,69742223487
0,975	113	569,69742223487
0,975	114	569,69742223487
0,975	115	569,69742223487
0,975	116	569,69742223487
0,975	117	569,69742223487
0,975	118	569,69742223487
0,975	119	569,69742223487
0,975	120	569,69742223487
0,975	121	569,69742223487
0,975	122	569,69742223487
0,975	123	569,69742223487
0,975	124	569,69742223487
0,975	125	569,69742223487
0,975	126	569,69742223487
0,975	127	569,69742223487
0,975	128	569,69742223487
0,975	129	569,69742223487
0,975	130	569,69742223487
0,975	131	569,69742223487
0,975	132	569,69742223487
0,975	133	569,69742223487
0,975	134	569,69742223487
0,975	135	569,69742223487
0,975	136	569,69742223487
0,975	137	569,69742223487
0,975	138	569,69742223487
0,975	139	569,69742223487
0,975	140	569,69742223487
0,975	141	569,69742223487
0,975	142	569,69742223487
0,975	143	569,69742223487
0,975	144	569,69742223487
0,975	145	569,69742223487
0,975	146	569,69742223487
0,975	147	569,69742223487
0,975	148	569,69742223487
0,975	149	569,69742223487
0,975	150	569,69742223487
0,975	151	569,69742223487
0,975	152	569,69742223487
0,975	153	569,69742223487
0,975	154	569,69742223487
0,975	155	569,69742223487
0,975	156	569,69742223487
0,975	157	569,69742223487
0,975	158	569,69742223487
0,975	159	569,69742223487
0,975	160	569,69742223487
0,975	161	569,69742223487
0,975	162	569,69742223487
0,975	163	569,69742223487
0,975	164	569,69742223487
0,975	165	569,69742223487
0,975	166	569,69742223487
0,975	167	569,69742223487
0,975	168	569,69742223487
0,975	169	569,69742223487
0,975	170	569,69742223487
0,975	171	569,69742223487
0,975	172	569,69742223487
0,975	173	569,69742223487
0,975	174	569,69742223487
0,975	175	569,69742223487
0,975	176	569,69742223487
0,975	177	569,69742223487
0,975	178	569,69742223487
0,975	179	569,69742223487
0,975	180	569,69742223487
0,975	181	569,69742223487
0,975	182	569,69742223487
0,975	183	569,69742223487
0,975	184	569,69742223487
0,975	185	569,69742223487
0,975	186	569,69742223487
0,975	187	569,69742223487
0,975	188	569,69742223487
0,975	189	569,69742223487
0,975	190	569,69742223487
0,975	191	569,69742223487
0,975	192	569,69742223487
0,975	193	569,69742223487
0,975	194	569,69742223487
0,975	195	569,69742223487
0,975	196	569,69742223487
0,975	197	569,69742223487
0,975	198	569,69742223487
0,975	199	569,69742223487
0,975	200	569,69742223487
0,975	201	569,69742223487
0,975	202	569,69742223487
0,975	203	569,69742223487
0,975	204	569,69742223487
0,975	205	569,69742223487
0,975	206	569,69742223487
0,975	207	569,69742223487
0,975	208	569,69742223487
0,975	209	569,69742223487
0,975	210	569,69742223487
0,975	211	569,69742223487
0,975	212	569,69742223487
0,975	213	569,69742223487
0,975	214	569,69742223487
0,975	215	569,69742223487
0,975	216	569,69742223487
0,975	217	569,69742223487
0,975	218	569,69742223487
0,975	219	569,69742223487
0,975	220	569,69742223487
0,975	221	569,69742223487
0,975	222	569,69742223487
0,975	223	569,69742223487
0,975	224	569,69742223487
0,975	225	569,69742223487
0,975	226	569,69742223487
0,975	227	569,69742223487
0,975	228	569,69742223487
0,975	229	569,69742223487
0,975	230	569,69742223487
0,975	231	569,69742223487
0,975	232	569,69742223487
0,975	233	569,69742223487
0,975	234	569,69742223487
0,975	235	569,69742223487
0,975	236	569,69742223487
0,975	237	569,69742223487
0,975	238	569,69742223487
0,975	239	569,69742223487
0,975	240	569,69742223487
0,975	241	569,69742223487
0,975	242	569,69742223487
0,975	243	569,69742223487
0,975	244	569,69742223487
0,975	245	569,69742223487
0,975	246	569,69742223487
0,975	247	569,69742223487
0,975	248	569,69742223487
0,975	249	569,69742223487
0,975	250	569,69742223487
0,975	251	569,69742223487
0,975	252	569,69742223487
0,975	253	569,69742223487
0,975	254	569,69742223487
0,975	255	569,69742223487
0,975	256	569,69742223487
0,975	257	569,69742223487
0,975	258	569,69742223487
0,975	259	569,69742223487
0,975	260	569,69742223487
0,975	261	569,69742223487
0,975	262	569,69742223487
0,975	263	569,69742223487
0,975	264	569,69742223487
0,975	265	569,69742223487
0,975	266	569,69742223487
0,975	267	569,69742223487
0,975	268	569,69742223487
0,975	269	569,69742223487
0,975	270	569,69742223487
0,975	271	569,69742223487
0,975	272	569,69742223487
0,975	273	569,69742223487
0,975	274	569,69742223487
0,975	275	569,69742223487
0,975	276	569,69742223487
0,975	277	569,69742223487
0,975	278	569,69742223487
0,975	279	569,69742223487
0,975	280	569,69742223487
0,975	281	569,69742223487
0,975	282	569,69742223487
0,975	283	569,69742223487
0,975	284	569,69742223487
0,975	285	569,69742223487
0,975	286	569,69742223487
0,975	287	569,69742223487
0,975	288	569,69742223487
0,975	289	569,69742223487
0,975	290	569,69742223487
0,975	291	569,69742223487
0,975	292	569,69742223487
0,975	293	569,69742223487
0,975	294	569,69742223487
0,975	295	569,69742223487
0,975	296	569,69742223487
0,975	297	569,69742223487
0,975	298	569,69742223487
0,975	299	569,69742223487
0,975	300	569,69742223487
0,975	301	569,69742223487
0,975	302	569,69742223487
0,975	303	569,69742223487
0,975	304	569,69742223487
0,975	305	569,69742223487
0,975	306	569,69742223487
0,975	307	569,69742223487
0,975	308	569,69742223487
0,975	309	569,69742223487
0,975	310	569,69742223487
0,975	311	569,69742223487
0,975	312	569,69742223487
0,975	313	569,69742223487
0,975	314	569,69742223487
0,975	315	569,69742223487
0,975	316	569,69742223487
0,975	317	569,69742223487
0,975	318	569,69742223487
0,975	319	569,69742223487
0,975	320	569,69742223487
0,975	321	569,69742223487
0,975	322	569,69742223487
0,975	323	569,69742223487
0,975	324	569,69742223487
0,975	325	569,69742223487
0,975	326	569,69742223487
0,975	327	569,69742223487
0,975	328	569,69742223487
0,975	329	569,69742223487
0,975	330	569,69742223487
0,975	331	569,69742223487
0,975	332	569,69742223487
0,975	333	569,69742223487
0,975	334	569,69742223487
0,975	335	569,69742223487
0,975	336	569,69742223487
0,975	337	569,69742223487
0,975	338	569,69742223487
0,975	339	569,69742223487
0,975	340	569,69742223487
0,975	341	569,69742223487
0,975	342	569,69742223487
0,975	343	569,69742223487
0,975	344	569,69742223487
0,975	345	569,69742223487
0,975	346	569,69742223487
0,975	347	569,69742223487
0,975	348	569,69742223487
0,975	349	569,69742223487
0,975	350	569,69742223487
0,975	351	569,69742223487
0,975	352	569,69742223487
0,975	353	569,69742223487
0,975	354	569,69742223487
0,975	355	569,69742223487
0,975	356	569,69742223487
0,975	357	569,69742223487
0,975	358	569,69742223487
0,975	359	569,69742223487
0,975	360	569,69742223487
0,975	361	569,69742223487
0,975	362	569,69742223487
0,975	363	569,69742223487
0,975	364	569,69742223487
0,975	365	569,69742223487
0,975	366	569,69742223487
0,975	367	569,69742223487
0,975	368	569,69742223487
0,975	369	569,69742223487
0,975	370	569,69742223487
0,975	371	569,69742223487
0,975	372	569,69742223487
0,975	373	569,69742223487
0,975	374	569,69742223487
0,975	375	569,69742223487
0,975	376	569,69742223487
0,975	377	569,69742223487
0,975	378	569,69742223487
0,975	379	569,69742223487
0,975	380	569,69742223487
0,975	381	569,69742223487
0,975	382	569,69742223487
0,975	383	569,69742223487
0,975	384	569,69742223487
0,975	385	569,69742223487
0,975	386	569,69742223487
0,975	387	569,69742223487
0,975	388	569,69742223487
0,975	389	569,69742223487
0,975	390	569,69742223487
0,975	391	569,69742223487
0,975	392	569,69742223487
0,975	393	569,69742223487
0,975	394	569,69742223487
0,975	395	569,69742223487
0,975	396	569,69742223487
0,975	397	569,69742223487
0,975	398	569,69742223487
0,975	399	569,69742223487
0,975	400	569,69742223487
0,975	401	569,69742223487
0,975	402	569,69742223487
0,975	403	569,69742223487
0,975	404	569,69742223487
0,975	405	569,69742223487
0,975	406	569,69742223487
0,975	407	569,69742223487
0,975	408	569,69742223487
0,975	409	569,69742223487
0,975	410	569,69742223487
0,975	411	569,69742223487
0,975	412	569,69742223487
0,975	413	569,69742223487
0,975	414	569,69742223487
0,975	415	569,69742223487
0,975	416	569,69742223487
0,975	417	569,69742223487
0,975	418	569,69742223487
0,975	419	569,69742223487
0,975	420	569,69742223487
0,975	421	569,69742223487
0,975	422	569,69742223487
0,975	423	569,69742223487
0,975	424	569,69742223487
0,975	425	569,69742223487
0,975	426	569,69742223487
0,975	427	569,69742223487
0,975	428	569,69742223487
0,975	429	569,69742223487
0,975	430	569,69742223487
0,975	431	569,69742223487
0,975	432	569,69742223487
0,975	433	569,69742223487
0,975	434	569,69742223487
0,975	435	569,69742223487
0,975	436	569,69742223487
0,975	437	569,69742223487
0,975	438	569,69742223487
0,975	439	569,69742223487
0,975	440	569,69742223487
0,975	441	569,69742223487
0,975	442	569,69742223487
