0,450	0	616,762067085074
0,450	1	616,762067085074
0,450	2	616,762067085074
0,450	3	611,77064755443
0,450	4	584,73847128789
0,450	5	584,73847128789
0,450	6	584,73847128789
0,450	7	584,73847128789
0,450	8	584,73847128789
0,450	9	584,73847128789
0,450	10	584,73847128789
0,450	11	584,73847128789
0,450	12	584,73847128789
0,450	13	584,73847128789
0,450	14	584,73847128789
0,450	15	584,73847128789
0,450	16	584,73847128789
0,450	17	584,73847128789
0,450	18	584,73847128789
0,450	19	584,73847128789
0,450	20	584,73847128789
0,450	21	582,816114089302
0,450	22	582,741188460381
0,450	23	582,741188460381
0,450	24	582,741188460381
0,450	25	582,741188460381
0,450	26	582,741188460381
0,450	27	582,741188460381
0,450	28	582,741188460381
0,450	29	582,741188460381
0,450	30	582,741188460381
0,450	31	582,741188460381
0,450	32	582,741188460381
0,450	33	582,741188460381
0,450	34	582,741188460381
0,450	35	582,741188460381
0,450	36	582,741188460381
0,450	37	577,834174503156
0,450	38	577,834174503156
0,450	39	577,834174503156
0,450	40	577,834174503156
0,450	41	577,834174503156
0,450	42	577,834174503156
0,450	43	577,834174503156
0,450	44	577,834174503156
0,450	45	577,834174503156
0,450	46	577,834174503156
0,450	47	577,834174503156
0,450	48	577,834174503156
0,450	49	577,834174503156
0,450	50	577,834174503156
0,450	51	577,834174503156
0,450	52	577,834174503156
0,450	53	577,834174503156
0,450	54	577,834174503156
0,450	55	577,834174503156
0,450	56	577,834174503156
0,450	57	577,834174503156
0,450	58	577,834174503156
0,450	59	577,834174503156
0,450	60	577,834174503156
0,450	61	577,834174503156
0,450	62	577,834174503156
0,450	63	577,834174503156
0,450	64	577,834174503156
0,450	65	577,834174503156
0,450	66	577,834174503156
0,450	67	577,834174503156
0,450	68	577,834174503156
0,450	69	577,834174503156
0,450	70	577,834174503156
0,450	71	577,834174503156
0,450	72	577,834174503156
0,450	73	577,834174503156
0,450	74	577,834174503156
0,450	75	577,834174503156
0,450	76	577,834174503156
0,450	77	577,834174503156
0,450	78	577,834174503156
0,450	79	577,834174503156
0,450	80	577,834174503156
0,450	81	577,834174503156
0,450	82	577,834174503156
0,450	83	577,834174503156
0,450	84	577,834174503156
0,450	85	577,834174503156
0,450	86	577,834174503156
0,450	87	577,834174503156
0,450	88	577,834174503156
0,450	89	577,834174503156
0,450	90	577,834174503156
0,450	91	577,834174503156
0,450	92	577,834174503156
0,450	93	577,834174503156
0,450	94	577,834174503156
0,450	95	577,834174503156
0,450	96	577,834174503156
0,450	97	577,834174503156
0,450	98	577,834174503156
0,450	99	577,834174503156
0,450	100	577,834174503156
0,450	101	577,834174503156
0,450	102	577,834174503156
0,450	103	577,834174503156
0,450	104	577,834174503156
0,450	105	577,834174503156
0,450	106	577,834174503156
0,450	107	577,834174503156
0,450	108	577,834174503156
0,450	109	577,834174503156
0,450	110	577,834174503156
0,450	111	577,834174503156
0,450	112	577,834174503156
0,450	113	577,834174503156
0,450	114	577,834174503156
0,450	115	577,834174503156
0,450	116	577,834174503156
0,450	117	577,834174503156
0,450	118	577,834174503156
0,450	119	577,834174503156
0,450	120	577,834174503156
0,450	121	577,834174503156
0,450	122	577,834174503156
0,450	123	577,834174503156
0,450	124	577,834174503156
0,450	125	577,834174503156
0,450	126	577,834174503156
0,450	127	577,834174503156
0,450	128	577,834174503156
0,450	129	577,834174503156
0,450	130	577,834174503156
0,450	131	577,834174503156
0,450	132	577,834174503156
0,450	133	577,834174503156
0,450	134	577,834174503156
0,450	135	577,834174503156
0,450	136	577,834174503156
0,450	137	577,834174503156
0,450	138	577,834174503156
0,450	139	577,834174503156
0,450	140	577,834174503156
0,450	141	577,834174503156
0,450	142	577,834174503156
0,450	143	577,834174503156
0,450	144	576,067496513527
0,450	145	576,067496513527
0,450	146	576,067496513527
0,450	147	576,067496513527
0,450	148	576,067496513527
0,450	149	576,067496513527
0,450	150	576,067496513527
0,450	151	576,067496513527
0,450	152	576,067496513527
0,450	153	576,067496513527
0,450	154	576,067496513527
0,450	155	576,067496513527
0,450	156	576,067496513527
0,450	157	576,067496513527
0,450	158	576,067496513527
0,450	159	576,067496513527
0,450	160	576,067496513527
0,450	161	576,067496513527
0,450	162	575,142338956912
0,450	163	575,142338956912
0,450	164	575,142338956912
0,450	165	575,142338956912
0,450	166	575,142338956912
0,450	167	575,142338956912
0,450	168	575,142338956912
0,450	169	575,142338956912
0,450	170	575,142338956912
0,450	171	575,142338956912
0,450	172	575,142338956912
0,450	173	575,142338956912
0,450	174	575,142338956912
0,450	175	575,142338956912
0,450	176	575,142338956912
0,450	177	575,142338956912
0,450	178	575,142338956912
0,450	179	575,142338956912
0,450	180	575,142338956912
0,450	181	575,142338956912
0,450	182	575,142338956912
0,450	183	575,142338956912
0,450	184	575,142338956912
0,450	185	575,142338956912
0,450	186	575,142338956912
0,450	187	575,142338956912
0,450	188	575,142338956912
0,450	189	575,142338956912
0,450	190	575,142338956912
0,450	191	575,142338956912
0,450	192	575,142338956912
0,450	193	575,142338956912
0,450	194	575,142338956912
0,450	195	575,142338956912
0,450	196	575,142338956912
0,450	197	575,142338956912
0,450	198	575,142338956912
0,450	199	575,142338956912
0,450	200	575,142338956912
0,450	201	575,142338956912
0,450	202	575,142338956912
0,450	203	575,142338956912
0,450	204	575,142338956912
0,450	205	575,142338956912
0,450	206	575,142338956912
0,450	207	575,142338956912
0,450	208	575,142338956912
0,450	209	575,142338956912
0,450	210	575,142338956912
0,450	211	575,142338956912
0,450	212	575,142338956912
0,450	213	575,142338956912
0,450	214	575,142338956912
0,450	215	575,142338956912
0,450	216	575,142338956912
0,450	217	575,142338956912
0,450	218	575,142338956912
0,450	219	575,142338956912
0,450	220	575,142338956912
0,450	221	575,142338956912
0,450	222	575,142338956912
0,450	223	575,142338956912
0,450	224	575,142338956912
0,450	225	575,142338956912
0,450	226	575,142338956912
0,450	227	575,142338956912
0,450	228	575,142338956912
0,450	229	575,142338956912
0,450	230	575,142338956912
0,450	231	575,142338956912
0,450	232	575,142338956912
0,450	233	575,142338956912
0,450	234	575,142338956912
0,450	235	575,142338956912
0,450	236	575,142338956912
0,450	237	575,142338956912
0,450	238	575,142338956912
0,450	239	575,142338956912
0,450	240	575,142338956912
0,450	241	575,142338956912
0,450	242	575,142338956912
0,450	243	575,142338956912
0,450	244	575,142338956912
0,450	245	575,142338956912
0,450	246	575,142338956912
0,450	247	575,142338956912
0,450	248	575,142338956912
0,450	249	575,142338956912
0,450	250	575,142338956912
0,450	251	575,142338956912
0,450	252	575,142338956912
0,450	253	575,142338956912
0,450	254	575,142338956912
0,450	255	575,142338956912
0,450	256	575,142338956912
0,450	257	575,142338956912
0,450	258	575,142338956912
0,450	259	575,142338956912
0,450	260	575,142338956912
0,450	261	575,142338956912
0,450	262	575,142338956912
0,450	263	575,142338956912
0,450	264	575,142338956912
0,450	265	575,142338956912
0,450	266	575,142338956912
0,450	267	575,142338956912
0,450	268	575,142338956912
0,450	269	575,142338956912
0,450	270	575,142338956912
0,450	271	575,142338956912
0,450	272	575,142338956912
0,450	273	575,142338956912
0,450	274	575,142338956912
0,450	275	575,142338956912
0,450	276	575,142338956912
0,450	277	575,142338956912
0,450	278	575,142338956912
0,450	279	575,142338956912
0,450	280	575,142338956912
0,450	281	575,142338956912
0,450	282	575,142338956912
0,450	283	575,142338956912
0,450	284	575,142338956912
0,450	285	575,142338956912
0,450	286	575,142338956912
0,450	287	575,142338956912
0,450	288	575,142338956912
0,450	289	575,142338956912
0,450	290	575,142338956912
0,450	291	575,142338956912
0,450	292	575,142338956912
0,450	293	575,142338956912
0,450	294	575,142338956912
0,450	295	575,142338956912
0,450	296	575,142338956912
0,450	297	575,142338956912
0,450	298	575,142338956912
0,450	299	575,142338956912
0,450	300	575,142338956912
0,450	301	575,142338956912
0,450	302	575,142338956912
0,450	303	575,142338956912
0,450	304	575,142338956912
0,450	305	575,142338956912
0,450	306	575,142338956912
0,450	307	575,142338956912
0,450	308	575,142338956912
0,450	309	575,142338956912
0,450	310	575,142338956912
0,450	311	575,142338956912
0,450	312	575,142338956912
0,450	313	575,142338956912
0,450	314	575,142338956912
0,450	315	575,142338956912
0,450	316	575,142338956912
0,450	317	575,142338956912
0,450	318	575,142338956912
0,450	319	575,142338956912
0,450	320	575,142338956912
0,450	321	575,142338956912
0,450	322	575,142338956912
0,450	323	575,142338956912
0,450	324	575,142338956912
0,450	325	575,142338956912
0,450	326	575,142338956912
0,450	327	575,142338956912
0,450	328	575,142338956912
0,450	329	575,142338956912
0,450	330	575,142338956912
0,450	331	575,142338956912
0,450	332	575,142338956912
0,450	333	575,142338956912
0,450	334	575,142338956912
0,450	335	575,142338956912
0,450	336	575,142338956912
0,450	337	575,142338956912
0,450	338	575,142338956912
0,450	339	575,142338956912
0,450	340	575,142338956912
0,450	341	575,142338956912
0,450	342	575,142338956912
0,450	343	575,142338956912
0,450	344	575,142338956912
0,450	345	575,142338956912
0,450	346	575,142338956912
0,450	347	575,142338956912
0,450	348	575,142338956912
0,450	349	575,142338956912
0,450	350	575,142338956912
0,450	351	575,142338956912
0,450	352	575,142338956912
0,450	353	575,142338956912
0,450	354	575,142338956912
0,450	355	575,142338956912
0,450	356	575,142338956912
0,450	357	575,142338956912
0,450	358	575,142338956912
0,450	359	575,142338956912
0,450	360	575,142338956912
0,450	361	575,142338956912
0,450	362	575,142338956912
0,450	363	575,142338956912
0,450	364	575,142338956912
0,450	365	575,142338956912
0,450	366	575,142338956912
0,450	367	575,142338956912
0,450	368	575,142338956912
0,450	369	575,142338956912
0,450	370	575,142338956912
0,450	371	575,142338956912
0,450	372	575,142338956912
0,450	373	575,142338956912
0,450	374	575,142338956912
0,450	375	575,142338956912
0,450	376	575,142338956912
0,450	377	575,142338956912
0,450	378	575,142338956912
0,450	379	575,142338956912
0,450	380	575,142338956912
0,450	381	575,142338956912
0,450	382	575,142338956912
0,450	383	575,142338956912
0,450	384	575,142338956912
0,450	385	575,142338956912
0,450	386	575,142338956912
0,450	387	575,142338956912
0,450	388	575,142338956912
0,450	389	575,142338956912
0,450	390	575,142338956912
0,450	391	575,142338956912
0,450	392	575,142338956912
0,450	393	575,142338956912
0,450	394	575,142338956912
0,450	395	575,142338956912
0,450	396	575,142338956912
0,450	397	575,142338956912
0,450	398	575,142338956912
0,450	399	575,142338956912
0,450	400	575,142338956912
0,450	401	575,142338956912
0,450	402	575,142338956912
0,450	403	575,142338956912
0,450	404	575,142338956912
0,450	405	575,142338956912
0,450	406	575,142338956912
0,450	407	575,142338956912
0,450	408	575,142338956912
0,450	409	575,142338956912
0,450	410	575,142338956912
0,450	411	575,142338956912
0,450	412	575,142338956912
0,450	413	575,142338956912
0,450	414	575,142338956912
0,450	415	575,142338956912
0,450	416	575,142338956912
0,450	417	575,142338956912
0,450	418	575,142338956912
0,450	419	575,142338956912
0,450	420	575,142338956912
0,450	421	575,142338956912
0,450	422	575,142338956912
0,450	423	575,142338956912
0,450	424	575,142338956912
0,450	425	575,142338956912
0,450	426	575,142338956912
0,450	427	575,142338956912
0,450	428	575,142338956912
0,450	429	575,142338956912
0,450	430	575,142338956912
0,450	431	575,142338956912
0,450	432	575,142338956912
0,450	433	575,142338956912
0,450	434	575,142338956912
0,450	435	575,142338956912
0,450	436	575,142338956912
0,450	437	575,142338956912
0,450	438	575,142338956912
0,450	439	575,142338956912
0,450	440	575,142338956912
0,450	441	575,142338956912
0,450	442	575,142338956912
