0,725	0	705,119218977109
0,725	1	569,69742223487
0,725	2	569,69742223487
0,725	3	569,69742223487
0,725	4	569,69742223487
0,725	5	569,69742223487
0,725	6	569,69742223487
0,725	7	569,69742223487
0,725	8	569,69742223487
0,725	9	569,69742223487
0,725	10	569,69742223487
0,725	11	569,69742223487
0,725	12	569,69742223487
0,725	13	569,69742223487
0,725	14	569,69742223487
0,725	15	569,69742223487
0,725	16	569,69742223487
0,725	17	569,69742223487
0,725	18	569,69742223487
0,725	19	569,69742223487
0,725	20	569,69742223487
0,725	21	569,69742223487
0,725	22	569,69742223487
0,725	23	569,69742223487
0,725	24	569,69742223487
0,725	25	569,69742223487
0,725	26	569,69742223487
0,725	27	569,69742223487
0,725	28	569,69742223487
0,725	29	569,69742223487
0,725	30	569,69742223487
0,725	31	569,69742223487
0,725	32	569,69742223487
0,725	33	569,69742223487
0,725	34	569,69742223487
0,725	35	569,69742223487
0,725	36	569,69742223487
0,725	37	569,69742223487
0,725	38	569,69742223487
0,725	39	569,69742223487
0,725	40	569,69742223487
0,725	41	569,69742223487
0,725	42	569,69742223487
0,725	43	569,69742223487
0,725	44	569,69742223487
0,725	45	569,69742223487
0,725	46	569,69742223487
0,725	47	569,69742223487
0,725	48	569,69742223487
0,725	49	569,69742223487
0,725	50	569,69742223487
0,725	51	569,69742223487
0,725	52	569,69742223487
0,725	53	569,69742223487
0,725	54	569,69742223487
0,725	55	569,69742223487
0,725	56	569,69742223487
0,725	57	569,69742223487
0,725	58	569,69742223487
0,725	59	569,69742223487
0,725	60	569,69742223487
0,725	61	569,69742223487
0,725	62	569,69742223487
0,725	63	569,69742223487
0,725	64	569,69742223487
0,725	65	569,69742223487
0,725	66	569,69742223487
0,725	67	569,69742223487
0,725	68	569,69742223487
0,725	69	569,69742223487
0,725	70	569,69742223487
0,725	71	569,69742223487
0,725	72	569,69742223487
0,725	73	569,69742223487
0,725	74	569,69742223487
0,725	75	569,69742223487
0,725	76	569,69742223487
0,725	77	569,69742223487
0,725	78	569,69742223487
0,725	79	569,69742223487
0,725	80	569,69742223487
0,725	81	569,69742223487
0,725	82	569,69742223487
0,725	83	569,69742223487
0,725	84	569,69742223487
0,725	85	569,69742223487
0,725	86	569,69742223487
0,725	87	569,69742223487
0,725	88	569,69742223487
0,725	89	569,69742223487
0,725	90	569,69742223487
0,725	91	569,69742223487
0,725	92	569,69742223487
0,725	93	569,69742223487
0,725	94	569,69742223487
0,725	95	569,69742223487
0,725	96	569,69742223487
0,725	97	569,69742223487
0,725	98	569,69742223487
0,725	99	569,69742223487
0,725	100	569,69742223487
0,725	101	569,69742223487
0,725	102	569,69742223487
0,725	103	569,69742223487
0,725	104	569,69742223487
0,725	105	569,69742223487
0,725	106	569,69742223487
0,725	107	569,69742223487
0,725	108	569,69742223487
0,725	109	569,69742223487
0,725	110	569,69742223487
0,725	111	569,69742223487
0,725	112	569,69742223487
0,725	113	569,69742223487
0,725	114	569,69742223487
0,725	115	569,69742223487
0,725	116	569,69742223487
0,725	117	569,69742223487
0,725	118	569,69742223487
0,725	119	569,69742223487
0,725	120	569,69742223487
0,725	121	569,69742223487
0,725	122	569,69742223487
0,725	123	569,69742223487
0,725	124	569,69742223487
0,725	125	569,69742223487
0,725	126	569,69742223487
0,725	127	569,69742223487
0,725	128	569,69742223487
0,725	129	569,69742223487
0,725	130	569,69742223487
0,725	131	569,69742223487
0,725	132	569,69742223487
0,725	133	569,69742223487
0,725	134	569,69742223487
0,725	135	569,69742223487
0,725	136	569,69742223487
0,725	137	569,69742223487
0,725	138	569,69742223487
0,725	139	569,69742223487
0,725	140	569,69742223487
0,725	141	569,69742223487
0,725	142	569,69742223487
0,725	143	569,69742223487
0,725	144	569,69742223487
0,725	145	569,69742223487
0,725	146	569,69742223487
0,725	147	569,69742223487
0,725	148	569,69742223487
0,725	149	569,69742223487
0,725	150	569,69742223487
0,725	151	569,69742223487
0,725	152	569,69742223487
0,725	153	569,69742223487
0,725	154	569,69742223487
0,725	155	569,69742223487
0,725	156	569,69742223487
0,725	157	569,69742223487
0,725	158	569,69742223487
0,725	159	569,69742223487
0,725	160	569,69742223487
0,725	161	569,69742223487
0,725	162	569,69742223487
0,725	163	569,69742223487
0,725	164	569,69742223487
0,725	165	569,69742223487
0,725	166	569,69742223487
0,725	167	569,69742223487
0,725	168	569,69742223487
0,725	169	569,69742223487
0,725	170	569,69742223487
0,725	171	569,69742223487
0,725	172	569,69742223487
0,725	173	569,69742223487
0,725	174	569,69742223487
0,725	175	569,69742223487
0,725	176	569,69742223487
0,725	177	569,69742223487
0,725	178	569,69742223487
0,725	179	569,69742223487
0,725	180	569,69742223487
0,725	181	569,69742223487
0,725	182	569,69742223487
0,725	183	569,69742223487
0,725	184	569,69742223487
0,725	185	569,69742223487
0,725	186	569,69742223487
0,725	187	569,69742223487
0,725	188	569,69742223487
0,725	189	569,69742223487
0,725	190	569,69742223487
0,725	191	569,69742223487
0,725	192	569,69742223487
0,725	193	569,69742223487
0,725	194	569,69742223487
0,725	195	569,69742223487
0,725	196	569,69742223487
0,725	197	569,69742223487
0,725	198	569,69742223487
0,725	199	569,69742223487
0,725	200	569,69742223487
0,725	201	569,69742223487
0,725	202	569,69742223487
0,725	203	569,69742223487
0,725	204	569,69742223487
0,725	205	569,69742223487
0,725	206	569,69742223487
0,725	207	569,69742223487
0,725	208	569,69742223487
0,725	209	569,69742223487
0,725	210	569,69742223487
0,725	211	569,69742223487
0,725	212	569,69742223487
0,725	213	569,69742223487
0,725	214	569,69742223487
0,725	215	569,69742223487
0,725	216	569,69742223487
0,725	217	569,69742223487
0,725	218	569,69742223487
0,725	219	569,69742223487
0,725	220	569,69742223487
0,725	221	569,69742223487
0,725	222	569,69742223487
0,725	223	569,69742223487
0,725	224	569,69742223487
0,725	225	569,69742223487
0,725	226	569,69742223487
0,725	227	569,69742223487
0,725	228	569,69742223487
0,725	229	569,69742223487
0,725	230	569,69742223487
0,725	231	569,69742223487
0,725	232	569,69742223487
0,725	233	569,69742223487
0,725	234	569,69742223487
0,725	235	569,69742223487
0,725	236	569,69742223487
0,725	237	569,69742223487
0,725	238	569,69742223487
0,725	239	569,69742223487
0,725	240	569,69742223487
0,725	241	569,69742223487
0,725	242	569,69742223487
0,725	243	569,69742223487
0,725	244	569,69742223487
0,725	245	569,69742223487
0,725	246	569,69742223487
0,725	247	569,69742223487
0,725	248	569,69742223487
0,725	249	569,69742223487
0,725	250	569,69742223487
0,725	251	569,69742223487
0,725	252	569,69742223487
0,725	253	569,69742223487
0,725	254	569,69742223487
0,725	255	569,69742223487
0,725	256	569,69742223487
0,725	257	569,69742223487
0,725	258	569,69742223487
0,725	259	569,69742223487
0,725	260	569,69742223487
0,725	261	569,69742223487
0,725	262	569,69742223487
0,725	263	569,69742223487
0,725	264	569,69742223487
0,725	265	569,69742223487
0,725	266	569,69742223487
0,725	267	569,69742223487
0,725	268	569,69742223487
0,725	269	569,69742223487
0,725	270	569,69742223487
0,725	271	569,69742223487
0,725	272	569,69742223487
0,725	273	569,69742223487
0,725	274	569,69742223487
0,725	275	569,69742223487
0,725	276	569,69742223487
0,725	277	569,69742223487
0,725	278	569,69742223487
0,725	279	569,69742223487
0,725	280	569,69742223487
0,725	281	569,69742223487
0,725	282	569,69742223487
0,725	283	569,69742223487
0,725	284	569,69742223487
0,725	285	569,69742223487
0,725	286	569,69742223487
0,725	287	569,69742223487
0,725	288	569,69742223487
0,725	289	569,69742223487
0,725	290	569,69742223487
0,725	291	569,69742223487
0,725	292	569,69742223487
0,725	293	569,69742223487
0,725	294	569,69742223487
0,725	295	569,69742223487
0,725	296	569,69742223487
0,725	297	569,69742223487
0,725	298	569,69742223487
0,725	299	569,69742223487
0,725	300	569,69742223487
0,725	301	569,69742223487
0,725	302	569,69742223487
0,725	303	569,69742223487
0,725	304	569,69742223487
0,725	305	569,69742223487
0,725	306	569,69742223487
0,725	307	569,69742223487
0,725	308	569,69742223487
0,725	309	569,69742223487
0,725	310	569,69742223487
0,725	311	569,69742223487
0,725	312	569,69742223487
0,725	313	569,69742223487
0,725	314	569,69742223487
0,725	315	569,69742223487
0,725	316	569,69742223487
0,725	317	569,69742223487
0,725	318	569,69742223487
0,725	319	569,69742223487
0,725	320	569,69742223487
0,725	321	569,69742223487
0,725	322	569,69742223487
0,725	323	569,69742223487
0,725	324	569,69742223487
0,725	325	569,69742223487
0,725	326	569,69742223487
0,725	327	569,69742223487
0,725	328	569,69742223487
0,725	329	569,69742223487
0,725	330	569,69742223487
0,725	331	569,69742223487
0,725	332	569,69742223487
0,725	333	569,69742223487
0,725	334	569,69742223487
0,725	335	569,69742223487
0,725	336	569,69742223487
0,725	337	569,69742223487
0,725	338	569,69742223487
0,725	339	569,69742223487
0,725	340	569,69742223487
0,725	341	569,69742223487
0,725	342	569,69742223487
0,725	343	569,69742223487
0,725	344	569,69742223487
0,725	345	569,69742223487
0,725	346	569,69742223487
0,725	347	569,69742223487
0,725	348	569,69742223487
0,725	349	569,69742223487
0,725	350	569,69742223487
0,725	351	569,69742223487
0,725	352	569,69742223487
0,725	353	569,69742223487
0,725	354	569,69742223487
0,725	355	569,69742223487
0,725	356	569,69742223487
0,725	357	569,69742223487
0,725	358	569,69742223487
0,725	359	569,69742223487
0,725	360	569,69742223487
0,725	361	569,69742223487
0,725	362	569,69742223487
0,725	363	569,69742223487
0,725	364	569,69742223487
0,725	365	569,69742223487
0,725	366	569,69742223487
0,725	367	569,69742223487
0,725	368	569,69742223487
0,725	369	569,69742223487
0,725	370	569,69742223487
0,725	371	569,69742223487
0,725	372	569,69742223487
0,725	373	569,69742223487
0,725	374	569,69742223487
0,725	375	569,69742223487
0,725	376	569,69742223487
0,725	377	569,69742223487
0,725	378	569,69742223487
0,725	379	569,69742223487
0,725	380	569,69742223487
0,725	381	569,69742223487
0,725	382	569,69742223487
0,725	383	569,69742223487
0,725	384	569,69742223487
0,725	385	569,69742223487
0,725	386	569,69742223487
0,725	387	569,69742223487
0,725	388	569,69742223487
0,725	389	569,69742223487
0,725	390	569,69742223487
0,725	391	569,69742223487
0,725	392	569,69742223487
0,725	393	569,69742223487
0,725	394	569,69742223487
0,725	395	569,69742223487
0,725	396	569,69742223487
0,725	397	569,69742223487
0,725	398	569,69742223487
0,725	399	569,69742223487
0,725	400	569,69742223487
0,725	401	569,69742223487
0,725	402	569,69742223487
0,725	403	569,69742223487
0,725	404	569,69742223487
0,725	405	569,69742223487
0,725	406	569,69742223487
0,725	407	569,69742223487
0,725	408	569,69742223487
0,725	409	569,69742223487
0,725	410	569,69742223487
0,725	411	569,69742223487
0,725	412	569,69742223487
0,725	413	569,69742223487
0,725	414	569,69742223487
0,725	415	569,69742223487
0,725	416	569,69742223487
0,725	417	569,69742223487
0,725	418	569,69742223487
0,725	419	569,69742223487
0,725	420	569,69742223487
0,725	421	569,69742223487
0,725	422	569,69742223487
0,725	423	569,69742223487
0,725	424	569,69742223487
0,725	425	569,69742223487
0,725	426	569,69742223487
0,725	427	569,69742223487
0,725	428	569,69742223487
0,725	429	569,69742223487
0,725	430	569,69742223487
0,725	431	569,69742223487
0,725	432	569,69742223487
0,725	433	569,69742223487
0,725	434	569,69742223487
0,725	435	569,69742223487
0,725	436	569,69742223487
0,725	437	569,69742223487
0,725	438	569,69742223487
0,725	439	569,69742223487
0,725	440	569,69742223487
0,725	441	569,69742223487
0,725	442	569,69742223487
