0,750	0	569,69742223487
0,750	1	569,69742223487
0,750	2	569,69742223487
0,750	3	569,69742223487
0,750	4	569,69742223487
0,750	5	569,69742223487
0,750	6	569,69742223487
0,750	7	569,69742223487
0,750	8	569,69742223487
0,750	9	569,69742223487
0,750	10	569,69742223487
0,750	11	569,69742223487
0,750	12	569,69742223487
0,750	13	569,69742223487
0,750	14	569,69742223487
0,750	15	569,69742223487
0,750	16	569,69742223487
0,750	17	569,69742223487
0,750	18	569,69742223487
0,750	19	569,69742223487
0,750	20	569,69742223487
0,750	21	569,69742223487
0,750	22	569,69742223487
0,750	23	569,69742223487
0,750	24	569,69742223487
0,750	25	569,69742223487
0,750	26	569,69742223487
0,750	27	569,69742223487
0,750	28	569,69742223487
0,750	29	569,69742223487
0,750	30	569,69742223487
0,750	31	569,69742223487
0,750	32	569,69742223487
0,750	33	569,69742223487
0,750	34	569,69742223487
0,750	35	569,69742223487
0,750	36	569,69742223487
0,750	37	569,69742223487
0,750	38	569,69742223487
0,750	39	569,69742223487
0,750	40	569,69742223487
0,750	41	569,69742223487
0,750	42	569,69742223487
0,750	43	569,69742223487
0,750	44	569,69742223487
0,750	45	569,69742223487
0,750	46	569,69742223487
0,750	47	569,69742223487
0,750	48	569,69742223487
0,750	49	569,69742223487
0,750	50	569,69742223487
0,750	51	569,69742223487
0,750	52	569,69742223487
0,750	53	569,69742223487
0,750	54	569,69742223487
0,750	55	569,69742223487
0,750	56	569,69742223487
0,750	57	569,69742223487
0,750	58	569,69742223487
0,750	59	569,69742223487
0,750	60	569,69742223487
0,750	61	569,69742223487
0,750	62	569,69742223487
0,750	63	569,69742223487
0,750	64	569,69742223487
0,750	65	569,69742223487
0,750	66	569,69742223487
0,750	67	569,69742223487
0,750	68	569,69742223487
0,750	69	569,69742223487
0,750	70	569,69742223487
0,750	71	569,69742223487
0,750	72	569,69742223487
0,750	73	569,69742223487
0,750	74	569,69742223487
0,750	75	569,69742223487
0,750	76	569,69742223487
0,750	77	569,69742223487
0,750	78	569,69742223487
0,750	79	569,69742223487
0,750	80	569,69742223487
0,750	81	569,69742223487
0,750	82	569,69742223487
0,750	83	569,69742223487
0,750	84	569,69742223487
0,750	85	569,69742223487
0,750	86	569,69742223487
0,750	87	569,69742223487
0,750	88	569,69742223487
0,750	89	569,69742223487
0,750	90	569,69742223487
0,750	91	569,69742223487
0,750	92	569,69742223487
0,750	93	569,69742223487
0,750	94	569,69742223487
0,750	95	569,69742223487
0,750	96	569,69742223487
0,750	97	569,69742223487
0,750	98	569,69742223487
0,750	99	569,69742223487
0,750	100	569,69742223487
0,750	101	569,69742223487
0,750	102	569,69742223487
0,750	103	569,69742223487
0,750	104	569,69742223487
0,750	105	569,69742223487
0,750	106	569,69742223487
0,750	107	569,69742223487
0,750	108	569,69742223487
0,750	109	569,69742223487
0,750	110	569,69742223487
0,750	111	569,69742223487
0,750	112	569,69742223487
0,750	113	569,69742223487
0,750	114	569,69742223487
0,750	115	569,69742223487
0,750	116	569,69742223487
0,750	117	569,69742223487
0,750	118	569,69742223487
0,750	119	569,69742223487
0,750	120	569,69742223487
0,750	121	569,69742223487
0,750	122	569,69742223487
0,750	123	569,69742223487
0,750	124	569,69742223487
0,750	125	569,69742223487
0,750	126	569,69742223487
0,750	127	569,69742223487
0,750	128	569,69742223487
0,750	129	569,69742223487
0,750	130	569,69742223487
0,750	131	569,69742223487
0,750	132	569,69742223487
0,750	133	569,69742223487
0,750	134	569,69742223487
0,750	135	569,69742223487
0,750	136	569,69742223487
0,750	137	569,69742223487
0,750	138	569,69742223487
0,750	139	569,69742223487
0,750	140	569,69742223487
0,750	141	569,69742223487
0,750	142	569,69742223487
0,750	143	569,69742223487
0,750	144	569,69742223487
0,750	145	569,69742223487
0,750	146	569,69742223487
0,750	147	569,69742223487
0,750	148	569,69742223487
0,750	149	569,69742223487
0,750	150	569,69742223487
0,750	151	569,69742223487
0,750	152	569,69742223487
0,750	153	569,69742223487
0,750	154	569,69742223487
0,750	155	569,69742223487
0,750	156	569,69742223487
0,750	157	569,69742223487
0,750	158	569,69742223487
0,750	159	569,69742223487
0,750	160	569,69742223487
0,750	161	569,69742223487
0,750	162	569,69742223487
0,750	163	569,69742223487
0,750	164	569,69742223487
0,750	165	569,69742223487
0,750	166	569,69742223487
0,750	167	569,69742223487
0,750	168	569,69742223487
0,750	169	569,69742223487
0,750	170	569,69742223487
0,750	171	569,69742223487
0,750	172	569,69742223487
0,750	173	569,69742223487
0,750	174	569,69742223487
0,750	175	569,69742223487
0,750	176	569,69742223487
0,750	177	569,69742223487
0,750	178	569,69742223487
0,750	179	569,69742223487
0,750	180	569,69742223487
0,750	181	569,69742223487
0,750	182	569,69742223487
0,750	183	569,69742223487
0,750	184	569,69742223487
0,750	185	569,69742223487
0,750	186	569,69742223487
0,750	187	569,69742223487
0,750	188	569,69742223487
0,750	189	569,69742223487
0,750	190	569,69742223487
0,750	191	569,69742223487
0,750	192	569,69742223487
0,750	193	569,69742223487
0,750	194	569,69742223487
0,750	195	569,69742223487
0,750	196	569,69742223487
0,750	197	569,69742223487
0,750	198	569,69742223487
0,750	199	569,69742223487
0,750	200	569,69742223487
0,750	201	569,69742223487
0,750	202	569,69742223487
0,750	203	569,69742223487
0,750	204	569,69742223487
0,750	205	569,69742223487
0,750	206	569,69742223487
0,750	207	569,69742223487
0,750	208	569,69742223487
0,750	209	569,69742223487
0,750	210	569,69742223487
0,750	211	569,69742223487
0,750	212	569,69742223487
0,750	213	569,69742223487
0,750	214	569,69742223487
0,750	215	569,69742223487
0,750	216	569,69742223487
0,750	217	569,69742223487
0,750	218	569,69742223487
0,750	219	569,69742223487
0,750	220	569,69742223487
0,750	221	569,69742223487
0,750	222	569,69742223487
0,750	223	569,69742223487
0,750	224	569,69742223487
0,750	225	569,69742223487
0,750	226	569,69742223487
0,750	227	569,69742223487
0,750	228	569,69742223487
0,750	229	569,69742223487
0,750	230	569,69742223487
0,750	231	569,69742223487
0,750	232	569,69742223487
0,750	233	569,69742223487
0,750	234	569,69742223487
0,750	235	569,69742223487
0,750	236	569,69742223487
0,750	237	569,69742223487
0,750	238	569,69742223487
0,750	239	569,69742223487
0,750	240	569,69742223487
0,750	241	569,69742223487
0,750	242	569,69742223487
0,750	243	569,69742223487
0,750	244	569,69742223487
0,750	245	569,69742223487
0,750	246	569,69742223487
0,750	247	569,69742223487
0,750	248	569,69742223487
0,750	249	569,69742223487
0,750	250	569,69742223487
0,750	251	569,69742223487
0,750	252	569,69742223487
0,750	253	569,69742223487
0,750	254	569,69742223487
0,750	255	569,69742223487
0,750	256	569,69742223487
0,750	257	569,69742223487
0,750	258	569,69742223487
0,750	259	569,69742223487
0,750	260	569,69742223487
0,750	261	569,69742223487
0,750	262	569,69742223487
0,750	263	569,69742223487
0,750	264	569,69742223487
0,750	265	569,69742223487
0,750	266	569,69742223487
0,750	267	569,69742223487
0,750	268	569,69742223487
0,750	269	569,69742223487
0,750	270	569,69742223487
0,750	271	569,69742223487
0,750	272	569,69742223487
0,750	273	569,69742223487
0,750	274	569,69742223487
0,750	275	569,69742223487
0,750	276	569,69742223487
0,750	277	569,69742223487
0,750	278	569,69742223487
0,750	279	569,69742223487
0,750	280	569,69742223487
0,750	281	569,69742223487
0,750	282	569,69742223487
0,750	283	569,69742223487
0,750	284	569,69742223487
0,750	285	569,69742223487
0,750	286	569,69742223487
0,750	287	569,69742223487
0,750	288	569,69742223487
0,750	289	569,69742223487
0,750	290	569,69742223487
0,750	291	569,69742223487
0,750	292	569,69742223487
0,750	293	569,69742223487
0,750	294	569,69742223487
0,750	295	569,69742223487
0,750	296	569,69742223487
0,750	297	569,69742223487
0,750	298	569,69742223487
0,750	299	569,69742223487
0,750	300	569,69742223487
0,750	301	569,69742223487
0,750	302	569,69742223487
0,750	303	569,69742223487
0,750	304	569,69742223487
0,750	305	569,69742223487
0,750	306	569,69742223487
0,750	307	569,69742223487
0,750	308	569,69742223487
0,750	309	569,69742223487
0,750	310	569,69742223487
0,750	311	569,69742223487
0,750	312	569,69742223487
0,750	313	569,69742223487
0,750	314	569,69742223487
0,750	315	569,69742223487
0,750	316	569,69742223487
0,750	317	569,69742223487
0,750	318	569,69742223487
0,750	319	569,69742223487
0,750	320	569,69742223487
0,750	321	569,69742223487
0,750	322	569,69742223487
0,750	323	569,69742223487
0,750	324	569,69742223487
0,750	325	569,69742223487
0,750	326	569,69742223487
0,750	327	569,69742223487
0,750	328	569,69742223487
0,750	329	569,69742223487
0,750	330	569,69742223487
0,750	331	569,69742223487
0,750	332	569,69742223487
0,750	333	569,69742223487
0,750	334	569,69742223487
0,750	335	569,69742223487
0,750	336	569,69742223487
0,750	337	569,69742223487
0,750	338	569,69742223487
0,750	339	569,69742223487
0,750	340	569,69742223487
0,750	341	569,69742223487
0,750	342	569,69742223487
0,750	343	569,69742223487
0,750	344	569,69742223487
0,750	345	569,69742223487
0,750	346	569,69742223487
0,750	347	569,69742223487
0,750	348	569,69742223487
0,750	349	569,69742223487
0,750	350	569,69742223487
0,750	351	569,69742223487
0,750	352	569,69742223487
0,750	353	569,69742223487
0,750	354	569,69742223487
0,750	355	569,69742223487
0,750	356	569,69742223487
0,750	357	569,69742223487
0,750	358	569,69742223487
0,750	359	569,69742223487
0,750	360	569,69742223487
0,750	361	569,69742223487
0,750	362	569,69742223487
0,750	363	569,69742223487
0,750	364	569,69742223487
0,750	365	569,69742223487
0,750	366	569,69742223487
0,750	367	569,69742223487
0,750	368	569,69742223487
0,750	369	569,69742223487
0,750	370	569,69742223487
0,750	371	569,69742223487
0,750	372	569,69742223487
0,750	373	569,69742223487
0,750	374	569,69742223487
0,750	375	569,69742223487
0,750	376	569,69742223487
0,750	377	569,69742223487
0,750	378	569,69742223487
0,750	379	569,69742223487
0,750	380	569,69742223487
0,750	381	569,69742223487
0,750	382	569,69742223487
0,750	383	569,69742223487
0,750	384	569,69742223487
0,750	385	569,69742223487
0,750	386	569,69742223487
0,750	387	569,69742223487
0,750	388	569,69742223487
0,750	389	569,69742223487
0,750	390	569,69742223487
0,750	391	569,69742223487
0,750	392	569,69742223487
0,750	393	569,69742223487
0,750	394	569,69742223487
0,750	395	569,69742223487
0,750	396	569,69742223487
0,750	397	569,69742223487
0,750	398	569,69742223487
0,750	399	569,69742223487
0,750	400	569,69742223487
0,750	401	569,69742223487
0,750	402	569,69742223487
0,750	403	569,69742223487
0,750	404	569,69742223487
0,750	405	569,69742223487
0,750	406	569,69742223487
0,750	407	569,69742223487
0,750	408	569,69742223487
0,750	409	569,69742223487
0,750	410	569,69742223487
0,750	411	569,69742223487
0,750	412	569,69742223487
0,750	413	569,69742223487
0,750	414	569,69742223487
0,750	415	569,69742223487
0,750	416	569,69742223487
0,750	417	569,69742223487
0,750	418	569,69742223487
0,750	419	569,69742223487
0,750	420	569,69742223487
0,750	421	569,69742223487
0,750	422	569,69742223487
0,750	423	569,69742223487
0,750	424	569,69742223487
0,750	425	569,69742223487
0,750	426	569,69742223487
0,750	427	569,69742223487
0,750	428	569,69742223487
0,750	429	569,69742223487
0,750	430	569,69742223487
0,750	431	569,69742223487
0,750	432	569,69742223487
0,750	433	569,69742223487
0,750	434	569,69742223487
0,750	435	569,69742223487
0,750	436	569,69742223487
0,750	437	569,69742223487
0,750	438	569,69742223487
0,750	439	569,69742223487
0,750	440	569,69742223487
0,750	441	569,69742223487
0,750	442	569,69742223487
