0,500	0	569,69742223487
0,500	1	569,69742223487
0,500	2	569,69742223487
0,500	3	569,69742223487
0,500	4	569,69742223487
0,500	5	569,69742223487
0,500	6	569,69742223487
0,500	7	569,69742223487
0,500	8	569,69742223487
0,500	9	569,69742223487
0,500	10	569,69742223487
0,500	11	569,69742223487
0,500	12	569,69742223487
0,500	13	569,69742223487
0,500	14	569,69742223487
0,500	15	569,69742223487
0,500	16	569,69742223487
0,500	17	569,69742223487
0,500	18	569,69742223487
0,500	19	569,69742223487
0,500	20	569,69742223487
0,500	21	569,69742223487
0,500	22	569,69742223487
0,500	23	569,69742223487
0,500	24	569,69742223487
0,500	25	569,69742223487
0,500	26	569,69742223487
0,500	27	569,69742223487
0,500	28	569,69742223487
0,500	29	569,69742223487
0,500	30	569,69742223487
0,500	31	569,69742223487
0,500	32	569,69742223487
0,500	33	569,69742223487
0,500	34	569,69742223487
0,500	35	569,69742223487
0,500	36	569,69742223487
0,500	37	569,69742223487
0,500	38	569,69742223487
0,500	39	569,69742223487
0,500	40	569,69742223487
0,500	41	569,69742223487
0,500	42	569,69742223487
0,500	43	569,69742223487
0,500	44	569,69742223487
0,500	45	569,69742223487
0,500	46	569,69742223487
0,500	47	569,69742223487
0,500	48	569,69742223487
0,500	49	569,69742223487
0,500	50	569,69742223487
0,500	51	569,69742223487
0,500	52	569,69742223487
0,500	53	569,69742223487
0,500	54	569,69742223487
0,500	55	569,69742223487
0,500	56	569,69742223487
0,500	57	569,69742223487
0,500	58	569,69742223487
0,500	59	569,69742223487
0,500	60	569,69742223487
0,500	61	569,69742223487
0,500	62	569,69742223487
0,500	63	569,69742223487
0,500	64	569,69742223487
0,500	65	569,69742223487
0,500	66	569,69742223487
0,500	67	569,69742223487
0,500	68	569,69742223487
0,500	69	569,69742223487
0,500	70	569,69742223487
0,500	71	569,69742223487
0,500	72	569,69742223487
0,500	73	569,69742223487
0,500	74	569,69742223487
0,500	75	569,69742223487
0,500	76	569,69742223487
0,500	77	569,69742223487
0,500	78	569,69742223487
0,500	79	569,69742223487
0,500	80	569,69742223487
0,500	81	569,69742223487
0,500	82	569,69742223487
0,500	83	569,69742223487
0,500	84	569,69742223487
0,500	85	569,69742223487
0,500	86	569,69742223487
0,500	87	569,69742223487
0,500	88	569,69742223487
0,500	89	569,69742223487
0,500	90	569,69742223487
0,500	91	569,69742223487
0,500	92	569,69742223487
0,500	93	569,69742223487
0,500	94	569,69742223487
0,500	95	569,69742223487
0,500	96	569,69742223487
0,500	97	569,69742223487
0,500	98	569,69742223487
0,500	99	569,69742223487
0,500	100	569,69742223487
0,500	101	569,69742223487
0,500	102	569,69742223487
0,500	103	569,69742223487
0,500	104	569,69742223487
0,500	105	569,69742223487
0,500	106	569,69742223487
0,500	107	569,69742223487
0,500	108	569,69742223487
0,500	109	569,69742223487
0,500	110	569,69742223487
0,500	111	569,69742223487
0,500	112	569,69742223487
0,500	113	569,69742223487
0,500	114	569,69742223487
0,500	115	569,69742223487
0,500	116	569,69742223487
0,500	117	569,69742223487
0,500	118	569,69742223487
0,500	119	569,69742223487
0,500	120	569,69742223487
0,500	121	569,69742223487
0,500	122	569,69742223487
0,500	123	569,69742223487
0,500	124	569,69742223487
0,500	125	569,69742223487
0,500	126	569,69742223487
0,500	127	569,69742223487
0,500	128	569,69742223487
0,500	129	569,69742223487
0,500	130	569,69742223487
0,500	131	569,69742223487
0,500	132	569,69742223487
0,500	133	569,69742223487
0,500	134	569,69742223487
0,500	135	569,69742223487
0,500	136	569,69742223487
0,500	137	569,69742223487
0,500	138	569,69742223487
0,500	139	569,69742223487
0,500	140	569,69742223487
0,500	141	569,69742223487
0,500	142	569,69742223487
0,500	143	569,69742223487
0,500	144	569,69742223487
0,500	145	569,69742223487
0,500	146	569,69742223487
0,500	147	569,69742223487
0,500	148	569,69742223487
0,500	149	569,69742223487
0,500	150	569,69742223487
0,500	151	569,69742223487
0,500	152	569,69742223487
0,500	153	569,69742223487
0,500	154	569,69742223487
0,500	155	569,69742223487
0,500	156	569,69742223487
0,500	157	569,69742223487
0,500	158	569,69742223487
0,500	159	569,69742223487
0,500	160	569,69742223487
0,500	161	569,69742223487
0,500	162	569,69742223487
0,500	163	569,69742223487
0,500	164	569,69742223487
0,500	165	569,69742223487
0,500	166	569,69742223487
0,500	167	569,69742223487
0,500	168	569,69742223487
0,500	169	569,69742223487
0,500	170	569,69742223487
0,500	171	569,69742223487
0,500	172	569,69742223487
0,500	173	569,69742223487
0,500	174	569,69742223487
0,500	175	569,69742223487
0,500	176	569,69742223487
0,500	177	569,69742223487
0,500	178	569,69742223487
0,500	179	569,69742223487
0,500	180	569,69742223487
0,500	181	569,69742223487
0,500	182	569,69742223487
0,500	183	569,69742223487
0,500	184	569,69742223487
0,500	185	569,69742223487
0,500	186	569,69742223487
0,500	187	569,69742223487
0,500	188	569,69742223487
0,500	189	569,69742223487
0,500	190	569,69742223487
0,500	191	569,69742223487
0,500	192	569,69742223487
0,500	193	569,69742223487
0,500	194	569,69742223487
0,500	195	569,69742223487
0,500	196	569,69742223487
0,500	197	569,69742223487
0,500	198	569,69742223487
0,500	199	569,69742223487
0,500	200	569,69742223487
0,500	201	569,69742223487
0,500	202	569,69742223487
0,500	203	569,69742223487
0,500	204	569,69742223487
0,500	205	569,69742223487
0,500	206	569,69742223487
0,500	207	569,69742223487
0,500	208	569,69742223487
0,500	209	569,69742223487
0,500	210	569,69742223487
0,500	211	569,69742223487
0,500	212	569,69742223487
0,500	213	569,69742223487
0,500	214	569,69742223487
0,500	215	569,69742223487
0,500	216	569,69742223487
0,500	217	569,69742223487
0,500	218	569,69742223487
0,500	219	569,69742223487
0,500	220	569,69742223487
0,500	221	569,69742223487
0,500	222	569,69742223487
0,500	223	569,69742223487
0,500	224	569,69742223487
0,500	225	569,69742223487
0,500	226	569,69742223487
0,500	227	569,69742223487
0,500	228	569,69742223487
0,500	229	569,69742223487
0,500	230	569,69742223487
0,500	231	569,69742223487
0,500	232	569,69742223487
0,500	233	569,69742223487
0,500	234	569,69742223487
0,500	235	569,69742223487
0,500	236	569,69742223487
0,500	237	569,69742223487
0,500	238	569,69742223487
0,500	239	569,69742223487
0,500	240	569,69742223487
0,500	241	569,69742223487
0,500	242	569,69742223487
0,500	243	569,69742223487
0,500	244	569,69742223487
0,500	245	569,69742223487
0,500	246	569,69742223487
0,500	247	569,69742223487
0,500	248	569,69742223487
0,500	249	569,69742223487
0,500	250	569,69742223487
0,500	251	569,69742223487
0,500	252	569,69742223487
0,500	253	569,69742223487
0,500	254	569,69742223487
0,500	255	569,69742223487
0,500	256	569,69742223487
0,500	257	569,69742223487
0,500	258	569,69742223487
0,500	259	569,69742223487
0,500	260	569,69742223487
0,500	261	569,69742223487
0,500	262	569,69742223487
0,500	263	569,69742223487
0,500	264	569,69742223487
0,500	265	569,69742223487
0,500	266	569,69742223487
0,500	267	569,69742223487
0,500	268	569,69742223487
0,500	269	569,69742223487
0,500	270	569,69742223487
0,500	271	569,69742223487
0,500	272	569,69742223487
0,500	273	569,69742223487
0,500	274	569,69742223487
0,500	275	569,69742223487
0,500	276	569,69742223487
0,500	277	569,69742223487
0,500	278	569,69742223487
0,500	279	569,69742223487
0,500	280	569,69742223487
0,500	281	569,69742223487
0,500	282	569,69742223487
0,500	283	569,69742223487
0,500	284	569,69742223487
0,500	285	569,69742223487
0,500	286	569,69742223487
0,500	287	569,69742223487
0,500	288	569,69742223487
0,500	289	569,69742223487
0,500	290	569,69742223487
0,500	291	569,69742223487
0,500	292	569,69742223487
0,500	293	569,69742223487
0,500	294	569,69742223487
0,500	295	569,69742223487
0,500	296	569,69742223487
0,500	297	569,69742223487
0,500	298	569,69742223487
0,500	299	569,69742223487
0,500	300	569,69742223487
0,500	301	569,69742223487
0,500	302	569,69742223487
0,500	303	569,69742223487
0,500	304	569,69742223487
0,500	305	569,69742223487
0,500	306	569,69742223487
0,500	307	569,69742223487
0,500	308	569,69742223487
0,500	309	569,69742223487
0,500	310	569,69742223487
0,500	311	569,69742223487
0,500	312	569,69742223487
0,500	313	569,69742223487
0,500	314	569,69742223487
0,500	315	569,69742223487
0,500	316	569,69742223487
0,500	317	569,69742223487
0,500	318	569,69742223487
0,500	319	569,69742223487
0,500	320	569,69742223487
0,500	321	569,69742223487
0,500	322	569,69742223487
0,500	323	569,69742223487
0,500	324	569,69742223487
0,500	325	569,69742223487
0,500	326	569,69742223487
0,500	327	569,69742223487
0,500	328	569,69742223487
0,500	329	569,69742223487
0,500	330	569,69742223487
0,500	331	569,69742223487
0,500	332	569,69742223487
0,500	333	569,69742223487
0,500	334	569,69742223487
0,500	335	569,69742223487
0,500	336	569,69742223487
0,500	337	569,69742223487
0,500	338	569,69742223487
0,500	339	569,69742223487
0,500	340	569,69742223487
0,500	341	569,69742223487
0,500	342	569,69742223487
0,500	343	569,69742223487
0,500	344	569,69742223487
0,500	345	569,69742223487
0,500	346	569,69742223487
0,500	347	569,69742223487
0,500	348	569,69742223487
0,500	349	569,69742223487
0,500	350	569,69742223487
0,500	351	569,69742223487
0,500	352	569,69742223487
0,500	353	569,69742223487
0,500	354	569,69742223487
0,500	355	569,69742223487
0,500	356	569,69742223487
0,500	357	569,69742223487
0,500	358	569,69742223487
0,500	359	569,69742223487
0,500	360	569,69742223487
0,500	361	569,69742223487
0,500	362	569,69742223487
0,500	363	569,69742223487
0,500	364	569,69742223487
0,500	365	569,69742223487
0,500	366	569,69742223487
0,500	367	569,69742223487
0,500	368	569,69742223487
0,500	369	569,69742223487
0,500	370	569,69742223487
0,500	371	569,69742223487
0,500	372	569,69742223487
0,500	373	569,69742223487
0,500	374	569,69742223487
0,500	375	569,69742223487
0,500	376	569,69742223487
0,500	377	569,69742223487
0,500	378	569,69742223487
0,500	379	569,69742223487
0,500	380	569,69742223487
0,500	381	569,69742223487
0,500	382	569,69742223487
0,500	383	569,69742223487
0,500	384	569,69742223487
0,500	385	569,69742223487
0,500	386	569,69742223487
0,500	387	569,69742223487
0,500	388	569,69742223487
0,500	389	569,69742223487
0,500	390	569,69742223487
0,500	391	569,69742223487
0,500	392	569,69742223487
0,500	393	569,69742223487
0,500	394	569,69742223487
0,500	395	569,69742223487
0,500	396	569,69742223487
0,500	397	569,69742223487
0,500	398	569,69742223487
0,500	399	569,69742223487
0,500	400	569,69742223487
0,500	401	569,69742223487
0,500	402	569,69742223487
0,500	403	569,69742223487
0,500	404	569,69742223487
0,500	405	569,69742223487
0,500	406	569,69742223487
0,500	407	569,69742223487
0,500	408	569,69742223487
0,500	409	569,69742223487
0,500	410	569,69742223487
0,500	411	569,69742223487
0,500	412	569,69742223487
0,500	413	569,69742223487
0,500	414	569,69742223487
0,500	415	569,69742223487
0,500	416	569,69742223487
0,500	417	569,69742223487
0,500	418	569,69742223487
0,500	419	569,69742223487
0,500	420	569,69742223487
0,500	421	569,69742223487
0,500	422	569,69742223487
0,500	423	569,69742223487
0,500	424	569,69742223487
0,500	425	569,69742223487
0,500	426	569,69742223487
0,500	427	569,69742223487
0,500	428	569,69742223487
0,500	429	569,69742223487
0,500	430	569,69742223487
0,500	431	569,69742223487
0,500	432	569,69742223487
0,500	433	569,69742223487
0,500	434	569,69742223487
0,500	435	569,69742223487
0,500	436	569,69742223487
0,500	437	569,69742223487
0,500	438	569,69742223487
0,500	439	569,69742223487
0,500	440	569,69742223487
0,500	441	569,69742223487
0,500	442	569,69742223487
