0,150	0	517,115812210013
0,150	1	517,115812210013
0,150	2	509,433390532298
0,150	3	509,433390532298
0,150	4	503,018503689056
0,150	5	486,335866601626
0,150	6	486,335866601626
0,150	7	486,335866601626
0,150	8	486,335866601626
0,150	9	483,7918568241
0,150	10	470,14176083446
0,150	11	470,14176083446
0,150	12	470,14176083446
0,150	13	470,14176083446
0,150	14	470,14176083446
0,150	15	470,14176083446
0,150	16	470,14176083446
0,150	17	470,14176083446
0,150	18	466,924469555533
0,150	19	466,924469555533
0,150	20	459,613918162258
0,150	21	450,685937216911
0,150	22	450,685937216911
0,150	23	450,685937216911
0,150	24	450,685937216911
0,150	25	450,685937216911
0,150	26	450,685937216911
0,150	27	450,685937216911
0,150	28	450,685937216911
0,150	29	450,685937216911
0,150	30	450,685937216911
0,150	31	450,685937216911
0,150	32	449,622837208012
0,150	33	449,622837208012
0,150	34	449,622837208012
0,150	35	449,622837208012
0,150	36	449,622837208012
0,150	37	449,622837208012
0,150	38	449,622837208012
0,150	39	449,622837208012
0,150	40	449,622837208012
0,150	41	449,622837208012
0,150	42	449,622837208012
0,150	43	449,622837208012
0,150	44	449,622837208012
0,150	45	449,622837208012
0,150	46	449,622837208012
0,150	47	449,622837208012
0,150	48	449,622837208012
0,150	49	449,622837208012
0,150	50	449,622837208012
0,150	51	449,256474967512
0,150	52	449,256474967512
0,150	53	449,256474967512
0,150	54	449,256474967512
0,150	55	449,256474967512
0,150	56	449,256474967512
0,150	57	449,256474967512
0,150	58	449,256474967512
0,150	59	449,256474967512
0,150	60	449,256474967512
0,150	61	449,256474967512
0,150	62	449,256474967512
0,150	63	449,256474967512
0,150	64	449,256474967512
0,150	65	449,256474967512
0,150	66	449,256474967512
0,150	67	449,256474967512
0,150	68	449,256474967512
0,150	69	449,256474967512
0,150	70	449,256474967512
0,150	71	449,256474967512
0,150	72	449,256474967512
0,150	73	449,256474967512
0,150	74	449,256474967512
0,150	75	449,256474967512
0,150	76	449,256474967512
0,150	77	449,256474967512
0,150	78	449,256474967512
0,150	79	449,256474967512
0,150	80	449,256474967512
0,150	81	449,256474967512
0,150	82	449,256474967512
0,150	83	449,256474967512
0,150	84	449,256474967512
0,150	85	449,256474967512
0,150	86	449,256474967512
0,150	87	449,256474967512
0,150	88	449,256474967512
0,150	89	449,256474967512
0,150	90	449,256474967512
0,150	91	449,256474967512
0,150	92	449,256474967512
0,150	93	449,256474967512
0,150	94	449,256474967512
0,150	95	449,256474967512
0,150	96	449,256474967512
0,150	97	449,256474967512
0,150	98	449,256474967512
0,150	99	449,256474967512
0,150	100	449,256474967512
0,150	101	449,256474967512
0,150	102	449,256474967512
0,150	103	449,256474967512
0,150	104	449,256474967512
0,150	105	449,256474967512
0,150	106	449,256474967512
0,150	107	449,256474967512
0,150	108	449,256474967512
0,150	109	449,256474967512
0,150	110	449,256474967512
0,150	111	449,256474967512
0,150	112	449,256474967512
0,150	113	449,256474967512
0,150	114	449,256474967512
0,150	115	449,256474967512
0,150	116	449,256474967512
0,150	117	449,256474967512
0,150	118	449,256474967512
0,150	119	449,256474967512
0,150	120	449,256474967512
0,150	121	449,256474967512
0,150	122	449,256474967512
0,150	123	449,256474967512
0,150	124	449,256474967512
0,150	125	449,256474967512
0,150	126	449,256474967512
0,150	127	449,256474967512
0,150	128	449,256474967512
0,150	129	449,256474967512
0,150	130	449,256474967512
0,150	131	449,256474967512
0,150	132	449,256474967512
0,150	133	449,256474967512
0,150	134	449,256474967512
0,150	135	449,256474967512
0,150	136	449,256474967512
0,150	137	449,256474967512
0,150	138	449,256474967512
0,150	139	449,256474967512
0,150	140	449,256474967512
0,150	141	449,256474967512
0,150	142	449,256474967512
0,150	143	449,256474967512
0,150	144	449,256474967512
0,150	145	449,256474967512
0,150	146	449,256474967512
0,150	147	449,256474967512
0,150	148	449,256474967512
0,150	149	449,256474967512
0,150	150	449,256474967512
0,150	151	449,256474967512
0,150	152	449,256474967512
0,150	153	449,256474967512
0,150	154	449,256474967512
0,150	155	449,256474967512
0,150	156	449,256474967512
0,150	157	449,256474967512
0,150	158	449,256474967512
0,150	159	449,256474967512
0,150	160	449,256474967512
0,150	161	449,256474967512
0,150	162	449,256474967512
0,150	163	449,256474967512
0,150	164	449,256474967512
0,150	165	449,256474967512
0,150	166	449,256474967512
0,150	167	449,256474967512
0,150	168	449,256474967512
0,150	169	449,256474967512
0,150	170	449,256474967512
0,150	171	449,256474967512
0,150	172	449,256474967512
0,150	173	449,256474967512
0,150	174	449,256474967512
0,150	175	449,256474967512
0,150	176	449,256474967512
0,150	177	449,256474967512
0,150	178	449,256474967512
0,150	179	449,256474967512
0,150	180	449,256474967512
0,150	181	449,256474967512
0,150	182	449,256474967512
0,150	183	449,256474967512
0,150	184	449,256474967512
0,150	185	449,256474967512
0,150	186	449,256474967512
0,150	187	449,256474967512
0,150	188	449,256474967512
0,150	189	449,256474967512
0,150	190	449,256474967512
0,150	191	449,256474967512
0,150	192	449,256474967512
0,150	193	449,256474967512
0,150	194	449,256474967512
0,150	195	449,256474967512
0,150	196	449,256474967512
0,150	197	449,256474967512
0,150	198	449,256474967512
0,150	199	449,256474967512
0,150	200	449,256474967512
0,150	201	449,256474967512
0,150	202	449,256474967512
0,150	203	449,256474967512
0,150	204	449,256474967512
0,150	205	449,256474967512
0,150	206	449,256474967512
0,150	207	449,256474967512
0,150	208	449,256474967512
0,150	209	449,256474967512
0,150	210	449,256474967512
0,150	211	449,256474967512
0,150	212	449,256474967512
0,150	213	449,256474967512
0,150	214	449,256474967512
0,150	215	449,256474967512
0,150	216	449,256474967512
0,150	217	449,256474967512
0,150	218	449,256474967512
0,150	219	449,256474967512
0,150	220	449,256474967512
0,150	221	449,256474967512
0,150	222	449,256474967512
0,150	223	449,256474967512
0,150	224	449,256474967512
0,150	225	449,256474967512
0,150	226	449,256474967512
0,150	227	449,256474967512
0,150	228	449,256474967512
0,150	229	449,256474967512
0,150	230	449,256474967512
0,150	231	449,256474967512
0,150	232	449,256474967512
0,150	233	449,256474967512
0,150	234	449,256474967512
0,150	235	449,256474967512
0,150	236	449,256474967512
0,150	237	449,256474967512
0,150	238	449,256474967512
0,150	239	449,256474967512
0,150	240	449,256474967512
0,150	241	449,256474967512
0,150	242	449,256474967512
0,150	243	449,256474967512
0,150	244	449,256474967512
0,150	245	449,256474967512
0,150	246	449,256474967512
0,150	247	449,256474967512
0,150	248	449,256474967512
0,150	249	449,256474967512
0,150	250	449,256474967512
0,150	251	449,256474967512
0,150	252	449,256474967512
0,150	253	449,256474967512
0,150	254	449,256474967512
0,150	255	449,256474967512
0,150	256	449,256474967512
0,150	257	449,256474967512
0,150	258	449,256474967512
0,150	259	449,256474967512
0,150	260	449,256474967512
0,150	261	449,256474967512
0,150	262	449,256474967512
0,150	263	449,256474967512
0,150	264	449,256474967512
0,150	265	449,256474967512
0,150	266	449,256474967512
0,150	267	449,256474967512
0,150	268	449,256474967512
0,150	269	449,256474967512
0,150	270	449,256474967512
0,150	271	449,256474967512
0,150	272	449,256474967512
0,150	273	449,256474967512
0,150	274	449,256474967512
0,150	275	449,256474967512
0,150	276	449,256474967512
0,150	277	449,256474967512
0,150	278	449,256474967512
0,150	279	449,256474967512
0,150	280	444,924721584205
0,150	281	444,924721584205
0,150	282	444,924721584205
0,150	283	444,924721584205
0,150	284	444,924721584205
0,150	285	444,924721584205
0,150	286	444,924721584205
0,150	287	444,924721584205
0,150	288	444,924721584205
0,150	289	444,924721584205
0,150	290	444,924721584205
0,150	291	444,924721584205
0,150	292	444,924721584205
0,150	293	444,924721584205
0,150	294	444,924721584205
0,150	295	444,924721584205
0,150	296	444,924721584205
0,150	297	444,924721584205
0,150	298	444,924721584205
0,150	299	444,924721584205
0,150	300	444,924721584205
0,150	301	444,924721584205
0,150	302	444,924721584205
0,150	303	444,924721584205
0,150	304	444,924721584205
0,150	305	444,924721584205
0,150	306	444,924721584205
0,150	307	444,924721584205
0,150	308	444,924721584205
0,150	309	444,924721584205
0,150	310	444,924721584205
0,150	311	444,924721584205
0,150	312	444,924721584205
0,150	313	444,924721584205
0,150	314	444,924721584205
0,150	315	444,924721584205
0,150	316	444,924721584205
0,150	317	444,924721584205
0,150	318	444,924721584205
0,150	319	444,924721584205
0,150	320	444,924721584205
0,150	321	444,924721584205
0,150	322	444,924721584205
0,150	323	444,924721584205
0,150	324	444,924721584205
0,150	325	444,924721584205
0,150	326	444,924721584205
0,150	327	444,924721584205
0,150	328	444,924721584205
0,150	329	444,924721584205
0,150	330	444,924721584205
0,150	331	444,924721584205
0,150	332	444,924721584205
0,150	333	444,924721584205
0,150	334	444,924721584205
0,150	335	444,924721584205
0,150	336	444,924721584205
0,150	337	444,924721584205
0,150	338	444,924721584205
0,150	339	444,924721584205
0,150	340	444,924721584205
0,150	341	444,924721584205
0,150	342	444,924721584205
0,150	343	444,924721584205
0,150	344	444,924721584205
0,150	345	444,924721584205
0,150	346	444,924721584205
0,150	347	444,924721584205
0,150	348	444,924721584205
0,150	349	444,924721584205
0,150	350	444,924721584205
0,150	351	444,924721584205
0,150	352	444,924721584205
0,150	353	444,924721584205
0,150	354	444,924721584205
0,150	355	444,924721584205
0,150	356	444,924721584205
0,150	357	444,924721584205
0,150	358	444,924721584205
0,150	359	444,924721584205
0,150	360	444,924721584205
0,150	361	444,924721584205
0,150	362	444,924721584205
0,150	363	444,924721584205
0,150	364	444,924721584205
0,150	365	444,924721584205
0,150	366	444,924721584205
0,150	367	444,924721584205
0,150	368	444,924721584205
0,150	369	444,924721584205
0,150	370	444,924721584205
0,150	371	444,924721584205
0,150	372	444,924721584205
0,150	373	444,924721584205
0,150	374	444,924721584205
0,150	375	444,924721584205
0,150	376	444,924721584205
0,150	377	444,924721584205
0,150	378	444,924721584205
0,150	379	444,924721584205
0,150	380	444,924721584205
0,150	381	444,924721584205
0,150	382	444,924721584205
0,150	383	444,924721584205
0,150	384	444,924721584205
0,150	385	444,924721584205
0,150	386	444,924721584205
0,150	387	444,924721584205
0,150	388	444,924721584205
0,150	389	444,924721584205
0,150	390	444,924721584205
0,150	391	444,924721584205
0,150	392	444,924721584205
0,150	393	444,924721584205
0,150	394	444,924721584205
0,150	395	444,924721584205
0,150	396	444,924721584205
0,150	397	444,924721584205
0,150	398	444,924721584205
0,150	399	444,924721584205
0,150	400	444,924721584205
0,150	401	444,924721584205
0,150	402	444,924721584205
0,150	403	444,924721584205
0,150	404	444,924721584205
0,150	405	444,924721584205
0,150	406	444,924721584205
0,150	407	444,924721584205
0,150	408	444,924721584205
0,150	409	444,924721584205
0,150	410	444,924721584205
0,150	411	444,924721584205
0,150	412	444,924721584205
0,150	413	444,924721584205
0,150	414	444,924721584205
0,150	415	444,924721584205
0,150	416	444,924721584205
0,150	417	444,924721584205
0,150	418	444,924721584205
0,150	419	444,924721584205
0,150	420	444,924721584205
0,150	421	444,924721584205
0,150	422	444,924721584205
0,150	423	444,924721584205
0,150	424	444,924721584205
0,150	425	444,924721584205
0,150	426	444,924721584205
0,150	427	444,924721584205
0,150	428	444,924721584205
0,150	429	444,924721584205
0,150	430	444,924721584205
0,150	431	444,924721584205
0,150	432	444,924721584205
0,150	433	444,924721584205
0,150	434	444,924721584205
0,150	435	444,924721584205
0,150	436	444,924721584205
0,150	437	444,924721584205
0,150	438	444,924721584205
0,150	439	444,924721584205
0,150	440	444,924721584205
0,150	441	444,924721584205
0,150	442	444,924721584205
