0,325	0	647,97128774256
0,325	1	559,124600421792
0,325	2	559,124600421792
0,325	3	559,124600421792
0,325	4	546,206023248615
0,325	5	523,246361507693
0,325	6	523,246361507693
0,325	7	523,246361507693
0,325	8	523,246361507693
0,325	9	523,246361507693
0,325	10	523,246361507693
0,325	11	523,246361507693
0,325	12	523,246361507693
0,325	13	514,607531282173
0,325	14	514,607531282173
0,325	15	514,607531282173
0,325	16	514,607531282173
0,325	17	514,607531282173
0,325	18	514,607531282173
0,325	19	514,607531282173
0,325	20	514,607531282173
0,325	21	514,607531282173
0,325	22	514,607531282173
0,325	23	514,607531282173
0,325	24	514,607531282173
0,325	25	514,607531282173
0,325	26	514,607531282173
0,325	27	514,607531282173
0,325	28	514,607531282173
0,325	29	514,607531282173
0,325	30	514,607531282173
0,325	31	514,607531282173
0,325	32	514,607531282173
0,325	33	514,607531282173
0,325	34	514,607531282173
0,325	35	514,607531282173
0,325	36	514,607531282173
0,325	37	514,607531282173
0,325	38	514,607531282173
0,325	39	514,607531282173
0,325	40	514,607531282173
0,325	41	514,607531282173
0,325	42	514,607531282173
0,325	43	514,607531282173
0,325	44	514,607531282173
0,325	45	514,607531282173
0,325	46	514,607531282173
0,325	47	514,607531282173
0,325	48	514,607531282173
0,325	49	514,607531282173
0,325	50	514,607531282173
0,325	51	514,607531282173
0,325	52	514,607531282173
0,325	53	514,607531282173
0,325	54	514,607531282173
0,325	55	514,607531282173
0,325	56	514,607531282173
0,325	57	514,607531282173
0,325	58	514,607531282173
0,325	59	514,607531282173
0,325	60	514,607531282173
0,325	61	514,607531282173
0,325	62	514,607531282173
0,325	63	514,607531282173
0,325	64	514,607531282173
0,325	65	514,607531282173
0,325	66	514,607531282173
0,325	67	514,607531282173
0,325	68	514,607531282173
0,325	69	514,607531282173
0,325	70	514,607531282173
0,325	71	514,607531282173
0,325	72	514,607531282173
0,325	73	514,607531282173
0,325	74	514,607531282173
0,325	75	514,607531282173
0,325	76	514,607531282173
0,325	77	514,607531282173
0,325	78	514,607531282173
0,325	79	514,607531282173
0,325	80	514,607531282173
0,325	81	514,607531282173
0,325	82	514,607531282173
0,325	83	514,607531282173
0,325	84	514,607531282173
0,325	85	514,607531282173
0,325	86	514,607531282173
0,325	87	514,607531282173
0,325	88	514,607531282173
0,325	89	514,607531282173
0,325	90	514,607531282173
0,325	91	514,607531282173
0,325	92	514,607531282173
0,325	93	514,607531282173
0,325	94	514,607531282173
0,325	95	514,607531282173
0,325	96	514,607531282173
0,325	97	514,607531282173
0,325	98	514,607531282173
0,325	99	514,607531282173
0,325	100	514,607531282173
0,325	101	514,607531282173
0,325	102	514,607531282173
0,325	103	514,607531282173
0,325	104	514,607531282173
0,325	105	514,607531282173
0,325	106	514,607531282173
0,325	107	514,607531282173
0,325	108	514,607531282173
0,325	109	514,607531282173
0,325	110	514,607531282173
0,325	111	514,607531282173
0,325	112	514,607531282173
0,325	113	514,607531282173
0,325	114	514,607531282173
0,325	115	514,607531282173
0,325	116	514,607531282173
0,325	117	514,607531282173
0,325	118	514,607531282173
0,325	119	514,607531282173
0,325	120	514,607531282173
0,325	121	514,607531282173
0,325	122	514,607531282173
0,325	123	514,607531282173
0,325	124	514,607531282173
0,325	125	514,607531282173
0,325	126	514,607531282173
0,325	127	514,607531282173
0,325	128	514,607531282173
0,325	129	514,607531282173
0,325	130	514,607531282173
0,325	131	514,607531282173
0,325	132	514,607531282173
0,325	133	514,607531282173
0,325	134	514,607531282173
0,325	135	514,607531282173
0,325	136	514,607531282173
0,325	137	514,607531282173
0,325	138	514,607531282173
0,325	139	514,607531282173
0,325	140	514,607531282173
0,325	141	514,607531282173
0,325	142	514,607531282173
0,325	143	514,607531282173
0,325	144	514,607531282173
0,325	145	514,607531282173
0,325	146	514,607531282173
0,325	147	514,607531282173
0,325	148	514,607531282173
0,325	149	514,607531282173
0,325	150	514,607531282173
0,325	151	514,607531282173
0,325	152	514,607531282173
0,325	153	514,607531282173
0,325	154	514,607531282173
0,325	155	514,607531282173
0,325	156	514,607531282173
0,325	157	514,607531282173
0,325	158	514,607531282173
0,325	159	514,607531282173
0,325	160	514,607531282173
0,325	161	514,607531282173
0,325	162	514,607531282173
0,325	163	514,607531282173
0,325	164	514,607531282173
0,325	165	514,607531282173
0,325	166	514,607531282173
0,325	167	514,607531282173
0,325	168	514,607531282173
0,325	169	514,607531282173
0,325	170	514,607531282173
0,325	171	514,607531282173
0,325	172	514,607531282173
0,325	173	514,607531282173
0,325	174	514,607531282173
0,325	175	514,607531282173
0,325	176	514,607531282173
0,325	177	514,607531282173
0,325	178	514,607531282173
0,325	179	514,607531282173
0,325	180	514,607531282173
0,325	181	514,607531282173
0,325	182	514,607531282173
0,325	183	514,607531282173
0,325	184	514,607531282173
0,325	185	514,607531282173
0,325	186	514,607531282173
0,325	187	514,607531282173
0,325	188	514,607531282173
0,325	189	514,607531282173
0,325	190	514,607531282173
0,325	191	514,607531282173
0,325	192	514,607531282173
0,325	193	514,607531282173
0,325	194	514,607531282173
0,325	195	514,607531282173
0,325	196	514,607531282173
0,325	197	514,607531282173
0,325	198	514,607531282173
0,325	199	514,607531282173
0,325	200	514,607531282173
0,325	201	514,607531282173
0,325	202	514,607531282173
0,325	203	514,607531282173
0,325	204	514,607531282173
0,325	205	514,607531282173
0,325	206	514,607531282173
0,325	207	514,607531282173
0,325	208	514,607531282173
0,325	209	514,607531282173
0,325	210	514,607531282173
0,325	211	514,607531282173
0,325	212	514,607531282173
0,325	213	514,607531282173
0,325	214	514,607531282173
0,325	215	514,607531282173
0,325	216	514,607531282173
0,325	217	514,607531282173
0,325	218	514,607531282173
0,325	219	514,607531282173
0,325	220	514,607531282173
0,325	221	514,607531282173
0,325	222	514,607531282173
0,325	223	514,607531282173
0,325	224	514,607531282173
0,325	225	514,607531282173
0,325	226	514,607531282173
0,325	227	514,607531282173
0,325	228	514,607531282173
0,325	229	514,607531282173
0,325	230	514,607531282173
0,325	231	514,607531282173
0,325	232	514,607531282173
0,325	233	514,607531282173
0,325	234	514,607531282173
0,325	235	514,607531282173
0,325	236	514,607531282173
0,325	237	514,607531282173
0,325	238	514,607531282173
0,325	239	514,607531282173
0,325	240	514,607531282173
0,325	241	514,607531282173
0,325	242	514,607531282173
0,325	243	514,607531282173
0,325	244	514,607531282173
0,325	245	514,607531282173
0,325	246	514,607531282173
0,325	247	514,607531282173
0,325	248	514,607531282173
0,325	249	514,607531282173
0,325	250	514,607531282173
0,325	251	514,607531282173
0,325	252	514,607531282173
0,325	253	514,607531282173
0,325	254	514,607531282173
0,325	255	514,607531282173
0,325	256	514,607531282173
0,325	257	514,607531282173
0,325	258	514,607531282173
0,325	259	514,607531282173
0,325	260	514,607531282173
0,325	261	514,607531282173
0,325	262	514,607531282173
0,325	263	514,607531282173
0,325	264	514,607531282173
0,325	265	514,607531282173
0,325	266	514,607531282173
0,325	267	514,607531282173
0,325	268	514,607531282173
0,325	269	514,607531282173
0,325	270	514,607531282173
0,325	271	514,607531282173
0,325	272	514,607531282173
0,325	273	514,607531282173
0,325	274	514,607531282173
0,325	275	514,607531282173
0,325	276	514,607531282173
0,325	277	514,607531282173
0,325	278	514,607531282173
0,325	279	514,607531282173
0,325	280	514,607531282173
0,325	281	514,607531282173
0,325	282	514,607531282173
0,325	283	514,607531282173
0,325	284	514,607531282173
0,325	285	514,607531282173
0,325	286	514,607531282173
0,325	287	514,607531282173
0,325	288	514,607531282173
0,325	289	514,607531282173
0,325	290	514,607531282173
0,325	291	514,607531282173
0,325	292	514,607531282173
0,325	293	514,607531282173
0,325	294	514,607531282173
0,325	295	514,607531282173
0,325	296	514,607531282173
0,325	297	514,607531282173
0,325	298	514,607531282173
0,325	299	514,607531282173
0,325	300	514,607531282173
0,325	301	514,607531282173
0,325	302	514,607531282173
0,325	303	514,607531282173
0,325	304	514,607531282173
0,325	305	514,607531282173
0,325	306	514,607531282173
0,325	307	514,607531282173
0,325	308	514,607531282173
0,325	309	514,607531282173
0,325	310	514,607531282173
0,325	311	514,607531282173
0,325	312	514,607531282173
0,325	313	514,607531282173
0,325	314	514,607531282173
0,325	315	514,607531282173
0,325	316	514,607531282173
0,325	317	514,607531282173
0,325	318	514,607531282173
0,325	319	514,607531282173
0,325	320	514,607531282173
0,325	321	514,607531282173
0,325	322	514,607531282173
0,325	323	514,607531282173
0,325	324	514,607531282173
0,325	325	514,607531282173
0,325	326	514,607531282173
0,325	327	514,607531282173
0,325	328	514,607531282173
0,325	329	514,607531282173
0,325	330	514,607531282173
0,325	331	514,607531282173
0,325	332	514,607531282173
0,325	333	514,607531282173
0,325	334	514,607531282173
0,325	335	514,607531282173
0,325	336	514,607531282173
0,325	337	514,607531282173
0,325	338	514,607531282173
0,325	339	514,607531282173
0,325	340	514,607531282173
0,325	341	514,607531282173
0,325	342	514,607531282173
0,325	343	514,607531282173
0,325	344	514,607531282173
0,325	345	514,607531282173
0,325	346	514,607531282173
0,325	347	514,607531282173
0,325	348	514,607531282173
0,325	349	514,607531282173
0,325	350	514,607531282173
0,325	351	514,607531282173
0,325	352	514,607531282173
0,325	353	514,607531282173
0,325	354	514,607531282173
0,325	355	514,607531282173
0,325	356	514,607531282173
0,325	357	514,607531282173
0,325	358	514,607531282173
0,325	359	514,607531282173
0,325	360	514,607531282173
0,325	361	514,607531282173
0,325	362	514,607531282173
0,325	363	514,607531282173
0,325	364	514,607531282173
0,325	365	514,607531282173
0,325	366	514,607531282173
0,325	367	514,607531282173
0,325	368	514,607531282173
0,325	369	514,607531282173
0,325	370	514,607531282173
0,325	371	514,607531282173
0,325	372	514,607531282173
0,325	373	514,607531282173
0,325	374	514,607531282173
0,325	375	514,607531282173
0,325	376	514,607531282173
0,325	377	514,607531282173
0,325	378	514,607531282173
0,325	379	514,607531282173
0,325	380	514,607531282173
0,325	381	514,350545788841
0,325	382	514,350545788841
0,325	383	514,350545788841
0,325	384	514,350545788841
0,325	385	514,350545788841
0,325	386	514,350545788841
0,325	387	514,350545788841
0,325	388	514,350545788841
0,325	389	514,350545788841
0,325	390	514,350545788841
0,325	391	514,350545788841
0,325	392	514,350545788841
0,325	393	514,350545788841
0,325	394	514,350545788841
0,325	395	514,350545788841
0,325	396	514,350545788841
0,325	397	514,350545788841
0,325	398	514,350545788841
0,325	399	514,350545788841
0,325	400	514,350545788841
0,325	401	514,350545788841
0,325	402	514,350545788841
0,325	403	514,350545788841
0,325	404	514,350545788841
0,325	405	514,350545788841
0,325	406	514,350545788841
0,325	407	514,350545788841
0,325	408	514,350545788841
0,325	409	514,350545788841
0,325	410	514,350545788841
0,325	411	514,350545788841
0,325	412	514,350545788841
0,325	413	514,350545788841
0,325	414	514,350545788841
0,325	415	514,350545788841
0,325	416	514,350545788841
0,325	417	514,350545788841
0,325	418	514,350545788841
0,325	419	514,350545788841
0,325	420	514,350545788841
0,325	421	514,350545788841
0,325	422	514,350545788841
0,325	423	514,350545788841
0,325	424	514,350545788841
0,325	425	514,350545788841
0,325	426	514,350545788841
0,325	427	514,350545788841
0,325	428	514,350545788841
0,325	429	514,350545788841
0,325	430	514,350545788841
0,325	431	514,350545788841
0,325	432	514,350545788841
0,325	433	514,350545788841
0,325	434	514,350545788841
0,325	435	514,350545788841
0,325	436	514,350545788841
0,325	437	514,350545788841
0,325	438	514,350545788841
0,325	439	514,350545788841
0,325	440	514,350545788841
0,325	441	514,350545788841
0,325	442	514,350545788841
