0,850	0	569,69742223487
0,850	1	569,69742223487
0,850	2	569,69742223487
0,850	3	569,69742223487
0,850	4	569,69742223487
0,850	5	569,69742223487
0,850	6	569,69742223487
0,850	7	569,69742223487
0,850	8	569,69742223487
0,850	9	569,69742223487
0,850	10	569,69742223487
0,850	11	569,69742223487
0,850	12	569,69742223487
0,850	13	569,69742223487
0,850	14	569,69742223487
0,850	15	569,69742223487
0,850	16	569,69742223487
0,850	17	569,69742223487
0,850	18	569,69742223487
0,850	19	569,69742223487
0,850	20	569,69742223487
0,850	21	569,69742223487
0,850	22	569,69742223487
0,850	23	569,69742223487
0,850	24	569,69742223487
0,850	25	569,69742223487
0,850	26	569,69742223487
0,850	27	569,69742223487
0,850	28	569,69742223487
0,850	29	569,69742223487
0,850	30	569,69742223487
0,850	31	569,69742223487
0,850	32	569,69742223487
0,850	33	569,69742223487
0,850	34	569,69742223487
0,850	35	569,69742223487
0,850	36	569,69742223487
0,850	37	569,69742223487
0,850	38	569,69742223487
0,850	39	569,69742223487
0,850	40	569,69742223487
0,850	41	569,69742223487
0,850	42	569,69742223487
0,850	43	569,69742223487
0,850	44	569,69742223487
0,850	45	569,69742223487
0,850	46	569,69742223487
0,850	47	569,69742223487
0,850	48	569,69742223487
0,850	49	569,69742223487
0,850	50	569,69742223487
0,850	51	569,69742223487
0,850	52	569,69742223487
0,850	53	569,69742223487
0,850	54	569,69742223487
0,850	55	569,69742223487
0,850	56	569,69742223487
0,850	57	569,69742223487
0,850	58	569,69742223487
0,850	59	569,69742223487
0,850	60	569,69742223487
0,850	61	569,69742223487
0,850	62	569,69742223487
0,850	63	569,69742223487
0,850	64	569,69742223487
0,850	65	569,69742223487
0,850	66	569,69742223487
0,850	67	569,69742223487
0,850	68	569,69742223487
0,850	69	569,69742223487
0,850	70	569,69742223487
0,850	71	569,69742223487
0,850	72	569,69742223487
0,850	73	569,69742223487
0,850	74	569,69742223487
0,850	75	569,69742223487
0,850	76	569,69742223487
0,850	77	569,69742223487
0,850	78	569,69742223487
0,850	79	569,69742223487
0,850	80	569,69742223487
0,850	81	569,69742223487
0,850	82	569,69742223487
0,850	83	569,69742223487
0,850	84	569,69742223487
0,850	85	569,69742223487
0,850	86	569,69742223487
0,850	87	569,69742223487
0,850	88	569,69742223487
0,850	89	569,69742223487
0,850	90	569,69742223487
0,850	91	569,69742223487
0,850	92	569,69742223487
0,850	93	569,69742223487
0,850	94	569,69742223487
0,850	95	569,69742223487
0,850	96	569,69742223487
0,850	97	569,69742223487
0,850	98	569,69742223487
0,850	99	569,69742223487
0,850	100	569,69742223487
0,850	101	569,69742223487
0,850	102	569,69742223487
0,850	103	569,69742223487
0,850	104	569,69742223487
0,850	105	569,69742223487
0,850	106	569,69742223487
0,850	107	569,69742223487
0,850	108	569,69742223487
0,850	109	569,69742223487
0,850	110	569,69742223487
0,850	111	569,69742223487
0,850	112	569,69742223487
0,850	113	569,69742223487
0,850	114	569,69742223487
0,850	115	569,69742223487
0,850	116	569,69742223487
0,850	117	569,69742223487
0,850	118	569,69742223487
0,850	119	569,69742223487
0,850	120	569,69742223487
0,850	121	569,69742223487
0,850	122	569,69742223487
0,850	123	569,69742223487
0,850	124	569,69742223487
0,850	125	569,69742223487
0,850	126	569,69742223487
0,850	127	569,69742223487
0,850	128	569,69742223487
0,850	129	569,69742223487
0,850	130	569,69742223487
0,850	131	569,69742223487
0,850	132	569,69742223487
0,850	133	569,69742223487
0,850	134	569,69742223487
0,850	135	569,69742223487
0,850	136	569,69742223487
0,850	137	569,69742223487
0,850	138	569,69742223487
0,850	139	569,69742223487
0,850	140	569,69742223487
0,850	141	569,69742223487
0,850	142	569,69742223487
0,850	143	569,69742223487
0,850	144	569,69742223487
0,850	145	569,69742223487
0,850	146	569,69742223487
0,850	147	569,69742223487
0,850	148	569,69742223487
0,850	149	569,69742223487
0,850	150	569,69742223487
0,850	151	569,69742223487
0,850	152	569,69742223487
0,850	153	569,69742223487
0,850	154	569,69742223487
0,850	155	569,69742223487
0,850	156	569,69742223487
0,850	157	569,69742223487
0,850	158	569,69742223487
0,850	159	569,69742223487
0,850	160	569,69742223487
0,850	161	569,69742223487
0,850	162	569,69742223487
0,850	163	569,69742223487
0,850	164	569,69742223487
0,850	165	569,69742223487
0,850	166	569,69742223487
0,850	167	569,69742223487
0,850	168	569,69742223487
0,850	169	569,69742223487
0,850	170	569,69742223487
0,850	171	569,69742223487
0,850	172	569,69742223487
0,850	173	569,69742223487
0,850	174	569,69742223487
0,850	175	569,69742223487
0,850	176	569,69742223487
0,850	177	569,69742223487
0,850	178	569,69742223487
0,850	179	569,69742223487
0,850	180	569,69742223487
0,850	181	569,69742223487
0,850	182	569,69742223487
0,850	183	569,69742223487
0,850	184	569,69742223487
0,850	185	569,69742223487
0,850	186	569,69742223487
0,850	187	569,69742223487
0,850	188	569,69742223487
0,850	189	569,69742223487
0,850	190	569,69742223487
0,850	191	569,69742223487
0,850	192	569,69742223487
0,850	193	569,69742223487
0,850	194	569,69742223487
0,850	195	569,69742223487
0,850	196	569,69742223487
0,850	197	569,69742223487
0,850	198	569,69742223487
0,850	199	569,69742223487
0,850	200	569,69742223487
0,850	201	569,69742223487
0,850	202	569,69742223487
0,850	203	569,69742223487
0,850	204	569,69742223487
0,850	205	569,69742223487
0,850	206	569,69742223487
0,850	207	569,69742223487
0,850	208	569,69742223487
0,850	209	569,69742223487
0,850	210	569,69742223487
0,850	211	569,69742223487
0,850	212	569,69742223487
0,850	213	569,69742223487
0,850	214	569,69742223487
0,850	215	569,69742223487
0,850	216	569,69742223487
0,850	217	569,69742223487
0,850	218	569,69742223487
0,850	219	569,69742223487
0,850	220	569,69742223487
0,850	221	569,69742223487
0,850	222	569,69742223487
0,850	223	569,69742223487
0,850	224	569,69742223487
0,850	225	569,69742223487
0,850	226	569,69742223487
0,850	227	569,69742223487
0,850	228	569,69742223487
0,850	229	569,69742223487
0,850	230	569,69742223487
0,850	231	569,69742223487
0,850	232	569,69742223487
0,850	233	569,69742223487
0,850	234	569,69742223487
0,850	235	569,69742223487
0,850	236	569,69742223487
0,850	237	569,69742223487
0,850	238	569,69742223487
0,850	239	569,69742223487
0,850	240	569,69742223487
0,850	241	569,69742223487
0,850	242	569,69742223487
0,850	243	569,69742223487
0,850	244	569,69742223487
0,850	245	569,69742223487
0,850	246	569,69742223487
0,850	247	569,69742223487
0,850	248	569,69742223487
0,850	249	569,69742223487
0,850	250	569,69742223487
0,850	251	569,69742223487
0,850	252	569,69742223487
0,850	253	569,69742223487
0,850	254	569,69742223487
0,850	255	569,69742223487
0,850	256	569,69742223487
0,850	257	569,69742223487
0,850	258	569,69742223487
0,850	259	569,69742223487
0,850	260	569,69742223487
0,850	261	569,69742223487
0,850	262	569,69742223487
0,850	263	569,69742223487
0,850	264	569,69742223487
0,850	265	569,69742223487
0,850	266	569,69742223487
0,850	267	569,69742223487
0,850	268	569,69742223487
0,850	269	569,69742223487
0,850	270	569,69742223487
0,850	271	569,69742223487
0,850	272	569,69742223487
0,850	273	569,69742223487
0,850	274	569,69742223487
0,850	275	569,69742223487
0,850	276	569,69742223487
0,850	277	569,69742223487
0,850	278	569,69742223487
0,850	279	569,69742223487
0,850	280	569,69742223487
0,850	281	569,69742223487
0,850	282	569,69742223487
0,850	283	569,69742223487
0,850	284	569,69742223487
0,850	285	569,69742223487
0,850	286	569,69742223487
0,850	287	569,69742223487
0,850	288	569,69742223487
0,850	289	569,69742223487
0,850	290	569,69742223487
0,850	291	569,69742223487
0,850	292	569,69742223487
0,850	293	569,69742223487
0,850	294	569,69742223487
0,850	295	569,69742223487
0,850	296	569,69742223487
0,850	297	569,69742223487
0,850	298	569,69742223487
0,850	299	569,69742223487
0,850	300	569,69742223487
0,850	301	569,69742223487
0,850	302	569,69742223487
0,850	303	569,69742223487
0,850	304	569,69742223487
0,850	305	569,69742223487
0,850	306	569,69742223487
0,850	307	569,69742223487
0,850	308	569,69742223487
0,850	309	569,69742223487
0,850	310	569,69742223487
0,850	311	569,69742223487
0,850	312	569,69742223487
0,850	313	569,69742223487
0,850	314	569,69742223487
0,850	315	569,69742223487
0,850	316	569,69742223487
0,850	317	569,69742223487
0,850	318	569,69742223487
0,850	319	569,69742223487
0,850	320	569,69742223487
0,850	321	569,69742223487
0,850	322	569,69742223487
0,850	323	569,69742223487
0,850	324	569,69742223487
0,850	325	569,69742223487
0,850	326	569,69742223487
0,850	327	569,69742223487
0,850	328	569,69742223487
0,850	329	569,69742223487
0,850	330	569,69742223487
0,850	331	569,69742223487
0,850	332	569,69742223487
0,850	333	569,69742223487
0,850	334	569,69742223487
0,850	335	569,69742223487
0,850	336	569,69742223487
0,850	337	569,69742223487
0,850	338	569,69742223487
0,850	339	569,69742223487
0,850	340	569,69742223487
0,850	341	569,69742223487
0,850	342	569,69742223487
0,850	343	569,69742223487
0,850	344	569,69742223487
0,850	345	569,69742223487
0,850	346	569,69742223487
0,850	347	569,69742223487
0,850	348	569,69742223487
0,850	349	569,69742223487
0,850	350	569,69742223487
0,850	351	569,69742223487
0,850	352	569,69742223487
0,850	353	569,69742223487
0,850	354	569,69742223487
0,850	355	569,69742223487
0,850	356	569,69742223487
0,850	357	569,69742223487
0,850	358	569,69742223487
0,850	359	569,69742223487
0,850	360	569,69742223487
0,850	361	569,69742223487
0,850	362	569,69742223487
0,850	363	569,69742223487
0,850	364	569,69742223487
0,850	365	569,69742223487
0,850	366	569,69742223487
0,850	367	569,69742223487
0,850	368	569,69742223487
0,850	369	569,69742223487
0,850	370	569,69742223487
0,850	371	569,69742223487
0,850	372	569,69742223487
0,850	373	569,69742223487
0,850	374	569,69742223487
0,850	375	569,69742223487
0,850	376	569,69742223487
0,850	377	569,69742223487
0,850	378	569,69742223487
0,850	379	569,69742223487
0,850	380	569,69742223487
0,850	381	569,69742223487
0,850	382	569,69742223487
0,850	383	569,69742223487
0,850	384	569,69742223487
0,850	385	569,69742223487
0,850	386	569,69742223487
0,850	387	569,69742223487
0,850	388	569,69742223487
0,850	389	569,69742223487
0,850	390	569,69742223487
0,850	391	569,69742223487
0,850	392	569,69742223487
0,850	393	569,69742223487
0,850	394	569,69742223487
0,850	395	569,69742223487
0,850	396	569,69742223487
0,850	397	569,69742223487
0,850	398	569,69742223487
0,850	399	569,69742223487
0,850	400	569,69742223487
0,850	401	569,69742223487
0,850	402	569,69742223487
0,850	403	569,69742223487
0,850	404	569,69742223487
0,850	405	569,69742223487
0,850	406	569,69742223487
0,850	407	569,69742223487
0,850	408	569,69742223487
0,850	409	569,69742223487
0,850	410	569,69742223487
0,850	411	569,69742223487
0,850	412	569,69742223487
0,850	413	569,69742223487
0,850	414	569,69742223487
0,850	415	569,69742223487
0,850	416	569,69742223487
0,850	417	569,69742223487
0,850	418	569,69742223487
0,850	419	569,69742223487
0,850	420	569,69742223487
0,850	421	569,69742223487
0,850	422	569,69742223487
0,850	423	569,69742223487
0,850	424	569,69742223487
0,850	425	569,69742223487
0,850	426	569,69742223487
0,850	427	569,69742223487
0,850	428	569,69742223487
0,850	429	569,69742223487
0,850	430	569,69742223487
0,850	431	569,69742223487
0,850	432	569,69742223487
0,850	433	569,69742223487
0,850	434	569,69742223487
0,850	435	569,69742223487
0,850	436	569,69742223487
0,850	437	569,69742223487
0,850	438	569,69742223487
0,850	439	569,69742223487
0,850	440	569,69742223487
0,850	441	569,69742223487
0,850	442	569,69742223487
