0,875	0	569,69742223487
0,875	1	569,69742223487
0,875	2	569,69742223487
0,875	3	569,69742223487
0,875	4	569,69742223487
0,875	5	569,69742223487
0,875	6	569,69742223487
0,875	7	569,69742223487
0,875	8	569,69742223487
0,875	9	569,69742223487
0,875	10	569,69742223487
0,875	11	569,69742223487
0,875	12	569,69742223487
0,875	13	569,69742223487
0,875	14	569,69742223487
0,875	15	569,69742223487
0,875	16	569,69742223487
0,875	17	569,69742223487
0,875	18	569,69742223487
0,875	19	569,69742223487
0,875	20	569,69742223487
0,875	21	569,69742223487
0,875	22	569,69742223487
0,875	23	569,69742223487
0,875	24	569,69742223487
0,875	25	569,69742223487
0,875	26	569,69742223487
0,875	27	569,69742223487
0,875	28	569,69742223487
0,875	29	569,69742223487
0,875	30	569,69742223487
0,875	31	569,69742223487
0,875	32	569,69742223487
0,875	33	569,69742223487
0,875	34	569,69742223487
0,875	35	569,69742223487
0,875	36	569,69742223487
0,875	37	569,69742223487
0,875	38	569,69742223487
0,875	39	569,69742223487
0,875	40	569,69742223487
0,875	41	569,69742223487
0,875	42	569,69742223487
0,875	43	569,69742223487
0,875	44	569,69742223487
0,875	45	569,69742223487
0,875	46	569,69742223487
0,875	47	569,69742223487
0,875	48	569,69742223487
0,875	49	569,69742223487
0,875	50	569,69742223487
0,875	51	569,69742223487
0,875	52	569,69742223487
0,875	53	569,69742223487
0,875	54	569,69742223487
0,875	55	569,69742223487
0,875	56	569,69742223487
0,875	57	569,69742223487
0,875	58	569,69742223487
0,875	59	569,69742223487
0,875	60	569,69742223487
0,875	61	569,69742223487
0,875	62	569,69742223487
0,875	63	569,69742223487
0,875	64	569,69742223487
0,875	65	569,69742223487
0,875	66	569,69742223487
0,875	67	569,69742223487
0,875	68	569,69742223487
0,875	69	569,69742223487
0,875	70	569,69742223487
0,875	71	569,69742223487
0,875	72	569,69742223487
0,875	73	569,69742223487
0,875	74	569,69742223487
0,875	75	569,69742223487
0,875	76	569,69742223487
0,875	77	569,69742223487
0,875	78	569,69742223487
0,875	79	569,69742223487
0,875	80	569,69742223487
0,875	81	569,69742223487
0,875	82	569,69742223487
0,875	83	569,69742223487
0,875	84	569,69742223487
0,875	85	569,69742223487
0,875	86	569,69742223487
0,875	87	569,69742223487
0,875	88	569,69742223487
0,875	89	569,69742223487
0,875	90	569,69742223487
0,875	91	569,69742223487
0,875	92	569,69742223487
0,875	93	569,69742223487
0,875	94	569,69742223487
0,875	95	569,69742223487
0,875	96	569,69742223487
0,875	97	569,69742223487
0,875	98	569,69742223487
0,875	99	569,69742223487
0,875	100	569,69742223487
0,875	101	569,69742223487
0,875	102	569,69742223487
0,875	103	569,69742223487
0,875	104	569,69742223487
0,875	105	569,69742223487
0,875	106	569,69742223487
0,875	107	569,69742223487
0,875	108	569,69742223487
0,875	109	569,69742223487
0,875	110	569,69742223487
0,875	111	569,69742223487
0,875	112	569,69742223487
0,875	113	569,69742223487
0,875	114	569,69742223487
0,875	115	569,69742223487
0,875	116	569,69742223487
0,875	117	569,69742223487
0,875	118	569,69742223487
0,875	119	569,69742223487
0,875	120	569,69742223487
0,875	121	569,69742223487
0,875	122	569,69742223487
0,875	123	569,69742223487
0,875	124	569,69742223487
0,875	125	569,69742223487
0,875	126	569,69742223487
0,875	127	569,69742223487
0,875	128	569,69742223487
0,875	129	569,69742223487
0,875	130	569,69742223487
0,875	131	569,69742223487
0,875	132	569,69742223487
0,875	133	569,69742223487
0,875	134	569,69742223487
0,875	135	569,69742223487
0,875	136	569,69742223487
0,875	137	569,69742223487
0,875	138	569,69742223487
0,875	139	569,69742223487
0,875	140	569,69742223487
0,875	141	569,69742223487
0,875	142	569,69742223487
0,875	143	569,69742223487
0,875	144	569,69742223487
0,875	145	569,69742223487
0,875	146	569,69742223487
0,875	147	569,69742223487
0,875	148	569,69742223487
0,875	149	569,69742223487
0,875	150	569,69742223487
0,875	151	569,69742223487
0,875	152	569,69742223487
0,875	153	569,69742223487
0,875	154	569,69742223487
0,875	155	569,69742223487
0,875	156	569,69742223487
0,875	157	569,69742223487
0,875	158	569,69742223487
0,875	159	569,69742223487
0,875	160	569,69742223487
0,875	161	569,69742223487
0,875	162	569,69742223487
0,875	163	569,69742223487
0,875	164	569,69742223487
0,875	165	569,69742223487
0,875	166	569,69742223487
0,875	167	569,69742223487
0,875	168	569,69742223487
0,875	169	569,69742223487
0,875	170	569,69742223487
0,875	171	569,69742223487
0,875	172	569,69742223487
0,875	173	569,69742223487
0,875	174	569,69742223487
0,875	175	569,69742223487
0,875	176	569,69742223487
0,875	177	569,69742223487
0,875	178	569,69742223487
0,875	179	569,69742223487
0,875	180	569,69742223487
0,875	181	569,69742223487
0,875	182	569,69742223487
0,875	183	569,69742223487
0,875	184	569,69742223487
0,875	185	569,69742223487
0,875	186	569,69742223487
0,875	187	569,69742223487
0,875	188	569,69742223487
0,875	189	569,69742223487
0,875	190	569,69742223487
0,875	191	569,69742223487
0,875	192	569,69742223487
0,875	193	569,69742223487
0,875	194	569,69742223487
0,875	195	569,69742223487
0,875	196	569,69742223487
0,875	197	569,69742223487
0,875	198	569,69742223487
0,875	199	569,69742223487
0,875	200	569,69742223487
0,875	201	569,69742223487
0,875	202	569,69742223487
0,875	203	569,69742223487
0,875	204	569,69742223487
0,875	205	569,69742223487
0,875	206	569,69742223487
0,875	207	569,69742223487
0,875	208	569,69742223487
0,875	209	569,69742223487
0,875	210	569,69742223487
0,875	211	569,69742223487
0,875	212	569,69742223487
0,875	213	569,69742223487
0,875	214	569,69742223487
0,875	215	569,69742223487
0,875	216	569,69742223487
0,875	217	569,69742223487
0,875	218	569,69742223487
0,875	219	569,69742223487
0,875	220	569,69742223487
0,875	221	569,69742223487
0,875	222	569,69742223487
0,875	223	569,69742223487
0,875	224	569,69742223487
0,875	225	569,69742223487
0,875	226	569,69742223487
0,875	227	569,69742223487
0,875	228	569,69742223487
0,875	229	569,69742223487
0,875	230	569,69742223487
0,875	231	569,69742223487
0,875	232	569,69742223487
0,875	233	569,69742223487
0,875	234	569,69742223487
0,875	235	569,69742223487
0,875	236	569,69742223487
0,875	237	569,69742223487
0,875	238	569,69742223487
0,875	239	569,69742223487
0,875	240	569,69742223487
0,875	241	569,69742223487
0,875	242	569,69742223487
0,875	243	569,69742223487
0,875	244	569,69742223487
0,875	245	569,69742223487
0,875	246	569,69742223487
0,875	247	569,69742223487
0,875	248	569,69742223487
0,875	249	569,69742223487
0,875	250	569,69742223487
0,875	251	569,69742223487
0,875	252	569,69742223487
0,875	253	569,69742223487
0,875	254	569,69742223487
0,875	255	569,69742223487
0,875	256	569,69742223487
0,875	257	569,69742223487
0,875	258	569,69742223487
0,875	259	569,69742223487
0,875	260	569,69742223487
0,875	261	569,69742223487
0,875	262	569,69742223487
0,875	263	569,69742223487
0,875	264	569,69742223487
0,875	265	569,69742223487
0,875	266	569,69742223487
0,875	267	569,69742223487
0,875	268	569,69742223487
0,875	269	569,69742223487
0,875	270	569,69742223487
0,875	271	569,69742223487
0,875	272	569,69742223487
0,875	273	569,69742223487
0,875	274	569,69742223487
0,875	275	569,69742223487
0,875	276	569,69742223487
0,875	277	569,69742223487
0,875	278	569,69742223487
0,875	279	569,69742223487
0,875	280	569,69742223487
0,875	281	569,69742223487
0,875	282	569,69742223487
0,875	283	569,69742223487
0,875	284	569,69742223487
0,875	285	569,69742223487
0,875	286	569,69742223487
0,875	287	569,69742223487
0,875	288	569,69742223487
0,875	289	569,69742223487
0,875	290	569,69742223487
0,875	291	569,69742223487
0,875	292	569,69742223487
0,875	293	569,69742223487
0,875	294	569,69742223487
0,875	295	569,69742223487
0,875	296	569,69742223487
0,875	297	569,69742223487
0,875	298	569,69742223487
0,875	299	569,69742223487
0,875	300	569,69742223487
0,875	301	569,69742223487
0,875	302	569,69742223487
0,875	303	569,69742223487
0,875	304	569,69742223487
0,875	305	569,69742223487
0,875	306	569,69742223487
0,875	307	569,69742223487
0,875	308	569,69742223487
0,875	309	569,69742223487
0,875	310	569,69742223487
0,875	311	569,69742223487
0,875	312	569,69742223487
0,875	313	569,69742223487
0,875	314	569,69742223487
0,875	315	569,69742223487
0,875	316	569,69742223487
0,875	317	569,69742223487
0,875	318	569,69742223487
0,875	319	569,69742223487
0,875	320	569,69742223487
0,875	321	569,69742223487
0,875	322	569,69742223487
0,875	323	569,69742223487
0,875	324	569,69742223487
0,875	325	569,69742223487
0,875	326	569,69742223487
0,875	327	569,69742223487
0,875	328	569,69742223487
0,875	329	569,69742223487
0,875	330	569,69742223487
0,875	331	569,69742223487
0,875	332	569,69742223487
0,875	333	569,69742223487
0,875	334	569,69742223487
0,875	335	569,69742223487
0,875	336	569,69742223487
0,875	337	569,69742223487
0,875	338	569,69742223487
0,875	339	569,69742223487
0,875	340	569,69742223487
0,875	341	569,69742223487
0,875	342	569,69742223487
0,875	343	569,69742223487
0,875	344	569,69742223487
0,875	345	569,69742223487
0,875	346	569,69742223487
0,875	347	569,69742223487
0,875	348	569,69742223487
0,875	349	569,69742223487
0,875	350	569,69742223487
0,875	351	569,69742223487
0,875	352	569,69742223487
0,875	353	569,69742223487
0,875	354	569,69742223487
0,875	355	569,69742223487
0,875	356	569,69742223487
0,875	357	569,69742223487
0,875	358	569,69742223487
0,875	359	569,69742223487
0,875	360	569,69742223487
0,875	361	569,69742223487
0,875	362	569,69742223487
0,875	363	569,69742223487
0,875	364	569,69742223487
0,875	365	569,69742223487
0,875	366	569,69742223487
0,875	367	569,69742223487
0,875	368	569,69742223487
0,875	369	569,69742223487
0,875	370	569,69742223487
0,875	371	569,69742223487
0,875	372	569,69742223487
0,875	373	569,69742223487
0,875	374	569,69742223487
0,875	375	569,69742223487
0,875	376	569,69742223487
0,875	377	569,69742223487
0,875	378	569,69742223487
0,875	379	569,69742223487
0,875	380	569,69742223487
0,875	381	569,69742223487
0,875	382	569,69742223487
0,875	383	569,69742223487
0,875	384	569,69742223487
0,875	385	569,69742223487
0,875	386	569,69742223487
0,875	387	569,69742223487
0,875	388	569,69742223487
0,875	389	569,69742223487
0,875	390	569,69742223487
0,875	391	569,69742223487
0,875	392	569,69742223487
0,875	393	569,69742223487
0,875	394	569,69742223487
0,875	395	569,69742223487
0,875	396	569,69742223487
0,875	397	569,69742223487
0,875	398	569,69742223487
0,875	399	569,69742223487
0,875	400	569,69742223487
0,875	401	569,69742223487
0,875	402	569,69742223487
0,875	403	569,69742223487
0,875	404	569,69742223487
0,875	405	569,69742223487
0,875	406	569,69742223487
0,875	407	569,69742223487
0,875	408	569,69742223487
0,875	409	569,69742223487
0,875	410	569,69742223487
0,875	411	569,69742223487
0,875	412	569,69742223487
0,875	413	569,69742223487
0,875	414	569,69742223487
0,875	415	569,69742223487
0,875	416	569,69742223487
0,875	417	569,69742223487
0,875	418	569,69742223487
0,875	419	569,69742223487
0,875	420	569,69742223487
0,875	421	569,69742223487
0,875	422	569,69742223487
0,875	423	569,69742223487
0,875	424	569,69742223487
0,875	425	569,69742223487
0,875	426	569,69742223487
0,875	427	569,69742223487
0,875	428	569,69742223487
0,875	429	569,69742223487
0,875	430	569,69742223487
0,875	431	569,69742223487
0,875	432	569,69742223487
0,875	433	569,69742223487
0,875	434	569,69742223487
0,875	435	569,69742223487
0,875	436	569,69742223487
0,875	437	569,69742223487
0,875	438	569,69742223487
0,875	439	569,69742223487
0,875	440	569,69742223487
0,875	441	569,69742223487
0,875	442	569,69742223487
