0,200	0	527,744598086553
0,200	1	482,352453933672
0,200	2	482,352453933672
0,200	3	482,352453933672
0,200	4	482,352453933672
0,200	5	482,352453933672
0,200	6	482,352453933672
0,200	7	482,352453933672
0,200	8	482,352453933672
0,200	9	482,352453933672
0,200	10	482,352453933672
0,200	11	482,352453933672
0,200	12	482,352453933672
0,200	13	482,352453933672
0,200	14	482,352453933672
0,200	15	482,352453933672
0,200	16	482,352453933672
0,200	17	482,352453933672
0,200	18	482,352453933672
0,200	19	482,352453933672
0,200	20	482,352453933672
0,200	21	482,352453933672
0,200	22	482,352453933672
0,200	23	482,352453933672
0,200	24	482,352453933672
0,200	25	482,352453933672
0,200	26	482,352453933672
0,200	27	482,352453933672
0,200	28	482,352453933672
0,200	29	482,352453933672
0,200	30	482,352453933672
0,200	31	481,534549645213
0,200	32	481,534549645213
0,200	33	481,534549645213
0,200	34	481,534549645213
0,200	35	481,534549645213
0,200	36	481,534549645213
0,200	37	481,534549645213
0,200	38	481,534549645213
0,200	39	481,534549645213
0,200	40	481,534549645213
0,200	41	481,534549645213
0,200	42	481,534549645213
0,200	43	481,534549645213
0,200	44	481,534549645213
0,200	45	476,167775740105
0,200	46	476,167775740105
0,200	47	476,167775740105
0,200	48	476,167775740105
0,200	49	476,167775740105
0,200	50	476,167775740105
0,200	51	476,167775740105
0,200	52	476,167775740105
0,200	53	476,167775740105
0,200	54	476,167775740105
0,200	55	476,167775740105
0,200	56	476,167775740105
0,200	57	476,167775740105
0,200	58	476,167775740105
0,200	59	476,167775740105
0,200	60	476,167775740105
0,200	61	476,167775740105
0,200	62	476,167775740105
0,200	63	476,167775740105
0,200	64	476,167775740105
0,200	65	476,167775740105
0,200	66	476,167775740105
0,200	67	476,167775740105
0,200	68	476,167775740105
0,200	69	476,167775740105
0,200	70	476,167775740105
0,200	71	476,167775740105
0,200	72	476,167775740105
0,200	73	476,167775740105
0,200	74	476,167775740105
0,200	75	476,167775740105
0,200	76	476,167775740105
0,200	77	476,167775740105
0,200	78	476,167775740105
0,200	79	476,167775740105
0,200	80	476,167775740105
0,200	81	476,167775740105
0,200	82	476,167775740105
0,200	83	476,167775740105
0,200	84	476,167775740105
0,200	85	476,167775740105
0,200	86	476,167775740105
0,200	87	476,167775740105
0,200	88	476,167775740105
0,200	89	476,167775740105
0,200	90	476,167775740105
0,200	91	476,167775740105
0,200	92	476,167775740105
0,200	93	476,167775740105
0,200	94	476,167775740105
0,200	95	476,167775740105
0,200	96	476,167775740105
0,200	97	476,167775740105
0,200	98	476,167775740105
0,200	99	476,167775740105
0,200	100	476,167775740105
0,200	101	476,167775740105
0,200	102	476,167775740105
0,200	103	476,167775740105
0,200	104	476,167775740105
0,200	105	476,167775740105
0,200	106	476,167775740105
0,200	107	476,167775740105
0,200	108	476,167775740105
0,200	109	476,167775740105
0,200	110	476,167775740105
0,200	111	476,167775740105
0,200	112	476,167775740105
0,200	113	476,167775740105
0,200	114	476,167775740105
0,200	115	476,167775740105
0,200	116	476,167775740105
0,200	117	476,167775740105
0,200	118	476,167775740105
0,200	119	476,167775740105
0,200	120	476,167775740105
0,200	121	476,167775740105
0,200	122	476,167775740105
0,200	123	476,167775740105
0,200	124	476,167775740105
0,200	125	476,167775740105
0,200	126	476,167775740105
0,200	127	476,167775740105
0,200	128	476,167775740105
0,200	129	476,167775740105
0,200	130	476,167775740105
0,200	131	476,167775740105
0,200	132	476,167775740105
0,200	133	476,167775740105
0,200	134	476,167775740105
0,200	135	476,167775740105
0,200	136	476,167775740105
0,200	137	476,167775740105
0,200	138	476,167775740105
0,200	139	476,167775740105
0,200	140	476,167775740105
0,200	141	476,167775740105
0,200	142	476,167775740105
0,200	143	476,167775740105
0,200	144	476,167775740105
0,200	145	476,167775740105
0,200	146	476,167775740105
0,200	147	476,167775740105
0,200	148	476,167775740105
0,200	149	476,167775740105
0,200	150	476,167775740105
0,200	151	476,167775740105
0,200	152	476,167775740105
0,200	153	476,167775740105
0,200	154	476,167775740105
0,200	155	476,167775740105
0,200	156	476,167775740105
0,200	157	476,167775740105
0,200	158	476,167775740105
0,200	159	476,167775740105
0,200	160	476,167775740105
0,200	161	476,167775740105
0,200	162	476,167775740105
0,200	163	476,167775740105
0,200	164	476,167775740105
0,200	165	476,167775740105
0,200	166	476,167775740105
0,200	167	476,167775740105
0,200	168	476,167775740105
0,200	169	476,167775740105
0,200	170	476,167775740105
0,200	171	476,167775740105
0,200	172	476,167775740105
0,200	173	476,167775740105
0,200	174	476,167775740105
0,200	175	476,167775740105
0,200	176	476,167775740105
0,200	177	476,167775740105
0,200	178	476,167775740105
0,200	179	476,167775740105
0,200	180	476,167775740105
0,200	181	476,167775740105
0,200	182	476,167775740105
0,200	183	476,167775740105
0,200	184	476,167775740105
0,200	185	476,167775740105
0,200	186	476,167775740105
0,200	187	476,167775740105
0,200	188	476,167775740105
0,200	189	476,167775740105
0,200	190	476,167775740105
0,200	191	476,167775740105
0,200	192	476,167775740105
0,200	193	476,167775740105
0,200	194	476,167775740105
0,200	195	476,167775740105
0,200	196	476,167775740105
0,200	197	476,167775740105
0,200	198	476,167775740105
0,200	199	476,167775740105
0,200	200	476,167775740105
0,200	201	476,167775740105
0,200	202	476,167775740105
0,200	203	476,167775740105
0,200	204	476,167775740105
0,200	205	476,167775740105
0,200	206	476,167775740105
0,200	207	476,167775740105
0,200	208	476,167775740105
0,200	209	476,167775740105
0,200	210	476,167775740105
0,200	211	476,167775740105
0,200	212	476,167775740105
0,200	213	476,167775740105
0,200	214	476,167775740105
0,200	215	476,167775740105
0,200	216	476,167775740105
0,200	217	476,167775740105
0,200	218	476,167775740105
0,200	219	476,167775740105
0,200	220	476,167775740105
0,200	221	476,167775740105
0,200	222	476,167775740105
0,200	223	476,167775740105
0,200	224	476,167775740105
0,200	225	476,167775740105
0,200	226	476,167775740105
0,200	227	476,167775740105
0,200	228	476,167775740105
0,200	229	476,167775740105
0,200	230	476,167775740105
0,200	231	476,167775740105
0,200	232	476,167775740105
0,200	233	476,167775740105
0,200	234	476,167775740105
0,200	235	476,167775740105
0,200	236	476,167775740105
0,200	237	476,167775740105
0,200	238	476,167775740105
0,200	239	476,167775740105
0,200	240	476,167775740105
0,200	241	476,167775740105
0,200	242	476,167775740105
0,200	243	476,167775740105
0,200	244	476,167775740105
0,200	245	476,167775740105
0,200	246	476,167775740105
0,200	247	476,167775740105
0,200	248	476,167775740105
0,200	249	476,167775740105
0,200	250	476,167775740105
0,200	251	476,167775740105
0,200	252	476,167775740105
0,200	253	476,167775740105
0,200	254	476,167775740105
0,200	255	476,167775740105
0,200	256	476,167775740105
0,200	257	476,167775740105
0,200	258	476,167775740105
0,200	259	476,167775740105
0,200	260	476,167775740105
0,200	261	476,167775740105
0,200	262	476,167775740105
0,200	263	476,167775740105
0,200	264	476,167775740105
0,200	265	476,167775740105
0,200	266	476,167775740105
0,200	267	476,167775740105
0,200	268	476,167775740105
0,200	269	476,167775740105
0,200	270	476,167775740105
0,200	271	476,167775740105
0,200	272	476,167775740105
0,200	273	476,167775740105
0,200	274	476,167775740105
0,200	275	476,167775740105
0,200	276	476,167775740105
0,200	277	476,167775740105
0,200	278	476,167775740105
0,200	279	476,167775740105
0,200	280	476,167775740105
0,200	281	476,167775740105
0,200	282	476,167775740105
0,200	283	476,167775740105
0,200	284	476,167775740105
0,200	285	476,167775740105
0,200	286	476,167775740105
0,200	287	476,167775740105
0,200	288	476,167775740105
0,200	289	476,167775740105
0,200	290	476,167775740105
0,200	291	476,167775740105
0,200	292	476,167775740105
0,200	293	476,167775740105
0,200	294	476,167775740105
0,200	295	476,167775740105
0,200	296	476,167775740105
0,200	297	476,167775740105
0,200	298	476,167775740105
0,200	299	476,167775740105
0,200	300	476,167775740105
0,200	301	476,167775740105
0,200	302	476,167775740105
0,200	303	476,167775740105
0,200	304	476,167775740105
0,200	305	476,167775740105
0,200	306	476,167775740105
0,200	307	476,167775740105
0,200	308	476,167775740105
0,200	309	476,167775740105
0,200	310	476,167775740105
0,200	311	476,167775740105
0,200	312	476,167775740105
0,200	313	476,167775740105
0,200	314	476,167775740105
0,200	315	476,167775740105
0,200	316	476,167775740105
0,200	317	476,167775740105
0,200	318	476,167775740105
0,200	319	476,167775740105
0,200	320	476,167775740105
0,200	321	476,167775740105
0,200	322	476,167775740105
0,200	323	476,167775740105
0,200	324	476,167775740105
0,200	325	476,167775740105
0,200	326	476,167775740105
0,200	327	476,167775740105
0,200	328	476,167775740105
0,200	329	476,167775740105
0,200	330	476,167775740105
0,200	331	476,167775740105
0,200	332	476,167775740105
0,200	333	476,167775740105
0,200	334	476,167775740105
0,200	335	476,167775740105
0,200	336	476,167775740105
0,200	337	476,167775740105
0,200	338	476,167775740105
0,200	339	476,167775740105
0,200	340	476,167775740105
0,200	341	476,167775740105
0,200	342	476,167775740105
0,200	343	476,167775740105
0,200	344	476,167775740105
0,200	345	476,167775740105
0,200	346	476,167775740105
0,200	347	476,167775740105
0,200	348	476,167775740105
0,200	349	476,167775740105
0,200	350	476,167775740105
0,200	351	476,167775740105
0,200	352	476,167775740105
0,200	353	476,167775740105
0,200	354	476,167775740105
0,200	355	476,167775740105
0,200	356	476,167775740105
0,200	357	476,167775740105
0,200	358	476,167775740105
0,200	359	476,167775740105
0,200	360	476,167775740105
0,200	361	476,167775740105
0,200	362	476,167775740105
0,200	363	476,167775740105
0,200	364	471,417280813803
0,200	365	471,417280813803
0,200	366	471,417280813803
0,200	367	471,417280813803
0,200	368	471,417280813803
0,200	369	471,417280813803
0,200	370	471,417280813803
0,200	371	471,417280813803
0,200	372	471,417280813803
0,200	373	471,417280813803
0,200	374	471,417280813803
0,200	375	471,417280813803
0,200	376	471,417280813803
0,200	377	471,417280813803
0,200	378	471,417280813803
0,200	379	471,417280813803
0,200	380	471,417280813803
0,200	381	471,417280813803
0,200	382	471,417280813803
0,200	383	471,417280813803
0,200	384	471,417280813803
0,200	385	471,417280813803
0,200	386	471,417280813803
0,200	387	471,417280813803
0,200	388	471,417280813803
0,200	389	471,417280813803
0,200	390	471,417280813803
0,200	391	471,417280813803
0,200	392	471,417280813803
0,200	393	471,417280813803
0,200	394	471,417280813803
0,200	395	471,417280813803
0,200	396	471,417280813803
0,200	397	471,417280813803
0,200	398	471,417280813803
0,200	399	471,417280813803
0,200	400	471,417280813803
0,200	401	471,417280813803
0,200	402	471,417280813803
0,200	403	471,417280813803
0,200	404	471,417280813803
0,200	405	471,417280813803
0,200	406	471,417280813803
0,200	407	471,417280813803
0,200	408	471,417280813803
0,200	409	471,417280813803
0,200	410	471,417280813803
0,200	411	471,417280813803
0,200	412	471,417280813803
0,200	413	471,417280813803
0,200	414	471,417280813803
0,200	415	471,417280813803
0,200	416	471,417280813803
0,200	417	471,417280813803
0,200	418	471,417280813803
0,200	419	471,417280813803
0,200	420	471,417280813803
0,200	421	471,417280813803
0,200	422	471,417280813803
0,200	423	471,417280813803
0,200	424	471,417280813803
0,200	425	471,417280813803
0,200	426	471,417280813803
0,200	427	471,417280813803
0,200	428	471,417280813803
0,200	429	471,417280813803
0,200	430	471,417280813803
0,200	431	471,417280813803
0,200	432	471,417280813803
0,200	433	471,417280813803
0,200	434	471,417280813803
0,200	435	471,417280813803
0,200	436	471,417280813803
0,200	437	471,417280813803
0,200	438	471,417280813803
0,200	439	471,417280813803
0,200	440	471,417280813803
0,200	441	471,417280813803
0,200	442	471,417280813803
