0,550	0	569,69742223487
0,550	1	569,69742223487
0,550	2	569,69742223487
0,550	3	569,69742223487
0,550	4	569,69742223487
0,550	5	569,69742223487
0,550	6	569,69742223487
0,550	7	569,69742223487
0,550	8	569,69742223487
0,550	9	569,69742223487
0,550	10	569,69742223487
0,550	11	569,69742223487
0,550	12	569,69742223487
0,550	13	569,69742223487
0,550	14	569,69742223487
0,550	15	569,69742223487
0,550	16	569,69742223487
0,550	17	569,69742223487
0,550	18	569,69742223487
0,550	19	569,69742223487
0,550	20	569,69742223487
0,550	21	569,69742223487
0,550	22	569,69742223487
0,550	23	569,69742223487
0,550	24	569,69742223487
0,550	25	569,69742223487
0,550	26	569,69742223487
0,550	27	569,69742223487
0,550	28	569,69742223487
0,550	29	569,69742223487
0,550	30	569,69742223487
0,550	31	569,69742223487
0,550	32	569,69742223487
0,550	33	569,69742223487
0,550	34	569,69742223487
0,550	35	569,69742223487
0,550	36	569,69742223487
0,550	37	569,69742223487
0,550	38	569,69742223487
0,550	39	569,69742223487
0,550	40	569,69742223487
0,550	41	569,69742223487
0,550	42	569,69742223487
0,550	43	569,69742223487
0,550	44	569,69742223487
0,550	45	569,69742223487
0,550	46	569,69742223487
0,550	47	569,69742223487
0,550	48	569,69742223487
0,550	49	569,69742223487
0,550	50	569,69742223487
0,550	51	569,69742223487
0,550	52	569,69742223487
0,550	53	569,69742223487
0,550	54	569,69742223487
0,550	55	569,69742223487
0,550	56	569,69742223487
0,550	57	569,69742223487
0,550	58	569,69742223487
0,550	59	569,69742223487
0,550	60	569,69742223487
0,550	61	569,69742223487
0,550	62	569,69742223487
0,550	63	569,69742223487
0,550	64	569,69742223487
0,550	65	569,69742223487
0,550	66	569,69742223487
0,550	67	569,69742223487
0,550	68	569,69742223487
0,550	69	569,69742223487
0,550	70	569,69742223487
0,550	71	569,69742223487
0,550	72	569,69742223487
0,550	73	569,69742223487
0,550	74	569,69742223487
0,550	75	569,69742223487
0,550	76	569,69742223487
0,550	77	569,69742223487
0,550	78	569,69742223487
0,550	79	569,69742223487
0,550	80	569,69742223487
0,550	81	569,69742223487
0,550	82	569,69742223487
0,550	83	569,69742223487
0,550	84	569,69742223487
0,550	85	569,69742223487
0,550	86	569,69742223487
0,550	87	569,69742223487
0,550	88	569,69742223487
0,550	89	569,69742223487
0,550	90	569,69742223487
0,550	91	569,69742223487
0,550	92	569,69742223487
0,550	93	569,69742223487
0,550	94	569,69742223487
0,550	95	569,69742223487
0,550	96	569,69742223487
0,550	97	569,69742223487
0,550	98	569,69742223487
0,550	99	569,69742223487
0,550	100	569,69742223487
0,550	101	569,69742223487
0,550	102	569,69742223487
0,550	103	569,69742223487
0,550	104	569,69742223487
0,550	105	569,69742223487
0,550	106	569,69742223487
0,550	107	569,69742223487
0,550	108	569,69742223487
0,550	109	569,69742223487
0,550	110	569,69742223487
0,550	111	569,69742223487
0,550	112	569,69742223487
0,550	113	569,69742223487
0,550	114	569,69742223487
0,550	115	569,69742223487
0,550	116	569,69742223487
0,550	117	569,69742223487
0,550	118	569,69742223487
0,550	119	569,69742223487
0,550	120	569,69742223487
0,550	121	569,69742223487
0,550	122	569,69742223487
0,550	123	569,69742223487
0,550	124	569,69742223487
0,550	125	569,69742223487
0,550	126	569,69742223487
0,550	127	569,69742223487
0,550	128	569,69742223487
0,550	129	569,69742223487
0,550	130	569,69742223487
0,550	131	569,69742223487
0,550	132	569,69742223487
0,550	133	569,69742223487
0,550	134	569,69742223487
0,550	135	569,69742223487
0,550	136	569,69742223487
0,550	137	569,69742223487
0,550	138	569,69742223487
0,550	139	569,69742223487
0,550	140	569,69742223487
0,550	141	569,69742223487
0,550	142	569,69742223487
0,550	143	569,69742223487
0,550	144	569,69742223487
0,550	145	569,69742223487
0,550	146	569,69742223487
0,550	147	569,69742223487
0,550	148	569,69742223487
0,550	149	569,69742223487
0,550	150	569,69742223487
0,550	151	569,69742223487
0,550	152	569,69742223487
0,550	153	569,69742223487
0,550	154	569,69742223487
0,550	155	569,69742223487
0,550	156	569,69742223487
0,550	157	569,69742223487
0,550	158	569,69742223487
0,550	159	569,69742223487
0,550	160	569,69742223487
0,550	161	569,69742223487
0,550	162	569,69742223487
0,550	163	569,69742223487
0,550	164	569,69742223487
0,550	165	569,69742223487
0,550	166	569,69742223487
0,550	167	569,69742223487
0,550	168	569,69742223487
0,550	169	569,69742223487
0,550	170	569,69742223487
0,550	171	569,69742223487
0,550	172	569,69742223487
0,550	173	569,69742223487
0,550	174	569,69742223487
0,550	175	569,69742223487
0,550	176	569,69742223487
0,550	177	569,69742223487
0,550	178	569,69742223487
0,550	179	569,69742223487
0,550	180	569,69742223487
0,550	181	569,69742223487
0,550	182	569,69742223487
0,550	183	569,69742223487
0,550	184	569,69742223487
0,550	185	569,69742223487
0,550	186	569,69742223487
0,550	187	569,69742223487
0,550	188	569,69742223487
0,550	189	569,69742223487
0,550	190	569,69742223487
0,550	191	569,69742223487
0,550	192	569,69742223487
0,550	193	569,69742223487
0,550	194	569,69742223487
0,550	195	569,69742223487
0,550	196	569,69742223487
0,550	197	569,69742223487
0,550	198	569,69742223487
0,550	199	569,69742223487
0,550	200	569,69742223487
0,550	201	569,69742223487
0,550	202	569,69742223487
0,550	203	569,69742223487
0,550	204	569,69742223487
0,550	205	569,69742223487
0,550	206	569,69742223487
0,550	207	569,69742223487
0,550	208	569,69742223487
0,550	209	569,69742223487
0,550	210	569,69742223487
0,550	211	569,69742223487
0,550	212	569,69742223487
0,550	213	569,69742223487
0,550	214	569,69742223487
0,550	215	569,69742223487
0,550	216	569,69742223487
0,550	217	569,69742223487
0,550	218	569,69742223487
0,550	219	569,69742223487
0,550	220	569,69742223487
0,550	221	569,69742223487
0,550	222	569,69742223487
0,550	223	569,69742223487
0,550	224	569,69742223487
0,550	225	569,69742223487
0,550	226	569,69742223487
0,550	227	569,69742223487
0,550	228	569,69742223487
0,550	229	569,69742223487
0,550	230	569,69742223487
0,550	231	569,69742223487
0,550	232	569,69742223487
0,550	233	569,69742223487
0,550	234	569,69742223487
0,550	235	569,69742223487
0,550	236	569,69742223487
0,550	237	569,69742223487
0,550	238	569,69742223487
0,550	239	569,69742223487
0,550	240	569,69742223487
0,550	241	569,69742223487
0,550	242	569,69742223487
0,550	243	569,69742223487
0,550	244	569,69742223487
0,550	245	569,69742223487
0,550	246	569,69742223487
0,550	247	569,69742223487
0,550	248	569,69742223487
0,550	249	569,69742223487
0,550	250	569,69742223487
0,550	251	569,69742223487
0,550	252	569,69742223487
0,550	253	569,69742223487
0,550	254	569,69742223487
0,550	255	569,69742223487
0,550	256	569,69742223487
0,550	257	569,69742223487
0,550	258	569,69742223487
0,550	259	569,69742223487
0,550	260	569,69742223487
0,550	261	569,69742223487
0,550	262	569,69742223487
0,550	263	569,69742223487
0,550	264	569,69742223487
0,550	265	569,69742223487
0,550	266	569,69742223487
0,550	267	569,69742223487
0,550	268	569,69742223487
0,550	269	569,69742223487
0,550	270	569,69742223487
0,550	271	569,69742223487
0,550	272	569,69742223487
0,550	273	569,69742223487
0,550	274	569,69742223487
0,550	275	569,69742223487
0,550	276	569,69742223487
0,550	277	569,69742223487
0,550	278	569,69742223487
0,550	279	569,69742223487
0,550	280	569,69742223487
0,550	281	569,69742223487
0,550	282	569,69742223487
0,550	283	569,69742223487
0,550	284	569,69742223487
0,550	285	569,69742223487
0,550	286	569,69742223487
0,550	287	569,69742223487
0,550	288	569,69742223487
0,550	289	569,69742223487
0,550	290	569,69742223487
0,550	291	569,69742223487
0,550	292	569,69742223487
0,550	293	569,69742223487
0,550	294	569,69742223487
0,550	295	569,69742223487
0,550	296	569,69742223487
0,550	297	569,69742223487
0,550	298	569,69742223487
0,550	299	569,69742223487
0,550	300	569,69742223487
0,550	301	569,69742223487
0,550	302	569,69742223487
0,550	303	569,69742223487
0,550	304	569,69742223487
0,550	305	569,69742223487
0,550	306	569,69742223487
0,550	307	569,69742223487
0,550	308	569,69742223487
0,550	309	569,69742223487
0,550	310	569,69742223487
0,550	311	569,69742223487
0,550	312	569,69742223487
0,550	313	569,69742223487
0,550	314	569,69742223487
0,550	315	569,69742223487
0,550	316	569,69742223487
0,550	317	569,69742223487
0,550	318	569,69742223487
0,550	319	569,69742223487
0,550	320	569,69742223487
0,550	321	569,69742223487
0,550	322	569,69742223487
0,550	323	569,69742223487
0,550	324	569,69742223487
0,550	325	569,69742223487
0,550	326	569,69742223487
0,550	327	569,69742223487
0,550	328	569,69742223487
0,550	329	569,69742223487
0,550	330	569,69742223487
0,550	331	569,69742223487
0,550	332	569,69742223487
0,550	333	569,69742223487
0,550	334	569,69742223487
0,550	335	569,69742223487
0,550	336	569,69742223487
0,550	337	569,69742223487
0,550	338	569,69742223487
0,550	339	569,69742223487
0,550	340	569,69742223487
0,550	341	569,69742223487
0,550	342	569,69742223487
0,550	343	569,69742223487
0,550	344	569,69742223487
0,550	345	569,69742223487
0,550	346	569,69742223487
0,550	347	569,69742223487
0,550	348	569,69742223487
0,550	349	569,69742223487
0,550	350	569,69742223487
0,550	351	569,69742223487
0,550	352	569,69742223487
0,550	353	569,69742223487
0,550	354	569,69742223487
0,550	355	569,69742223487
0,550	356	569,69742223487
0,550	357	569,69742223487
0,550	358	569,69742223487
0,550	359	569,69742223487
0,550	360	569,69742223487
0,550	361	569,69742223487
0,550	362	569,69742223487
0,550	363	569,69742223487
0,550	364	569,69742223487
0,550	365	569,69742223487
0,550	366	569,69742223487
0,550	367	569,69742223487
0,550	368	569,69742223487
0,550	369	569,69742223487
0,550	370	569,69742223487
0,550	371	569,69742223487
0,550	372	569,69742223487
0,550	373	569,69742223487
0,550	374	569,69742223487
0,550	375	569,69742223487
0,550	376	569,69742223487
0,550	377	569,69742223487
0,550	378	569,69742223487
0,550	379	569,69742223487
0,550	380	569,69742223487
0,550	381	569,69742223487
0,550	382	569,69742223487
0,550	383	569,69742223487
0,550	384	569,69742223487
0,550	385	569,69742223487
0,550	386	569,69742223487
0,550	387	569,69742223487
0,550	388	569,69742223487
0,550	389	569,69742223487
0,550	390	569,69742223487
0,550	391	569,69742223487
0,550	392	569,69742223487
0,550	393	569,69742223487
0,550	394	569,69742223487
0,550	395	569,69742223487
0,550	396	569,69742223487
0,550	397	569,69742223487
0,550	398	569,69742223487
0,550	399	569,69742223487
0,550	400	569,69742223487
0,550	401	569,69742223487
0,550	402	569,69742223487
0,550	403	569,69742223487
0,550	404	569,69742223487
0,550	405	569,69742223487
0,550	406	569,69742223487
0,550	407	569,69742223487
0,550	408	569,69742223487
0,550	409	569,69742223487
0,550	410	569,69742223487
0,550	411	569,69742223487
0,550	412	569,69742223487
0,550	413	569,69742223487
0,550	414	569,69742223487
0,550	415	569,69742223487
0,550	416	569,69742223487
0,550	417	569,69742223487
0,550	418	569,69742223487
0,550	419	569,69742223487
0,550	420	569,69742223487
0,550	421	569,69742223487
0,550	422	569,69742223487
0,550	423	569,69742223487
0,550	424	569,69742223487
0,550	425	569,69742223487
0,550	426	569,69742223487
0,550	427	569,69742223487
0,550	428	569,69742223487
0,550	429	569,69742223487
0,550	430	569,69742223487
0,550	431	569,69742223487
0,550	432	569,69742223487
0,550	433	569,69742223487
0,550	434	569,69742223487
0,550	435	569,69742223487
0,550	436	569,69742223487
0,550	437	569,69742223487
0,550	438	569,69742223487
0,550	439	569,69742223487
0,550	440	569,69742223487
0,550	441	569,69742223487
0,550	442	569,69742223487
