0,825	0	569,69742223487
0,825	1	569,69742223487
0,825	2	569,69742223487
0,825	3	569,69742223487
0,825	4	569,69742223487
0,825	5	569,69742223487
0,825	6	569,69742223487
0,825	7	569,69742223487
0,825	8	569,69742223487
0,825	9	569,69742223487
0,825	10	569,69742223487
0,825	11	569,69742223487
0,825	12	569,69742223487
0,825	13	569,69742223487
0,825	14	569,69742223487
0,825	15	569,69742223487
0,825	16	569,69742223487
0,825	17	569,69742223487
0,825	18	569,69742223487
0,825	19	569,69742223487
0,825	20	569,69742223487
0,825	21	569,69742223487
0,825	22	569,69742223487
0,825	23	569,69742223487
0,825	24	569,69742223487
0,825	25	569,69742223487
0,825	26	569,69742223487
0,825	27	569,69742223487
0,825	28	569,69742223487
0,825	29	569,69742223487
0,825	30	569,69742223487
0,825	31	569,69742223487
0,825	32	569,69742223487
0,825	33	569,69742223487
0,825	34	569,69742223487
0,825	35	569,69742223487
0,825	36	569,69742223487
0,825	37	569,69742223487
0,825	38	569,69742223487
0,825	39	569,69742223487
0,825	40	569,69742223487
0,825	41	569,69742223487
0,825	42	569,69742223487
0,825	43	569,69742223487
0,825	44	569,69742223487
0,825	45	569,69742223487
0,825	46	569,69742223487
0,825	47	569,69742223487
0,825	48	569,69742223487
0,825	49	569,69742223487
0,825	50	569,69742223487
0,825	51	569,69742223487
0,825	52	569,69742223487
0,825	53	569,69742223487
0,825	54	569,69742223487
0,825	55	569,69742223487
0,825	56	569,69742223487
0,825	57	569,69742223487
0,825	58	569,69742223487
0,825	59	569,69742223487
0,825	60	569,69742223487
0,825	61	569,69742223487
0,825	62	569,69742223487
0,825	63	569,69742223487
0,825	64	569,69742223487
0,825	65	569,69742223487
0,825	66	569,69742223487
0,825	67	569,69742223487
0,825	68	569,69742223487
0,825	69	569,69742223487
0,825	70	569,69742223487
0,825	71	569,69742223487
0,825	72	569,69742223487
0,825	73	569,69742223487
0,825	74	569,69742223487
0,825	75	569,69742223487
0,825	76	569,69742223487
0,825	77	569,69742223487
0,825	78	569,69742223487
0,825	79	569,69742223487
0,825	80	569,69742223487
0,825	81	569,69742223487
0,825	82	569,69742223487
0,825	83	569,69742223487
0,825	84	569,69742223487
0,825	85	569,69742223487
0,825	86	569,69742223487
0,825	87	569,69742223487
0,825	88	569,69742223487
0,825	89	569,69742223487
0,825	90	569,69742223487
0,825	91	569,69742223487
0,825	92	569,69742223487
0,825	93	569,69742223487
0,825	94	569,69742223487
0,825	95	569,69742223487
0,825	96	569,69742223487
0,825	97	569,69742223487
0,825	98	569,69742223487
0,825	99	569,69742223487
0,825	100	569,69742223487
0,825	101	569,69742223487
0,825	102	569,69742223487
0,825	103	569,69742223487
0,825	104	569,69742223487
0,825	105	569,69742223487
0,825	106	569,69742223487
0,825	107	569,69742223487
0,825	108	569,69742223487
0,825	109	569,69742223487
0,825	110	569,69742223487
0,825	111	569,69742223487
0,825	112	569,69742223487
0,825	113	569,69742223487
0,825	114	569,69742223487
0,825	115	569,69742223487
0,825	116	569,69742223487
0,825	117	569,69742223487
0,825	118	569,69742223487
0,825	119	569,69742223487
0,825	120	569,69742223487
0,825	121	569,69742223487
0,825	122	569,69742223487
0,825	123	569,69742223487
0,825	124	569,69742223487
0,825	125	569,69742223487
0,825	126	569,69742223487
0,825	127	569,69742223487
0,825	128	569,69742223487
0,825	129	569,69742223487
0,825	130	569,69742223487
0,825	131	569,69742223487
0,825	132	569,69742223487
0,825	133	569,69742223487
0,825	134	569,69742223487
0,825	135	569,69742223487
0,825	136	569,69742223487
0,825	137	569,69742223487
0,825	138	569,69742223487
0,825	139	569,69742223487
0,825	140	569,69742223487
0,825	141	569,69742223487
0,825	142	569,69742223487
0,825	143	569,69742223487
0,825	144	569,69742223487
0,825	145	569,69742223487
0,825	146	569,69742223487
0,825	147	569,69742223487
0,825	148	569,69742223487
0,825	149	569,69742223487
0,825	150	569,69742223487
0,825	151	569,69742223487
0,825	152	569,69742223487
0,825	153	569,69742223487
0,825	154	569,69742223487
0,825	155	569,69742223487
0,825	156	569,69742223487
0,825	157	569,69742223487
0,825	158	569,69742223487
0,825	159	569,69742223487
0,825	160	569,69742223487
0,825	161	569,69742223487
0,825	162	569,69742223487
0,825	163	569,69742223487
0,825	164	569,69742223487
0,825	165	569,69742223487
0,825	166	569,69742223487
0,825	167	569,69742223487
0,825	168	569,69742223487
0,825	169	569,69742223487
0,825	170	569,69742223487
0,825	171	569,69742223487
0,825	172	569,69742223487
0,825	173	569,69742223487
0,825	174	569,69742223487
0,825	175	569,69742223487
0,825	176	569,69742223487
0,825	177	569,69742223487
0,825	178	569,69742223487
0,825	179	569,69742223487
0,825	180	569,69742223487
0,825	181	569,69742223487
0,825	182	569,69742223487
0,825	183	569,69742223487
0,825	184	569,69742223487
0,825	185	569,69742223487
0,825	186	569,69742223487
0,825	187	569,69742223487
0,825	188	569,69742223487
0,825	189	569,69742223487
0,825	190	569,69742223487
0,825	191	569,69742223487
0,825	192	569,69742223487
0,825	193	569,69742223487
0,825	194	569,69742223487
0,825	195	569,69742223487
0,825	196	569,69742223487
0,825	197	569,69742223487
0,825	198	569,69742223487
0,825	199	569,69742223487
0,825	200	569,69742223487
0,825	201	569,69742223487
0,825	202	569,69742223487
0,825	203	569,69742223487
0,825	204	569,69742223487
0,825	205	569,69742223487
0,825	206	569,69742223487
0,825	207	569,69742223487
0,825	208	569,69742223487
0,825	209	569,69742223487
0,825	210	569,69742223487
0,825	211	569,69742223487
0,825	212	569,69742223487
0,825	213	569,69742223487
0,825	214	569,69742223487
0,825	215	569,69742223487
0,825	216	569,69742223487
0,825	217	569,69742223487
0,825	218	569,69742223487
0,825	219	569,69742223487
0,825	220	569,69742223487
0,825	221	569,69742223487
0,825	222	569,69742223487
0,825	223	569,69742223487
0,825	224	569,69742223487
0,825	225	569,69742223487
0,825	226	569,69742223487
0,825	227	569,69742223487
0,825	228	569,69742223487
0,825	229	569,69742223487
0,825	230	569,69742223487
0,825	231	569,69742223487
0,825	232	569,69742223487
0,825	233	569,69742223487
0,825	234	569,69742223487
0,825	235	569,69742223487
0,825	236	569,69742223487
0,825	237	569,69742223487
0,825	238	569,69742223487
0,825	239	569,69742223487
0,825	240	569,69742223487
0,825	241	569,69742223487
0,825	242	569,69742223487
0,825	243	569,69742223487
0,825	244	569,69742223487
0,825	245	569,69742223487
0,825	246	569,69742223487
0,825	247	569,69742223487
0,825	248	569,69742223487
0,825	249	569,69742223487
0,825	250	569,69742223487
0,825	251	569,69742223487
0,825	252	569,69742223487
0,825	253	569,69742223487
0,825	254	569,69742223487
0,825	255	569,69742223487
0,825	256	569,69742223487
0,825	257	569,69742223487
0,825	258	569,69742223487
0,825	259	569,69742223487
0,825	260	569,69742223487
0,825	261	569,69742223487
0,825	262	569,69742223487
0,825	263	569,69742223487
0,825	264	569,69742223487
0,825	265	569,69742223487
0,825	266	569,69742223487
0,825	267	569,69742223487
0,825	268	569,69742223487
0,825	269	569,69742223487
0,825	270	569,69742223487
0,825	271	569,69742223487
0,825	272	569,69742223487
0,825	273	569,69742223487
0,825	274	569,69742223487
0,825	275	569,69742223487
0,825	276	569,69742223487
0,825	277	569,69742223487
0,825	278	569,69742223487
0,825	279	569,69742223487
0,825	280	569,69742223487
0,825	281	569,69742223487
0,825	282	569,69742223487
0,825	283	569,69742223487
0,825	284	569,69742223487
0,825	285	569,69742223487
0,825	286	569,69742223487
0,825	287	569,69742223487
0,825	288	569,69742223487
0,825	289	569,69742223487
0,825	290	569,69742223487
0,825	291	569,69742223487
0,825	292	569,69742223487
0,825	293	569,69742223487
0,825	294	569,69742223487
0,825	295	569,69742223487
0,825	296	569,69742223487
0,825	297	569,69742223487
0,825	298	569,69742223487
0,825	299	569,69742223487
0,825	300	569,69742223487
0,825	301	569,69742223487
0,825	302	569,69742223487
0,825	303	569,69742223487
0,825	304	569,69742223487
0,825	305	569,69742223487
0,825	306	569,69742223487
0,825	307	569,69742223487
0,825	308	569,69742223487
0,825	309	569,69742223487
0,825	310	569,69742223487
0,825	311	569,69742223487
0,825	312	569,69742223487
0,825	313	569,69742223487
0,825	314	569,69742223487
0,825	315	569,69742223487
0,825	316	569,69742223487
0,825	317	569,69742223487
0,825	318	569,69742223487
0,825	319	569,69742223487
0,825	320	569,69742223487
0,825	321	569,69742223487
0,825	322	569,69742223487
0,825	323	569,69742223487
0,825	324	569,69742223487
0,825	325	569,69742223487
0,825	326	569,69742223487
0,825	327	569,69742223487
0,825	328	569,69742223487
0,825	329	569,69742223487
0,825	330	569,69742223487
0,825	331	569,69742223487
0,825	332	569,69742223487
0,825	333	569,69742223487
0,825	334	569,69742223487
0,825	335	569,69742223487
0,825	336	569,69742223487
0,825	337	569,69742223487
0,825	338	569,69742223487
0,825	339	569,69742223487
0,825	340	569,69742223487
0,825	341	569,69742223487
0,825	342	569,69742223487
0,825	343	569,69742223487
0,825	344	569,69742223487
0,825	345	569,69742223487
0,825	346	569,69742223487
0,825	347	569,69742223487
0,825	348	569,69742223487
0,825	349	569,69742223487
0,825	350	569,69742223487
0,825	351	569,69742223487
0,825	352	569,69742223487
0,825	353	569,69742223487
0,825	354	569,69742223487
0,825	355	569,69742223487
0,825	356	569,69742223487
0,825	357	569,69742223487
0,825	358	569,69742223487
0,825	359	569,69742223487
0,825	360	569,69742223487
0,825	361	569,69742223487
0,825	362	569,69742223487
0,825	363	569,69742223487
0,825	364	569,69742223487
0,825	365	569,69742223487
0,825	366	569,69742223487
0,825	367	569,69742223487
0,825	368	569,69742223487
0,825	369	569,69742223487
0,825	370	569,69742223487
0,825	371	569,69742223487
0,825	372	569,69742223487
0,825	373	569,69742223487
0,825	374	569,69742223487
0,825	375	569,69742223487
0,825	376	569,69742223487
0,825	377	569,69742223487
0,825	378	569,69742223487
0,825	379	569,69742223487
0,825	380	569,69742223487
0,825	381	569,69742223487
0,825	382	569,69742223487
0,825	383	569,69742223487
0,825	384	569,69742223487
0,825	385	569,69742223487
0,825	386	569,69742223487
0,825	387	569,69742223487
0,825	388	569,69742223487
0,825	389	569,69742223487
0,825	390	569,69742223487
0,825	391	569,69742223487
0,825	392	569,69742223487
0,825	393	569,69742223487
0,825	394	569,69742223487
0,825	395	569,69742223487
0,825	396	569,69742223487
0,825	397	569,69742223487
0,825	398	569,69742223487
0,825	399	569,69742223487
0,825	400	569,69742223487
0,825	401	569,69742223487
0,825	402	569,69742223487
0,825	403	569,69742223487
0,825	404	569,69742223487
0,825	405	569,69742223487
0,825	406	569,69742223487
0,825	407	569,69742223487
0,825	408	569,69742223487
0,825	409	569,69742223487
0,825	410	569,69742223487
0,825	411	569,69742223487
0,825	412	569,69742223487
0,825	413	569,69742223487
0,825	414	569,69742223487
0,825	415	569,69742223487
0,825	416	569,69742223487
0,825	417	569,69742223487
0,825	418	569,69742223487
0,825	419	569,69742223487
0,825	420	569,69742223487
0,825	421	569,69742223487
0,825	422	569,69742223487
0,825	423	569,69742223487
0,825	424	569,69742223487
0,825	425	569,69742223487
0,825	426	569,69742223487
0,825	427	569,69742223487
0,825	428	569,69742223487
0,825	429	569,69742223487
0,825	430	569,69742223487
0,825	431	569,69742223487
0,825	432	569,69742223487
0,825	433	569,69742223487
0,825	434	569,69742223487
0,825	435	569,69742223487
0,825	436	569,69742223487
0,825	437	569,69742223487
0,825	438	569,69742223487
0,825	439	569,69742223487
0,825	440	569,69742223487
0,825	441	569,69742223487
0,825	442	569,69742223487
