0,200	0	535,218253787464
0,200	1	488,866692755093
0,200	2	488,866692755093
0,200	3	484,72545583939
0,200	4	483,80915767466
0,200	5	483,80915767466
0,200	6	483,80915767466
0,200	7	483,80915767466
0,200	8	482,352453933672
0,200	9	482,352453933672
0,200	10	482,352453933672
0,200	11	482,352453933672
0,200	12	482,352453933672
0,200	13	482,352453933672
0,200	14	482,352453933672
0,200	15	482,352453933672
0,200	16	482,352453933672
0,200	17	482,352453933672
0,200	18	482,352453933672
0,200	19	482,352453933672
0,200	20	482,352453933672
0,200	21	482,352453933672
0,200	22	482,352453933672
0,200	23	482,352453933672
0,200	24	482,352453933672
0,200	25	481,534549645213
0,200	26	481,534549645213
0,200	27	481,534549645213
0,200	28	481,534549645213
0,200	29	481,534549645213
0,200	30	481,534549645213
0,200	31	481,534549645213
0,200	32	481,534549645213
0,200	33	481,534549645213
0,200	34	481,534549645213
0,200	35	481,534549645213
0,200	36	481,534549645213
0,200	37	481,534549645213
0,200	38	481,534549645213
0,200	39	481,534549645213
0,200	40	481,534549645213
0,200	41	481,534549645213
0,200	42	481,534549645213
0,200	43	481,534549645213
0,200	44	481,534549645213
0,200	45	481,534549645213
0,200	46	481,534549645213
0,200	47	481,534549645213
0,200	48	481,534549645213
0,200	49	481,534549645213
0,200	50	481,534549645213
0,200	51	481,534549645213
0,200	52	481,534549645213
0,200	53	481,534549645213
0,200	54	481,534549645213
0,200	55	481,534549645213
0,200	56	481,534549645213
0,200	57	481,534549645213
0,200	58	481,534549645213
0,200	59	481,534549645213
0,200	60	481,534549645213
0,200	61	481,534549645213
0,200	62	481,534549645213
0,200	63	481,534549645213
0,200	64	481,534549645213
0,200	65	471,417280813803
0,200	66	471,417280813803
0,200	67	471,417280813803
0,200	68	471,417280813803
0,200	69	471,417280813803
0,200	70	471,417280813803
0,200	71	471,417280813803
0,200	72	471,417280813803
0,200	73	471,417280813803
0,200	74	471,417280813803
0,200	75	471,417280813803
0,200	76	471,417280813803
0,200	77	471,417280813803
0,200	78	471,417280813803
0,200	79	471,417280813803
0,200	80	471,417280813803
0,200	81	471,417280813803
0,200	82	471,417280813803
0,200	83	471,417280813803
0,200	84	471,417280813803
0,200	85	471,417280813803
0,200	86	471,417280813803
0,200	87	471,417280813803
0,200	88	471,417280813803
0,200	89	471,417280813803
0,200	90	471,417280813803
0,200	91	471,417280813803
0,200	92	471,417280813803
0,200	93	471,417280813803
0,200	94	471,417280813803
0,200	95	471,417280813803
0,200	96	471,417280813803
0,200	97	471,417280813803
0,200	98	471,417280813803
0,200	99	471,417280813803
0,200	100	471,417280813803
0,200	101	471,417280813803
0,200	102	471,417280813803
0,200	103	471,417280813803
0,200	104	471,417280813803
0,200	105	471,417280813803
0,200	106	471,417280813803
0,200	107	471,417280813803
0,200	108	471,417280813803
0,200	109	471,417280813803
0,200	110	471,417280813803
0,200	111	471,417280813803
0,200	112	471,417280813803
0,200	113	471,417280813803
0,200	114	471,417280813803
0,200	115	471,417280813803
0,200	116	471,417280813803
0,200	117	471,417280813803
0,200	118	471,417280813803
0,200	119	471,417280813803
0,200	120	471,417280813803
0,200	121	471,417280813803
0,200	122	471,417280813803
0,200	123	471,417280813803
0,200	124	471,417280813803
0,200	125	471,417280813803
0,200	126	471,417280813803
0,200	127	471,417280813803
0,200	128	471,417280813803
0,200	129	471,417280813803
0,200	130	471,417280813803
0,200	131	471,417280813803
0,200	132	471,417280813803
0,200	133	471,417280813803
0,200	134	471,417280813803
0,200	135	471,417280813803
0,200	136	471,417280813803
0,200	137	471,417280813803
0,200	138	471,417280813803
0,200	139	471,417280813803
0,200	140	471,417280813803
0,200	141	471,417280813803
0,200	142	471,417280813803
0,200	143	471,417280813803
0,200	144	471,417280813803
0,200	145	471,417280813803
0,200	146	471,417280813803
0,200	147	471,417280813803
0,200	148	471,417280813803
0,200	149	471,417280813803
0,200	150	471,417280813803
0,200	151	471,417280813803
0,200	152	471,417280813803
0,200	153	471,417280813803
0,200	154	471,417280813803
0,200	155	471,417280813803
0,200	156	471,417280813803
0,200	157	471,417280813803
0,200	158	471,417280813803
0,200	159	471,417280813803
0,200	160	471,417280813803
0,200	161	471,417280813803
0,200	162	471,417280813803
0,200	163	471,417280813803
0,200	164	471,417280813803
0,200	165	471,417280813803
0,200	166	471,417280813803
0,200	167	471,417280813803
0,200	168	471,417280813803
0,200	169	471,417280813803
0,200	170	471,417280813803
0,200	171	471,417280813803
0,200	172	471,417280813803
0,200	173	471,417280813803
0,200	174	471,417280813803
0,200	175	471,417280813803
0,200	176	471,417280813803
0,200	177	471,417280813803
0,200	178	471,417280813803
0,200	179	471,417280813803
0,200	180	471,417280813803
0,200	181	471,417280813803
0,200	182	471,417280813803
0,200	183	471,417280813803
0,200	184	471,417280813803
0,200	185	471,417280813803
0,200	186	471,417280813803
0,200	187	471,417280813803
0,200	188	471,417280813803
0,200	189	471,417280813803
0,200	190	471,417280813803
0,200	191	471,417280813803
0,200	192	471,417280813803
0,200	193	471,417280813803
0,200	194	471,417280813803
0,200	195	471,417280813803
0,200	196	471,417280813803
0,200	197	471,417280813803
0,200	198	471,417280813803
0,200	199	471,417280813803
0,200	200	471,417280813803
0,200	201	471,417280813803
0,200	202	471,417280813803
0,200	203	471,417280813803
0,200	204	471,417280813803
0,200	205	471,417280813803
0,200	206	471,417280813803
0,200	207	471,417280813803
0,200	208	471,417280813803
0,200	209	471,417280813803
0,200	210	471,417280813803
0,200	211	471,417280813803
0,200	212	471,417280813803
0,200	213	471,417280813803
0,200	214	471,417280813803
0,200	215	471,417280813803
0,200	216	471,417280813803
0,200	217	471,417280813803
0,200	218	471,417280813803
0,200	219	471,417280813803
0,200	220	471,417280813803
0,200	221	471,417280813803
0,200	222	471,417280813803
0,200	223	471,417280813803
0,200	224	471,417280813803
0,200	225	471,417280813803
0,200	226	471,417280813803
0,200	227	471,417280813803
0,200	228	471,417280813803
0,200	229	471,417280813803
0,200	230	471,417280813803
0,200	231	471,417280813803
0,200	232	471,417280813803
0,200	233	471,417280813803
0,200	234	471,417280813803
0,200	235	471,417280813803
0,200	236	471,417280813803
0,200	237	471,417280813803
0,200	238	471,417280813803
0,200	239	471,417280813803
0,200	240	471,417280813803
0,200	241	471,417280813803
0,200	242	471,417280813803
0,200	243	471,417280813803
0,200	244	471,417280813803
0,200	245	471,417280813803
0,200	246	471,417280813803
0,200	247	471,417280813803
0,200	248	471,417280813803
0,200	249	471,417280813803
0,200	250	471,417280813803
0,200	251	471,417280813803
0,200	252	471,417280813803
0,200	253	471,417280813803
0,200	254	471,417280813803
0,200	255	471,417280813803
0,200	256	471,417280813803
0,200	257	471,417280813803
0,200	258	471,417280813803
0,200	259	471,417280813803
0,200	260	471,417280813803
0,200	261	471,417280813803
0,200	262	471,417280813803
0,200	263	471,417280813803
0,200	264	471,417280813803
0,200	265	471,417280813803
0,200	266	471,417280813803
0,200	267	471,417280813803
0,200	268	471,417280813803
0,200	269	471,417280813803
0,200	270	471,417280813803
0,200	271	471,417280813803
0,200	272	471,417280813803
0,200	273	471,417280813803
0,200	274	471,417280813803
0,200	275	471,417280813803
0,200	276	471,417280813803
0,200	277	471,417280813803
0,200	278	471,417280813803
0,200	279	471,417280813803
0,200	280	471,417280813803
0,200	281	471,417280813803
0,200	282	471,417280813803
0,200	283	471,417280813803
0,200	284	471,417280813803
0,200	285	471,417280813803
0,200	286	471,417280813803
0,200	287	471,417280813803
0,200	288	471,417280813803
0,200	289	471,417280813803
0,200	290	471,417280813803
0,200	291	471,417280813803
0,200	292	471,417280813803
0,200	293	471,417280813803
0,200	294	471,417280813803
0,200	295	471,417280813803
0,200	296	471,417280813803
0,200	297	471,417280813803
0,200	298	471,417280813803
0,200	299	471,417280813803
0,200	300	471,417280813803
0,200	301	471,417280813803
0,200	302	471,417280813803
0,200	303	471,417280813803
0,200	304	471,417280813803
0,200	305	471,417280813803
0,200	306	471,417280813803
0,200	307	471,417280813803
0,200	308	471,417280813803
0,200	309	471,417280813803
0,200	310	471,417280813803
0,200	311	471,417280813803
0,200	312	471,417280813803
0,200	313	471,417280813803
0,200	314	471,417280813803
0,200	315	471,417280813803
0,200	316	471,417280813803
0,200	317	471,417280813803
0,200	318	471,417280813803
0,200	319	471,417280813803
0,200	320	471,417280813803
0,200	321	471,417280813803
0,200	322	471,417280813803
0,200	323	471,417280813803
0,200	324	471,417280813803
0,200	325	471,417280813803
0,200	326	471,417280813803
0,200	327	471,417280813803
0,200	328	471,417280813803
0,200	329	471,417280813803
0,200	330	471,417280813803
0,200	331	471,417280813803
0,200	332	471,417280813803
0,200	333	471,417280813803
0,200	334	471,417280813803
0,200	335	471,417280813803
0,200	336	471,417280813803
0,200	337	471,417280813803
0,200	338	471,417280813803
0,200	339	471,417280813803
0,200	340	471,417280813803
0,200	341	471,417280813803
0,200	342	471,417280813803
0,200	343	471,417280813803
0,200	344	471,417280813803
0,200	345	471,417280813803
0,200	346	471,417280813803
0,200	347	471,417280813803
0,200	348	471,417280813803
0,200	349	471,417280813803
0,200	350	471,417280813803
0,200	351	471,417280813803
0,200	352	471,417280813803
0,200	353	471,417280813803
0,200	354	471,417280813803
0,200	355	471,417280813803
0,200	356	471,417280813803
0,200	357	471,417280813803
0,200	358	471,417280813803
0,200	359	471,417280813803
0,200	360	471,417280813803
0,200	361	471,417280813803
0,200	362	471,417280813803
0,200	363	471,417280813803
0,200	364	471,417280813803
0,200	365	471,417280813803
0,200	366	471,417280813803
0,200	367	471,417280813803
0,200	368	471,417280813803
0,200	369	471,417280813803
0,200	370	471,417280813803
0,200	371	471,417280813803
0,200	372	471,417280813803
0,200	373	471,417280813803
0,200	374	471,417280813803
0,200	375	471,417280813803
0,200	376	471,417280813803
0,200	377	471,417280813803
0,200	378	471,417280813803
0,200	379	471,417280813803
0,200	380	471,417280813803
0,200	381	471,417280813803
0,200	382	471,417280813803
0,200	383	471,417280813803
0,200	384	471,417280813803
0,200	385	471,417280813803
0,200	386	471,417280813803
0,200	387	471,417280813803
0,200	388	471,417280813803
0,200	389	471,417280813803
0,200	390	471,417280813803
0,200	391	471,417280813803
0,200	392	471,417280813803
0,200	393	471,417280813803
0,200	394	471,417280813803
0,200	395	471,417280813803
0,200	396	471,417280813803
0,200	397	471,417280813803
0,200	398	471,417280813803
0,200	399	471,417280813803
0,200	400	471,417280813803
0,200	401	471,417280813803
0,200	402	471,417280813803
0,200	403	471,417280813803
0,200	404	471,417280813803
0,200	405	471,417280813803
0,200	406	471,417280813803
0,200	407	471,417280813803
0,200	408	471,417280813803
0,200	409	471,417280813803
0,200	410	471,417280813803
0,200	411	471,417280813803
0,200	412	471,417280813803
0,200	413	471,417280813803
0,200	414	471,417280813803
0,200	415	471,417280813803
0,200	416	471,417280813803
0,200	417	471,417280813803
0,200	418	471,417280813803
0,200	419	471,417280813803
0,200	420	471,417280813803
0,200	421	471,417280813803
0,200	422	471,417280813803
0,200	423	471,417280813803
0,200	424	471,417280813803
0,200	425	471,417280813803
0,200	426	471,417280813803
0,200	427	471,417280813803
0,200	428	471,417280813803
0,200	429	471,417280813803
0,200	430	471,417280813803
0,200	431	471,417280813803
0,200	432	471,417280813803
0,200	433	471,417280813803
0,200	434	471,417280813803
0,200	435	471,417280813803
0,200	436	471,417280813803
0,200	437	471,417280813803
0,200	438	471,417280813803
0,200	439	471,417280813803
0,200	440	471,417280813803
0,200	441	471,417280813803
0,200	442	471,417280813803
