0,475	0	578,825028283702
0,475	1	578,825028283702
0,475	2	569,69742223487
0,475	3	569,69742223487
0,475	4	569,69742223487
0,475	5	569,69742223487
0,475	6	569,69742223487
0,475	7	569,69742223487
0,475	8	569,69742223487
0,475	9	569,69742223487
0,475	10	569,69742223487
0,475	11	569,69742223487
0,475	12	569,69742223487
0,475	13	569,69742223487
0,475	14	569,69742223487
0,475	15	569,69742223487
0,475	16	569,69742223487
0,475	17	569,69742223487
0,475	18	569,69742223487
0,475	19	569,69742223487
0,475	20	569,69742223487
0,475	21	569,69742223487
0,475	22	569,69742223487
0,475	23	569,69742223487
0,475	24	569,69742223487
0,475	25	569,69742223487
0,475	26	569,69742223487
0,475	27	569,69742223487
0,475	28	569,69742223487
0,475	29	569,69742223487
0,475	30	569,69742223487
0,475	31	569,69742223487
0,475	32	569,69742223487
0,475	33	569,69742223487
0,475	34	569,69742223487
0,475	35	569,69742223487
0,475	36	569,69742223487
0,475	37	569,69742223487
0,475	38	569,69742223487
0,475	39	569,69742223487
0,475	40	569,69742223487
0,475	41	569,69742223487
0,475	42	569,69742223487
0,475	43	569,69742223487
0,475	44	569,69742223487
0,475	45	569,69742223487
0,475	46	569,69742223487
0,475	47	569,69742223487
0,475	48	569,69742223487
0,475	49	569,69742223487
0,475	50	569,69742223487
0,475	51	569,69742223487
0,475	52	569,69742223487
0,475	53	569,69742223487
0,475	54	569,69742223487
0,475	55	569,69742223487
0,475	56	569,69742223487
0,475	57	569,69742223487
0,475	58	569,69742223487
0,475	59	569,69742223487
0,475	60	569,69742223487
0,475	61	569,69742223487
0,475	62	569,69742223487
0,475	63	569,69742223487
0,475	64	569,69742223487
0,475	65	569,69742223487
0,475	66	569,69742223487
0,475	67	569,69742223487
0,475	68	569,69742223487
0,475	69	569,69742223487
0,475	70	569,69742223487
0,475	71	569,69742223487
0,475	72	569,69742223487
0,475	73	569,69742223487
0,475	74	569,69742223487
0,475	75	569,69742223487
0,475	76	569,69742223487
0,475	77	569,69742223487
0,475	78	569,69742223487
0,475	79	569,69742223487
0,475	80	569,69742223487
0,475	81	569,69742223487
0,475	82	569,69742223487
0,475	83	569,69742223487
0,475	84	569,69742223487
0,475	85	569,69742223487
0,475	86	569,69742223487
0,475	87	569,69742223487
0,475	88	569,69742223487
0,475	89	569,69742223487
0,475	90	569,69742223487
0,475	91	569,69742223487
0,475	92	569,69742223487
0,475	93	569,69742223487
0,475	94	569,69742223487
0,475	95	569,69742223487
0,475	96	569,69742223487
0,475	97	569,69742223487
0,475	98	569,69742223487
0,475	99	569,69742223487
0,475	100	569,69742223487
0,475	101	569,69742223487
0,475	102	569,69742223487
0,475	103	569,69742223487
0,475	104	569,69742223487
0,475	105	569,69742223487
0,475	106	569,69742223487
0,475	107	569,69742223487
0,475	108	569,69742223487
0,475	109	569,69742223487
0,475	110	569,69742223487
0,475	111	569,69742223487
0,475	112	569,69742223487
0,475	113	569,69742223487
0,475	114	569,69742223487
0,475	115	569,69742223487
0,475	116	569,69742223487
0,475	117	569,69742223487
0,475	118	569,69742223487
0,475	119	569,69742223487
0,475	120	569,69742223487
0,475	121	569,69742223487
0,475	122	569,69742223487
0,475	123	569,69742223487
0,475	124	569,69742223487
0,475	125	569,69742223487
0,475	126	569,69742223487
0,475	127	569,69742223487
0,475	128	569,69742223487
0,475	129	569,69742223487
0,475	130	569,69742223487
0,475	131	569,69742223487
0,475	132	569,69742223487
0,475	133	569,69742223487
0,475	134	569,69742223487
0,475	135	569,69742223487
0,475	136	569,69742223487
0,475	137	569,69742223487
0,475	138	569,69742223487
0,475	139	569,69742223487
0,475	140	569,69742223487
0,475	141	569,69742223487
0,475	142	569,69742223487
0,475	143	569,69742223487
0,475	144	569,69742223487
0,475	145	569,69742223487
0,475	146	569,69742223487
0,475	147	569,69742223487
0,475	148	569,69742223487
0,475	149	569,69742223487
0,475	150	569,69742223487
0,475	151	569,69742223487
0,475	152	569,69742223487
0,475	153	569,69742223487
0,475	154	569,69742223487
0,475	155	569,69742223487
0,475	156	569,69742223487
0,475	157	569,69742223487
0,475	158	569,69742223487
0,475	159	569,69742223487
0,475	160	569,69742223487
0,475	161	569,69742223487
0,475	162	569,69742223487
0,475	163	569,69742223487
0,475	164	569,69742223487
0,475	165	569,69742223487
0,475	166	569,69742223487
0,475	167	569,69742223487
0,475	168	569,69742223487
0,475	169	569,69742223487
0,475	170	569,69742223487
0,475	171	569,69742223487
0,475	172	569,69742223487
0,475	173	569,69742223487
0,475	174	569,69742223487
0,475	175	569,69742223487
0,475	176	569,69742223487
0,475	177	569,69742223487
0,475	178	569,69742223487
0,475	179	569,69742223487
0,475	180	569,69742223487
0,475	181	569,69742223487
0,475	182	569,69742223487
0,475	183	569,69742223487
0,475	184	569,69742223487
0,475	185	569,69742223487
0,475	186	569,69742223487
0,475	187	569,69742223487
0,475	188	569,69742223487
0,475	189	569,69742223487
0,475	190	569,69742223487
0,475	191	569,69742223487
0,475	192	569,69742223487
0,475	193	569,69742223487
0,475	194	569,69742223487
0,475	195	569,69742223487
0,475	196	569,69742223487
0,475	197	569,69742223487
0,475	198	569,69742223487
0,475	199	569,69742223487
0,475	200	569,69742223487
0,475	201	569,69742223487
0,475	202	569,69742223487
0,475	203	569,69742223487
0,475	204	569,69742223487
0,475	205	569,69742223487
0,475	206	569,69742223487
0,475	207	569,69742223487
0,475	208	569,69742223487
0,475	209	569,69742223487
0,475	210	569,69742223487
0,475	211	569,69742223487
0,475	212	569,69742223487
0,475	213	569,69742223487
0,475	214	569,69742223487
0,475	215	569,69742223487
0,475	216	569,69742223487
0,475	217	569,69742223487
0,475	218	569,69742223487
0,475	219	569,69742223487
0,475	220	569,69742223487
0,475	221	569,69742223487
0,475	222	569,69742223487
0,475	223	569,69742223487
0,475	224	569,69742223487
0,475	225	569,69742223487
0,475	226	569,69742223487
0,475	227	569,69742223487
0,475	228	569,69742223487
0,475	229	569,69742223487
0,475	230	569,69742223487
0,475	231	569,69742223487
0,475	232	569,69742223487
0,475	233	569,69742223487
0,475	234	569,69742223487
0,475	235	569,69742223487
0,475	236	569,69742223487
0,475	237	569,69742223487
0,475	238	569,69742223487
0,475	239	569,69742223487
0,475	240	569,69742223487
0,475	241	569,69742223487
0,475	242	569,69742223487
0,475	243	569,69742223487
0,475	244	569,69742223487
0,475	245	569,69742223487
0,475	246	569,69742223487
0,475	247	569,69742223487
0,475	248	569,69742223487
0,475	249	569,69742223487
0,475	250	569,69742223487
0,475	251	569,69742223487
0,475	252	569,69742223487
0,475	253	569,69742223487
0,475	254	569,69742223487
0,475	255	569,69742223487
0,475	256	569,69742223487
0,475	257	569,69742223487
0,475	258	569,69742223487
0,475	259	569,69742223487
0,475	260	569,69742223487
0,475	261	569,69742223487
0,475	262	569,69742223487
0,475	263	569,69742223487
0,475	264	569,69742223487
0,475	265	569,69742223487
0,475	266	569,69742223487
0,475	267	569,69742223487
0,475	268	569,69742223487
0,475	269	569,69742223487
0,475	270	569,69742223487
0,475	271	569,69742223487
0,475	272	569,69742223487
0,475	273	569,69742223487
0,475	274	569,69742223487
0,475	275	569,69742223487
0,475	276	569,69742223487
0,475	277	569,69742223487
0,475	278	569,69742223487
0,475	279	569,69742223487
0,475	280	569,69742223487
0,475	281	569,69742223487
0,475	282	569,69742223487
0,475	283	569,69742223487
0,475	284	569,69742223487
0,475	285	569,69742223487
0,475	286	569,69742223487
0,475	287	569,69742223487
0,475	288	569,69742223487
0,475	289	569,69742223487
0,475	290	569,69742223487
0,475	291	569,69742223487
0,475	292	569,69742223487
0,475	293	569,69742223487
0,475	294	569,69742223487
0,475	295	569,69742223487
0,475	296	569,69742223487
0,475	297	569,69742223487
0,475	298	569,69742223487
0,475	299	569,69742223487
0,475	300	569,69742223487
0,475	301	569,69742223487
0,475	302	569,69742223487
0,475	303	569,69742223487
0,475	304	569,69742223487
0,475	305	569,69742223487
0,475	306	569,69742223487
0,475	307	569,69742223487
0,475	308	569,69742223487
0,475	309	569,69742223487
0,475	310	569,69742223487
0,475	311	569,69742223487
0,475	312	569,69742223487
0,475	313	569,69742223487
0,475	314	569,69742223487
0,475	315	569,69742223487
0,475	316	569,69742223487
0,475	317	569,69742223487
0,475	318	569,69742223487
0,475	319	569,69742223487
0,475	320	569,69742223487
0,475	321	569,69742223487
0,475	322	569,69742223487
0,475	323	569,69742223487
0,475	324	569,69742223487
0,475	325	569,69742223487
0,475	326	569,69742223487
0,475	327	569,69742223487
0,475	328	569,69742223487
0,475	329	569,69742223487
0,475	330	569,69742223487
0,475	331	569,69742223487
0,475	332	569,69742223487
0,475	333	569,69742223487
0,475	334	569,69742223487
0,475	335	569,69742223487
0,475	336	569,69742223487
0,475	337	569,69742223487
0,475	338	569,69742223487
0,475	339	569,69742223487
0,475	340	569,69742223487
0,475	341	569,69742223487
0,475	342	569,69742223487
0,475	343	569,69742223487
0,475	344	569,69742223487
0,475	345	569,69742223487
0,475	346	569,69742223487
0,475	347	569,69742223487
0,475	348	569,69742223487
0,475	349	569,69742223487
0,475	350	569,69742223487
0,475	351	569,69742223487
0,475	352	569,69742223487
0,475	353	569,69742223487
0,475	354	569,69742223487
0,475	355	569,69742223487
0,475	356	569,69742223487
0,475	357	569,69742223487
0,475	358	569,69742223487
0,475	359	569,69742223487
0,475	360	569,69742223487
0,475	361	569,69742223487
0,475	362	569,69742223487
0,475	363	569,69742223487
0,475	364	569,69742223487
0,475	365	569,69742223487
0,475	366	569,69742223487
0,475	367	569,69742223487
0,475	368	569,69742223487
0,475	369	569,69742223487
0,475	370	569,69742223487
0,475	371	569,69742223487
0,475	372	569,69742223487
0,475	373	569,69742223487
0,475	374	569,69742223487
0,475	375	569,69742223487
0,475	376	569,69742223487
0,475	377	569,69742223487
0,475	378	569,69742223487
0,475	379	569,69742223487
0,475	380	569,69742223487
0,475	381	569,69742223487
0,475	382	569,69742223487
0,475	383	569,69742223487
0,475	384	569,69742223487
0,475	385	569,69742223487
0,475	386	569,69742223487
0,475	387	569,69742223487
0,475	388	569,69742223487
0,475	389	569,69742223487
0,475	390	569,69742223487
0,475	391	569,69742223487
0,475	392	569,69742223487
0,475	393	569,69742223487
0,475	394	569,69742223487
0,475	395	569,69742223487
0,475	396	569,69742223487
0,475	397	569,69742223487
0,475	398	569,69742223487
0,475	399	569,69742223487
0,475	400	569,69742223487
0,475	401	569,69742223487
0,475	402	569,69742223487
0,475	403	569,69742223487
0,475	404	569,69742223487
0,475	405	569,69742223487
0,475	406	569,69742223487
0,475	407	569,69742223487
0,475	408	569,69742223487
0,475	409	569,69742223487
0,475	410	569,69742223487
0,475	411	569,69742223487
0,475	412	569,69742223487
0,475	413	569,69742223487
0,475	414	569,69742223487
0,475	415	569,69742223487
0,475	416	569,69742223487
0,475	417	569,69742223487
0,475	418	569,69742223487
0,475	419	569,69742223487
0,475	420	569,69742223487
0,475	421	569,69742223487
0,475	422	569,69742223487
0,475	423	569,69742223487
0,475	424	569,69742223487
0,475	425	569,69742223487
0,475	426	569,69742223487
0,475	427	569,69742223487
0,475	428	569,69742223487
0,475	429	569,69742223487
0,475	430	569,69742223487
0,475	431	569,69742223487
0,475	432	569,69742223487
0,475	433	569,69742223487
0,475	434	569,69742223487
0,475	435	569,69742223487
0,475	436	569,69742223487
0,475	437	569,69742223487
0,475	438	569,69742223487
0,475	439	569,69742223487
0,475	440	569,69742223487
0,475	441	569,69742223487
0,475	442	569,69742223487
