0,375	0	570,590737577479
0,375	1	567,266938583824
0,375	2	567,266938583824
0,375	3	552,656308753208
0,375	4	552,656308753208
0,375	5	543,193966265331
0,375	6	543,193966265331
0,375	7	543,193966265331
0,375	8	543,193966265331
0,375	9	543,193966265331
0,375	10	543,193966265331
0,375	11	543,193966265331
0,375	12	543,193966265331
0,375	13	543,193966265331
0,375	14	543,193966265331
0,375	15	543,193966265331
0,375	16	543,193966265331
0,375	17	543,193966265331
0,375	18	543,193966265331
0,375	19	543,193966265331
0,375	20	543,193966265331
0,375	21	543,193966265331
0,375	22	540,950368772167
0,375	23	540,950368772167
0,375	24	540,950368772167
0,375	25	540,950368772167
0,375	26	540,950368772167
0,375	27	540,950368772167
0,375	28	540,950368772167
0,375	29	540,950368772167
0,375	30	540,950368772167
0,375	31	540,950368772167
0,375	32	540,950368772167
0,375	33	540,950368772167
0,375	34	540,950368772167
0,375	35	540,950368772167
0,375	36	540,950368772167
0,375	37	540,950368772167
0,375	38	540,950368772167
0,375	39	540,950368772167
0,375	40	540,950368772167
0,375	41	540,950368772167
0,375	42	540,950368772167
0,375	43	540,950368772167
0,375	44	540,950368772167
0,375	45	540,950368772167
0,375	46	540,950368772167
0,375	47	540,950368772167
0,375	48	540,950368772167
0,375	49	540,950368772167
0,375	50	540,950368772167
0,375	51	540,950368772167
0,375	52	540,950368772167
0,375	53	540,950368772167
0,375	54	540,950368772167
0,375	55	540,950368772167
0,375	56	540,950368772167
0,375	57	540,950368772167
0,375	58	540,950368772167
0,375	59	540,950368772167
0,375	60	540,950368772167
0,375	61	540,950368772167
0,375	62	540,950368772167
0,375	63	540,950368772167
0,375	64	540,950368772167
0,375	65	540,950368772167
0,375	66	540,950368772167
0,375	67	540,950368772167
0,375	68	540,950368772167
0,375	69	540,950368772167
0,375	70	540,950368772167
0,375	71	540,950368772167
0,375	72	540,950368772167
0,375	73	540,950368772167
0,375	74	540,950368772167
0,375	75	540,950368772167
0,375	76	540,950368772167
0,375	77	540,950368772167
0,375	78	540,950368772167
0,375	79	540,950368772167
0,375	80	540,950368772167
0,375	81	540,950368772167
0,375	82	540,950368772167
0,375	83	540,950368772167
0,375	84	540,950368772167
0,375	85	540,950368772167
0,375	86	540,950368772167
0,375	87	540,950368772167
0,375	88	540,950368772167
0,375	89	540,950368772167
0,375	90	540,950368772167
0,375	91	540,950368772167
0,375	92	540,950368772167
0,375	93	540,950368772167
0,375	94	540,950368772167
0,375	95	540,950368772167
0,375	96	540,950368772167
0,375	97	540,950368772167
0,375	98	540,950368772167
0,375	99	540,950368772167
0,375	100	540,950368772167
0,375	101	540,950368772167
0,375	102	540,950368772167
0,375	103	540,950368772167
0,375	104	540,950368772167
0,375	105	540,950368772167
0,375	106	540,950368772167
0,375	107	540,950368772167
0,375	108	540,950368772167
0,375	109	540,950368772167
0,375	110	540,950368772167
0,375	111	540,950368772167
0,375	112	540,950368772167
0,375	113	540,950368772167
0,375	114	540,950368772167
0,375	115	540,950368772167
0,375	116	540,950368772167
0,375	117	540,950368772167
0,375	118	540,950368772167
0,375	119	540,950368772167
0,375	120	540,950368772167
0,375	121	540,950368772167
0,375	122	540,950368772167
0,375	123	540,950368772167
0,375	124	540,950368772167
0,375	125	540,950368772167
0,375	126	540,950368772167
0,375	127	540,950368772167
0,375	128	540,950368772167
0,375	129	540,950368772167
0,375	130	540,950368772167
0,375	131	540,950368772167
0,375	132	540,950368772167
0,375	133	540,950368772167
0,375	134	540,950368772167
0,375	135	540,950368772167
0,375	136	540,950368772167
0,375	137	540,950368772167
0,375	138	540,950368772167
0,375	139	540,950368772167
0,375	140	540,950368772167
0,375	141	540,950368772167
0,375	142	540,950368772167
0,375	143	540,950368772167
0,375	144	540,950368772167
0,375	145	540,950368772167
0,375	146	540,950368772167
0,375	147	540,950368772167
0,375	148	540,950368772167
0,375	149	540,950368772167
0,375	150	540,950368772167
0,375	151	540,950368772167
0,375	152	540,950368772167
0,375	153	540,950368772167
0,375	154	540,950368772167
0,375	155	540,950368772167
0,375	156	540,950368772167
0,375	157	540,950368772167
0,375	158	540,950368772167
0,375	159	540,950368772167
0,375	160	540,950368772167
0,375	161	540,950368772167
0,375	162	540,950368772167
0,375	163	540,950368772167
0,375	164	540,950368772167
0,375	165	540,950368772167
0,375	166	540,950368772167
0,375	167	540,950368772167
0,375	168	540,950368772167
0,375	169	540,950368772167
0,375	170	540,950368772167
0,375	171	540,950368772167
0,375	172	540,950368772167
0,375	173	540,950368772167
0,375	174	540,950368772167
0,375	175	540,950368772167
0,375	176	540,950368772167
0,375	177	540,950368772167
0,375	178	540,950368772167
0,375	179	540,950368772167
0,375	180	540,950368772167
0,375	181	540,950368772167
0,375	182	540,950368772167
0,375	183	540,950368772167
0,375	184	540,950368772167
0,375	185	540,950368772167
0,375	186	540,950368772167
0,375	187	540,950368772167
0,375	188	540,950368772167
0,375	189	540,950368772167
0,375	190	540,950368772167
0,375	191	540,950368772167
0,375	192	540,950368772167
0,375	193	540,950368772167
0,375	194	540,950368772167
0,375	195	540,950368772167
0,375	196	540,950368772167
0,375	197	540,950368772167
0,375	198	540,950368772167
0,375	199	540,950368772167
0,375	200	540,950368772167
0,375	201	540,950368772167
0,375	202	540,950368772167
0,375	203	540,950368772167
0,375	204	540,950368772167
0,375	205	540,950368772167
0,375	206	540,950368772167
0,375	207	540,950368772167
0,375	208	540,950368772167
0,375	209	540,950368772167
0,375	210	540,950368772167
0,375	211	540,950368772167
0,375	212	540,950368772167
0,375	213	540,950368772167
0,375	214	540,950368772167
0,375	215	540,950368772167
0,375	216	540,950368772167
0,375	217	540,950368772167
0,375	218	540,950368772167
0,375	219	540,950368772167
0,375	220	540,950368772167
0,375	221	540,950368772167
0,375	222	540,950368772167
0,375	223	540,950368772167
0,375	224	540,950368772167
0,375	225	540,950368772167
0,375	226	540,950368772167
0,375	227	540,950368772167
0,375	228	540,950368772167
0,375	229	540,950368772167
0,375	230	540,950368772167
0,375	231	540,950368772167
0,375	232	540,950368772167
0,375	233	540,950368772167
0,375	234	540,950368772167
0,375	235	540,950368772167
0,375	236	540,950368772167
0,375	237	540,950368772167
0,375	238	540,950368772167
0,375	239	540,950368772167
0,375	240	540,950368772167
0,375	241	540,950368772167
0,375	242	540,950368772167
0,375	243	540,950368772167
0,375	244	540,950368772167
0,375	245	540,950368772167
0,375	246	540,950368772167
0,375	247	540,950368772167
0,375	248	540,950368772167
0,375	249	540,950368772167
0,375	250	540,950368772167
0,375	251	540,950368772167
0,375	252	540,950368772167
0,375	253	540,950368772167
0,375	254	540,950368772167
0,375	255	540,950368772167
0,375	256	540,950368772167
0,375	257	540,950368772167
0,375	258	540,950368772167
0,375	259	540,950368772167
0,375	260	540,950368772167
0,375	261	540,950368772167
0,375	262	540,950368772167
0,375	263	540,950368772167
0,375	264	540,950368772167
0,375	265	540,950368772167
0,375	266	540,950368772167
0,375	267	540,950368772167
0,375	268	540,950368772167
0,375	269	540,950368772167
0,375	270	540,950368772167
0,375	271	540,950368772167
0,375	272	540,950368772167
0,375	273	540,950368772167
0,375	274	540,950368772167
0,375	275	540,950368772167
0,375	276	540,950368772167
0,375	277	540,950368772167
0,375	278	540,950368772167
0,375	279	540,950368772167
0,375	280	540,950368772167
0,375	281	540,950368772167
0,375	282	540,950368772167
0,375	283	540,950368772167
0,375	284	540,950368772167
0,375	285	540,950368772167
0,375	286	540,950368772167
0,375	287	540,950368772167
0,375	288	540,950368772167
0,375	289	540,950368772167
0,375	290	540,950368772167
0,375	291	540,950368772167
0,375	292	540,950368772167
0,375	293	540,950368772167
0,375	294	540,950368772167
0,375	295	540,950368772167
0,375	296	540,950368772167
0,375	297	540,950368772167
0,375	298	540,950368772167
0,375	299	540,950368772167
0,375	300	540,950368772167
0,375	301	540,950368772167
0,375	302	540,950368772167
0,375	303	540,950368772167
0,375	304	540,950368772167
0,375	305	540,950368772167
0,375	306	540,950368772167
0,375	307	540,950368772167
0,375	308	540,950368772167
0,375	309	540,950368772167
0,375	310	540,950368772167
0,375	311	540,950368772167
0,375	312	540,950368772167
0,375	313	540,950368772167
0,375	314	540,950368772167
0,375	315	540,950368772167
0,375	316	540,950368772167
0,375	317	540,950368772167
0,375	318	540,950368772167
0,375	319	540,950368772167
0,375	320	540,950368772167
0,375	321	540,950368772167
0,375	322	540,950368772167
0,375	323	540,950368772167
0,375	324	540,950368772167
0,375	325	540,950368772167
0,375	326	540,950368772167
0,375	327	540,950368772167
0,375	328	540,950368772167
0,375	329	540,950368772167
0,375	330	540,950368772167
0,375	331	540,950368772167
0,375	332	540,950368772167
0,375	333	540,950368772167
0,375	334	540,950368772167
0,375	335	540,950368772167
0,375	336	540,950368772167
0,375	337	540,950368772167
0,375	338	540,950368772167
0,375	339	540,950368772167
0,375	340	540,950368772167
0,375	341	540,950368772167
0,375	342	540,950368772167
0,375	343	540,950368772167
0,375	344	540,950368772167
0,375	345	540,950368772167
0,375	346	540,950368772167
0,375	347	540,950368772167
0,375	348	540,950368772167
0,375	349	540,950368772167
0,375	350	540,950368772167
0,375	351	540,950368772167
0,375	352	540,950368772167
0,375	353	540,950368772167
0,375	354	540,950368772167
0,375	355	540,950368772167
0,375	356	540,950368772167
0,375	357	540,950368772167
0,375	358	540,950368772167
0,375	359	540,950368772167
0,375	360	540,950368772167
0,375	361	540,950368772167
0,375	362	540,950368772167
0,375	363	540,950368772167
0,375	364	540,950368772167
0,375	365	540,950368772167
0,375	366	540,950368772167
0,375	367	540,950368772167
0,375	368	540,950368772167
0,375	369	540,950368772167
0,375	370	540,950368772167
0,375	371	540,950368772167
0,375	372	540,950368772167
0,375	373	540,950368772167
0,375	374	540,950368772167
0,375	375	540,950368772167
0,375	376	540,950368772167
0,375	377	540,950368772167
0,375	378	540,950368772167
0,375	379	540,950368772167
0,375	380	540,950368772167
0,375	381	540,950368772167
0,375	382	540,950368772167
0,375	383	540,950368772167
0,375	384	540,950368772167
0,375	385	540,950368772167
0,375	386	540,950368772167
0,375	387	540,950368772167
0,375	388	540,950368772167
0,375	389	540,950368772167
0,375	390	540,950368772167
0,375	391	540,950368772167
0,375	392	540,950368772167
0,375	393	540,950368772167
0,375	394	540,950368772167
0,375	395	540,950368772167
0,375	396	540,950368772167
0,375	397	540,950368772167
0,375	398	540,950368772167
0,375	399	540,950368772167
0,375	400	540,950368772167
0,375	401	540,950368772167
0,375	402	540,950368772167
0,375	403	540,950368772167
0,375	404	540,950368772167
0,375	405	540,950368772167
0,375	406	540,950368772167
0,375	407	540,950368772167
0,375	408	540,950368772167
0,375	409	540,950368772167
0,375	410	540,950368772167
0,375	411	540,950368772167
0,375	412	540,950368772167
0,375	413	540,950368772167
0,375	414	540,950368772167
0,375	415	540,950368772167
0,375	416	540,950368772167
0,375	417	540,950368772167
0,375	418	540,950368772167
0,375	419	540,950368772167
0,375	420	540,950368772167
0,375	421	540,950368772167
0,375	422	540,950368772167
0,375	423	540,950368772167
0,375	424	540,950368772167
0,375	425	540,950368772167
0,375	426	540,950368772167
0,375	427	540,950368772167
0,375	428	540,950368772167
0,375	429	540,950368772167
0,375	430	540,950368772167
0,375	431	540,950368772167
0,375	432	540,950368772167
0,375	433	540,950368772167
0,375	434	540,950368772167
0,375	435	540,950368772167
0,375	436	540,950368772167
0,375	437	540,950368772167
0,375	438	540,950368772167
0,375	439	540,950368772167
0,375	440	540,950368772167
0,375	441	540,950368772167
0,375	442	540,950368772167
