0,625	0	569,69742223487
0,625	1	569,69742223487
0,625	2	569,69742223487
0,625	3	569,69742223487
0,625	4	569,69742223487
0,625	5	569,69742223487
0,625	6	569,69742223487
0,625	7	569,69742223487
0,625	8	569,69742223487
0,625	9	569,69742223487
0,625	10	569,69742223487
0,625	11	569,69742223487
0,625	12	569,69742223487
0,625	13	569,69742223487
0,625	14	569,69742223487
0,625	15	569,69742223487
0,625	16	569,69742223487
0,625	17	569,69742223487
0,625	18	569,69742223487
0,625	19	569,69742223487
0,625	20	569,69742223487
0,625	21	569,69742223487
0,625	22	569,69742223487
0,625	23	569,69742223487
0,625	24	569,69742223487
0,625	25	569,69742223487
0,625	26	569,69742223487
0,625	27	569,69742223487
0,625	28	569,69742223487
0,625	29	569,69742223487
0,625	30	569,69742223487
0,625	31	569,69742223487
0,625	32	569,69742223487
0,625	33	569,69742223487
0,625	34	569,69742223487
0,625	35	569,69742223487
0,625	36	569,69742223487
0,625	37	569,69742223487
0,625	38	569,69742223487
0,625	39	569,69742223487
0,625	40	569,69742223487
0,625	41	569,69742223487
0,625	42	569,69742223487
0,625	43	569,69742223487
0,625	44	569,69742223487
0,625	45	569,69742223487
0,625	46	569,69742223487
0,625	47	569,69742223487
0,625	48	569,69742223487
0,625	49	569,69742223487
0,625	50	569,69742223487
0,625	51	569,69742223487
0,625	52	569,69742223487
0,625	53	569,69742223487
0,625	54	569,69742223487
0,625	55	569,69742223487
0,625	56	569,69742223487
0,625	57	569,69742223487
0,625	58	569,69742223487
0,625	59	569,69742223487
0,625	60	569,69742223487
0,625	61	569,69742223487
0,625	62	569,69742223487
0,625	63	569,69742223487
0,625	64	569,69742223487
0,625	65	569,69742223487
0,625	66	569,69742223487
0,625	67	569,69742223487
0,625	68	569,69742223487
0,625	69	569,69742223487
0,625	70	569,69742223487
0,625	71	569,69742223487
0,625	72	569,69742223487
0,625	73	569,69742223487
0,625	74	569,69742223487
0,625	75	569,69742223487
0,625	76	569,69742223487
0,625	77	569,69742223487
0,625	78	569,69742223487
0,625	79	569,69742223487
0,625	80	569,69742223487
0,625	81	569,69742223487
0,625	82	569,69742223487
0,625	83	569,69742223487
0,625	84	569,69742223487
0,625	85	569,69742223487
0,625	86	569,69742223487
0,625	87	569,69742223487
0,625	88	569,69742223487
0,625	89	569,69742223487
0,625	90	569,69742223487
0,625	91	569,69742223487
0,625	92	569,69742223487
0,625	93	569,69742223487
0,625	94	569,69742223487
0,625	95	569,69742223487
0,625	96	569,69742223487
0,625	97	569,69742223487
0,625	98	569,69742223487
0,625	99	569,69742223487
0,625	100	569,69742223487
0,625	101	569,69742223487
0,625	102	569,69742223487
0,625	103	569,69742223487
0,625	104	569,69742223487
0,625	105	569,69742223487
0,625	106	569,69742223487
0,625	107	569,69742223487
0,625	108	569,69742223487
0,625	109	569,69742223487
0,625	110	569,69742223487
0,625	111	569,69742223487
0,625	112	569,69742223487
0,625	113	569,69742223487
0,625	114	569,69742223487
0,625	115	569,69742223487
0,625	116	569,69742223487
0,625	117	569,69742223487
0,625	118	569,69742223487
0,625	119	569,69742223487
0,625	120	569,69742223487
0,625	121	569,69742223487
0,625	122	569,69742223487
0,625	123	569,69742223487
0,625	124	569,69742223487
0,625	125	569,69742223487
0,625	126	569,69742223487
0,625	127	569,69742223487
0,625	128	569,69742223487
0,625	129	569,69742223487
0,625	130	569,69742223487
0,625	131	569,69742223487
0,625	132	569,69742223487
0,625	133	569,69742223487
0,625	134	569,69742223487
0,625	135	569,69742223487
0,625	136	569,69742223487
0,625	137	569,69742223487
0,625	138	569,69742223487
0,625	139	569,69742223487
0,625	140	569,69742223487
0,625	141	569,69742223487
0,625	142	569,69742223487
0,625	143	569,69742223487
0,625	144	569,69742223487
0,625	145	569,69742223487
0,625	146	569,69742223487
0,625	147	569,69742223487
0,625	148	569,69742223487
0,625	149	569,69742223487
0,625	150	569,69742223487
0,625	151	569,69742223487
0,625	152	569,69742223487
0,625	153	569,69742223487
0,625	154	569,69742223487
0,625	155	569,69742223487
0,625	156	569,69742223487
0,625	157	569,69742223487
0,625	158	569,69742223487
0,625	159	569,69742223487
0,625	160	569,69742223487
0,625	161	569,69742223487
0,625	162	569,69742223487
0,625	163	569,69742223487
0,625	164	569,69742223487
0,625	165	569,69742223487
0,625	166	569,69742223487
0,625	167	569,69742223487
0,625	168	569,69742223487
0,625	169	569,69742223487
0,625	170	569,69742223487
0,625	171	569,69742223487
0,625	172	569,69742223487
0,625	173	569,69742223487
0,625	174	569,69742223487
0,625	175	569,69742223487
0,625	176	569,69742223487
0,625	177	569,69742223487
0,625	178	569,69742223487
0,625	179	569,69742223487
0,625	180	569,69742223487
0,625	181	569,69742223487
0,625	182	569,69742223487
0,625	183	569,69742223487
0,625	184	569,69742223487
0,625	185	569,69742223487
0,625	186	569,69742223487
0,625	187	569,69742223487
0,625	188	569,69742223487
0,625	189	569,69742223487
0,625	190	569,69742223487
0,625	191	569,69742223487
0,625	192	569,69742223487
0,625	193	569,69742223487
0,625	194	569,69742223487
0,625	195	569,69742223487
0,625	196	569,69742223487
0,625	197	569,69742223487
0,625	198	569,69742223487
0,625	199	569,69742223487
0,625	200	569,69742223487
0,625	201	569,69742223487
0,625	202	569,69742223487
0,625	203	569,69742223487
0,625	204	569,69742223487
0,625	205	569,69742223487
0,625	206	569,69742223487
0,625	207	569,69742223487
0,625	208	569,69742223487
0,625	209	569,69742223487
0,625	210	569,69742223487
0,625	211	569,69742223487
0,625	212	569,69742223487
0,625	213	569,69742223487
0,625	214	569,69742223487
0,625	215	569,69742223487
0,625	216	569,69742223487
0,625	217	569,69742223487
0,625	218	569,69742223487
0,625	219	569,69742223487
0,625	220	569,69742223487
0,625	221	569,69742223487
0,625	222	569,69742223487
0,625	223	569,69742223487
0,625	224	569,69742223487
0,625	225	569,69742223487
0,625	226	569,69742223487
0,625	227	569,69742223487
0,625	228	569,69742223487
0,625	229	569,69742223487
0,625	230	569,69742223487
0,625	231	569,69742223487
0,625	232	569,69742223487
0,625	233	569,69742223487
0,625	234	569,69742223487
0,625	235	569,69742223487
0,625	236	569,69742223487
0,625	237	569,69742223487
0,625	238	569,69742223487
0,625	239	569,69742223487
0,625	240	569,69742223487
0,625	241	569,69742223487
0,625	242	569,69742223487
0,625	243	569,69742223487
0,625	244	569,69742223487
0,625	245	569,69742223487
0,625	246	569,69742223487
0,625	247	569,69742223487
0,625	248	569,69742223487
0,625	249	569,69742223487
0,625	250	569,69742223487
0,625	251	569,69742223487
0,625	252	569,69742223487
0,625	253	569,69742223487
0,625	254	569,69742223487
0,625	255	569,69742223487
0,625	256	569,69742223487
0,625	257	569,69742223487
0,625	258	569,69742223487
0,625	259	569,69742223487
0,625	260	569,69742223487
0,625	261	569,69742223487
0,625	262	569,69742223487
0,625	263	569,69742223487
0,625	264	569,69742223487
0,625	265	569,69742223487
0,625	266	569,69742223487
0,625	267	569,69742223487
0,625	268	569,69742223487
0,625	269	569,69742223487
0,625	270	569,69742223487
0,625	271	569,69742223487
0,625	272	569,69742223487
0,625	273	569,69742223487
0,625	274	569,69742223487
0,625	275	569,69742223487
0,625	276	569,69742223487
0,625	277	569,69742223487
0,625	278	569,69742223487
0,625	279	569,69742223487
0,625	280	569,69742223487
0,625	281	569,69742223487
0,625	282	569,69742223487
0,625	283	569,69742223487
0,625	284	569,69742223487
0,625	285	569,69742223487
0,625	286	569,69742223487
0,625	287	569,69742223487
0,625	288	569,69742223487
0,625	289	569,69742223487
0,625	290	569,69742223487
0,625	291	569,69742223487
0,625	292	569,69742223487
0,625	293	569,69742223487
0,625	294	569,69742223487
0,625	295	569,69742223487
0,625	296	569,69742223487
0,625	297	569,69742223487
0,625	298	569,69742223487
0,625	299	569,69742223487
0,625	300	569,69742223487
0,625	301	569,69742223487
0,625	302	569,69742223487
0,625	303	569,69742223487
0,625	304	569,69742223487
0,625	305	569,69742223487
0,625	306	569,69742223487
0,625	307	569,69742223487
0,625	308	569,69742223487
0,625	309	569,69742223487
0,625	310	569,69742223487
0,625	311	569,69742223487
0,625	312	569,69742223487
0,625	313	569,69742223487
0,625	314	569,69742223487
0,625	315	569,69742223487
0,625	316	569,69742223487
0,625	317	569,69742223487
0,625	318	569,69742223487
0,625	319	569,69742223487
0,625	320	569,69742223487
0,625	321	569,69742223487
0,625	322	569,69742223487
0,625	323	569,69742223487
0,625	324	569,69742223487
0,625	325	569,69742223487
0,625	326	569,69742223487
0,625	327	569,69742223487
0,625	328	569,69742223487
0,625	329	569,69742223487
0,625	330	569,69742223487
0,625	331	569,69742223487
0,625	332	569,69742223487
0,625	333	569,69742223487
0,625	334	569,69742223487
0,625	335	569,69742223487
0,625	336	569,69742223487
0,625	337	569,69742223487
0,625	338	569,69742223487
0,625	339	569,69742223487
0,625	340	569,69742223487
0,625	341	569,69742223487
0,625	342	569,69742223487
0,625	343	569,69742223487
0,625	344	569,69742223487
0,625	345	569,69742223487
0,625	346	569,69742223487
0,625	347	569,69742223487
0,625	348	569,69742223487
0,625	349	569,69742223487
0,625	350	569,69742223487
0,625	351	569,69742223487
0,625	352	569,69742223487
0,625	353	569,69742223487
0,625	354	569,69742223487
0,625	355	569,69742223487
0,625	356	569,69742223487
0,625	357	569,69742223487
0,625	358	569,69742223487
0,625	359	569,69742223487
0,625	360	569,69742223487
0,625	361	569,69742223487
0,625	362	569,69742223487
0,625	363	569,69742223487
0,625	364	569,69742223487
0,625	365	569,69742223487
0,625	366	569,69742223487
0,625	367	569,69742223487
0,625	368	569,69742223487
0,625	369	569,69742223487
0,625	370	569,69742223487
0,625	371	569,69742223487
0,625	372	569,69742223487
0,625	373	569,69742223487
0,625	374	569,69742223487
0,625	375	569,69742223487
0,625	376	569,69742223487
0,625	377	569,69742223487
0,625	378	569,69742223487
0,625	379	569,69742223487
0,625	380	569,69742223487
0,625	381	569,69742223487
0,625	382	569,69742223487
0,625	383	569,69742223487
0,625	384	569,69742223487
0,625	385	569,69742223487
0,625	386	569,69742223487
0,625	387	569,69742223487
0,625	388	569,69742223487
0,625	389	569,69742223487
0,625	390	569,69742223487
0,625	391	569,69742223487
0,625	392	569,69742223487
0,625	393	569,69742223487
0,625	394	569,69742223487
0,625	395	569,69742223487
0,625	396	569,69742223487
0,625	397	569,69742223487
0,625	398	569,69742223487
0,625	399	569,69742223487
0,625	400	569,69742223487
0,625	401	569,69742223487
0,625	402	569,69742223487
0,625	403	569,69742223487
0,625	404	569,69742223487
0,625	405	569,69742223487
0,625	406	569,69742223487
0,625	407	569,69742223487
0,625	408	569,69742223487
0,625	409	569,69742223487
0,625	410	569,69742223487
0,625	411	569,69742223487
0,625	412	569,69742223487
0,625	413	569,69742223487
0,625	414	569,69742223487
0,625	415	569,69742223487
0,625	416	569,69742223487
0,625	417	569,69742223487
0,625	418	569,69742223487
0,625	419	569,69742223487
0,625	420	569,69742223487
0,625	421	569,69742223487
0,625	422	569,69742223487
0,625	423	569,69742223487
0,625	424	569,69742223487
0,625	425	569,69742223487
0,625	426	569,69742223487
0,625	427	569,69742223487
0,625	428	569,69742223487
0,625	429	569,69742223487
0,625	430	569,69742223487
0,625	431	569,69742223487
0,625	432	569,69742223487
0,625	433	569,69742223487
0,625	434	569,69742223487
0,625	435	569,69742223487
0,625	436	569,69742223487
0,625	437	569,69742223487
0,625	438	569,69742223487
0,625	439	569,69742223487
0,625	440	569,69742223487
0,625	441	569,69742223487
0,625	442	569,69742223487
