0,100	0	471,63156000371
0,100	1	442,742621746262
0,100	2	442,742621746262
0,100	3	442,742621746262
0,100	4	442,742621746262
0,100	5	442,742621746262
0,100	6	442,742621746262
0,100	7	442,742621746262
0,100	8	439,223928823697
0,100	9	438,794359306877
0,100	10	438,794359306877
0,100	11	438,794359306877
0,100	12	438,794359306877
0,100	13	438,794359306877
0,100	14	438,794359306877
0,100	15	438,794359306877
0,100	16	438,794359306877
0,100	17	438,794359306877
0,100	18	438,794359306877
0,100	19	438,794359306877
0,100	20	438,794359306877
0,100	21	438,794359306877
0,100	22	438,794359306877
0,100	23	438,794359306877
0,100	24	438,794359306877
0,100	25	438,794359306877
0,100	26	438,794359306877
0,100	27	438,794359306877
0,100	28	438,794359306877
0,100	29	438,794359306877
0,100	30	438,794359306877
0,100	31	438,794359306877
0,100	32	438,794359306877
0,100	33	438,794359306877
0,100	34	438,794359306877
0,100	35	438,794359306877
0,100	36	438,794359306877
0,100	37	438,794359306877
0,100	38	438,794359306877
0,100	39	438,794359306877
0,100	40	438,794359306877
0,100	41	438,794359306877
0,100	42	438,794359306877
0,100	43	438,794359306877
0,100	44	438,794359306877
0,100	45	438,794359306877
0,100	46	438,794359306877
0,100	47	438,794359306877
0,100	48	438,794359306877
0,100	49	438,794359306877
0,100	50	438,794359306877
0,100	51	438,794359306877
0,100	52	438,794359306877
0,100	53	438,794359306877
0,100	54	438,794359306877
0,100	55	438,794359306877
0,100	56	438,794359306877
0,100	57	438,794359306877
0,100	58	438,794359306877
0,100	59	438,794359306877
0,100	60	438,794359306877
0,100	61	438,794359306877
0,100	62	438,794359306877
0,100	63	438,794359306877
0,100	64	438,794359306877
0,100	65	438,794359306877
0,100	66	438,794359306877
0,100	67	438,794359306877
0,100	68	438,794359306877
0,100	69	438,794359306877
0,100	70	438,794359306877
0,100	71	438,794359306877
0,100	72	438,794359306877
0,100	73	438,794359306877
0,100	74	438,794359306877
0,100	75	438,794359306877
0,100	76	438,794359306877
0,100	77	438,794359306877
0,100	78	438,794359306877
0,100	79	438,794359306877
0,100	80	438,794359306877
0,100	81	438,794359306877
0,100	82	438,794359306877
0,100	83	438,794359306877
0,100	84	438,794359306877
0,100	85	438,794359306877
0,100	86	438,794359306877
0,100	87	438,794359306877
0,100	88	438,794359306877
0,100	89	438,794359306877
0,100	90	438,794359306877
0,100	91	438,794359306877
0,100	92	438,794359306877
0,100	93	438,794359306877
0,100	94	438,794359306877
0,100	95	438,794359306877
0,100	96	438,794359306877
0,100	97	438,794359306877
0,100	98	438,794359306877
0,100	99	438,794359306877
0,100	100	438,794359306877
0,100	101	438,794359306877
0,100	102	438,794359306877
0,100	103	438,794359306877
0,100	104	438,794359306877
0,100	105	438,794359306877
0,100	106	438,794359306877
0,100	107	438,794359306877
0,100	108	438,794359306877
0,100	109	438,794359306877
0,100	110	438,794359306877
0,100	111	438,794359306877
0,100	112	438,794359306877
0,100	113	438,794359306877
0,100	114	438,794359306877
0,100	115	438,794359306877
0,100	116	438,794359306877
0,100	117	438,794359306877
0,100	118	438,794359306877
0,100	119	438,794359306877
0,100	120	438,794359306877
0,100	121	438,794359306877
0,100	122	438,794359306877
0,100	123	438,794359306877
0,100	124	438,794359306877
0,100	125	438,794359306877
0,100	126	438,794359306877
0,100	127	438,794359306877
0,100	128	438,794359306877
0,100	129	438,794359306877
0,100	130	438,794359306877
0,100	131	438,794359306877
0,100	132	438,794359306877
0,100	133	438,794359306877
0,100	134	438,794359306877
0,100	135	438,794359306877
0,100	136	438,794359306877
0,100	137	438,794359306877
0,100	138	438,794359306877
0,100	139	438,794359306877
0,100	140	438,794359306877
0,100	141	438,794359306877
0,100	142	438,794359306877
0,100	143	438,794359306877
0,100	144	438,794359306877
0,100	145	438,794359306877
0,100	146	438,794359306877
0,100	147	438,794359306877
0,100	148	438,794359306877
0,100	149	438,794359306877
0,100	150	438,794359306877
0,100	151	437,977959476435
0,100	152	437,977959476435
0,100	153	437,977959476435
0,100	154	437,977959476435
0,100	155	437,977959476435
0,100	156	437,977959476435
0,100	157	437,977959476435
0,100	158	437,977959476435
0,100	159	437,977959476435
0,100	160	437,977959476435
0,100	161	437,977959476435
0,100	162	437,977959476435
0,100	163	437,977959476435
0,100	164	437,977959476435
0,100	165	437,977959476435
0,100	166	437,977959476435
0,100	167	437,977959476435
0,100	168	437,977959476435
0,100	169	437,977959476435
0,100	170	437,977959476435
0,100	171	437,977959476435
0,100	172	437,977959476435
0,100	173	437,977959476435
0,100	174	437,977959476435
0,100	175	437,977959476435
0,100	176	437,977959476435
0,100	177	437,977959476435
0,100	178	437,977959476435
0,100	179	437,977959476435
0,100	180	437,977959476435
0,100	181	437,977959476435
0,100	182	437,977959476435
0,100	183	437,977959476435
0,100	184	437,977959476435
0,100	185	437,977959476435
0,100	186	437,977959476435
0,100	187	437,977959476435
0,100	188	437,977959476435
0,100	189	437,977959476435
0,100	190	437,977959476435
0,100	191	437,977959476435
0,100	192	437,977959476435
0,100	193	437,977959476435
0,100	194	437,977959476435
0,100	195	437,977959476435
0,100	196	437,977959476435
0,100	197	437,977959476435
0,100	198	437,977959476435
0,100	199	437,977959476435
0,100	200	437,977959476435
0,100	201	437,977959476435
0,100	202	437,977959476435
0,100	203	437,977959476435
0,100	204	437,977959476435
0,100	205	437,977959476435
0,100	206	437,977959476435
0,100	207	437,977959476435
0,100	208	437,977959476435
0,100	209	437,977959476435
0,100	210	437,977959476435
0,100	211	437,977959476435
0,100	212	437,977959476435
0,100	213	437,977959476435
0,100	214	437,977959476435
0,100	215	437,977959476435
0,100	216	437,977959476435
0,100	217	437,977959476435
0,100	218	437,977959476435
0,100	219	437,977959476435
0,100	220	437,977959476435
0,100	221	437,977959476435
0,100	222	437,977959476435
0,100	223	437,977959476435
0,100	224	437,977959476435
0,100	225	437,977959476435
0,100	226	437,977959476435
0,100	227	437,977959476435
0,100	228	437,977959476435
0,100	229	437,977959476435
0,100	230	437,977959476435
0,100	231	437,977959476435
0,100	232	437,977959476435
0,100	233	437,977959476435
0,100	234	437,977959476435
0,100	235	437,977959476435
0,100	236	437,977959476435
0,100	237	437,977959476435
0,100	238	437,977959476435
0,100	239	437,977959476435
0,100	240	437,977959476435
0,100	241	437,977959476435
0,100	242	437,977959476435
0,100	243	437,977959476435
0,100	244	437,977959476435
0,100	245	437,977959476435
0,100	246	437,977959476435
0,100	247	437,977959476435
0,100	248	437,977959476435
0,100	249	437,977959476435
0,100	250	437,977959476435
0,100	251	437,977959476435
0,100	252	437,977959476435
0,100	253	437,977959476435
0,100	254	437,977959476435
0,100	255	437,977959476435
0,100	256	437,977959476435
0,100	257	437,977959476435
0,100	258	437,977959476435
0,100	259	437,977959476435
0,100	260	437,977959476435
0,100	261	437,977959476435
0,100	262	437,977959476435
0,100	263	437,977959476435
0,100	264	437,977959476435
0,100	265	437,977959476435
0,100	266	437,977959476435
0,100	267	437,977959476435
0,100	268	437,977959476435
0,100	269	437,977959476435
0,100	270	437,977959476435
0,100	271	437,977959476435
0,100	272	437,977959476435
0,100	273	437,977959476435
0,100	274	437,977959476435
0,100	275	437,977959476435
0,100	276	437,977959476435
0,100	277	437,977959476435
0,100	278	437,977959476435
0,100	279	437,977959476435
0,100	280	437,977959476435
0,100	281	437,977959476435
0,100	282	437,977959476435
0,100	283	437,977959476435
0,100	284	437,977959476435
0,100	285	437,977959476435
0,100	286	437,977959476435
0,100	287	437,977959476435
0,100	288	437,977959476435
0,100	289	437,977959476435
0,100	290	437,977959476435
0,100	291	437,977959476435
0,100	292	437,977959476435
0,100	293	437,977959476435
0,100	294	437,977959476435
0,100	295	437,977959476435
0,100	296	437,977959476435
0,100	297	437,977959476435
0,100	298	437,977959476435
0,100	299	437,977959476435
0,100	300	437,977959476435
0,100	301	437,977959476435
0,100	302	437,977959476435
0,100	303	437,977959476435
0,100	304	437,977959476435
0,100	305	437,977959476435
0,100	306	437,977959476435
0,100	307	437,977959476435
0,100	308	437,977959476435
0,100	309	437,977959476435
0,100	310	437,977959476435
0,100	311	437,977959476435
0,100	312	437,977959476435
0,100	313	437,977959476435
0,100	314	437,977959476435
0,100	315	437,977959476435
0,100	316	437,977959476435
0,100	317	437,977959476435
0,100	318	437,977959476435
0,100	319	437,977959476435
0,100	320	437,977959476435
0,100	321	437,977959476435
0,100	322	437,977959476435
0,100	323	437,977959476435
0,100	324	437,977959476435
0,100	325	437,977959476435
0,100	326	437,977959476435
0,100	327	437,977959476435
0,100	328	437,977959476435
0,100	329	437,977959476435
0,100	330	437,977959476435
0,100	331	437,977959476435
0,100	332	437,977959476435
0,100	333	437,977959476435
0,100	334	437,977959476435
0,100	335	437,977959476435
0,100	336	437,977959476435
0,100	337	437,977959476435
0,100	338	437,977959476435
0,100	339	437,977959476435
0,100	340	437,977959476435
0,100	341	437,977959476435
0,100	342	437,977959476435
0,100	343	437,977959476435
0,100	344	437,977959476435
0,100	345	437,977959476435
0,100	346	437,977959476435
0,100	347	437,977959476435
0,100	348	437,977959476435
0,100	349	437,977959476435
0,100	350	437,977959476435
0,100	351	437,977959476435
0,100	352	437,977959476435
0,100	353	437,977959476435
0,100	354	437,977959476435
0,100	355	437,977959476435
0,100	356	437,977959476435
0,100	357	437,977959476435
0,100	358	437,977959476435
0,100	359	437,977959476435
0,100	360	437,977959476435
0,100	361	437,977959476435
0,100	362	437,977959476435
0,100	363	437,977959476435
0,100	364	437,977959476435
0,100	365	437,977959476435
0,100	366	437,977959476435
0,100	367	437,977959476435
0,100	368	437,977959476435
0,100	369	437,977959476435
0,100	370	437,977959476435
0,100	371	437,977959476435
0,100	372	437,977959476435
0,100	373	437,977959476435
0,100	374	437,977959476435
0,100	375	437,977959476435
0,100	376	437,977959476435
0,100	377	437,977959476435
0,100	378	437,977959476435
0,100	379	437,977959476435
0,100	380	437,977959476435
0,100	381	437,977959476435
0,100	382	437,977959476435
0,100	383	437,977959476435
0,100	384	437,977959476435
0,100	385	437,977959476435
0,100	386	437,977959476435
0,100	387	437,977959476435
0,100	388	437,977959476435
0,100	389	437,977959476435
0,100	390	437,977959476435
0,100	391	437,977959476435
0,100	392	437,977959476435
0,100	393	437,977959476435
0,100	394	437,977959476435
0,100	395	437,977959476435
0,100	396	437,977959476435
0,100	397	437,977959476435
0,100	398	437,977959476435
0,100	399	437,977959476435
0,100	400	437,977959476435
0,100	401	437,977959476435
0,100	402	437,977959476435
0,100	403	437,977959476435
0,100	404	437,977959476435
0,100	405	437,977959476435
0,100	406	437,977959476435
0,100	407	437,977959476435
0,100	408	437,977959476435
0,100	409	437,977959476435
0,100	410	437,977959476435
0,100	411	437,977959476435
0,100	412	437,977959476435
0,100	413	437,977959476435
0,100	414	437,977959476435
0,100	415	437,977959476435
0,100	416	437,977959476435
0,100	417	437,977959476435
0,100	418	437,977959476435
0,100	419	437,977959476435
0,100	420	437,977959476435
0,100	421	437,977959476435
0,100	422	437,977959476435
0,100	423	437,977959476435
0,100	424	437,977959476435
0,100	425	437,977959476435
0,100	426	437,977959476435
0,100	427	437,977959476435
0,100	428	437,977959476435
0,100	429	437,977959476435
0,100	430	437,977959476435
0,100	431	437,977959476435
0,100	432	437,977959476435
0,100	433	437,977959476435
0,100	434	437,977959476435
0,100	435	437,977959476435
0,100	436	437,977959476435
0,100	437	437,977959476435
0,100	438	437,977959476435
0,100	439	437,977959476435
0,100	440	437,977959476435
0,100	441	437,977959476435
0,100	442	437,977959476435
