0,525	0	569,69742223487
0,525	1	569,69742223487
0,525	2	569,69742223487
0,525	3	569,69742223487
0,525	4	569,69742223487
0,525	5	569,69742223487
0,525	6	569,69742223487
0,525	7	569,69742223487
0,525	8	569,69742223487
0,525	9	569,69742223487
0,525	10	569,69742223487
0,525	11	569,69742223487
0,525	12	569,69742223487
0,525	13	569,69742223487
0,525	14	569,69742223487
0,525	15	569,69742223487
0,525	16	569,69742223487
0,525	17	569,69742223487
0,525	18	569,69742223487
0,525	19	569,69742223487
0,525	20	569,69742223487
0,525	21	569,69742223487
0,525	22	569,69742223487
0,525	23	569,69742223487
0,525	24	569,69742223487
0,525	25	569,69742223487
0,525	26	569,69742223487
0,525	27	569,69742223487
0,525	28	569,69742223487
0,525	29	569,69742223487
0,525	30	569,69742223487
0,525	31	569,69742223487
0,525	32	569,69742223487
0,525	33	569,69742223487
0,525	34	569,69742223487
0,525	35	569,69742223487
0,525	36	569,69742223487
0,525	37	569,69742223487
0,525	38	569,69742223487
0,525	39	569,69742223487
0,525	40	569,69742223487
0,525	41	569,69742223487
0,525	42	569,69742223487
0,525	43	569,69742223487
0,525	44	569,69742223487
0,525	45	569,69742223487
0,525	46	569,69742223487
0,525	47	569,69742223487
0,525	48	569,69742223487
0,525	49	569,69742223487
0,525	50	569,69742223487
0,525	51	569,69742223487
0,525	52	569,69742223487
0,525	53	569,69742223487
0,525	54	569,69742223487
0,525	55	569,69742223487
0,525	56	569,69742223487
0,525	57	569,69742223487
0,525	58	569,69742223487
0,525	59	569,69742223487
0,525	60	569,69742223487
0,525	61	569,69742223487
0,525	62	569,69742223487
0,525	63	569,69742223487
0,525	64	569,69742223487
0,525	65	569,69742223487
0,525	66	569,69742223487
0,525	67	569,69742223487
0,525	68	569,69742223487
0,525	69	569,69742223487
0,525	70	569,69742223487
0,525	71	569,69742223487
0,525	72	569,69742223487
0,525	73	569,69742223487
0,525	74	569,69742223487
0,525	75	569,69742223487
0,525	76	569,69742223487
0,525	77	569,69742223487
0,525	78	569,69742223487
0,525	79	569,69742223487
0,525	80	569,69742223487
0,525	81	569,69742223487
0,525	82	569,69742223487
0,525	83	569,69742223487
0,525	84	569,69742223487
0,525	85	569,69742223487
0,525	86	569,69742223487
0,525	87	569,69742223487
0,525	88	569,69742223487
0,525	89	569,69742223487
0,525	90	569,69742223487
0,525	91	569,69742223487
0,525	92	569,69742223487
0,525	93	569,69742223487
0,525	94	569,69742223487
0,525	95	569,69742223487
0,525	96	569,69742223487
0,525	97	569,69742223487
0,525	98	569,69742223487
0,525	99	569,69742223487
0,525	100	569,69742223487
0,525	101	569,69742223487
0,525	102	569,69742223487
0,525	103	569,69742223487
0,525	104	569,69742223487
0,525	105	569,69742223487
0,525	106	569,69742223487
0,525	107	569,69742223487
0,525	108	569,69742223487
0,525	109	569,69742223487
0,525	110	569,69742223487
0,525	111	569,69742223487
0,525	112	569,69742223487
0,525	113	569,69742223487
0,525	114	569,69742223487
0,525	115	569,69742223487
0,525	116	569,69742223487
0,525	117	569,69742223487
0,525	118	569,69742223487
0,525	119	569,69742223487
0,525	120	569,69742223487
0,525	121	569,69742223487
0,525	122	569,69742223487
0,525	123	569,69742223487
0,525	124	569,69742223487
0,525	125	569,69742223487
0,525	126	569,69742223487
0,525	127	569,69742223487
0,525	128	569,69742223487
0,525	129	569,69742223487
0,525	130	569,69742223487
0,525	131	569,69742223487
0,525	132	569,69742223487
0,525	133	569,69742223487
0,525	134	569,69742223487
0,525	135	569,69742223487
0,525	136	569,69742223487
0,525	137	569,69742223487
0,525	138	569,69742223487
0,525	139	569,69742223487
0,525	140	569,69742223487
0,525	141	569,69742223487
0,525	142	569,69742223487
0,525	143	569,69742223487
0,525	144	569,69742223487
0,525	145	569,69742223487
0,525	146	569,69742223487
0,525	147	569,69742223487
0,525	148	569,69742223487
0,525	149	569,69742223487
0,525	150	569,69742223487
0,525	151	569,69742223487
0,525	152	569,69742223487
0,525	153	569,69742223487
0,525	154	569,69742223487
0,525	155	569,69742223487
0,525	156	569,69742223487
0,525	157	569,69742223487
0,525	158	569,69742223487
0,525	159	569,69742223487
0,525	160	569,69742223487
0,525	161	569,69742223487
0,525	162	569,69742223487
0,525	163	569,69742223487
0,525	164	569,69742223487
0,525	165	569,69742223487
0,525	166	569,69742223487
0,525	167	569,69742223487
0,525	168	569,69742223487
0,525	169	569,69742223487
0,525	170	569,69742223487
0,525	171	569,69742223487
0,525	172	569,69742223487
0,525	173	569,69742223487
0,525	174	569,69742223487
0,525	175	569,69742223487
0,525	176	569,69742223487
0,525	177	569,69742223487
0,525	178	569,69742223487
0,525	179	569,69742223487
0,525	180	569,69742223487
0,525	181	569,69742223487
0,525	182	569,69742223487
0,525	183	569,69742223487
0,525	184	569,69742223487
0,525	185	569,69742223487
0,525	186	569,69742223487
0,525	187	569,69742223487
0,525	188	569,69742223487
0,525	189	569,69742223487
0,525	190	569,69742223487
0,525	191	569,69742223487
0,525	192	569,69742223487
0,525	193	569,69742223487
0,525	194	569,69742223487
0,525	195	569,69742223487
0,525	196	569,69742223487
0,525	197	569,69742223487
0,525	198	569,69742223487
0,525	199	569,69742223487
0,525	200	569,69742223487
0,525	201	569,69742223487
0,525	202	569,69742223487
0,525	203	569,69742223487
0,525	204	569,69742223487
0,525	205	569,69742223487
0,525	206	569,69742223487
0,525	207	569,69742223487
0,525	208	569,69742223487
0,525	209	569,69742223487
0,525	210	569,69742223487
0,525	211	569,69742223487
0,525	212	569,69742223487
0,525	213	569,69742223487
0,525	214	569,69742223487
0,525	215	569,69742223487
0,525	216	569,69742223487
0,525	217	569,69742223487
0,525	218	569,69742223487
0,525	219	569,69742223487
0,525	220	569,69742223487
0,525	221	569,69742223487
0,525	222	569,69742223487
0,525	223	569,69742223487
0,525	224	569,69742223487
0,525	225	569,69742223487
0,525	226	569,69742223487
0,525	227	569,69742223487
0,525	228	569,69742223487
0,525	229	569,69742223487
0,525	230	569,69742223487
0,525	231	569,69742223487
0,525	232	569,69742223487
0,525	233	569,69742223487
0,525	234	569,69742223487
0,525	235	569,69742223487
0,525	236	569,69742223487
0,525	237	569,69742223487
0,525	238	569,69742223487
0,525	239	569,69742223487
0,525	240	569,69742223487
0,525	241	569,69742223487
0,525	242	569,69742223487
0,525	243	569,69742223487
0,525	244	569,69742223487
0,525	245	569,69742223487
0,525	246	569,69742223487
0,525	247	569,69742223487
0,525	248	569,69742223487
0,525	249	569,69742223487
0,525	250	569,69742223487
0,525	251	569,69742223487
0,525	252	569,69742223487
0,525	253	569,69742223487
0,525	254	569,69742223487
0,525	255	569,69742223487
0,525	256	569,69742223487
0,525	257	569,69742223487
0,525	258	569,69742223487
0,525	259	569,69742223487
0,525	260	569,69742223487
0,525	261	569,69742223487
0,525	262	569,69742223487
0,525	263	569,69742223487
0,525	264	569,69742223487
0,525	265	569,69742223487
0,525	266	569,69742223487
0,525	267	569,69742223487
0,525	268	569,69742223487
0,525	269	569,69742223487
0,525	270	569,69742223487
0,525	271	569,69742223487
0,525	272	569,69742223487
0,525	273	569,69742223487
0,525	274	569,69742223487
0,525	275	569,69742223487
0,525	276	569,69742223487
0,525	277	569,69742223487
0,525	278	569,69742223487
0,525	279	569,69742223487
0,525	280	569,69742223487
0,525	281	569,69742223487
0,525	282	569,69742223487
0,525	283	569,69742223487
0,525	284	569,69742223487
0,525	285	569,69742223487
0,525	286	569,69742223487
0,525	287	569,69742223487
0,525	288	569,69742223487
0,525	289	569,69742223487
0,525	290	569,69742223487
0,525	291	569,69742223487
0,525	292	569,69742223487
0,525	293	569,69742223487
0,525	294	569,69742223487
0,525	295	569,69742223487
0,525	296	569,69742223487
0,525	297	569,69742223487
0,525	298	569,69742223487
0,525	299	569,69742223487
0,525	300	569,69742223487
0,525	301	569,69742223487
0,525	302	569,69742223487
0,525	303	569,69742223487
0,525	304	569,69742223487
0,525	305	569,69742223487
0,525	306	569,69742223487
0,525	307	569,69742223487
0,525	308	569,69742223487
0,525	309	569,69742223487
0,525	310	569,69742223487
0,525	311	569,69742223487
0,525	312	569,69742223487
0,525	313	569,69742223487
0,525	314	569,69742223487
0,525	315	569,69742223487
0,525	316	569,69742223487
0,525	317	569,69742223487
0,525	318	569,69742223487
0,525	319	569,69742223487
0,525	320	569,69742223487
0,525	321	569,69742223487
0,525	322	569,69742223487
0,525	323	569,69742223487
0,525	324	569,69742223487
0,525	325	569,69742223487
0,525	326	569,69742223487
0,525	327	569,69742223487
0,525	328	569,69742223487
0,525	329	569,69742223487
0,525	330	569,69742223487
0,525	331	569,69742223487
0,525	332	569,69742223487
0,525	333	569,69742223487
0,525	334	569,69742223487
0,525	335	569,69742223487
0,525	336	569,69742223487
0,525	337	569,69742223487
0,525	338	569,69742223487
0,525	339	569,69742223487
0,525	340	569,69742223487
0,525	341	569,69742223487
0,525	342	569,69742223487
0,525	343	569,69742223487
0,525	344	569,69742223487
0,525	345	569,69742223487
0,525	346	569,69742223487
0,525	347	569,69742223487
0,525	348	569,69742223487
0,525	349	569,69742223487
0,525	350	569,69742223487
0,525	351	569,69742223487
0,525	352	569,69742223487
0,525	353	569,69742223487
0,525	354	569,69742223487
0,525	355	569,69742223487
0,525	356	569,69742223487
0,525	357	569,69742223487
0,525	358	569,69742223487
0,525	359	569,69742223487
0,525	360	569,69742223487
0,525	361	569,69742223487
0,525	362	569,69742223487
0,525	363	569,69742223487
0,525	364	569,69742223487
0,525	365	569,69742223487
0,525	366	569,69742223487
0,525	367	569,69742223487
0,525	368	569,69742223487
0,525	369	569,69742223487
0,525	370	569,69742223487
0,525	371	569,69742223487
0,525	372	569,69742223487
0,525	373	569,69742223487
0,525	374	569,69742223487
0,525	375	569,69742223487
0,525	376	569,69742223487
0,525	377	569,69742223487
0,525	378	569,69742223487
0,525	379	569,69742223487
0,525	380	569,69742223487
0,525	381	569,69742223487
0,525	382	569,69742223487
0,525	383	569,69742223487
0,525	384	569,69742223487
0,525	385	569,69742223487
0,525	386	569,69742223487
0,525	387	569,69742223487
0,525	388	569,69742223487
0,525	389	569,69742223487
0,525	390	569,69742223487
0,525	391	569,69742223487
0,525	392	569,69742223487
0,525	393	569,69742223487
0,525	394	569,69742223487
0,525	395	569,69742223487
0,525	396	569,69742223487
0,525	397	569,69742223487
0,525	398	569,69742223487
0,525	399	569,69742223487
0,525	400	569,69742223487
0,525	401	569,69742223487
0,525	402	569,69742223487
0,525	403	569,69742223487
0,525	404	569,69742223487
0,525	405	569,69742223487
0,525	406	569,69742223487
0,525	407	569,69742223487
0,525	408	569,69742223487
0,525	409	569,69742223487
0,525	410	569,69742223487
0,525	411	569,69742223487
0,525	412	569,69742223487
0,525	413	569,69742223487
0,525	414	569,69742223487
0,525	415	569,69742223487
0,525	416	569,69742223487
0,525	417	569,69742223487
0,525	418	569,69742223487
0,525	419	569,69742223487
0,525	420	569,69742223487
0,525	421	569,69742223487
0,525	422	569,69742223487
0,525	423	569,69742223487
0,525	424	569,69742223487
0,525	425	569,69742223487
0,525	426	569,69742223487
0,525	427	569,69742223487
0,525	428	569,69742223487
0,525	429	569,69742223487
0,525	430	569,69742223487
0,525	431	569,69742223487
0,525	432	569,69742223487
0,525	433	569,69742223487
0,525	434	569,69742223487
0,525	435	569,69742223487
0,525	436	569,69742223487
0,525	437	569,69742223487
0,525	438	569,69742223487
0,525	439	569,69742223487
0,525	440	569,69742223487
0,525	441	569,69742223487
0,525	442	569,69742223487
