%!PS-Adobe-3.0 EPSF-3.0
%%DocumentNeededResources: font Helvetica
%%+ font Helvetica-Bold
%%+ font Helvetica-Oblique
%%+ font Helvetica-BoldOblique
%%+ font Symbol
%%Title: R Graphics Output
%%Creator: R Software
%%Pages: (atend)
%%BoundingBox: 0 0 618 403
%%EndComments
%%BeginProlog
/bp  { gs sRGB gs } def
% begin .ps.prolog
/gs  { gsave } bind def
/gr  { grestore } bind def
/ep  { showpage gr gr } bind def
/m   { moveto } bind def
/l  { rlineto } bind def
/np  { newpath } bind def
/cp  { closepath } bind def
/f   { fill } bind def
/o   { stroke } bind def
/c   { newpath 0 360 arc } bind def
/r   { 4 2 roll moveto 1 copy 3 -1 roll exch 0 exch rlineto 0 rlineto -1 mul 0 exch rlineto closepath } bind def
/p1  { stroke } bind def
/p2  { gsave bg fill grestore newpath } bind def
/p3  { gsave bg fill grestore stroke } bind def
/p6  { gsave bg eofill grestore newpath } bind def
/p7  { gsave bg eofill grestore stroke } bind def
/t   { 5 -2 roll moveto gsave rotate
       1 index stringwidth pop
       mul neg 0 rmoveto show grestore } bind def
/ta  { 4 -2 roll moveto gsave rotate show } bind def
/tb  { 2 -1 roll 0 rmoveto show } bind def
/cl  { grestore gsave newpath 3 index 3 index moveto 1 index
       4 -1 roll lineto  exch 1 index lineto lineto
       closepath clip newpath } bind def
/rgb { setrgbcolor } bind def
/s   { scalefont setfont } bind def
% end   .ps.prolog
/sRGB { [ /CIEBasedABC
          << /DecodeLMN
               [ { dup 0.03928 le
                        {12.92321 div}
                        {0.055 add 1.055 div 2.4 exp }
                     ifelse
                 } bind dup dup
               ]
             /MatrixLMN [0.412457 0.212673 0.019334
                         0.357576 0.715152 0.119192
                         0.180437 0.072175 0.950301]
             /WhitePoint [0.9505 1.0 1.0890]
           >>
         ] setcolorspace } bind def
/srgb { setcolor } bind def
% begin encoding
/WinAnsiEncoding [
 /.notdef /.notdef /.notdef /.notdef /.notdef /.notdef /.notdef /.notdef
 /.notdef /.notdef /.notdef /.notdef /.notdef /.notdef /.notdef /.notdef
 /.notdef /.notdef /.notdef /.notdef /.notdef /.notdef /.notdef /.notdef
 /.notdef /.notdef /.notdef /.notdef /.notdef /.notdef /.notdef /.notdef
 /space /exclam /quotedbl /numbersign /dollar /percent /ampersand /quoteright
 /parenleft /parenright /asterisk /plus /comma /minus /period /slash
 /zero /one /two /three /four /five /six /seven
 /eight /nine /colon /semicolon /less /equal /greater /question
 /at /A /B /C /D /E /F /G
 /H /I /J /K /L /M /N /O
 /P /Q /R /S /T /U /V /W
 /X /Y /Z /bracketleft /backslash /bracketright /asciicircum /underscore
 /grave /a /b /c /d /e /f /g
 /h /i /j /k /l /m /n /o
 /p /q /r /s /t /u /v /w
 /x /y /z /braceleft /bar /braceright /asciitilde /.notdef
 /Euro /.notdef /quotesinglbase /florin /quotedblbase /ellipsis /dagger /daggerdbl
 /circumflex /perthousand /Scaron /guilsinglleft /OE /.notdef /Zcaron /.notdef
 /.notdef /quoteleft /quoteright /quotedblleft /quotedblright /bullet /endash /emdash
 /tilde /trademark /scaron /guilsinglright /oe /.notdef /zcaron /Ydieresis
 /space /exclamdown /cent /sterling /currency /yen /brokenbar /section
 /dieresis /copyright /ordfeminine /guillemotleft /logicalnot /hyphen /registered /macron
 /degree /plusminus /twosuperior /threesuperior /acute /mu /paragraph /periodcentered
 /cedilla /onesuperior /ordmasculine /guillemotright /onequarter /onehalf /threequarters /questiondown
 /Agrave /Aacute /Acircumflex /Atilde /Adieresis /Aring /AE /Ccedilla
 /Egrave /Eacute /Ecircumflex /Edieresis /Igrave /Iacute /Icircumflex /Idieresis
 /Eth /Ntilde /Ograve /Oacute /Ocircumflex /Otilde /Odieresis /multiply
 /Oslash /Ugrave /Uacute /Ucircumflex /Udieresis /Yacute /Thorn /germandbls
 /agrave /aacute /acircumflex /atilde /adieresis /aring /ae /ccedilla
 /egrave /eacute /ecircumflex /edieresis /igrave /iacute /icircumflex /idieresis
 /eth /ntilde /ograve /oacute /ocircumflex /otilde /odieresis /divide
 /oslash /ugrave /uacute /ucircumflex /udieresis /yacute /thorn /ydieresis
]
 def
% end encoding
%%IncludeResource: font Helvetica
/Helvetica findfont
dup length dict begin
  {1 index /FID ne {def} {pop pop} ifelse} forall
  /Encoding WinAnsiEncoding def
  currentdict
  end
/Font1 exch definefont pop
%%IncludeResource: font Helvetica-Bold
/Helvetica-Bold findfont
dup length dict begin
  {1 index /FID ne {def} {pop pop} ifelse} forall
  /Encoding WinAnsiEncoding def
  currentdict
  end
/Font2 exch definefont pop
%%IncludeResource: font Helvetica-Oblique
/Helvetica-Oblique findfont
dup length dict begin
  {1 index /FID ne {def} {pop pop} ifelse} forall
  /Encoding WinAnsiEncoding def
  currentdict
  end
/Font3 exch definefont pop
%%IncludeResource: font Helvetica-BoldOblique
/Helvetica-BoldOblique findfont
dup length dict begin
  {1 index /FID ne {def} {pop pop} ifelse} forall
  /Encoding WinAnsiEncoding def
  currentdict
  end
/Font4 exch definefont pop
%%IncludeResource: font Symbol
/Symbol findfont
dup length dict begin
  {1 index /FID ne {def} {pop pop} ifelse} forall
  currentdict
  end
/Font5 exch definefont pop
%%EndProlog
%%Page: 1 1
bp
/bg { 1 1 1 srgb } def
0.00 0.00 618.00 402.75 r p2
19.01 364.22 196.50 383.74 cl
0.00 0.00 618.00 402.75 cl
0 0 0 srgb
0.75 setlinewidth
[] 0 setdash
1 setlinecap
1 setlinejoin
10.00 setmiterlimit
np
25.58 364.22 m
164.34 0 l
o
np
25.58 364.22 m
0 -4.75 l
o
np
66.67 364.22 m
0 -4.75 l
o
np
107.75 364.22 m
0 -4.75 l
o
np
148.84 364.22 m
0 -4.75 l
o
np
189.92 364.22 m
0 -4.75 l
o
/Font1 findfont 11 s
25.58 347.12 (1) .5 0 t
66.67 347.12 (2) .5 0 t
107.75 347.12 (3) .5 0 t
148.84 347.12 (4) .5 0 t
189.92 347.12 (5) .5 0 t
np
19.01 366.07 m
0 16.95 l
o
np
19.01 366.07 m
-4.75 0 l
o
np
19.01 368.90 m
-4.75 0 l
o
np
19.01 371.72 m
-4.75 0 l
o
np
19.01 374.55 m
-4.75 0 l
o
np
19.01 377.37 m
-4.75 0 l
o
np
19.01 380.20 m
-4.75 0 l
o
np
19.01 383.02 m
-4.75 0 l
o
7.60 366.07 (1.00) .5 90 t
np
19.01 364.22 m
177.49 0 l
0 19.52 l
-177.49 0 l
0 -19.52 l
o
0.00 345.21 206.00 402.75 cl
/Font2 findfont 13 s
0 0 0 srgb
107.75 388.58 (c100bD.vrp) .5 0 t
/Font1 findfont 11 s
107.75 328.11 (1:n) .5 0 t
19.01 364.22 196.50 383.74 cl
0 0 0 srgb
0.75 setlinewidth
[ 2.25 3.75] 0 setdash
1 setlinecap
1 setlinejoin
10.00 setmiterlimit
np
0.00 368.63 m
25.58 0 l
41.09 0 l
41.08 0 l
41.09 0 l
41.08 0 l
41.09 0 l
o
0.75 setlinewidth
[] 0 setdash
np
0.00 369.72 m
25.58 0 l
41.09 0 l
41.08 0 l
41.09 0 l
41.08 0 l
41.09 0 l
o
0.4000 0.2000 0.2000 srgb
25.58 367.49 1.78 c p1
1.50 setlinewidth
[] 0 setdash
np
25.58 366.26 m
0 2.45 l
o
np
24.25 366.26 m
2.66 0 l
o
np
24.25 368.71 m
2.66 0 l
o
25.58 366.07 1.78 c p1
0.3608 0.4000 0.2000 srgb
0.75 setlinewidth
[] 0 setdash
np
66.67 371.58 m
2.40 -4.16 l
-4.80 0 l
2.40 4.16 l
o
1.50 setlinewidth
[] 0 setdash
np
66.67 367.58 m
0 2.45 l
o
np
65.34 367.58 m
2.66 0 l
o
np
65.34 370.03 m
2.66 0 l
o
np
66.67 369.41 m
2.40 -4.16 l
-4.80 0 l
2.40 4.16 l
o
0.2000 0.4000 0.2784 srgb
0.75 setlinewidth
[] 0 setdash
np
105.23 370.81 m
5.04 0 l
o
np
107.75 368.29 m
0 5.04 l
o
1.50 setlinewidth
[] 0 setdash
np
107.75 369.74 m
0 2.13 l
o
np
106.42 369.74 m
2.66 0 l
o
np
106.42 371.87 m
2.66 0 l
o
np
105.23 369.41 m
5.04 0 l
o
np
107.75 366.89 m
0 5.04 l
o
0.2000 0.2784 0.4000 srgb
0.75 setlinewidth
[] 0 setdash
np
147.06 368.49 m
3.56 3.56 l
o
np
147.06 372.05 m
3.56 -3.56 l
o
1.50 setlinewidth
[] 0 setdash
np
148.84 367.93 m
0 4.68 l
o
np
147.51 367.93 m
2.66 0 l
o
np
147.51 372.61 m
2.66 0 l
o
np
147.06 366.10 m
3.56 3.56 l
o
np
147.06 369.66 m
3.56 -3.56 l
o
0.3608 0.2000 0.4000 srgb
0.75 setlinewidth
[] 0 setdash
np
187.40 369.48 m
2.52 2.52 l
2.52 -2.52 l
-2.52 -2.52 l
-2.52 2.52 l
o
1.50 setlinewidth
[] 0 setdash
np
189.92 366.99 m
0 4.99 l
o
np
188.59 366.99 m
2.66 0 l
o
np
188.59 371.98 m
2.66 0 l
o
np
187.40 366.22 m
2.52 2.52 l
2.52 -2.52 l
-2.52 -2.52 l
-2.52 2.52 l
o
225.01 364.22 402.50 383.74 cl
0.00 0.00 618.00 402.75 cl
0 0 0 srgb
0.75 setlinewidth
[] 0 setdash
1 setlinecap
1 setlinejoin
10.00 setmiterlimit
np
231.58 364.22 m
164.34 0 l
o
np
231.58 364.22 m
0 -4.75 l
o
np
272.67 364.22 m
0 -4.75 l
o
np
313.75 364.22 m
0 -4.75 l
o
np
354.84 364.22 m
0 -4.75 l
o
np
395.92 364.22 m
0 -4.75 l
o
/Font1 findfont 11 s
231.58 347.12 (1) .5 0 t
272.67 347.12 (2) .5 0 t
313.75 347.12 (3) .5 0 t
354.84 347.12 (4) .5 0 t
395.92 347.12 (5) .5 0 t
np
225.01 366.07 m
0 16.95 l
o
np
225.01 366.07 m
-4.75 0 l
o
np
225.01 368.90 m
-4.75 0 l
o
np
225.01 371.72 m
-4.75 0 l
o
np
225.01 374.55 m
-4.75 0 l
o
np
225.01 377.37 m
-4.75 0 l
o
np
225.01 380.20 m
-4.75 0 l
o
np
225.01 383.02 m
-4.75 0 l
o
213.60 366.07 (1.00) .5 90 t
np
225.01 364.22 m
177.49 0 l
0 19.52 l
-177.49 0 l
0 -19.52 l
o
206.00 345.21 412.00 402.75 cl
/Font2 findfont 13 s
0 0 0 srgb
313.75 388.58 (c100D.vrp) .5 0 t
/Font1 findfont 11 s
313.75 328.11 (1:n) .5 0 t
194.60 373.98 (1:n) .5 90 t
225.01 364.22 402.50 383.74 cl
0 0 0 srgb
0.75 setlinewidth
[ 2.25 3.75] 0 setdash
1 setlinecap
1 setlinejoin
10.00 setmiterlimit
np
190.50 367.84 m
41.08 0 l
41.09 0 l
41.08 0 l
41.09 0 l
41.08 0 l
41.09 0 l
o
0.75 setlinewidth
[] 0 setdash
np
190.50 369.01 m
41.08 0 l
41.09 0 l
41.08 0 l
41.09 0 l
41.08 0 l
41.09 0 l
o
0.4000 0.2000 0.2000 srgb
231.58 373.17 1.78 c p1
1.50 setlinewidth
[] 0 setdash
np
231.58 370.69 m
0 4.97 l
o
np
230.25 370.69 m
2.66 0 l
o
np
230.25 375.66 m
2.66 0 l
o
231.58 368.07 1.78 c p1
0.3608 0.4000 0.2000 srgb
0.75 setlinewidth
[] 0 setdash
np
272.67 371.45 m
2.40 -4.15 l
-4.80 0 l
2.40 4.15 l
o
1.50 setlinewidth
[] 0 setdash
np
272.67 367.32 m
0 2.72 l
o
np
271.34 367.32 m
2.66 0 l
o
np
271.34 370.04 m
2.66 0 l
o
np
272.67 369.85 m
2.40 -4.16 l
-4.80 0 l
2.40 4.16 l
o
0.2000 0.4000 0.2784 srgb
0.75 setlinewidth
[] 0 setdash
np
311.23 370.47 m
5.04 0 l
o
np
313.75 367.95 m
0 5.04 l
o
1.50 setlinewidth
[] 0 setdash
np
313.75 367.96 m
0 5.02 l
o
np
312.42 367.96 m
2.66 0 l
o
np
312.42 372.98 m
2.66 0 l
o
np
311.23 367.67 m
5.04 0 l
o
np
313.75 365.15 m
0 5.04 l
o
0.2000 0.2784 0.4000 srgb
0.75 setlinewidth
[] 0 setdash
np
353.06 368.28 m
3.56 3.57 l
o
np
353.06 371.85 m
3.56 -3.57 l
o
1.50 setlinewidth
[] 0 setdash
np
354.84 369.37 m
0 1.39 l
o
np
353.51 369.37 m
2.66 0 l
o
np
353.51 370.76 m
2.66 0 l
o
np
353.06 367.79 m
3.56 3.57 l
o
np
353.06 371.36 m
3.56 -3.57 l
o
0.3608 0.2000 0.4000 srgb
0.75 setlinewidth
[] 0 setdash
np
393.40 368.61 m
2.52 2.52 l
2.52 -2.52 l
-2.52 -2.52 l
-2.52 2.52 l
o
1.50 setlinewidth
[] 0 setdash
np
395.92 366.73 m
0 3.77 l
o
np
394.59 366.73 m
2.66 0 l
o
np
394.59 370.50 m
2.66 0 l
o
np
393.40 366.07 m
2.52 2.52 l
2.52 -2.52 l
-2.52 -2.52 l
-2.52 2.52 l
o
431.01 364.22 608.50 383.74 cl
0.00 0.00 618.00 402.75 cl
0 0 0 srgb
0.75 setlinewidth
[] 0 setdash
1 setlinecap
1 setlinejoin
10.00 setmiterlimit
np
437.58 364.22 m
164.34 0 l
o
np
437.58 364.22 m
0 -4.75 l
o
np
478.67 364.22 m
0 -4.75 l
o
np
519.75 364.22 m
0 -4.75 l
o
np
560.84 364.22 m
0 -4.75 l
o
np
601.92 364.22 m
0 -4.75 l
o
/Font1 findfont 11 s
437.58 347.12 (1) .5 0 t
478.67 347.12 (2) .5 0 t
519.75 347.12 (3) .5 0 t
560.84 347.12 (4) .5 0 t
601.92 347.12 (5) .5 0 t
np
431.01 366.07 m
0 16.95 l
o
np
431.01 366.07 m
-4.75 0 l
o
np
431.01 368.90 m
-4.75 0 l
o
np
431.01 371.72 m
-4.75 0 l
o
np
431.01 374.55 m
-4.75 0 l
o
np
431.01 377.37 m
-4.75 0 l
o
np
431.01 380.20 m
-4.75 0 l
o
np
431.01 383.02 m
-4.75 0 l
o
419.60 366.07 (1.00) .5 90 t
np
431.01 364.22 m
177.49 0 l
0 19.52 l
-177.49 0 l
0 -19.52 l
o
412.00 345.21 618.00 402.75 cl
/Font2 findfont 13 s
0 0 0 srgb
519.75 388.58 (c120D.vrp) .5 0 t
/Font1 findfont 11 s
519.75 328.11 (1:n) .5 0 t
400.60 373.98 (1:n) .5 90 t
431.01 364.22 608.50 383.74 cl
0 0 0 srgb
0.75 setlinewidth
[ 2.25 3.75] 0 setdash
1 setlinecap
1 setlinejoin
10.00 setmiterlimit
np
396.50 374.72 m
41.08 0 l
41.09 0 l
41.08 0 l
41.09 0 l
41.08 0 l
16.08 0 l
o
0.75 setlinewidth
[] 0 setdash
np
396.50 378.57 m
41.08 0 l
41.09 0 l
41.08 0 l
41.09 0 l
41.08 0 l
16.08 0 l
o
0.4000 0.2000 0.2000 srgb
437.58 371.49 1.78 c p1
1.50 setlinewidth
[] 0 setdash
np
437.58 366.71 m
0 9.55 l
o
np
436.25 366.71 m
2.66 0 l
o
np
436.25 376.26 m
2.66 0 l
o
437.58 367.04 1.78 c p1
0.3608 0.4000 0.2000 srgb
0.75 setlinewidth
[] 0 setdash
np
478.67 374.06 m
2.40 -4.15 l
-4.80 0 l
2.40 4.15 l
o
1.50 setlinewidth
[] 0 setdash
np
478.67 367.71 m
0 7.16 l
o
np
477.34 367.71 m
2.66 0 l
o
np
477.34 374.87 m
2.66 0 l
o
np
478.67 368.85 m
2.40 -4.16 l
-4.80 0 l
2.40 4.16 l
o
0.2000 0.4000 0.2784 srgb
0.75 setlinewidth
[] 0 setdash
np
517.23 371.11 m
5.04 0 l
o
np
519.75 368.59 m
0 5.04 l
o
1.50 setlinewidth
[] 0 setdash
np
519.75 368.28 m
0 5.67 l
o
np
518.42 368.28 m
2.66 0 l
o
np
518.42 373.95 m
2.66 0 l
o
np
517.23 366.17 m
5.04 0 l
o
np
519.75 363.65 m
0 5.04 l
o
0.2000 0.2784 0.4000 srgb
0.75 setlinewidth
[] 0 setdash
np
559.05 370.68 m
3.57 3.56 l
o
np
559.05 374.24 m
3.57 -3.56 l
o
1.50 setlinewidth
[] 0 setdash
np
560.84 369.85 m
0 5.22 l
o
np
559.51 369.85 m
2.66 0 l
o
np
559.51 375.07 m
2.66 0 l
o
np
559.05 367.54 m
3.57 3.57 l
o
np
559.05 371.11 m
3.57 -3.57 l
o
0.3608 0.2000 0.4000 srgb
0.75 setlinewidth
[] 0 setdash
np
599.40 371.31 m
2.52 2.52 l
2.52 -2.52 l
-2.52 -2.52 l
-2.52 2.52 l
o
1.50 setlinewidth
[] 0 setdash
np
601.92 368.72 m
0 5.19 l
o
np
600.59 368.72 m
2.66 0 l
o
np
600.59 373.91 m
2.66 0 l
o
np
599.40 367.06 m
2.52 2.52 l
2.52 -2.52 l
-2.52 -2.52 l
-2.52 2.52 l
o
19.01 306.69 196.50 326.21 cl
0.00 0.00 618.00 402.75 cl
0 0 0 srgb
0.75 setlinewidth
[] 0 setdash
1 setlinecap
1 setlinejoin
10.00 setmiterlimit
np
25.58 306.69 m
164.34 0 l
o
np
25.58 306.69 m
0 -4.76 l
o
np
66.67 306.69 m
0 -4.76 l
o
np
107.75 306.69 m
0 -4.76 l
o
np
148.84 306.69 m
0 -4.76 l
o
np
189.92 306.69 m
0 -4.76 l
o
/Font1 findfont 11 s
25.58 289.58 (1) .5 0 t
66.67 289.58 (2) .5 0 t
107.75 289.58 (3) .5 0 t
148.84 289.58 (4) .5 0 t
189.92 289.58 (5) .5 0 t
np
19.01 308.54 m
0 16.94 l
o
np
19.01 308.54 m
-4.75 0 l
o
np
19.01 311.36 m
-4.75 0 l
o
np
19.01 314.19 m
-4.75 0 l
o
np
19.01 317.01 m
-4.75 0 l
o
np
19.01 319.84 m
-4.75 0 l
o
np
19.01 322.66 m
-4.75 0 l
o
np
19.01 325.48 m
-4.75 0 l
o
7.60 308.54 (1.00) .5 90 t
np
19.01 306.69 m
177.49 0 l
0 19.52 l
-177.49 0 l
0 -19.52 l
o
0.00 287.68 206.00 345.21 cl
/Font2 findfont 13 s
0 0 0 srgb
107.75 331.04 (c150D.vrp) .5 0 t
/Font1 findfont 11 s
107.75 270.57 (1:n) .5 0 t
19.01 306.69 196.50 326.21 cl
0 0 0 srgb
0.75 setlinewidth
[ 2.25 3.75] 0 setdash
1 setlinecap
1 setlinejoin
10.00 setmiterlimit
np
0.00 317.22 m
25.58 0 l
41.09 0 l
41.08 0 l
41.09 0 l
41.08 0 l
41.09 0 l
o
0.75 setlinewidth
[] 0 setdash
np
0.00 320.09 m
25.58 0 l
41.09 0 l
41.08 0 l
41.09 0 l
41.08 0 l
41.09 0 l
o
0.4000 0.2000 0.2000 srgb
25.58 314.24 1.78 c p1
1.50 setlinewidth
[] 0 setdash
np
25.58 312.15 m
0 4.18 l
o
np
24.25 312.15 m
2.66 0 l
o
np
24.25 316.33 m
2.66 0 l
o
25.58 310.85 1.78 c p1
0.3608 0.4000 0.2000 srgb
0.75 setlinewidth
[] 0 setdash
np
66.67 314.12 m
2.40 -4.16 l
-4.80 0 l
2.40 4.16 l
o
1.50 setlinewidth
[] 0 setdash
np
66.67 309.96 m
0 2.77 l
o
np
65.34 309.96 m
2.66 0 l
o
np
65.34 312.73 m
2.66 0 l
o
np
66.67 312.08 m
2.40 -4.15 l
-4.80 0 l
2.40 4.15 l
o
0.2000 0.4000 0.2784 srgb
0.75 setlinewidth
[] 0 setdash
np
105.23 311.42 m
5.04 0 l
o
np
107.75 308.90 m
0 5.04 l
o
1.50 setlinewidth
[] 0 setdash
np
107.75 310.35 m
0 2.15 l
o
np
106.42 310.35 m
2.66 0 l
o
np
106.42 312.50 m
2.66 0 l
o
np
105.23 310.68 m
5.04 0 l
o
np
107.75 308.16 m
0 5.04 l
o
0.2000 0.2784 0.4000 srgb
0.75 setlinewidth
[] 0 setdash
np
147.06 309.88 m
3.56 3.56 l
o
np
147.06 313.44 m
3.56 -3.56 l
o
1.50 setlinewidth
[] 0 setdash
np
148.84 309.38 m
0 4.56 l
o
np
147.51 309.38 m
2.66 0 l
o
np
147.51 313.94 m
2.66 0 l
o
np
147.06 307.37 m
3.56 3.57 l
o
np
147.06 310.94 m
3.56 -3.57 l
o
0.3608 0.2000 0.4000 srgb
0.75 setlinewidth
[] 0 setdash
np
187.40 310.60 m
2.52 2.52 l
2.52 -2.52 l
-2.52 -2.52 l
-2.52 2.52 l
o
1.50 setlinewidth
[] 0 setdash
np
189.92 308.66 m
0 3.89 l
o
np
188.59 308.66 m
2.66 0 l
o
np
188.59 312.55 m
2.66 0 l
o
np
187.40 308.54 m
2.52 2.52 l
2.52 -2.52 l
-2.52 -2.52 l
-2.52 2.52 l
o
225.01 306.69 402.50 326.21 cl
0.00 0.00 618.00 402.75 cl
0 0 0 srgb
0.75 setlinewidth
[] 0 setdash
1 setlinecap
1 setlinejoin
10.00 setmiterlimit
np
231.58 306.69 m
164.34 0 l
o
np
231.58 306.69 m
0 -4.76 l
o
np
272.67 306.69 m
0 -4.76 l
o
np
313.75 306.69 m
0 -4.76 l
o
np
354.84 306.69 m
0 -4.76 l
o
np
395.92 306.69 m
0 -4.76 l
o
/Font1 findfont 11 s
231.58 289.58 (1) .5 0 t
272.67 289.58 (2) .5 0 t
313.75 289.58 (3) .5 0 t
354.84 289.58 (4) .5 0 t
395.92 289.58 (5) .5 0 t
np
225.01 308.54 m
0 16.94 l
o
np
225.01 308.54 m
-4.75 0 l
o
np
225.01 311.36 m
-4.75 0 l
o
np
225.01 314.19 m
-4.75 0 l
o
np
225.01 317.01 m
-4.75 0 l
o
np
225.01 319.84 m
-4.75 0 l
o
np
225.01 322.66 m
-4.75 0 l
o
np
225.01 325.48 m
-4.75 0 l
o
213.60 308.54 (1.00) .5 90 t
np
225.01 306.69 m
177.49 0 l
0 19.52 l
-177.49 0 l
0 -19.52 l
o
206.00 287.68 412.00 345.21 cl
/Font2 findfont 13 s
0 0 0 srgb
313.75 331.04 (c199D.vrp) .5 0 t
/Font1 findfont 11 s
313.75 270.57 (1:n) .5 0 t
194.60 316.45 (1:n) .5 90 t
225.01 306.69 402.50 326.21 cl
0 0 0 srgb
0.75 setlinewidth
[ 2.25 3.75] 0 setdash
1 setlinecap
1 setlinejoin
10.00 setmiterlimit
np
190.50 316.58 m
41.08 0 l
41.09 0 l
41.08 0 l
41.09 0 l
41.08 0 l
41.09 0 l
o
0.75 setlinewidth
[] 0 setdash
np
190.50 318.62 m
41.08 0 l
41.09 0 l
41.08 0 l
41.09 0 l
41.08 0 l
41.09 0 l
o
0.4000 0.2000 0.2000 srgb
231.58 311.02 1.78 c p1
1.50 setlinewidth
[] 0 setdash
np
231.58 310.01 m
0 2.01 l
o
np
230.25 310.01 m
2.66 0 l
o
np
230.25 312.02 m
2.66 0 l
o
231.58 309.01 1.78 c p1
0.3608 0.4000 0.2000 srgb
0.75 setlinewidth
[] 0 setdash
np
272.67 313.42 m
2.40 -4.16 l
-4.80 0 l
2.40 4.16 l
o
1.50 setlinewidth
[] 0 setdash
np
272.67 308.68 m
0 3.93 l
o
np
271.34 308.68 m
2.66 0 l
o
np
271.34 312.61 m
2.66 0 l
o
np
272.67 311.31 m
2.40 -4.16 l
-4.80 0 l
2.40 4.16 l
o
0.2000 0.4000 0.2784 srgb
0.75 setlinewidth
[] 0 setdash
np
311.23 312.42 m
5.04 0 l
o
np
313.75 309.90 m
0 5.04 l
o
1.50 setlinewidth
[] 0 setdash
np
313.75 310.18 m
0 4.48 l
o
np
312.42 310.18 m
2.66 0 l
o
np
312.42 314.66 m
2.66 0 l
o
np
311.23 309.47 m
5.04 0 l
o
np
313.75 306.95 m
0 5.04 l
o
0.2000 0.2784 0.4000 srgb
0.75 setlinewidth
[] 0 setdash
np
353.06 309.54 m
3.56 3.57 l
o
np
353.06 313.11 m
3.56 -3.57 l
o
1.50 setlinewidth
[] 0 setdash
np
354.84 309.52 m
0 3.61 l
o
np
353.51 309.52 m
2.66 0 l
o
np
353.51 313.13 m
2.66 0 l
o
np
353.06 308.00 m
3.56 3.56 l
o
np
353.06 311.56 m
3.56 -3.56 l
o
0.3608 0.2000 0.4000 srgb
0.75 setlinewidth
[] 0 setdash
np
393.40 310.94 m
2.52 2.52 l
2.52 -2.52 l
-2.52 -2.52 l
-2.52 2.52 l
o
1.50 setlinewidth
[] 0 setdash
np
395.92 309.06 m
0 3.77 l
o
np
394.59 309.06 m
2.66 0 l
o
np
394.59 312.83 m
2.66 0 l
o
np
393.40 308.68 m
2.52 2.52 l
2.52 -2.52 l
-2.52 -2.52 l
-2.52 2.52 l
o
431.01 306.69 608.50 326.21 cl
0.00 0.00 618.00 402.75 cl
0 0 0 srgb
0.75 setlinewidth
[] 0 setdash
1 setlinecap
1 setlinejoin
10.00 setmiterlimit
np
437.58 306.69 m
164.34 0 l
o
np
437.58 306.69 m
0 -4.76 l
o
np
478.67 306.69 m
0 -4.76 l
o
np
519.75 306.69 m
0 -4.76 l
o
np
560.84 306.69 m
0 -4.76 l
o
np
601.92 306.69 m
0 -4.76 l
o
/Font1 findfont 11 s
437.58 289.58 (1) .5 0 t
478.67 289.58 (2) .5 0 t
519.75 289.58 (3) .5 0 t
560.84 289.58 (4) .5 0 t
601.92 289.58 (5) .5 0 t
np
431.01 308.54 m
0 16.94 l
o
np
431.01 308.54 m
-4.75 0 l
o
np
431.01 311.36 m
-4.75 0 l
o
np
431.01 314.19 m
-4.75 0 l
o
np
431.01 317.01 m
-4.75 0 l
o
np
431.01 319.84 m
-4.75 0 l
o
np
431.01 322.66 m
-4.75 0 l
o
np
431.01 325.48 m
-4.75 0 l
o
419.60 308.54 (1.00) .5 90 t
np
431.01 306.69 m
177.49 0 l
0 19.52 l
-177.49 0 l
0 -19.52 l
o
412.00 287.68 618.00 345.21 cl
/Font2 findfont 13 s
0 0 0 srgb
519.75 331.04 (c50D.vrp) .5 0 t
/Font1 findfont 11 s
519.75 270.57 (1:n) .5 0 t
400.60 316.45 (1:n) .5 90 t
431.01 306.69 608.50 326.21 cl
0 0 0 srgb
0.75 setlinewidth
[ 2.25 3.75] 0 setdash
1 setlinecap
1 setlinejoin
10.00 setmiterlimit
np
396.50 306.82 m
41.08 0 l
41.09 0 l
41.08 0 l
41.09 0 l
41.08 0 l
16.08 0 l
o
0.75 setlinewidth
[] 0 setdash
np
396.50 310.59 m
41.08 0 l
41.09 0 l
41.08 0 l
41.09 0 l
41.08 0 l
16.08 0 l
o
0.4000 0.2000 0.2000 srgb
437.58 312.12 1.78 c p1
1.50 setlinewidth
[] 0 setdash
np
437.58 309.09 m
0 6.06 l
o
np
436.25 309.09 m
2.66 0 l
o
np
436.25 315.15 m
2.66 0 l
o
437.58 308.54 1.78 c p1
0.3608 0.4000 0.2000 srgb
0.75 setlinewidth
[] 0 setdash
np
478.67 313.16 m
2.40 -4.16 l
-4.80 0 l
2.40 4.16 l
o
1.50 setlinewidth
[] 0 setdash
np
478.67 309.24 m
0 2.29 l
o
np
477.34 309.24 m
2.66 0 l
o
np
477.34 311.53 m
2.66 0 l
o
np
478.67 312.11 m
2.40 -4.16 l
-4.80 0 l
2.40 4.16 l
o
0.2000 0.4000 0.2784 srgb
0.75 setlinewidth
[] 0 setdash
np
517.23 311.31 m
5.04 0 l
o
np
519.75 308.79 m
0 5.04 l
o
1.50 setlinewidth
[] 0 setdash
np
519.75 309.26 m
0 4.10 l
o
np
518.42 309.26 m
2.66 0 l
o
np
518.42 313.36 m
2.66 0 l
o
np
517.23 309.32 m
5.04 0 l
o
np
519.75 306.80 m
0 5.04 l
o
0.2000 0.2784 0.4000 srgb
0.75 setlinewidth
[] 0 setdash
np
559.05 309.72 m
3.57 3.57 l
o
np
559.05 313.29 m
3.57 -3.57 l
o
1.50 setlinewidth
[] 0 setdash
np
560.84 309.82 m
0 3.37 l
o
np
559.51 309.82 m
2.66 0 l
o
np
559.51 313.19 m
2.66 0 l
o
np
559.05 308.29 m
3.57 3.57 l
o
np
559.05 311.86 m
3.57 -3.57 l
o
0.3608 0.2000 0.4000 srgb
0.75 setlinewidth
[] 0 setdash
np
599.40 312.62 m
2.52 2.52 l
2.52 -2.52 l
-2.52 -2.52 l
-2.52 2.52 l
o
1.50 setlinewidth
[] 0 setdash
np
601.92 310.99 m
0 3.26 l
o
np
600.59 310.99 m
2.66 0 l
o
np
600.59 314.25 m
2.66 0 l
o
np
599.40 310.38 m
2.52 2.52 l
2.52 -2.52 l
-2.52 -2.52 l
-2.52 2.52 l
o
19.01 249.15 196.50 268.67 cl
0.00 0.00 618.00 402.75 cl
0 0 0 srgb
0.75 setlinewidth
[] 0 setdash
1 setlinecap
1 setlinejoin
10.00 setmiterlimit
np
25.58 249.15 m
164.34 0 l
o
np
25.58 249.15 m
0 -4.75 l
o
np
66.67 249.15 m
0 -4.75 l
o
np
107.75 249.15 m
0 -4.75 l
o
np
148.84 249.15 m
0 -4.75 l
o
np
189.92 249.15 m
0 -4.75 l
o
/Font1 findfont 11 s
25.58 232.04 (1) .5 0 t
66.67 232.04 (2) .5 0 t
107.75 232.04 (3) .5 0 t
148.84 232.04 (4) .5 0 t
189.92 232.04 (5) .5 0 t
np
19.01 251.00 m
0 16.95 l
o
np
19.01 251.00 m
-4.75 0 l
o
np
19.01 253.83 m
-4.75 0 l
o
np
19.01 256.65 m
-4.75 0 l
o
np
19.01 259.48 m
-4.75 0 l
o
np
19.01 262.30 m
-4.75 0 l
o
np
19.01 265.12 m
-4.75 0 l
o
np
19.01 267.95 m
-4.75 0 l
o
7.60 251.00 (1.00) .5 90 t
np
19.01 249.15 m
177.49 0 l
0 19.52 l
-177.49 0 l
0 -19.52 l
o
0.00 230.14 206.00 287.68 cl
/Font2 findfont 13 s
0 0 0 srgb
107.75 273.51 (c75D.vrp) .5 0 t
/Font1 findfont 11 s
107.75 213.04 (1:n) .5 0 t
19.01 249.15 196.50 268.67 cl
0 0 0 srgb
0.75 setlinewidth
[ 2.25 3.75] 0 setdash
1 setlinecap
1 setlinejoin
10.00 setmiterlimit
np
0.00 252.38 m
25.58 0 l
41.09 0 l
41.08 0 l
41.09 0 l
41.08 0 l
41.09 0 l
o
0.75 setlinewidth
[] 0 setdash
np
0.00 254.49 m
25.58 0 l
41.09 0 l
41.08 0 l
41.09 0 l
41.08 0 l
41.09 0 l
o
0.4000 0.2000 0.2000 srgb
25.58 255.92 1.78 c p1
1.50 setlinewidth
[] 0 setdash
np
25.58 254.00 m
0 3.83 l
o
np
24.25 254.00 m
2.66 0 l
o
np
24.25 257.83 m
2.66 0 l
o
25.58 252.74 1.78 c p1
0.3608 0.4000 0.2000 srgb
0.75 setlinewidth
[] 0 setdash
np
66.67 255.79 m
2.40 -4.16 l
-4.80 0 l
2.40 4.16 l
o
1.50 setlinewidth
[] 0 setdash
np
66.67 251.48 m
0 3.08 l
o
np
65.34 251.48 m
2.66 0 l
o
np
65.34 254.56 m
2.66 0 l
o
np
66.67 253.77 m
2.40 -4.15 l
-4.80 0 l
2.40 4.15 l
o
0.2000 0.4000 0.2784 srgb
0.75 setlinewidth
[] 0 setdash
np
105.23 253.41 m
5.04 0 l
o
np
107.75 250.89 m
0 5.04 l
o
1.50 setlinewidth
[] 0 setdash
np
107.75 252.02 m
0 2.77 l
o
np
106.42 252.02 m
2.66 0 l
o
np
106.42 254.79 m
2.66 0 l
o
np
105.23 251.21 m
5.04 0 l
o
np
107.75 248.69 m
0 5.04 l
o
0.2000 0.2784 0.4000 srgb
0.75 setlinewidth
[] 0 setdash
np
147.06 251.78 m
3.56 3.57 l
o
np
147.06 255.35 m
3.56 -3.57 l
o
1.50 setlinewidth
[] 0 setdash
np
148.84 252.96 m
0 1.20 l
o
np
147.51 252.96 m
2.66 0 l
o
np
147.51 254.16 m
2.66 0 l
o
np
147.06 251.10 m
3.56 3.56 l
o
np
147.06 254.66 m
3.56 -3.56 l
o
0.3608 0.2000 0.4000 srgb
0.75 setlinewidth
[] 0 setdash
np
187.40 253.43 m
2.52 2.52 l
2.52 -2.52 l
-2.52 -2.52 l
-2.52 2.52 l
o
1.50 setlinewidth
[] 0 setdash
np
189.92 252.21 m
0 2.43 l
o
np
188.59 252.21 m
2.66 0 l
o
np
188.59 254.64 m
2.66 0 l
o
np
187.40 252.13 m
2.52 2.52 l
2.52 -2.52 l
-2.52 -2.52 l
-2.52 2.52 l
o
225.01 249.15 402.50 268.67 cl
0.00 0.00 618.00 402.75 cl
0 0 0 srgb
0.75 setlinewidth
[] 0 setdash
1 setlinecap
1 setlinejoin
10.00 setmiterlimit
np
231.58 249.15 m
164.34 0 l
o
np
231.58 249.15 m
0 -4.75 l
o
np
272.67 249.15 m
0 -4.75 l
o
np
313.75 249.15 m
0 -4.75 l
o
np
354.84 249.15 m
0 -4.75 l
o
np
395.92 249.15 m
0 -4.75 l
o
/Font1 findfont 11 s
231.58 232.04 (1) .5 0 t
272.67 232.04 (2) .5 0 t
313.75 232.04 (3) .5 0 t
354.84 232.04 (4) .5 0 t
395.92 232.04 (5) .5 0 t
np
225.01 251.00 m
0 16.95 l
o
np
225.01 251.00 m
-4.75 0 l
o
np
225.01 253.83 m
-4.75 0 l
o
np
225.01 256.65 m
-4.75 0 l
o
np
225.01 259.48 m
-4.75 0 l
o
np
225.01 262.30 m
-4.75 0 l
o
np
225.01 265.12 m
-4.75 0 l
o
np
225.01 267.95 m
-4.75 0 l
o
213.60 251.00 (1.00) .5 90 t
np
225.01 249.15 m
177.49 0 l
0 19.52 l
-177.49 0 l
0 -19.52 l
o
206.00 230.14 412.00 287.68 cl
/Font2 findfont 13 s
0 0 0 srgb
313.75 273.51 (f134D.vrp) .5 0 t
/Font1 findfont 11 s
313.75 213.04 (1:n) .5 0 t
194.60 258.91 (1:n) .5 90 t
225.01 249.15 402.50 268.67 cl
0 0 0 srgb
0.75 setlinewidth
[ 2.25 3.75] 0 setdash
1 setlinecap
1 setlinejoin
10.00 setmiterlimit
np
190.50 265.76 m
41.08 0 l
41.09 0 l
41.08 0 l
41.09 0 l
41.08 0 l
41.09 0 l
o
0.75 setlinewidth
[] 0 setdash
np
190.50 270.66 m
41.08 0 l
41.09 0 l
41.08 0 l
41.09 0 l
41.08 0 l
41.09 0 l
o
0.4000 0.2000 0.2000 srgb
231.58 253.71 1.78 c p1
1.50 setlinewidth
[] 0 setdash
np
231.58 252.71 m
0 2.00 l
o
np
230.25 252.71 m
2.66 0 l
o
np
230.25 254.71 m
2.66 0 l
o
231.58 252.38 1.78 c p1
0.3608 0.4000 0.2000 srgb
0.75 setlinewidth
[] 0 setdash
np
272.67 255.82 m
2.40 -4.15 l
-4.80 0 l
2.40 4.15 l
o
1.50 setlinewidth
[] 0 setdash
np
272.67 251.65 m
0 2.81 l
o
np
271.34 251.65 m
2.66 0 l
o
np
271.34 254.46 m
2.66 0 l
o
np
272.67 253.77 m
2.40 -4.15 l
-4.80 0 l
2.40 4.15 l
o
0.2000 0.4000 0.2784 srgb
0.75 setlinewidth
[] 0 setdash
np
311.23 253.48 m
5.04 0 l
o
np
313.75 250.96 m
0 5.04 l
o
1.50 setlinewidth
[] 0 setdash
np
313.75 252.25 m
0 2.46 l
o
np
312.42 252.25 m
2.66 0 l
o
np
312.42 254.71 m
2.66 0 l
o
np
311.23 252.61 m
5.04 0 l
o
np
313.75 250.09 m
0 5.04 l
o
0.2000 0.2784 0.4000 srgb
0.75 setlinewidth
[] 0 setdash
np
353.06 251.05 m
3.56 3.56 l
o
np
353.06 254.61 m
3.56 -3.56 l
o
1.50 setlinewidth
[] 0 setdash
np
354.84 250.99 m
0 3.68 l
o
np
353.51 250.99 m
2.66 0 l
o
np
353.51 254.67 m
2.66 0 l
o
np
353.06 249.37 m
3.56 3.57 l
o
np
353.06 252.94 m
3.56 -3.57 l
o
0.3608 0.2000 0.4000 srgb
0.75 setlinewidth
[] 0 setdash
np
393.40 253.03 m
2.52 2.52 l
2.52 -2.52 l
-2.52 -2.52 l
-2.52 2.52 l
o
1.50 setlinewidth
[] 0 setdash
np
395.92 252.23 m
0 1.60 l
o
np
394.59 252.23 m
2.66 0 l
o
np
394.59 253.83 m
2.66 0 l
o
np
393.40 251.80 m
2.52 2.52 l
2.52 -2.52 l
-2.52 -2.52 l
-2.52 2.52 l
o
431.01 249.15 608.50 268.67 cl
0.00 0.00 618.00 402.75 cl
0 0 0 srgb
0.75 setlinewidth
[] 0 setdash
1 setlinecap
1 setlinejoin
10.00 setmiterlimit
np
437.58 249.15 m
164.34 0 l
o
np
437.58 249.15 m
0 -4.75 l
o
np
478.67 249.15 m
0 -4.75 l
o
np
519.75 249.15 m
0 -4.75 l
o
np
560.84 249.15 m
0 -4.75 l
o
np
601.92 249.15 m
0 -4.75 l
o
/Font1 findfont 11 s
437.58 232.04 (1) .5 0 t
478.67 232.04 (2) .5 0 t
519.75 232.04 (3) .5 0 t
560.84 232.04 (4) .5 0 t
601.92 232.04 (5) .5 0 t
np
431.01 251.00 m
0 16.95 l
o
np
431.01 251.00 m
-4.75 0 l
o
np
431.01 253.83 m
-4.75 0 l
o
np
431.01 256.65 m
-4.75 0 l
o
np
431.01 259.48 m
-4.75 0 l
o
np
431.01 262.30 m
-4.75 0 l
o
np
431.01 265.12 m
-4.75 0 l
o
np
431.01 267.95 m
-4.75 0 l
o
419.60 251.00 (1.00) .5 90 t
np
431.01 249.15 m
177.49 0 l
0 19.52 l
-177.49 0 l
0 -19.52 l
o
412.00 230.14 618.00 287.68 cl
/Font2 findfont 13 s
0 0 0 srgb
519.75 273.51 (f71D.vrp) .5 0 t
/Font1 findfont 11 s
519.75 213.04 (1:n) .5 0 t
400.60 258.91 (1:n) .5 90 t
431.01 249.15 608.50 268.67 cl
0 0 0 srgb
0.75 setlinewidth
[ 2.25 3.75] 0 setdash
1 setlinecap
1 setlinejoin
10.00 setmiterlimit
np
396.50 250.29 m
41.08 0 l
41.09 0 l
41.08 0 l
41.09 0 l
41.08 0 l
16.08 0 l
o
0.75 setlinewidth
[] 0 setdash
np
396.50 252.08 m
41.08 0 l
41.09 0 l
41.08 0 l
41.09 0 l
41.08 0 l
16.08 0 l
o
0.4000 0.2000 0.2000 srgb
437.58 256.04 1.78 c p1
1.50 setlinewidth
[] 0 setdash
np
437.58 252.34 m
0 7.40 l
o
np
436.25 252.34 m
2.66 0 l
o
np
436.25 259.74 m
2.66 0 l
o
437.58 251.37 1.78 c p1
0.3608 0.4000 0.2000 srgb
0.75 setlinewidth
[] 0 setdash
np
478.67 256.52 m
2.40 -4.16 l
-4.80 0 l
2.40 4.16 l
o
1.50 setlinewidth
[] 0 setdash
np
478.67 251.29 m
0 4.91 l
o
np
477.34 251.29 m
2.66 0 l
o
np
477.34 256.20 m
2.66 0 l
o
np
478.67 253.77 m
2.40 -4.15 l
-4.80 0 l
2.40 4.15 l
o
0.2000 0.4000 0.2784 srgb
0.75 setlinewidth
[] 0 setdash
np
517.23 257.75 m
5.04 0 l
o
np
519.75 255.23 m
0 5.04 l
o
1.50 setlinewidth
[] 0 setdash
np
519.75 253.47 m
0 8.55 l
o
np
518.42 253.47 m
2.66 0 l
o
np
518.42 262.02 m
2.66 0 l
o
np
517.23 253.56 m
5.04 0 l
o
np
519.75 251.04 m
0 5.04 l
o
0.2000 0.2784 0.4000 srgb
0.75 setlinewidth
[] 0 setdash
np
559.05 256.08 m
3.57 3.57 l
o
np
559.05 259.65 m
3.57 -3.57 l
o
1.50 setlinewidth
[] 0 setdash
np
560.84 254.54 m
0 6.65 l
o
np
559.51 254.54 m
2.66 0 l
o
np
559.51 261.19 m
2.66 0 l
o
np
559.05 251.82 m
3.57 3.56 l
o
np
559.05 255.38 m
3.57 -3.56 l
o
0.3608 0.2000 0.4000 srgb
0.75 setlinewidth
[] 0 setdash
np
599.40 257.04 m
2.52 2.52 l
2.52 -2.52 l
-2.52 -2.52 l
-2.52 2.52 l
o
1.50 setlinewidth
[] 0 setdash
np
601.92 254.36 m
0 5.37 l
o
np
600.59 254.36 m
2.66 0 l
o
np
600.59 259.73 m
2.66 0 l
o
np
599.40 253.45 m
2.52 2.52 l
2.52 -2.52 l
-2.52 -2.52 l
-2.52 2.52 l
o
19.01 191.62 196.50 211.13 cl
0.00 0.00 618.00 402.75 cl
0 0 0 srgb
0.75 setlinewidth
[] 0 setdash
1 setlinecap
1 setlinejoin
10.00 setmiterlimit
np
25.58 191.62 m
164.34 0 l
o
np
25.58 191.62 m
0 -4.76 l
o
np
66.67 191.62 m
0 -4.76 l
o
np
107.75 191.62 m
0 -4.76 l
o
np
148.84 191.62 m
0 -4.76 l
o
np
189.92 191.62 m
0 -4.76 l
o
/Font1 findfont 11 s
25.58 174.51 (1) .5 0 t
66.67 174.51 (2) .5 0 t
107.75 174.51 (3) .5 0 t
148.84 174.51 (4) .5 0 t
189.92 174.51 (5) .5 0 t
np
19.01 193.47 m
0 16.94 l
o
np
19.01 193.47 m
-4.75 0 l
o
np
19.01 196.29 m
-4.75 0 l
o
np
19.01 199.12 m
-4.75 0 l
o
np
19.01 201.94 m
-4.75 0 l
o
np
19.01 204.76 m
-4.75 0 l
o
np
19.01 207.59 m
-4.75 0 l
o
np
19.01 210.41 m
-4.75 0 l
o
7.60 193.47 (1.00) .5 90 t
np
19.01 191.62 m
177.49 0 l
0 19.51 l
-177.49 0 l
0 -19.51 l
o
0.00 172.61 206.00 230.14 cl
/Font2 findfont 13 s
0 0 0 srgb
107.75 215.97 (tai100aD.vrp) .5 0 t
/Font1 findfont 11 s
107.75 155.50 (1:n) .5 0 t
19.01 191.62 196.50 211.13 cl
0 0 0 srgb
0.75 setlinewidth
[ 2.25 3.75] 0 setdash
1 setlinecap
1 setlinejoin
10.00 setmiterlimit
np
0.00 192.98 m
25.58 0 l
41.09 0 l
41.08 0 l
41.09 0 l
41.08 0 l
41.09 0 l
o
0.75 setlinewidth
[] 0 setdash
np
0.00 193.89 m
25.58 0 l
41.09 0 l
41.08 0 l
41.09 0 l
41.08 0 l
41.09 0 l
o
0.4000 0.2000 0.2000 srgb
25.58 198.18 1.78 c p1
1.50 setlinewidth
[] 0 setdash
np
25.58 195.28 m
0 5.79 l
o
np
24.25 195.28 m
2.66 0 l
o
np
24.25 201.07 m
2.66 0 l
o
25.58 193.47 1.78 c p1
0.3608 0.4000 0.2000 srgb
0.75 setlinewidth
[] 0 setdash
np
66.67 197.90 m
2.40 -4.15 l
-4.80 0 l
2.40 4.15 l
o
1.50 setlinewidth
[] 0 setdash
np
66.67 194.22 m
0 1.82 l
o
np
65.34 194.22 m
2.66 0 l
o
np
65.34 196.04 m
2.66 0 l
o
np
66.67 196.72 m
2.40 -4.16 l
-4.80 0 l
2.40 4.16 l
o
0.2000 0.4000 0.2784 srgb
0.75 setlinewidth
[] 0 setdash
np
105.23 198.84 m
5.04 0 l
o
np
107.75 196.32 m
0 5.04 l
o
1.50 setlinewidth
[] 0 setdash
np
107.75 195.07 m
0 7.54 l
o
np
106.42 195.07 m
2.66 0 l
o
np
106.42 202.61 m
2.66 0 l
o
np
105.23 193.81 m
5.04 0 l
o
np
107.75 191.29 m
0 5.04 l
o
0.2000 0.2784 0.4000 srgb
0.75 setlinewidth
[] 0 setdash
np
147.06 196.01 m
3.56 3.56 l
o
np
147.06 199.57 m
3.56 -3.56 l
o
1.50 setlinewidth
[] 0 setdash
np
148.84 192.68 m
0 10.22 l
o
np
147.51 192.68 m
2.66 0 l
o
np
147.51 202.90 m
2.66 0 l
o
np
147.06 192.40 m
3.56 3.57 l
o
np
147.06 195.97 m
3.56 -3.57 l
o
0.3608 0.2000 0.4000 srgb
0.75 setlinewidth
[] 0 setdash
np
187.40 196.73 m
2.52 2.52 l
2.52 -2.52 l
-2.52 -2.52 l
-2.52 2.52 l
o
1.50 setlinewidth
[] 0 setdash
np
189.92 195.55 m
0 2.36 l
o
np
188.59 195.55 m
2.66 0 l
o
np
188.59 197.91 m
2.66 0 l
o
np
187.40 195.24 m
2.52 2.52 l
2.52 -2.52 l
-2.52 -2.53 l
-2.52 2.53 l
o
225.01 191.62 402.50 211.13 cl
0.00 0.00 618.00 402.75 cl
0 0 0 srgb
0.75 setlinewidth
[] 0 setdash
1 setlinecap
1 setlinejoin
10.00 setmiterlimit
np
231.58 191.62 m
164.34 0 l
o
np
231.58 191.62 m
0 -4.76 l
o
np
272.67 191.62 m
0 -4.76 l
o
np
313.75 191.62 m
0 -4.76 l
o
np
354.84 191.62 m
0 -4.76 l
o
np
395.92 191.62 m
0 -4.76 l
o
/Font1 findfont 11 s
231.58 174.51 (1) .5 0 t
272.67 174.51 (2) .5 0 t
313.75 174.51 (3) .5 0 t
354.84 174.51 (4) .5 0 t
395.92 174.51 (5) .5 0 t
np
225.01 193.47 m
0 16.94 l
o
np
225.01 193.47 m
-4.75 0 l
o
np
225.01 196.29 m
-4.75 0 l
o
np
225.01 199.12 m
-4.75 0 l
o
np
225.01 201.94 m
-4.75 0 l
o
np
225.01 204.76 m
-4.75 0 l
o
np
225.01 207.59 m
-4.75 0 l
o
np
225.01 210.41 m
-4.75 0 l
o
213.60 193.47 (1.00) .5 90 t
np
225.01 191.62 m
177.49 0 l
0 19.51 l
-177.49 0 l
0 -19.51 l
o
206.00 172.61 412.00 230.14 cl
/Font2 findfont 13 s
0 0 0 srgb
313.75 215.97 (tai100bD.vrp) .5 0 t
/Font1 findfont 11 s
313.75 155.50 (1:n) .5 0 t
194.60 201.38 (1:n) .5 90 t
225.01 191.62 402.50 211.13 cl
0 0 0 srgb
0.75 setlinewidth
[ 2.25 3.75] 0 setdash
1 setlinecap
1 setlinejoin
10.00 setmiterlimit
np
190.50 196.09 m
41.08 0 l
41.09 0 l
41.08 0 l
41.09 0 l
41.08 0 l
41.09 0 l
o
0.75 setlinewidth
[] 0 setdash
np
190.50 198.25 m
41.08 0 l
41.09 0 l
41.08 0 l
41.09 0 l
41.08 0 l
41.09 0 l
o
0.4000 0.2000 0.2000 srgb
231.58 199.59 1.78 c p1
1.50 setlinewidth
[] 0 setdash
np
231.58 196.76 m
0 5.65 l
o
np
230.25 196.76 m
2.66 0 l
o
np
230.25 202.41 m
2.66 0 l
o
231.58 195.92 1.78 c p1
0.3608 0.4000 0.2000 srgb
0.75 setlinewidth
[] 0 setdash
np
272.67 198.91 m
2.40 -4.16 l
-4.80 0 l
2.40 4.16 l
o
1.50 setlinewidth
[] 0 setdash
np
272.67 194.54 m
0 3.20 l
o
np
271.34 194.54 m
2.66 0 l
o
np
271.34 197.74 m
2.66 0 l
o
np
272.67 196.24 m
2.40 -4.16 l
-4.80 0 l
2.40 4.16 l
o
0.2000 0.4000 0.2784 srgb
0.75 setlinewidth
[] 0 setdash
np
311.23 197.02 m
5.04 0 l
o
np
313.75 194.50 m
0 5.04 l
o
1.50 setlinewidth
[] 0 setdash
np
313.75 194.13 m
0 5.77 l
o
np
312.42 194.13 m
2.66 0 l
o
np
312.42 199.90 m
2.66 0 l
o
np
311.23 194.57 m
5.04 0 l
o
np
313.75 192.05 m
0 5.04 l
o
0.2000 0.2784 0.4000 srgb
0.75 setlinewidth
[] 0 setdash
np
353.06 194.84 m
3.56 3.57 l
o
np
353.06 198.41 m
3.56 -3.57 l
o
1.50 setlinewidth
[] 0 setdash
np
354.84 194.42 m
0 4.41 l
o
np
353.51 194.42 m
2.66 0 l
o
np
353.51 198.83 m
2.66 0 l
o
np
353.06 192.19 m
3.56 3.56 l
o
np
353.06 195.75 m
3.56 -3.56 l
o
0.3608 0.2000 0.4000 srgb
0.75 setlinewidth
[] 0 setdash
np
393.40 196.08 m
2.52 2.52 l
2.52 -2.52 l
-2.52 -2.52 l
-2.52 2.52 l
o
1.50 setlinewidth
[] 0 setdash
np
395.92 194.77 m
0 2.62 l
o
np
394.59 194.77 m
2.66 0 l
o
np
394.59 197.39 m
2.66 0 l
o
np
393.40 194.66 m
2.52 2.52 l
2.52 -2.52 l
-2.52 -2.52 l
-2.52 2.52 l
o
431.01 191.62 608.50 211.13 cl
0.00 0.00 618.00 402.75 cl
0 0 0 srgb
0.75 setlinewidth
[] 0 setdash
1 setlinecap
1 setlinejoin
10.00 setmiterlimit
np
437.58 191.62 m
164.34 0 l
o
np
437.58 191.62 m
0 -4.76 l
o
np
478.67 191.62 m
0 -4.76 l
o
np
519.75 191.62 m
0 -4.76 l
o
np
560.84 191.62 m
0 -4.76 l
o
np
601.92 191.62 m
0 -4.76 l
o
/Font1 findfont 11 s
437.58 174.51 (1) .5 0 t
478.67 174.51 (2) .5 0 t
519.75 174.51 (3) .5 0 t
560.84 174.51 (4) .5 0 t
601.92 174.51 (5) .5 0 t
np
431.01 193.47 m
0 16.94 l
o
np
431.01 193.47 m
-4.75 0 l
o
np
431.01 196.29 m
-4.75 0 l
o
np
431.01 199.12 m
-4.75 0 l
o
np
431.01 201.94 m
-4.75 0 l
o
np
431.01 204.76 m
-4.75 0 l
o
np
431.01 207.59 m
-4.75 0 l
o
np
431.01 210.41 m
-4.75 0 l
o
419.60 193.47 (1.00) .5 90 t
np
431.01 191.62 m
177.49 0 l
0 19.51 l
-177.49 0 l
0 -19.51 l
o
412.00 172.61 618.00 230.14 cl
/Font2 findfont 13 s
0 0 0 srgb
519.75 215.97 (tai100cD.vrp) .5 0 t
/Font1 findfont 11 s
519.75 155.50 (1:n) .5 0 t
400.60 201.38 (1:n) .5 90 t
431.01 191.62 608.50 211.13 cl
0 0 0 srgb
0.75 setlinewidth
[ 2.25 3.75] 0 setdash
1 setlinecap
1 setlinejoin
10.00 setmiterlimit
np
396.50 194.59 m
41.08 0 l
41.09 0 l
41.08 0 l
41.09 0 l
41.08 0 l
16.08 0 l
o
0.75 setlinewidth
[] 0 setdash
np
396.50 196.92 m
41.08 0 l
41.09 0 l
41.08 0 l
41.09 0 l
41.08 0 l
16.08 0 l
o
0.4000 0.2000 0.2000 srgb
437.58 199.26 1.78 c p1
1.50 setlinewidth
[] 0 setdash
np
437.58 197.86 m
0 2.80 l
o
np
436.25 197.86 m
2.66 0 l
o
np
436.25 200.66 m
2.66 0 l
o
437.58 197.12 1.78 c p1
0.3608 0.4000 0.2000 srgb
0.75 setlinewidth
[] 0 setdash
np
478.67 199.52 m
2.40 -4.15 l
-4.80 0 l
2.40 4.15 l
o
1.50 setlinewidth
[] 0 setdash
np
478.67 195.87 m
0 1.77 l
o
np
477.34 195.87 m
2.66 0 l
o
np
477.34 197.64 m
2.66 0 l
o
np
478.67 197.61 m
2.40 -4.16 l
-4.80 0 l
2.40 4.16 l
o
0.2000 0.4000 0.2784 srgb
0.75 setlinewidth
[] 0 setdash
np
517.23 195.65 m
5.04 0 l
o
np
519.75 193.13 m
0 5.04 l
o
1.50 setlinewidth
[] 0 setdash
np
519.75 194.14 m
0 3.02 l
o
np
518.42 194.14 m
2.66 0 l
o
np
518.42 197.16 m
2.66 0 l
o
np
517.23 193.47 m
5.04 0 l
o
np
519.75 190.95 m
0 5.04 l
o
0.2000 0.2784 0.4000 srgb
0.75 setlinewidth
[] 0 setdash
np
559.05 194.14 m
3.57 3.57 l
o
np
559.05 197.71 m
3.57 -3.57 l
o
1.50 setlinewidth
[] 0 setdash
np
560.84 194.84 m
0 2.16 l
o
np
559.51 194.84 m
2.66 0 l
o
np
559.51 197.00 m
2.66 0 l
o
np
559.05 192.41 m
3.57 3.57 l
o
np
559.05 195.98 m
3.57 -3.57 l
o
0.3608 0.2000 0.4000 srgb
0.75 setlinewidth
[] 0 setdash
np
599.40 195.60 m
2.52 2.52 l
2.52 -2.52 l
-2.52 -2.52 l
-2.52 2.52 l
o
1.50 setlinewidth
[] 0 setdash
np
601.92 194.22 m
0 2.77 l
o
np
600.59 194.22 m
2.66 0 l
o
np
600.59 196.99 m
2.66 0 l
o
np
599.40 193.89 m
2.52 2.52 l
2.52 -2.52 l
-2.52 -2.52 l
-2.52 2.52 l
o
19.01 134.08 196.50 153.60 cl
0.00 0.00 618.00 402.75 cl
0 0 0 srgb
0.75 setlinewidth
[] 0 setdash
1 setlinecap
1 setlinejoin
10.00 setmiterlimit
np
25.58 134.08 m
164.34 0 l
o
np
25.58 134.08 m
0 -4.75 l
o
np
66.67 134.08 m
0 -4.75 l
o
np
107.75 134.08 m
0 -4.75 l
o
np
148.84 134.08 m
0 -4.75 l
o
np
189.92 134.08 m
0 -4.75 l
o
/Font1 findfont 11 s
25.58 116.97 (1) .5 0 t
66.67 116.97 (2) .5 0 t
107.75 116.97 (3) .5 0 t
148.84 116.97 (4) .5 0 t
189.92 116.97 (5) .5 0 t
np
19.01 135.93 m
0 16.95 l
o
np
19.01 135.93 m
-4.75 0 l
o
np
19.01 138.76 m
-4.75 0 l
o
np
19.01 141.58 m
-4.75 0 l
o
np
19.01 144.40 m
-4.75 0 l
o
np
19.01 147.23 m
-4.75 0 l
o
np
19.01 150.05 m
-4.75 0 l
o
np
19.01 152.88 m
-4.75 0 l
o
7.60 135.93 (1.00) .5 90 t
np
19.01 134.08 m
177.49 0 l
0 19.52 l
-177.49 0 l
0 -19.52 l
o
0.00 115.07 206.00 172.61 cl
/Font2 findfont 13 s
0 0 0 srgb
107.75 158.44 (tai100dD.vrp) .5 0 t
/Font1 findfont 11 s
107.75 97.96 (1:n) .5 0 t
19.01 134.08 196.50 153.60 cl
0 0 0 srgb
0.75 setlinewidth
[ 2.25 3.75] 0 setdash
1 setlinecap
1 setlinejoin
10.00 setmiterlimit
np
0.00 139.50 m
25.58 0 l
41.09 0 l
41.08 0 l
41.09 0 l
41.08 0 l
41.09 0 l
o
0.75 setlinewidth
[] 0 setdash
np
0.00 142.43 m
25.58 0 l
41.09 0 l
41.08 0 l
41.09 0 l
41.08 0 l
41.09 0 l
o
0.4000 0.2000 0.2000 srgb
25.58 142.78 1.78 c p1
1.50 setlinewidth
[] 0 setdash
np
25.58 140.48 m
0 4.60 l
o
np
24.25 140.48 m
2.66 0 l
o
np
24.25 145.08 m
2.66 0 l
o
25.58 138.87 1.78 c p1
0.3608 0.4000 0.2000 srgb
0.75 setlinewidth
[] 0 setdash
np
66.67 141.46 m
2.40 -4.16 l
-4.80 0 l
2.40 4.16 l
o
1.50 setlinewidth
[] 0 setdash
np
66.67 137.17 m
0 3.04 l
o
np
65.34 137.17 m
2.66 0 l
o
np
65.34 140.21 m
2.66 0 l
o
np
66.67 140.04 m
2.40 -4.16 l
-4.80 0 l
2.40 4.16 l
o
0.2000 0.4000 0.2784 srgb
0.75 setlinewidth
[] 0 setdash
np
105.23 138.40 m
5.04 0 l
o
np
107.75 135.88 m
0 5.04 l
o
1.50 setlinewidth
[] 0 setdash
np
107.75 136.37 m
0 4.06 l
o
np
106.42 136.37 m
2.66 0 l
o
np
106.42 140.43 m
2.66 0 l
o
np
105.23 136.28 m
5.04 0 l
o
np
107.75 133.76 m
0 5.04 l
o
0.2000 0.2784 0.4000 srgb
0.75 setlinewidth
[] 0 setdash
np
147.06 136.02 m
3.56 3.57 l
o
np
147.06 139.59 m
3.56 -3.57 l
o
1.50 setlinewidth
[] 0 setdash
np
148.84 136.58 m
0 2.45 l
o
np
147.51 136.58 m
2.66 0 l
o
np
147.51 139.03 m
2.66 0 l
o
np
147.06 134.42 m
3.56 3.57 l
o
np
147.06 137.99 m
3.56 -3.57 l
o
0.3608 0.2000 0.4000 srgb
0.75 setlinewidth
[] 0 setdash
np
187.40 138.59 m
2.52 2.52 l
2.52 -2.52 l
-2.52 -2.52 l
-2.52 2.52 l
o
1.50 setlinewidth
[] 0 setdash
np
189.92 136.01 m
0 5.16 l
o
np
188.59 136.01 m
2.66 0 l
o
np
188.59 141.17 m
2.66 0 l
o
np
187.40 135.93 m
2.52 2.52 l
2.52 -2.52 l
-2.52 -2.52 l
-2.52 2.52 l
o
225.01 134.08 402.50 153.60 cl
0.00 0.00 618.00 402.75 cl
0 0 0 srgb
0.75 setlinewidth
[] 0 setdash
1 setlinecap
1 setlinejoin
10.00 setmiterlimit
np
231.58 134.08 m
164.34 0 l
o
np
231.58 134.08 m
0 -4.75 l
o
np
272.67 134.08 m
0 -4.75 l
o
np
313.75 134.08 m
0 -4.75 l
o
np
354.84 134.08 m
0 -4.75 l
o
np
395.92 134.08 m
0 -4.75 l
o
/Font1 findfont 11 s
231.58 116.97 (1) .5 0 t
272.67 116.97 (2) .5 0 t
313.75 116.97 (3) .5 0 t
354.84 116.97 (4) .5 0 t
395.92 116.97 (5) .5 0 t
np
225.01 135.93 m
0 16.95 l
o
np
225.01 135.93 m
-4.75 0 l
o
np
225.01 138.76 m
-4.75 0 l
o
np
225.01 141.58 m
-4.75 0 l
o
np
225.01 144.40 m
-4.75 0 l
o
np
225.01 147.23 m
-4.75 0 l
o
np
225.01 150.05 m
-4.75 0 l
o
np
225.01 152.88 m
-4.75 0 l
o
213.60 135.93 (1.00) .5 90 t
np
225.01 134.08 m
177.49 0 l
0 19.52 l
-177.49 0 l
0 -19.52 l
o
206.00 115.07 412.00 172.61 cl
/Font2 findfont 13 s
0 0 0 srgb
313.75 158.44 (tai150aD.vrp) .5 0 t
/Font1 findfont 11 s
313.75 97.96 (1:n) .5 0 t
194.60 143.84 (1:n) .5 90 t
225.01 134.08 402.50 153.60 cl
0 0 0 srgb
0.75 setlinewidth
[ 2.25 3.75] 0 setdash
1 setlinecap
1 setlinejoin
10.00 setmiterlimit
np
190.50 134.43 m
41.08 0 l
41.09 0 l
41.08 0 l
41.09 0 l
41.08 0 l
41.09 0 l
o
0.75 setlinewidth
[] 0 setdash
np
190.50 136.39 m
41.08 0 l
41.09 0 l
41.08 0 l
41.09 0 l
41.08 0 l
41.09 0 l
o
0.4000 0.2000 0.2000 srgb
231.58 141.04 1.78 c p1
1.50 setlinewidth
[] 0 setdash
np
231.58 139.24 m
0 3.60 l
o
np
230.25 139.24 m
2.66 0 l
o
np
230.25 142.84 m
2.66 0 l
o
231.58 137.91 1.78 c p1
0.3608 0.4000 0.2000 srgb
0.75 setlinewidth
[] 0 setdash
np
272.67 140.10 m
2.40 -4.15 l
-4.80 0 l
2.40 4.15 l
o
1.50 setlinewidth
[] 0 setdash
np
272.67 136.15 m
0 2.36 l
o
np
271.34 136.15 m
2.66 0 l
o
np
271.34 138.51 m
2.66 0 l
o
np
272.67 138.70 m
2.40 -4.15 l
-4.80 0 l
2.40 4.15 l
o
0.2000 0.4000 0.2784 srgb
0.75 setlinewidth
[] 0 setdash
np
311.23 139.41 m
5.04 0 l
o
np
313.75 136.89 m
0 5.04 l
o
1.50 setlinewidth
[] 0 setdash
np
313.75 137.63 m
0 3.57 l
o
np
312.42 137.63 m
2.66 0 l
o
np
312.42 141.20 m
2.66 0 l
o
np
311.23 136.72 m
5.04 0 l
o
np
313.75 134.20 m
0 5.04 l
o
0.2000 0.2784 0.4000 srgb
0.75 setlinewidth
[] 0 setdash
np
353.06 136.80 m
3.56 3.56 l
o
np
353.06 140.36 m
3.56 -3.56 l
o
1.50 setlinewidth
[] 0 setdash
np
354.84 135.90 m
0 5.36 l
o
np
353.51 135.90 m
2.66 0 l
o
np
353.51 141.26 m
2.66 0 l
o
np
353.06 134.53 m
3.56 3.57 l
o
np
353.06 138.10 m
3.56 -3.57 l
o
0.3608 0.2000 0.4000 srgb
0.75 setlinewidth
[] 0 setdash
np
393.40 140.83 m
2.52 2.52 l
2.52 -2.52 l
-2.52 -2.52 l
-2.52 2.52 l
o
1.50 setlinewidth
[] 0 setdash
np
395.92 137.79 m
0 6.08 l
o
np
394.59 137.79 m
2.66 0 l
o
np
394.59 143.87 m
2.66 0 l
o
np
393.40 137.96 m
2.52 2.52 l
2.52 -2.52 l
-2.52 -2.52 l
-2.52 2.52 l
o
431.01 134.08 608.50 153.60 cl
0.00 0.00 618.00 402.75 cl
0 0 0 srgb
0.75 setlinewidth
[] 0 setdash
1 setlinecap
1 setlinejoin
10.00 setmiterlimit
np
437.58 134.08 m
164.34 0 l
o
np
437.58 134.08 m
0 -4.75 l
o
np
478.67 134.08 m
0 -4.75 l
o
np
519.75 134.08 m
0 -4.75 l
o
np
560.84 134.08 m
0 -4.75 l
o
np
601.92 134.08 m
0 -4.75 l
o
/Font1 findfont 11 s
437.58 116.97 (1) .5 0 t
478.67 116.97 (2) .5 0 t
519.75 116.97 (3) .5 0 t
560.84 116.97 (4) .5 0 t
601.92 116.97 (5) .5 0 t
np
431.01 135.93 m
0 16.95 l
o
np
431.01 135.93 m
-4.75 0 l
o
np
431.01 138.76 m
-4.75 0 l
o
np
431.01 141.58 m
-4.75 0 l
o
np
431.01 144.40 m
-4.75 0 l
o
np
431.01 147.23 m
-4.75 0 l
o
np
431.01 150.05 m
-4.75 0 l
o
np
431.01 152.88 m
-4.75 0 l
o
419.60 135.93 (1.00) .5 90 t
np
431.01 134.08 m
177.49 0 l
0 19.52 l
-177.49 0 l
0 -19.52 l
o
412.00 115.07 618.00 172.61 cl
/Font2 findfont 13 s
0 0 0 srgb
519.75 158.44 (tai150bD.vrp) .5 0 t
/Font1 findfont 11 s
519.75 97.96 (1:n) .5 0 t
400.60 143.84 (1:n) .5 90 t
431.01 134.08 608.50 153.60 cl
0 0 0 srgb
0.75 setlinewidth
[ 2.25 3.75] 0 setdash
1 setlinecap
1 setlinejoin
10.00 setmiterlimit
np
396.50 134.54 m
41.08 0 l
41.09 0 l
41.08 0 l
41.09 0 l
41.08 0 l
16.08 0 l
o
0.75 setlinewidth
[] 0 setdash
np
396.50 136.36 m
41.08 0 l
41.09 0 l
41.08 0 l
41.09 0 l
41.08 0 l
16.08 0 l
o
0.4000 0.2000 0.2000 srgb
437.58 139.46 1.78 c p1
1.50 setlinewidth
[] 0 setdash
np
437.58 138.25 m
0 2.43 l
o
np
436.25 138.25 m
2.66 0 l
o
np
436.25 140.68 m
2.66 0 l
o
437.58 137.29 1.78 c p1
0.3608 0.4000 0.2000 srgb
0.75 setlinewidth
[] 0 setdash
np
478.67 140.48 m
2.40 -4.16 l
-4.80 0 l
2.40 4.16 l
o
1.50 setlinewidth
[] 0 setdash
np
478.67 136.75 m
0 1.91 l
o
np
477.34 136.75 m
2.66 0 l
o
np
477.34 138.66 m
2.66 0 l
o
np
478.67 138.82 m
2.40 -4.16 l
-4.80 0 l
2.40 4.16 l
o
0.2000 0.4000 0.2784 srgb
0.75 setlinewidth
[] 0 setdash
np
517.23 138.49 m
5.04 0 l
o
np
519.75 135.97 m
0 5.04 l
o
1.50 setlinewidth
[] 0 setdash
np
519.75 136.49 m
0 4.01 l
o
np
518.42 136.49 m
2.66 0 l
o
np
518.42 140.50 m
2.66 0 l
o
np
517.23 136.80 m
5.04 0 l
o
np
519.75 134.28 m
0 5.04 l
o
0.2000 0.2784 0.4000 srgb
0.75 setlinewidth
[] 0 setdash
np
559.05 135.46 m
3.57 3.56 l
o
np
559.05 139.02 m
3.57 -3.56 l
o
1.50 setlinewidth
[] 0 setdash
np
560.84 136.29 m
0 1.91 l
o
np
559.51 136.29 m
2.66 0 l
o
np
559.51 138.20 m
2.66 0 l
o
np
559.05 134.15 m
3.57 3.56 l
o
np
559.05 137.71 m
3.57 -3.56 l
o
0.3608 0.2000 0.4000 srgb
0.75 setlinewidth
[] 0 setdash
np
599.40 137.31 m
2.52 2.52 l
2.52 -2.52 l
-2.52 -2.53 l
-2.52 2.53 l
o
1.50 setlinewidth
[] 0 setdash
np
601.92 136.60 m
0 1.41 l
o
np
600.59 136.60 m
2.66 0 l
o
np
600.59 138.01 m
2.66 0 l
o
np
599.40 136.52 m
2.52 2.52 l
2.52 -2.52 l
-2.52 -2.52 l
-2.52 2.52 l
o
19.01 76.54 196.50 96.06 cl
0.00 0.00 618.00 402.75 cl
0 0 0 srgb
0.75 setlinewidth
[] 0 setdash
1 setlinecap
1 setlinejoin
10.00 setmiterlimit
np
25.58 76.54 m
164.34 0 l
o
np
25.58 76.54 m
0 -4.75 l
o
np
66.67 76.54 m
0 -4.75 l
o
np
107.75 76.54 m
0 -4.75 l
o
np
148.84 76.54 m
0 -4.75 l
o
np
189.92 76.54 m
0 -4.75 l
o
/Font1 findfont 11 s
25.58 59.44 (1) .5 0 t
66.67 59.44 (2) .5 0 t
107.75 59.44 (3) .5 0 t
148.84 59.44 (4) .5 0 t
189.92 59.44 (5) .5 0 t
np
19.01 78.40 m
0 16.94 l
o
np
19.01 78.40 m
-4.75 0 l
o
np
19.01 81.22 m
-4.75 0 l
o
np
19.01 84.04 m
-4.75 0 l
o
np
19.01 86.87 m
-4.75 0 l
o
np
19.01 89.69 m
-4.75 0 l
o
np
19.01 92.52 m
-4.75 0 l
o
np
19.01 95.34 m
-4.75 0 l
o
7.60 78.40 (1.00) .5 90 t
np
19.01 76.54 m
177.49 0 l
0 19.52 l
-177.49 0 l
0 -19.52 l
o
0.00 57.54 206.00 115.07 cl
/Font2 findfont 13 s
0 0 0 srgb
107.75 100.90 (tai150cD.vrp) .5 0 t
/Font1 findfont 11 s
107.75 40.43 (1:n) .5 0 t
19.01 76.54 196.50 96.06 cl
0 0 0 srgb
0.75 setlinewidth
[ 2.25 3.75] 0 setdash
1 setlinecap
1 setlinejoin
10.00 setmiterlimit
np
0.00 78.41 m
25.58 0 l
41.09 0 l
41.08 0 l
41.09 0 l
41.08 0 l
41.09 0 l
o
0.75 setlinewidth
[] 0 setdash
np
0.00 82.00 m
25.58 0 l
41.09 0 l
41.08 0 l
41.09 0 l
41.08 0 l
41.09 0 l
o
0.4000 0.2000 0.2000 srgb
25.58 85.38 1.78 c p1
1.50 setlinewidth
[] 0 setdash
np
25.58 83.67 m
0 3.41 l
o
np
24.25 83.67 m
2.66 0 l
o
np
24.25 87.08 m
2.66 0 l
o
25.58 82.96 1.78 c p1
0.3608 0.4000 0.2000 srgb
0.75 setlinewidth
[] 0 setdash
np
66.67 83.94 m
2.40 -4.16 l
-4.80 0 l
2.40 4.16 l
o
1.50 setlinewidth
[] 0 setdash
np
66.67 80.16 m
0 2.02 l
o
np
65.34 80.16 m
2.66 0 l
o
np
65.34 82.18 m
2.66 0 l
o
np
66.67 82.19 m
2.40 -4.15 l
-4.80 0 l
2.40 4.15 l
o
0.2000 0.4000 0.2784 srgb
0.75 setlinewidth
[] 0 setdash
np
105.23 79.86 m
5.04 0 l
o
np
107.75 77.34 m
0 5.04 l
o
1.50 setlinewidth
[] 0 setdash
np
107.75 78.78 m
0 2.16 l
o
np
106.42 78.78 m
2.66 0 l
o
np
106.42 80.94 m
2.66 0 l
o
np
105.23 78.51 m
5.04 0 l
o
np
107.75 75.99 m
0 5.04 l
o
0.2000 0.2784 0.4000 srgb
0.75 setlinewidth
[] 0 setdash
np
147.06 78.51 m
3.56 3.56 l
o
np
147.06 82.07 m
3.56 -3.56 l
o
1.50 setlinewidth
[] 0 setdash
np
148.84 79.07 m
0 2.44 l
o
np
147.51 79.07 m
2.66 0 l
o
np
147.51 81.51 m
2.66 0 l
o
np
147.06 76.94 m
3.56 3.57 l
o
np
147.06 80.51 m
3.56 -3.57 l
o
0.3608 0.2000 0.4000 srgb
0.75 setlinewidth
[] 0 setdash
np
187.40 79.32 m
2.52 2.52 l
2.52 -2.52 l
-2.52 -2.52 l
-2.52 2.52 l
o
1.50 setlinewidth
[] 0 setdash
np
189.92 78.54 m
0 1.56 l
o
np
188.59 78.54 m
2.66 0 l
o
np
188.59 80.10 m
2.66 0 l
o
np
187.40 78.40 m
2.52 2.52 l
2.52 -2.52 l
-2.52 -2.52 l
-2.52 2.52 l
o
225.01 76.54 402.50 96.06 cl
0.00 0.00 618.00 402.75 cl
0 0 0 srgb
0.75 setlinewidth
[] 0 setdash
1 setlinecap
1 setlinejoin
10.00 setmiterlimit
np
231.58 76.54 m
164.34 0 l
o
np
231.58 76.54 m
0 -4.75 l
o
np
272.67 76.54 m
0 -4.75 l
o
np
313.75 76.54 m
0 -4.75 l
o
np
354.84 76.54 m
0 -4.75 l
o
np
395.92 76.54 m
0 -4.75 l
o
/Font1 findfont 11 s
231.58 59.44 (1) .5 0 t
272.67 59.44 (2) .5 0 t
313.75 59.44 (3) .5 0 t
354.84 59.44 (4) .5 0 t
395.92 59.44 (5) .5 0 t
np
225.01 78.40 m
0 16.94 l
o
np
225.01 78.40 m
-4.75 0 l
o
np
225.01 81.22 m
-4.75 0 l
o
np
225.01 84.04 m
-4.75 0 l
o
np
225.01 86.87 m
-4.75 0 l
o
np
225.01 89.69 m
-4.75 0 l
o
np
225.01 92.52 m
-4.75 0 l
o
np
225.01 95.34 m
-4.75 0 l
o
213.60 78.40 (1.00) .5 90 t
np
225.01 76.54 m
177.49 0 l
0 19.52 l
-177.49 0 l
0 -19.52 l
o
206.00 57.54 412.00 115.07 cl
/Font2 findfont 13 s
0 0 0 srgb
313.75 100.90 (tai150dD.vrp) .5 0 t
/Font1 findfont 11 s
313.75 40.43 (1:n) .5 0 t
194.60 86.30 (1:n) .5 90 t
225.01 76.54 402.50 96.06 cl
0 0 0 srgb
0.75 setlinewidth
[ 2.25 3.75] 0 setdash
1 setlinecap
1 setlinejoin
10.00 setmiterlimit
np
190.50 76.96 m
41.08 0 l
41.09 0 l
41.08 0 l
41.09 0 l
41.08 0 l
41.09 0 l
o
0.75 setlinewidth
[] 0 setdash
np
190.50 79.42 m
41.08 0 l
41.09 0 l
41.08 0 l
41.09 0 l
41.08 0 l
41.09 0 l
o
0.4000 0.2000 0.2000 srgb
231.58 82.98 1.78 c p1
1.50 setlinewidth
[] 0 setdash
np
231.58 81.25 m
0 3.46 l
o
np
230.25 81.25 m
2.66 0 l
o
np
230.25 84.71 m
2.66 0 l
o
231.58 80.20 1.78 c p1
0.3608 0.4000 0.2000 srgb
0.75 setlinewidth
[] 0 setdash
np
272.67 82.19 m
2.40 -4.16 l
-4.80 0 l
2.40 4.16 l
o
1.50 setlinewidth
[] 0 setdash
np
272.67 78.43 m
0 1.98 l
o
np
271.34 78.43 m
2.66 0 l
o
np
271.34 80.41 m
2.66 0 l
o
np
272.67 81.17 m
2.40 -4.16 l
-4.80 0 l
2.40 4.16 l
o
0.2000 0.4000 0.2784 srgb
0.75 setlinewidth
[] 0 setdash
np
311.23 79.38 m
5.04 0 l
o
np
313.75 76.86 m
0 5.04 l
o
1.50 setlinewidth
[] 0 setdash
np
313.75 78.37 m
0 2.02 l
o
np
312.42 78.37 m
2.66 0 l
o
np
312.42 80.39 m
2.66 0 l
o
np
311.23 78.60 m
5.04 0 l
o
np
313.75 76.08 m
0 5.04 l
o
0.2000 0.2784 0.4000 srgb
0.75 setlinewidth
[] 0 setdash
np
353.06 78.01 m
3.56 3.56 l
o
np
353.06 81.57 m
3.56 -3.56 l
o
1.50 setlinewidth
[] 0 setdash
np
354.84 78.59 m
0 2.40 l
o
np
353.51 78.59 m
2.66 0 l
o
np
353.51 80.99 m
2.66 0 l
o
np
353.06 76.61 m
3.56 3.57 l
o
np
353.06 80.18 m
3.56 -3.57 l
o
0.3608 0.2000 0.4000 srgb
0.75 setlinewidth
[] 0 setdash
np
393.40 80.29 m
2.52 2.52 l
2.52 -2.52 l
-2.52 -2.52 l
-2.52 2.52 l
o
1.50 setlinewidth
[] 0 setdash
np
395.92 78.45 m
0 3.67 l
o
np
394.59 78.45 m
2.66 0 l
o
np
394.59 82.12 m
2.66 0 l
o
np
393.40 78.43 m
2.52 2.52 l
2.52 -2.52 l
-2.52 -2.52 l
-2.52 2.52 l
o
431.01 76.54 608.50 96.06 cl
0.00 0.00 618.00 402.75 cl
0 0 0 srgb
0.75 setlinewidth
[] 0 setdash
1 setlinecap
1 setlinejoin
10.00 setmiterlimit
np
437.58 76.54 m
164.34 0 l
o
np
437.58 76.54 m
0 -4.75 l
o
np
478.67 76.54 m
0 -4.75 l
o
np
519.75 76.54 m
0 -4.75 l
o
np
560.84 76.54 m
0 -4.75 l
o
np
601.92 76.54 m
0 -4.75 l
o
/Font1 findfont 11 s
437.58 59.44 (1) .5 0 t
478.67 59.44 (2) .5 0 t
519.75 59.44 (3) .5 0 t
560.84 59.44 (4) .5 0 t
601.92 59.44 (5) .5 0 t
np
431.01 78.40 m
0 16.94 l
o
np
431.01 78.40 m
-4.75 0 l
o
np
431.01 81.22 m
-4.75 0 l
o
np
431.01 84.04 m
-4.75 0 l
o
np
431.01 86.87 m
-4.75 0 l
o
np
431.01 89.69 m
-4.75 0 l
o
np
431.01 92.52 m
-4.75 0 l
o
np
431.01 95.34 m
-4.75 0 l
o
419.60 78.40 (1.00) .5 90 t
np
431.01 76.54 m
177.49 0 l
0 19.52 l
-177.49 0 l
0 -19.52 l
o
412.00 57.54 618.00 115.07 cl
/Font2 findfont 13 s
0 0 0 srgb
519.75 100.90 (tai75aD.vrp) .5 0 t
/Font1 findfont 11 s
519.75 40.43 (1:n) .5 0 t
400.60 86.30 (1:n) .5 90 t
431.01 76.54 608.50 96.06 cl
0 0 0 srgb
0.75 setlinewidth
[ 2.25 3.75] 0 setdash
1 setlinecap
1 setlinejoin
10.00 setmiterlimit
np
396.50 80.08 m
41.08 0 l
41.09 0 l
41.08 0 l
41.09 0 l
41.08 0 l
16.08 0 l
o
0.75 setlinewidth
[] 0 setdash
np
396.50 81.87 m
41.08 0 l
41.09 0 l
41.08 0 l
41.09 0 l
41.08 0 l
16.08 0 l
o
0.4000 0.2000 0.2000 srgb
437.58 85.42 1.78 c p1
1.50 setlinewidth
[] 0 setdash
np
437.58 82.46 m
0 5.92 l
o
np
436.25 82.46 m
2.66 0 l
o
np
436.25 88.38 m
2.66 0 l
o
437.58 80.75 1.78 c p1
0.3608 0.4000 0.2000 srgb
0.75 setlinewidth
[] 0 setdash
np
478.67 85.42 m
2.40 -4.15 l
-4.80 0 l
2.40 4.15 l
o
1.50 setlinewidth
[] 0 setdash
np
478.67 79.79 m
0 5.72 l
o
np
477.34 79.79 m
2.66 0 l
o
np
477.34 85.51 m
2.66 0 l
o
np
478.67 81.17 m
2.40 -4.16 l
-4.80 0 l
2.40 4.16 l
o
0.2000 0.4000 0.2784 srgb
0.75 setlinewidth
[] 0 setdash
np
517.23 81.72 m
5.04 0 l
o
np
519.75 79.20 m
0 5.04 l
o
1.50 setlinewidth
[] 0 setdash
np
519.75 80.48 m
0 2.48 l
o
np
518.42 80.48 m
2.66 0 l
o
np
518.42 82.96 m
2.66 0 l
o
np
517.23 80.32 m
5.04 0 l
o
np
519.75 77.80 m
0 5.04 l
o
0.2000 0.2784 0.4000 srgb
0.75 setlinewidth
[] 0 setdash
np
559.05 81.86 m
3.57 3.56 l
o
np
559.05 85.42 m
3.57 -3.56 l
o
1.50 setlinewidth
[] 0 setdash
np
560.84 80.65 m
0 5.98 l
o
np
559.51 80.65 m
2.66 0 l
o
np
559.51 86.63 m
2.66 0 l
o
np
559.05 78.79 m
3.57 3.56 l
o
np
559.05 82.35 m
3.57 -3.56 l
o
0.3608 0.2000 0.4000 srgb
0.75 setlinewidth
[] 0 setdash
np
599.40 82.45 m
2.52 2.52 l
2.52 -2.52 l
-2.52 -2.52 l
-2.52 2.52 l
o
1.50 setlinewidth
[] 0 setdash
np
601.92 79.47 m
0 5.97 l
o
np
600.59 79.47 m
2.66 0 l
o
np
600.59 85.44 m
2.66 0 l
o
np
599.40 78.98 m
2.52 2.52 l
2.52 -2.52 l
-2.52 -2.52 l
-2.52 2.52 l
o
19.01 19.01 196.50 38.53 cl
0.00 0.00 618.00 402.75 cl
0 0 0 srgb
0.75 setlinewidth
[] 0 setdash
1 setlinecap
1 setlinejoin
10.00 setmiterlimit
np
25.58 19.01 m
164.34 0 l
o
np
25.58 19.01 m
0 -4.75 l
o
np
66.67 19.01 m
0 -4.75 l
o
np
107.75 19.01 m
0 -4.75 l
o
np
148.84 19.01 m
0 -4.75 l
o
np
189.92 19.01 m
0 -4.75 l
o
/Font1 findfont 11 s
25.58 1.90 (1) .5 0 t
66.67 1.90 (2) .5 0 t
107.75 1.90 (3) .5 0 t
148.84 1.90 (4) .5 0 t
189.92 1.90 (5) .5 0 t
np
19.01 20.86 m
0 16.94 l
o
np
19.01 20.86 m
-4.75 0 l
o
np
19.01 23.68 m
-4.75 0 l
o
np
19.01 26.51 m
-4.75 0 l
o
np
19.01 29.33 m
-4.75 0 l
o
np
19.01 32.16 m
-4.75 0 l
o
np
19.01 34.98 m
-4.75 0 l
o
np
19.01 37.80 m
-4.75 0 l
o
7.60 20.86 (1.00) .5 90 t
np
19.01 19.01 m
177.49 0 l
0 19.52 l
-177.49 0 l
0 -19.52 l
o
0.00 0.00 206.00 57.54 cl
/Font2 findfont 13 s
0 0 0 srgb
107.75 43.36 (tai75bD.vrp) .5 0 t
19.01 19.01 196.50 38.53 cl
0 0 0 srgb
0.75 setlinewidth
[ 2.25 3.75] 0 setdash
1 setlinecap
1 setlinejoin
10.00 setmiterlimit
np
0.00 20.67 m
25.58 0 l
41.09 0 l
41.08 0 l
41.09 0 l
41.08 0 l
41.09 0 l
o
0.75 setlinewidth
[] 0 setdash
np
0.00 21.89 m
25.58 0 l
41.09 0 l
41.08 0 l
41.09 0 l
41.08 0 l
41.09 0 l
o
0.4000 0.2000 0.2000 srgb
25.58 24.29 1.78 c p1
1.50 setlinewidth
[] 0 setdash
np
25.58 23.09 m
0 2.41 l
o
np
24.25 23.09 m
2.66 0 l
o
np
24.25 25.50 m
2.66 0 l
o
25.58 22.25 1.78 c p1
0.3608 0.4000 0.2000 srgb
0.75 setlinewidth
[] 0 setdash
np
66.67 26.34 m
2.40 -4.16 l
-4.80 0 l
2.40 4.16 l
o
1.50 setlinewidth
[] 0 setdash
np
66.67 21.41 m
0 4.31 l
o
np
65.34 21.41 m
2.66 0 l
o
np
65.34 25.72 m
2.66 0 l
o
np
66.67 23.63 m
2.40 -4.16 l
-4.80 0 l
2.40 4.16 l
o
0.2000 0.4000 0.2784 srgb
0.75 setlinewidth
[] 0 setdash
np
105.23 23.37 m
5.04 0 l
o
np
107.75 20.85 m
0 5.04 l
o
1.50 setlinewidth
[] 0 setdash
np
107.75 22.41 m
0 1.93 l
o
np
106.42 22.41 m
2.66 0 l
o
np
106.42 24.34 m
2.66 0 l
o
np
105.23 21.78 m
5.04 0 l
o
np
107.75 19.26 m
0 5.04 l
o
0.2000 0.2784 0.4000 srgb
0.75 setlinewidth
[] 0 setdash
np
147.06 21.84 m
3.56 3.57 l
o
np
147.06 25.41 m
3.56 -3.57 l
o
1.50 setlinewidth
[] 0 setdash
np
148.84 22.67 m
0 1.92 l
o
np
147.51 22.67 m
2.66 0 l
o
np
147.51 24.59 m
2.66 0 l
o
np
147.06 21.00 m
3.56 3.57 l
o
np
147.06 24.57 m
3.56 -3.57 l
o
0.3608 0.2000 0.4000 srgb
0.75 setlinewidth
[] 0 setdash
np
187.40 23.42 m
2.52 2.52 l
2.52 -2.52 l
-2.52 -2.52 l
-2.52 2.52 l
o
1.50 setlinewidth
[] 0 setdash
np
189.92 22.27 m
0 2.31 l
o
np
188.59 22.27 m
2.66 0 l
o
np
188.59 24.58 m
2.66 0 l
o
np
187.40 21.82 m
2.52 2.52 l
2.52 -2.52 l
-2.52 -2.52 l
-2.52 2.52 l
o
225.01 19.01 402.50 38.53 cl
0.00 0.00 618.00 402.75 cl
0 0 0 srgb
0.75 setlinewidth
[] 0 setdash
1 setlinecap
1 setlinejoin
10.00 setmiterlimit
np
231.58 19.01 m
164.34 0 l
o
np
231.58 19.01 m
0 -4.75 l
o
np
272.67 19.01 m
0 -4.75 l
o
np
313.75 19.01 m
0 -4.75 l
o
np
354.84 19.01 m
0 -4.75 l
o
np
395.92 19.01 m
0 -4.75 l
o
/Font1 findfont 11 s
231.58 1.90 (1) .5 0 t
272.67 1.90 (2) .5 0 t
313.75 1.90 (3) .5 0 t
354.84 1.90 (4) .5 0 t
395.92 1.90 (5) .5 0 t
np
225.01 20.86 m
0 16.94 l
o
np
225.01 20.86 m
-4.75 0 l
o
np
225.01 23.68 m
-4.75 0 l
o
np
225.01 26.51 m
-4.75 0 l
o
np
225.01 29.33 m
-4.75 0 l
o
np
225.01 32.16 m
-4.75 0 l
o
np
225.01 34.98 m
-4.75 0 l
o
np
225.01 37.80 m
-4.75 0 l
o
213.60 20.86 (1.00) .5 90 t
np
225.01 19.01 m
177.49 0 l
0 19.52 l
-177.49 0 l
0 -19.52 l
o
206.00 0.00 412.00 57.54 cl
/Font2 findfont 13 s
0 0 0 srgb
313.75 43.36 (tai75cD.vrp) .5 0 t
/Font1 findfont 11 s
194.60 28.77 (1:n) .5 90 t
225.01 19.01 402.50 38.53 cl
0 0 0 srgb
0.75 setlinewidth
[ 2.25 3.75] 0 setdash
1 setlinecap
1 setlinejoin
10.00 setmiterlimit
np
190.50 22.16 m
41.08 0 l
41.09 0 l
41.08 0 l
41.09 0 l
41.08 0 l
41.09 0 l
o
0.75 setlinewidth
[] 0 setdash
np
190.50 23.54 m
41.08 0 l
41.09 0 l
41.08 0 l
41.09 0 l
41.08 0 l
41.09 0 l
o
0.4000 0.2000 0.2000 srgb
231.58 29.07 1.78 c p1
1.50 setlinewidth
[] 0 setdash
np
231.58 24.72 m
0 8.69 l
o
np
230.25 24.72 m
2.66 0 l
o
np
230.25 33.41 m
2.66 0 l
o
231.58 22.73 1.78 c p1
0.3608 0.4000 0.2000 srgb
0.75 setlinewidth
[] 0 setdash
np
272.67 26.83 m
2.40 -4.15 l
-4.80 0 l
2.40 4.15 l
o
1.50 setlinewidth
[] 0 setdash
np
272.67 22.49 m
0 3.14 l
o
np
271.34 22.49 m
2.66 0 l
o
np
271.34 25.63 m
2.66 0 l
o
np
272.67 24.31 m
2.40 -4.16 l
-4.80 0 l
2.40 4.16 l
o
0.2000 0.4000 0.2784 srgb
0.75 setlinewidth
[] 0 setdash
np
311.23 23.93 m
5.04 0 l
o
np
313.75 21.41 m
0 5.04 l
o
1.50 setlinewidth
[] 0 setdash
np
313.75 21.51 m
0 4.83 l
o
np
312.42 21.51 m
2.66 0 l
o
np
312.42 26.34 m
2.66 0 l
o
np
311.23 20.91 m
5.04 0 l
o
np
313.75 18.39 m
0 5.04 l
o
0.2000 0.2784 0.4000 srgb
0.75 setlinewidth
[] 0 setdash
np
353.06 24.75 m
3.56 3.56 l
o
np
353.06 28.31 m
3.56 -3.56 l
o
1.50 setlinewidth
[] 0 setdash
np
354.84 24.61 m
0 3.84 l
o
np
353.51 24.61 m
2.66 0 l
o
np
353.51 28.45 m
2.66 0 l
o
np
353.06 23.44 m
3.56 3.57 l
o
np
353.06 27.01 m
3.56 -3.57 l
o
0.3608 0.2000 0.4000 srgb
0.75 setlinewidth
[] 0 setdash
np
393.40 24.68 m
2.52 2.52 l
2.52 -2.52 l
-2.52 -2.52 l
-2.52 2.52 l
o
1.50 setlinewidth
[] 0 setdash
np
395.92 22.29 m
0 4.77 l
o
np
394.59 22.29 m
2.66 0 l
o
np
394.59 27.06 m
2.66 0 l
o
np
393.40 20.86 m
2.52 2.52 l
2.52 -2.52 l
-2.52 -2.52 l
-2.52 2.52 l
o
431.01 19.01 608.50 38.53 cl
0.00 0.00 618.00 402.75 cl
0 0 0 srgb
0.75 setlinewidth
[] 0 setdash
1 setlinecap
1 setlinejoin
10.00 setmiterlimit
np
437.58 19.01 m
164.34 0 l
o
np
437.58 19.01 m
0 -4.75 l
o
np
478.67 19.01 m
0 -4.75 l
o
np
519.75 19.01 m
0 -4.75 l
o
np
560.84 19.01 m
0 -4.75 l
o
np
601.92 19.01 m
0 -4.75 l
o
/Font1 findfont 11 s
437.58 1.90 (1) .5 0 t
478.67 1.90 (2) .5 0 t
519.75 1.90 (3) .5 0 t
560.84 1.90 (4) .5 0 t
601.92 1.90 (5) .5 0 t
np
431.01 20.86 m
0 16.94 l
o
np
431.01 20.86 m
-4.75 0 l
o
np
431.01 23.68 m
-4.75 0 l
o
np
431.01 26.51 m
-4.75 0 l
o
np
431.01 29.33 m
-4.75 0 l
o
np
431.01 32.16 m
-4.75 0 l
o
np
431.01 34.98 m
-4.75 0 l
o
np
431.01 37.80 m
-4.75 0 l
o
419.60 20.86 (1.00) .5 90 t
np
431.01 19.01 m
177.49 0 l
0 19.52 l
-177.49 0 l
0 -19.52 l
o
412.00 0.00 618.00 57.54 cl
/Font2 findfont 13 s
0 0 0 srgb
519.75 43.36 (tai75dD.vrp) .5 0 t
/Font1 findfont 11 s
400.60 28.77 (1:n) .5 90 t
431.01 19.01 608.50 38.53 cl
0 0 0 srgb
0.75 setlinewidth
[ 2.25 3.75] 0 setdash
1 setlinecap
1 setlinejoin
10.00 setmiterlimit
np
396.50 19.69 m
41.08 0 l
41.09 0 l
41.08 0 l
41.09 0 l
41.08 0 l
16.08 0 l
o
0.75 setlinewidth
[] 0 setdash
np
396.50 20.56 m
41.08 0 l
41.09 0 l
41.08 0 l
41.09 0 l
41.08 0 l
16.08 0 l
o
0.4000 0.2000 0.2000 srgb
437.58 23.83 1.78 c p1
1.50 setlinewidth
[] 0 setdash
np
437.58 22.28 m
0 3.10 l
o
np
436.25 22.28 m
2.66 0 l
o
np
436.25 25.38 m
2.66 0 l
o
437.58 22.38 1.78 c p1
0.3608 0.4000 0.2000 srgb
0.75 setlinewidth
[] 0 setdash
np
478.67 24.82 m
2.40 -4.16 l
-4.80 0 l
2.40 4.16 l
o
1.50 setlinewidth
[] 0 setdash
np
478.67 21.42 m
0 1.24 l
o
np
477.34 21.42 m
2.66 0 l
o
np
477.34 22.66 m
2.66 0 l
o
np
478.67 23.63 m
2.40 -4.16 l
-4.80 0 l
2.40 4.16 l
o
0.2000 0.4000 0.2784 srgb
0.75 setlinewidth
[] 0 setdash
np
517.23 22.84 m
5.04 0 l
o
np
519.75 20.32 m
0 5.04 l
o
1.50 setlinewidth
[] 0 setdash
np
519.75 21.41 m
0 2.87 l
o
np
518.42 21.41 m
2.66 0 l
o
np
518.42 24.28 m
2.66 0 l
o
np
517.23 21.77 m
5.04 0 l
o
np
519.75 19.25 m
0 5.04 l
o
0.2000 0.2784 0.4000 srgb
0.75 setlinewidth
[] 0 setdash
np
559.05 21.72 m
3.57 3.56 l
o
np
559.05 25.28 m
3.57 -3.56 l
o
1.50 setlinewidth
[] 0 setdash
np
560.84 21.54 m
0 3.92 l
o
np
559.51 21.54 m
2.66 0 l
o
np
559.51 25.46 m
2.66 0 l
o
np
559.05 19.98 m
3.57 3.57 l
o
np
559.05 23.55 m
3.57 -3.57 l
o
0.3608 0.2000 0.4000 srgb
0.75 setlinewidth
[] 0 setdash
np
599.40 22.39 m
2.52 2.52 l
2.52 -2.52 l
-2.52 -2.52 l
-2.52 2.52 l
o
1.50 setlinewidth
[] 0 setdash
np
601.92 21.55 m
0 1.68 l
o
np
600.59 21.55 m
2.66 0 l
o
np
600.59 23.23 m
2.66 0 l
o
np
599.40 21.70 m
2.52 2.52 l
2.52 -2.52 l
-2.52 -2.52 l
-2.52 2.52 l
o
ep
%%Trailer
%%Pages: 1
%%EOF
