c199D.vrp	1444,01	1,02	200
VehicleId	ClientId	X	Y	StartTime	EndTime	ArriveTime	Need	
199	0	35	35	0	399	175,56	0	
199	157	50	50	0	0	196,7732034355964	15	
199	33	53	52	53	0	209,37875471106039	11	
199	185	55	50	0	0	221,20718183580658	10	
199	79	57	48	157	0	233,03560896055277	23	
199	129	58	48	0	0	243,03560896055277	6	
199	169	62	48	0	0	256,03560896055277	15	
199	78	61	52	152	0	269,15871458617043	3	
199	34	65	55	55	0	283,15871458617043	14	
199	164	62	57	0	0	295,76426586163442	31	
199	120	57	58	0	0	309,86328537522720	28	
199	81	55	54	160	0	323,33542133022678	26	
199	51	49	58	91	0	339,54652388115476	10	
199	122	42	57	0	0	355,61759169302024	8	
200	0	35	35	0	399	183,54	0	
200	26	45	30	44	0	194,7203398874989	17	
200	195	50	30	0	0	208,7203398874989	21	
200	54	57	29	100	0	224,79140769936438	18	
200	134	61	33	0	0	239,44826194885676	26	
200	163	62	35	0	0	250,68432992635655	12	
200	24	65	35	39	0	262,68432992635655	3	
200	29	64	42	48	0	278,75539773822203	9	
200	121	62	42	0	0	289,75539773822203	8	
200	68	56	39	132	0	305,46360167072140	36	
200	150	56	37	0	0	316,46360167072140	10	
200	80	56	37	158	0	325,46360167072140	6	
200	177	55	34	0	0	337,62587933088978	17	
200	109	52	33	0	0	349,78815699105816	11	
201	0	35	35	0	399	167,58	0	
201	111	42	41	0	0	176,79954445729289	19	
201	50	47	47	90	0	193,60979413319954	13	
201	102	49	49	0	0	205,43822125794573	30	
201	158	55	45	0	0	279,55110255092798	16	
201	3	55	45	3	0	288,55110255092798	13	
201	77	53	43	148	0	300,37952967567417	14	
201	116	52	41	0	0	311,61559765317396	15	
201	196	51	42	0	0	322,02981121554706	27	
201	76	49	42	147	0	333,02981121554706	13	
201	184	50	40	0	0	344,26587919304685	19	
201	12	50	35	19	0	358,26587919304685	19	
202	0	35	35	0	399	175,56	0	
202	189	30	60	0	0	201,0550975679639	16	
202	10	30	60	17	0	210,0550975679639	16	
202	108	31	62	0	0	221,29116554546369	23	
202	90	31	67	190	0	235,29116554546369	3	
202	126	27	68	0	0	248,41427117108135	7	
202	63	27	69	124	0	258,41427117108135	10	
202	181	31	76	0	0	275,47652891937990	25	
202	32	35	69	52	0	292,53878666767845	23	
202	131	37	69	0	0	303,53878666767845	11	
202	160	40	66	0	0	316,78142735479773	26	
202	128	43	67	0	0	328,94370501496611	14	
202	30	40	60	50	0	345,55947812083002	21	
202	70	37	56	136	0	359,55947812083002	5	
203	0	35	35	0	399	207,48	0	
203	5	15	30	5	0	228,0955281280883	26	
203	84	11	31	166	0	241,21863375370596	7	
203	173	11	28	0	0	253,21863375370596	6	
203	17	5	30	25	0	268,54318907404272	2	
203	113	5	25	0	0	282,54318907404272	23	
203	86	4	18	169	0	298,61425688590820	35	
203	16	10	20	25	0	313,93881220624496	19	
203	61	12	24	122	0	327,41094816124454	13	
203	85	16	22	166	0	340,88308411624412	41	
203	93	18	24	194	0	352,71151124099031	22	
204	0	35	35	0	399	191,52	0	
204	28	41	37	47	0	197,84455532033676	16	
204	138	45	35	0	0	211,31669127533634	15	
204	154	45	35	0	0	220,31669127533634	30	
204	149	48	28	0	0	248,03577310586391	18	
204	198	48	21	0	0	264,03577310586391	20	
204	21	45	20	33	0	276,19805076603229	11	
204	180	43	26	0	0	291,52260608636905	22	
204	40	40	25	66	0	347,32227766016838	9	
204	105	40	30	0	0	361,32227766016838	21	
205	0	35	35	0	399	215,46	0	
205	153	21	45	0	0	232,6646505340853	11	
205	106	21	47	0	0	243,6646505340853	15	
205	194	21	48	0	0	253,6646505340853	17	
205	7	20	50	10	0	264,90071851158509	5	
205	48	13	52	78	0	281,18082840086561	36	
205	182	22	53	0	0	299,23621353900303	28	
205	62	24	58	122	0	313,62137834613753	19	
205	159	26	59	0	0	324,85744632363732	29	
205	148	25	55	0	0	337,98055194925498	17	
205	88	26	52	178	0	350,14282960942336	9	
206	0	35	35	0	399	135,66	0	
206	123	16	57	0	0	164,7288837074973	16	
206	19	15	60	32	0	176,89116136766568	17	
206	107	17	63	0	0	189,49671264312967	19	
206	175	17	64	0	0	199,49671264312967	14	
206	11	20	65	18	0	211,65899030329805	12	
206	64	15	77	124	0	233,65899030329805	9	
206	49	6	68	85	0	255,38691236465595	30	
206	143	5	64	0	0	268,51001799027361	11	
206	36	2	60	58	0	282,51001799027361	5	
206	47	8	56	76	0	298,72112054120159	27	
206	168	9	56	0	0	308,72112054120159	13	
206	124	8	52	0	0	321,84422616681925	10	
206	46	2	48	72	0	338,05532871774723	1	
206	82	15	47	161	0	360,09373352815253	16	
208	0	35	35	0	399	143,64	0	
208	137	32	22	0	0	156,9816640641263	9	
208	2	35	17	1	0	171,8126159589716	7	
208	178	35	16	0	0	181,8126159589716	29	
208	115	36	16	0	0	191,8126159589716	10	
208	144	30	15	0	0	206,89537848926982	16	
208	57	32	12	113	0	219,50092976473381	7	
208	145	39	10	0	0	235,78103965401433	10	
208	15	30	5	25	0	258,695630140987	8	
208	43	23	3	68	0	274,97574003026752	7	
208	142	21	10	0	0	291,25584991954804	13	
208	42	24	12	66	0	303,86140119501203	5	
208	172	26	13	0	0	315,09746917251182	12	
208	87	28	18	177	0	329,48263397964632	26	
208	97	25	21	0	0	342,72527466676560	12	
208	117	27	23	0	0	354,55370179151179	3	
208	13	30	25	19	0	367,15925306697578	23	
209	0	35	35	0	399	167,58	0	
209	37	20	20	61	0	188,7932034355964	8	
209	100	18	18	0	0	200,62163056034259	17	
209	192	15	14	0	0	214,62163056034259	11	
209	119	13	13	0	0	225,85769853784238	9	
209	14	15	10	24	0	238,46324981330637	20	
209	38	5	5	62	0	258,64358970080527	16	
209	140	5	6	0	0	268,64358970080527	7	
209	44	11	14	69	0	287,64358970080527	18	
209	141	10	17	0	0	299,80586736097365	27	
209	191	12	17	0	0	310,80586736097365	15	
209	91	15	19	191	0	323,41141863643764	1	
209	193	16	19	0	0	333,41141863643764	18	
209	98	19	21	0	0	346,01696991190163	10	
209	92	22	22	194	0	358,17924757207001	2	
209	151	22	22	0	0	367,17924757207001	18	
210	0	35	35	0	399	159,60	0	
210	9	55	60	13	0	191,6156211871642	16	
210	135	62	63	0	0	208,23139429302811	17	
210	35	63	65	56	0	219,46746227052790	8	
210	136	63	69	0	0	232,46746227052790	6	
210	65	62	77	129	0	249,52972001882645	20	
210	71	57	68	138	0	268,82535015981345	15	
210	161	55	65	0	0	281,43090143527744	37	
210	103	52	64	0	0	293,59317909544582	16	
210	66	49	73	130	0	312,08001207595096	25	
210	188	47	66	0	0	328,36012196523148	24	
210	20	45	65	33	0	339,59618994273127	9	
211	0	35	35	0	399	167,58	0	
211	110	51	21	0	0	188,8402916254693	5	
211	155	55	20	0	0	201,96339725108696	21	
211	4	55	20	5	0	210,96339725108696	19	
211	139	59	15	0	0	226,36652148851981	14	
211	187	60	15	0	0	236,36652148851981	14	
211	39	60	12	65	0	248,36652148851981	31	
211	67	67	5	130	0	267,26601642513147	25	
211	170	66	14	0	0	285,32140156326889	22	
211	25	65	20	43	0	300,40416409356711	6	
211	55	63	23	104	0	313,00971536903110	2	
211	165	62	24	0	0	323,42392893140420	8	
211	130	58	27	0	0	337,42392893140420	19	
211	179	52	26	0	0	352,50669146170242	13	
212	0	35	35	0	399	191,52	0	
212	146	32	39	0	0	196,52	5	
212	52	27	43	91	0	211,92312423743285	9	
212	127	30	48	0	0	226,75407613227815	15	
212	190	30	50	0	0	250,40	33	
212	31	31	52	52	0	261,63606797749979	27	
212	162	35	51	0	0	274,75917360311745	16	
212	101	37	52	0	0	285,99524158061724	7	
212	1	41	49	0	0	299,99524158061724	10	
212	176	41	46	0	0	311,99524158061724	18	
212	132	38	46	0	0	323,99524158061724	12	
212	69	37	47	133	0	334,40945514299034	6	
212	167	33	44	0	0	348,40945514299034	20	
212	27	35	40	46	0	361,88159109798992	16	
213	0	35	35	0	399	39,90	0	
213	22	45	10	38	0	66,8258240356725	18	
213	171	44	13	0	0	78,98810169584088	28	
213	133	46	10	0	0	91,59365297130487	23	
213	41	42	7	66	0	237,44	5	
213	74	46	13	144	0	253,65110255092798	8	
213	75	49	11	146	0	266,25665382639197	18	
213	23	55	5	39	0	283,74193520063054	29	
213	186	54	10	0	0	297,84095471422332	12	
213	56	53	12	111	0	309,07702269172311	6	
213	197	50	15	0	0	322,31966337884239	19	
213	72	47	16	143	0	334,48194103901077	25	
213	73	44	17	144	0	346,64421869917915	9	
214	0	35	35	0	399	311,22	0	
214	156	33	34	0	0	313,45606797749979	19	
214	112	31	32	0	0	325,28449510224598	29	
214	58	36	26	116	0	342,09474477815263	18	
214	152	36	26	0	0	351,09474477815263	26	
214	53	37	31	98	0	365,19376429174541	14	
217	0	35	35	0	399	191,52	0	
217	166	21	36	0	0	205,5556688476182	19	
217	147	25	32	0	0	220,21252309711058	25	
217	6	25	30	6	0	231,21252309711058	3	
217	96	22	27	0	0	244,45516378422986	11	
217	104	20	26	0	0	255,69123176172965	9	
217	99	20	26	0	0	312,24	9	
217	59	21	24	118	0	323,47606797749979	28	
217	95	25	24	0	0	336,47606797749979	20	
217	94	26	27	196	0	348,63834563766817	27	
217	183	26	29	0	0	359,63834563766817	27	
219	0	35	35	0	399	167,58	0	
219	18	20	40	30	0	183,3913883008419	12	
219	83	14	37	164	0	199,09959223334127	11	
219	199	12	38	0	0	210,33566021084106	5	
219	125	7	38	0	0	261,38	28	
219	45	6	38	72	0	271,38	16	
219	174	7	43	0	0	293,39901951359278	27	
219	8	10	43	13	0	305,39901951359278	9	
219	114	12	42	0	0	316,63508749109257	21	
219	60	17	34	118	0	335,06906862314917	3	
219	118	17	33	0	0	345,06906862314917	41	
219	89	26	35	189	0	363,28861308044206	15	
