c50D.vrp	570,89	1,02	160
VehicleId	ClientId	X	Y	StartTime	EndTime	ArriveTime	Need	
51	0	30	40	0	351	14,04	0	
51	43	5	64	0	0	48,6954469023269	11	
51	24	8	52	0	0	111,609316876853	10	
51	25	7	38	0	0	140,6449857244712	28	
51	14	12	42	79	0	189,88312423743285	21	
51	6	21	47	16	0	215,17875437841985	15	
51	23	16	57	157	0	241,35909426591875	16	
51	7	17	63	21	0	262,44185679621697	19	
51	48	25	55	0	0	288,75556529520177	17	
51	27	30	48	0	0	312,35789056224440	15	
53	0	30	40	0	351	63,18	0	
53	38	45	35	0	0	78,9913883008419	15	
53	9	52	33	42	0	101,27149819012242	11	
53	30	58	27	0	0	124,75677956436099	19	
53	34	61	33	0	0	169,12820393249937	26	
53	50	56	37	0	0	190,53132816993222	10	
53	16	52	41	80	0	211,18818241942460	15	
53	21	62	42	128	0	236,23805804054550	8	
53	29	58	48	0	0	258,44916059147348	6	
53	2	49	49	4	0	282,50454572961090	30	
53	11	42	41	51	0	308,13469154234550	19	
54	0	30	40	0	351	105,30	0	
54	18	17	33	100	0	120,0648230602334	41	
54	13	5	25	63	0	149,4870281620894	23	
54	41	10	17	0	0	173,9210092941460	27	
54	40	5	6	0	0	201,0040552677406	7	
54	19	13	13	104	0	226,6342010804752	9	
54	42	21	10	0	0	250,17820482579273	13	
54	17	27	23	86	0	279,49602588906913	3	
54	4	20	26	12	0	302,11179899493304	9	
54	47	25	32	0	0	324,92204867083969	25	
55	0	30	40	0	351	84,24	0	
55	12	31	32	58	0	92,30225774829855	29	
55	37	32	22	0	0	117,35213336941945	9	
55	44	30	15	0	0	139,63224325869997	16	
55	15	36	16	80	0	160,71500578899819	10	
55	45	39	10	0	0	182,42320972149756	10	
55	33	46	10	0	0	204,42320972149756	23	
55	39	59	15	0	0	233,35159799868166	14	
55	10	51	21	44	0	258,35159799868166	5	
55	49	48	28	0	0	280,96737110454557	18	
55	5	40	30	12	0	304,21358235578089	21	
55	46	32	39	0	0	331,25517693457319	5	
56	0	30	40	0	351	28,08	0	
56	32	38	46	0	0	38,08	12	
56	1	37	52	1	0	59,16276253029822	7	
56	8	31	62	34	0	85,82466631998882	23	
56	26	27	68	0	0	120,49110255092798	7	
56	31	37	69	0	0	145,54097817204888	11	
56	28	43	67	0	0	166,86553349238564	14	
56	3	52	64	9	0	199,98683298050514	16	
56	36	63	69	0	0	227,06987895409974	6	
56	35	62	63	0	0	248,15264148439796	17	
56	20	57	58	116	0	270,22370929626344	28	
56	22	42	57	138	0	300,25700567463634	8	
