c75D.vrp	923,3	1,02	140
VehicleId	ClientId	X	Y	StartTime	EndTime	ArriveTime	Need	
76	0	40	40	0	346	131,48	0	
76	45	50	30	0	0	145,622135623731	21	
76	29	52	26	112	0	166,09427157873058	13	
76	5	55	20	17	0	188,80247551122995	21	
76	15	62	24	42	0	212,86473325952850	8	
76	57	65	27	0	0	233,10737394664778	14	
76	13	62	35	32	0	257,65137769196531	12	
76	27	55	34	108	0	280,72244550383079	17	
76	52	54	38	0	0	300,84555112944845	19	
77	0	40	40	0	346	76,12	0	
77	48	48	21	0	0	96,7355281280883	20	
77	47	50	15	0	0	119,06008344842506	19	
77	36	54	10	138	0	160,80312423743285	12	
77	69	50	4	0	0	184,01422678836083	8	
77	71	59	5	0	0	209,06961192649825	3	
77	60	64	4	0	0	230,16863144009103	13	
77	70	66	8	0	0	250,64076739509061	11	
77	20	66	14	79	0	272,64076739509061	22	
77	37	60	15	150	0	294,72352992538883	14	
79	0	40	40	0	346	173,00	0	
79	38	47	66	152	0	199,9258240356725	24	
79	65	50	70	0	0	220,9258240356725	9	
79	66	57	72	0	0	244,20593392495302	37	
79	11	55	65	25	0	267,48604381423354	37	
79	53	55	57	0	0	291,48604381423354	22	
81	0	40	40	0	346	69,20	0	
81	75	40	37	0	0	72,20	20	
81	68	38	33	0	0	92,67213595499958	10	
81	6	33	34	20	0	159,49901951359278	19	
81	2	36	26	5	0	184,04302325891031	26	
81	30	43	26	119	0	207,04302325891031	22	
81	4	45	35	13	0	232,26256771620320	30	
81	0	40	40	0	346	255,33363552806868	0	
81	34	50	40	131	0	265,33363552806868	19	
81	46	51	42	0	0	283,56970350556847	27	
81	67	45	42	0	0	305,56970350556847	30	
82	0	40	40	0	346	179,92	0	
82	17	33	44	47	0	187,98225774829855	20	
82	3	21	45	8	0	216,02385232709085	11	
82	44	21	48	0	0	235,02385232709085	17	
82	32	22	53	122	0	256,12287184068363	28	
82	40	30	50	0	0	280,66687558600116	33	
82	12	35	51	30	0	301,76589509959394	16	
83	0	40	40	0	346	69,20	0	
83	74	40	20	0	0	89,20	10	
83	61	36	6	0	0	119,760219778561	15	
83	64	15	5	0	0	156,7840158201896	28	
83	42	15	14	0	0	181,7840158201896	11	
83	43	16	19	0	0	202,88303533378238	18	
83	41	12	17	0	0	223,35517128878196	15	
83	56	6	25	0	0	249,35517128878196	26	
83	23	11	28	85	0	271,18612318362726	6	
83	63	20	30	0	0	296,40566764092015	11	
84	0	40	40	0	346	89,96	0	
84	51	29	39	0	0	101,0053610171873	12	
84	16	21	36	42	0	125,54936476250483	19	
84	49	12	38	0	0	150,76890921979772	5	
84	24	7	43	87	0	173,83997703166320	27	
84	18	9	56	66	0	202,99292346962910	13	
84	55	10	70	0	0	233,02859231724730	7	
84	25	17	64	101	0	258,24813677454019	14	
84	50	15	56	0	0	282,49434802577551	22	
87	0	40	40	0	346	138,40	0	
87	21	44	13	84	0	165,6946881279124	28	
87	28	35	16	109	0	191,18152110841754	29	
87	62	30	20	0	0	213,58464534585039	18	
87	22	26	13	84	0	237,64690309414894	12	
87	1	22	22	3	0	263,49576089594504	18	
87	73	27	24	0	0	284,88092570307954	6	
87	33	26	29	128	0	305,97994521667232	27	
89	0	40	40	0	346	124,56	0	
89	8	55	45	20	0	140,3713883008419	16	
89	54	67	41	0	0	169,0204989415154	16	
89	19	62	48	71	0	193,62282420855803	15	
89	59	70	64	0	0	227,51136802855633	24	
89	14	62	57	34	0	254,14151384129093	31	
89	35	55	50	135	0	280,04100877790259	10	
89	7	50	50	20	0	301,04100877790259	15	
91	0	40	40	0	346	138,40	0	
91	26	41	46	107	0	144,48276253029822	18	
91	72	35	60	0	0	175,71430874202602	1	
91	39	30	60	152	0	196,71430874202602	16	
91	9	26	59	22	0	216,83741436764368	29	
91	31	31	76	121	0	250,55745951431308	25	
91	10	40	66	24	0	280,01108356138678	26	
91	58	40	60	0	0	302,01108356138678	21	
