big_tai385D.vrp	24435,5	1,005	65
VehicleId	ClientId	X	Y	StartTime	EndTime	ArriveTime	Need	
385	0	5332	1525	0	4816	2937,760	0	
385	261	5199	1472	0	0	3080,931226159449	4	
385	260	5176	1468	0	0	3199,2764612193065	9	
385	1	5166	1480	9	0	3309,8969605711198	3	
385	266	5180	1484	0	0	3419,4571803496808	5	
385	265	5176	1502	0	0	3532,8962692642666	2	
385	379	5167	1495	0	0	3639,2980235152580	1	
385	254	5139	1496	0	0	3762,3158749675018	4	
385	255	5133	1503	0	0	3866,53541942479469	1	
385	257	5132	1515	0	0	3973,57701400358699	14	
385	258	5150	1520	0	0	4087,25855569585639	2	
385	280	5152	1546	0	0	4208,33536531666699	14	
385	282	5155	1569	0	0	4326,53019232615339	1	
385	295	5262	1525	0	0	4537,22375308041539	2	
386	0	5332	1525	0	4816	2841,440	0	
386	226	5052	1374	0	0	3159,561046144388	7	
386	225	5040	1368	0	0	3267,9774540093867	1	
386	3	5030	1372	26	0	3373,7477836236557	7	
386	223	5020	1365	0	0	3480,9543392393894	5	
386	224	5009	1375	0	0	3590,8204079867079	6	
386	230	5040	1387	0	0	3719,0619482638972	2	
386	229	5050	1386	0	0	3824,1118238850181	3	
386	231	5028	1396	0	0	3943,2779158322072	7	
386	232	5031	1405	0	0	4047,76474881271234	9	
386	233	5016	1447	0	0	4187,36295505466784	13	
386	287	5253	1509	0	0	4527,33846403464684	5	
387	0	5332	1525	0	4816	3082,240	0	
387	118	5391	1811	1641	0	3374,262259425544	42	
387	7	5403	1868	43	0	3596,6894635168428	5	
387	8	5415	1875	45	0	3705,5819075062926	3	
387	31	5456	1933	540	0	3871,6100709346116	3	
387	12	5457	1926	88	0	3973,68113874647708	1	
387	11	5451	1891	87	0	4104,19170055560648	6	
387	10	5440	1885	87	0	4211,72166464174818	2	
387	9	5426	1876	70	0	4325,6433169770932	3	
388	0	5332	1525	0	4816	1589,280	0	
388	66	5333	1799	949	0	1863,281824811442	3	
388	67	5342	1796	975	0	2079,04683298050514	1	
388	68	5337	1816	1001	0	2210,5755281280883	3	
388	377	5347	1820	0	0	2316,3458577423573	1	
388	370	5345	1825	0	0	2416,7310225494918	1	
388	15	5322	1844	141	0	2541,5638903298444	2	
388	14	5350	1843	124	0	2664,5817417820882	1	
388	16	5342	1861	238	0	2956,1377156035922	1	
388	29	5355	1865	522	0	3064,7391861123276	1	
388	25	5377	1863	453	0	3181,8299081467021	2	
388	24	5374	1873	452	0	3287,2702146556127	1	
388	22	5376	1887	399	0	3396,4123502793437	3	
388	23	5372	1896	442	0	3501,2612080811398	1	
388	20	5382	1890	381	0	3607,9231118708304	1	
388	30	5401	1893	524	0	3722,1584959325017	1	
388	6	5394	1844	35	0	3866,6559706155600	23	
388	26	5372	1845	496	0	3983,6786861611052	3	
388	27	5365	1832	514	0	4093,4435092213386	4	
388	28	5365	1822	515	0	4198,4435092213386	5	
388	120	5362	1811	1658	0	4304,8452634723300	4	
388	119	5365	1806	1649	0	4405,6762153671753	2	
389	0	5332	1525	0	4816	2022,720	0	
389	346	5724	1463	0	0	2419,592775584317	4	
389	347	5767	1472	0	0	3606,4517652729776	29	
389	348	5824	1487	0	0	3760,3924133861431	8	
389	202	5531	1580	0	0	4162,7976833474761	10	
389	345	5502	1570	0	0	4288,4734066478320	2	
389	181	5466	1593	0	0	4426,1934253744197	2	
390	0	5332	1525	0	4816	2070,880	0	
390	150	5428	1739	2031	0	2305,426370681791	1	
390	149	5422	1749	2031	0	2412,0882744714816	2	
390	148	5436	1768	2021	0	2530,6891219138935	1	
390	164	5463	1740	2287	0	2664,5864225914469	1	
390	166	5451	1735	2297	0	2772,5864225914469	2	
390	163	5466	1753	2261	0	2891,0171716191669	1	
390	162	5466	1761	2225	0	2994,0171716191669	1	
390	161	5478	1775	2225	0	3107,4562605337527	1	
390	197	5519	1778	0	0	3243,5658701159416	3	
390	201	5526	1793	0	0	3355,1188154731884	2	
390	198	5513	1804	0	0	3467,1482018391148	1	
390	366	5503	1791	0	0	3578,5494213059715	1	
390	160	5488	1802	2208	0	3692,1504965437098	1	
390	147	5432	1787	2021	0	3845,1246287062528	3	
390	369	5418	1818	0	0	3974,1393314096427	5	
390	115	5411	1790	1595	0	4098,0010707889663	4	
390	112	5379	1773	1552	0	4229,2364126529532	1	
390	111	5365	1771	1533	0	4338,3785482766842	2	
390	126	5359	1654	1721	0	4550,5322934152842	4	
391	0	5332	1525	0	4816	1589,280	0	
391	34	5610	1913	611	0	2066,593314291567	6	
391	37	5694	1892	691	0	2252,4652181379709	2	
391	39	5697	1919	692	0	2374,6313735523831	24	
391	38	5709	1917	691	0	2481,7968986129795	1	
391	40	5725	1953	717	0	2616,1923298201639	5	
391	45	5712	1992	771	0	2752,3019394023528	1	
391	384	5695	1979	0	0	2868,7028739613855	2	
391	43	5683	1971	745	0	2978,1250790632415	4	
391	48	5680	2006	780	0	3108,2534152037421	6	
391	47	5663	1989	780	0	3227,2950457640847	1	
391	46	5651	1974	771	0	3341,5044184763832	1	
391	44	5674	1973	762	0	3459,5261473428259	1	
391	42	5673	1965	737	0	3562,58840509112445	2	
391	41	5657	1948	718	0	3680,93364015098195	2	
391	36	5644	1923	683	0	3804,11164575819265	2	
391	35	5592	1934	638	0	3952,26237482186585	2	
391	141	5430	1676	1951	0	4351,90642941673185	1	
391	135	5412	1673	1853	0	4465,15471700762655	1	
392	0	5332	1525	0	4816	1517,040	0	
392	203	5537	1696	0	0	1783,996925364374	1	
392	209	5552	1691	0	0	2013,1313883008419	1	
392	205	5549	1703	0	0	2120,5007051776949	1	
392	210	5560	1714	0	0	2231,0570543637989	1	
392	211	5574	1723	0	0	2342,7003713408921	1	
392	212	5575	1732	0	0	2446,75575647902952	2	
392	215	5587	1743	0	0	2976,7988205960997	1	
392	365	5587	1754	0	0	3082,7988205960997	1	
392	214	5576	1770	0	0	3197,2153084350473	2	
392	213	5572	1755	0	0	3307,7394831313073	2	
392	207	5544	1752	0	0	3430,8997388119647	1	
392	200	5531	1754	0	0	3539,0526852499306	1	
392	204	5542	1733	0	0	3657,7592244321900	21	
392	206	5550	1722	0	0	3766,3606949409254	2	
392	199	5520	1708	0	0	3894,4665856554191	1	
392	154	5443	1751	2111	0	4077,6595558968165	1	
392	108	5334	1727	1515	0	4284,2704872610875	20	
393	0	5332	1525	0	4816	1541,120	0	
393	218	5605	1762	0	0	1902,641783576038	1	
393	217	5599	1777	0	0	2374,6754944214035	1	
393	220	5616	1779	0	0	2486,7927371900272	1	
393	219	5609	1804	0	0	2607,7542471615215	2	
393	33	5636	1867	603	0	2980,9019579527752	13	
393	32	5614	1855	575	0	3100,9618861250585	14	
393	373	5588	1786	0	0	3269,6979017483616	1	
393	216	5575	1791	0	0	3378,6262900255457	11	
393	368	5556	1809	0	0	3499,7987946821505	1	
393	5	5495	1832	34	0	3659,9908187341770	1	
393	4	5469	1830	27	0	3781,0676283549876	15	
393	117	5433	1813	1632	0	3915,8796868297764	1	
393	116	5426	1801	1597	0	4024,7721308192262	1	
393	114	5401	1775	1577	0	4155,8415084129691	1	
393	146	5411	1762	1995	0	4267,2427278798258	1	
394	0	5332	1525	0	4816	698,320	0	
394	191	5502	1721	0	0	957,773271322603	1	
394	195	5519	1729	0	0	1510,4282942280559	1	
394	196	5512	1736	0	0	1615,32778916466756	1	
394	192	5502	1746	0	0	3046,902135623731	1	
394	159	5494	1808	2208	0	3204,4161340560821	2	
394	158	5485	1818	2200	0	3312,8697581031558	1	
394	157	5472	1790	2173	0	3438,7404561840221	1	
394	156	5456	1777	2129	0	3554,3559843121104	1	
394	155	5448	1774	2127	0	3657,89998805742793	3	
394	165	5477	1726	2289	0	3808,98028762866773	4	
394	194	5511	1688	0	0	3954,97048276459553	43	
394	193	5518	1675	0	0	4064,73530582482893	1	
394	169	5475	1679	2323	0	4202,92095158820733	1	
394	177	5494	1662	2395	0	4323,41604915617123	1	
394	179	5473	1626	0	0	4460,09338112452063	3	
395	0	5332	1525	0	4816	3034,080	0	
395	113	5387	1778	1570	0	3292,989250510676	1	
395	21	5385	1886	390	0	3496,007767441802	1	
395	13	5365	1877	123	0	3612,9394796412633	1	
395	17	5325	1869	311	0	3748,7316357500056	4	
395	19	5284	1862	380	0	3885,3249044361764	42	
395	18	5302	1823	355	0	4023,2783676260055	8	
395	65	5306	1792	949	0	4149,5353668421811	4	
395	64	5301	1784	939	0	4253,9693479742377	3	
396	0	5332	1525	0	4816	2094,960	0	
396	281	5185	1564	0	0	2247,045502267639	3	
396	385	5059	1597	0	0	2472,295262344193	40	
396	256	5094	1500	0	0	2670,416550156167	3	
396	249	5057	1460	0	0	2819,9050810594681	13	
396	248	5093	1468	0	0	2951,7832588886397	3	
396	0	5332	1525	0	4816	3292,4863317224977	0	
396	380	5096	1521	0	0	3528,5202275934087	4	
396	251	5085	1492	0	0	3654,5363524319503	2	
396	252	5076	1481	0	0	3763,7490228355022	7	
396	250	5073	1466	0	0	3874,0460813762806	6	
396	238	5062	1434	0	0	4002,8839300076579	13	
396	235	5049	1427	0	0	4112,6487530678913	7	
396	234	5051	1412	0	0	4222,7814990183129	8	
397	0	5332	1525	0	4816	3298,960	0	
397	76	5240	1730	1073	0	3523,657574530746	1	
397	59	5217	1759	894	0	3655,6710855773895	8	
397	58	5190	1739	877	0	3784,2716808102124	31	
397	78	5198	1714	1081	0	3905,5204903070258	4	
397	50	5143	1670	815	0	4070,9548569187871	10	
397	49	5114	1669	799	0	4194,9720931758809	7	
397	51	5176	1590	833	0	4390,3961938688919	2	
397	290	5271	1554	0	0	4586,9885164134619	2	
398	0	5332	1525	0	4816	2167,200	0	
398	90	5277	1651	1233	0	2304,680907765406	1	
398	81	5263	1661	1127	0	2416,8855582994913	1	
398	80	5245	1668	1091	0	2531,1987662153193	2	
398	104	5291	1678	1471	0	2673,2731753990786	14	
398	102	5301	1672	1392	0	2875,8619037896906	7	
398	124	5301	1688	1719	0	2986,8619037896906	1	
398	103	5270	1678	1419	0	3114,4348987394953	1	
398	74	5264	1718	1064	0	3249,8823955718087	2	
398	75	5253	1718	1072	0	3355,8823955718087	4	
398	77	5242	1716	1081	0	3462,0627354593076	2	
398	79	5225	1689	1081	0	3588,9688477263952	1	
398	57	5211	1666	869	0	3710,8946717620677	3	
398	55	5214	1635	859	0	3837,0394947668626	7	
398	187	5184	1614	0	0	3968,6591616140637	6	
398	52	5222	1620	834	0	4102,1299297374064	1	
398	56	5234	1641	860	0	4221,3167029823020	3	
398	83	5242	1624	1154	0	4335,1049972103579	1	
398	105	5289	1687	1480	0	4508,7052516628722	7	
399	0	5332	1525	0	4816	3178,560	0	
399	307	5309	1541	0	0	3206,5778514522438	20	
399	305	5291	1552	0	0	3322,6728745619728	3	
399	304	5289	1565	0	0	3430,8258209999387	4	
399	306	5290	1577	0	0	3537,8674155787310	3	
399	87	5287	1595	1180	0	3651,1157031696257	4	
399	86	5265	1583	1180	0	3771,1756313419090	3	
399	85	5245	1583	1171	0	3886,1756313419090	2	
399	53	5224	1592	850	0	4004,0229506595007	6	
399	54	5232	1587	852	0	4108,4569317915573	1	
399	289	5260	1565	0	0	4239,0659194210870	3	
399	309	5311	1529	0	0	4396,4918755611414	10	
399	0	5332	1525	0	4816	4512,8694338875734	0	
399	303	5295	1531	0	0	4550,3527635155560	14	
399	302	5299	1521	0	0	4656,1230931298250	38	
400	0	5332	1525	0	4816	3082,240	0	
400	106	5296	1718	1489	0	3278,568805833479	5	
400	70	5306	1748	1010	0	3405,1915824351628	45	
400	71	5291	1746	1011	0	3515,3243283855844	2	
400	69	5288	1762	1001	0	3626,6031489816841	3	
400	62	5281	1778	905	0	3739,0673981782571	1	
400	63	5278	1783	913	0	3839,8983500731024	1	
400	60	5249	1770	895	0	3966,6788472372438	2	
400	61	5254	1761	903	0	4071,9744773782308	1	
400	73	5264	1739	1063	0	4191,1405693254199	1	
400	72	5282	1730	1055	0	4306,2651811229180	1	
400	82	5259	1632	1152	0	4501,9279845807990	2	
401	0	5332	1525	0	4816	3563,840	0	
401	84	5252	1605	1162	0	3676,977084989848	2	
401	88	5271	1614	1188	0	3793,0008810314766	2	
401	89	5286	1629	1223	0	3909,2140844670730	19	
401	188	5300	1647	0	0	4027,0175929690558	1	
401	376	5303	1653	0	0	4128,72579690155517	1	
401	101	5317	1636	1383	0	4245,74851244710037	5	
401	100	5302	1629	1365	0	4357,30145780434717	21	
401	99	5310	1612	1357	0	4471,08975203240307	12	
402	0	5332	1525	0	4816	4502,960	0	
402	310	5327	1535	0	0	4514,1403398874989	42	
403	0	5332	1525	0	4816	2335,760	0	
403	91	5310	1588	1242	0	2402,4908024828115	10	
403	92	5319	1588	1286	0	2506,4908024828115	3	
403	96	5329	1617	1339	0	2632,1665257831674	2	
403	98	5340	1644	1349	0	3013,7547594742265	2	
403	125	5340	1659	1720	0	3123,7547594742265	4	
403	129	5351	1670	1764	0	3234,3111086603305	1	
403	371	5348	1686	0	0	3345,5899292564302	1	
403	107	5331	1709	1507	0	3469,1906285485804	4	
403	110	5344	1755	1525	0	3611,9923021594489	1	
403	109	5357	1749	1517	0	3721,3101232227253	2	
403	122	5358	1727	1684	0	3838,3328387682705	3	
403	123	5360	1704	1703	0	3956,4196315295009	2	
403	130	5360	1678	1792	0	4077,4196315295009	4	
403	97	5355	1636	1339	0	4214,7162034946141	2	
403	95	5343	1616	1311	0	4333,0400110739953	3	
403	93	5330	1605	1296	0	4445,0693974399217	6	
403	0	5332	1525	0	4816	4620,0943935348919	0	
404	0	5332	1525	0	4816	2408,000	0	
404	145	5394	1708	1987	0	2601,217494031985	5	
404	121	5388	1740	1666	0	2728,7751352241844	5	
404	151	5415	1724	2048	0	2855,1598448771348	3	
404	144	5422	1696	1986	0	2979,0215842564584	3	
404	152	5429	1716	2067	0	3095,2112043568755	1	
404	153	5441	1714	2085	0	3202,3767294174719	7	
404	168	5450	1703	2323	0	3311,5893998210238	1	
404	167	5461	1711	2297	0	3420,1908703297592	3	
404	381	5460	1688	0	0	3538,2125991962019	2	
404	143	5437	1682	1986	0	3656,9823278442113	1	
404	142	5435	1666	1960	0	3768,1068433408084	2	
404	171	5445	1665	2350	0	3873,1567189619293	1	
404	170	5456	1664	2332	0	3979,2020799791166	1	
404	172	5466	1673	2359	0	4087,6557040261903	2	
404	176	5492	1669	2377	0	4208,9615969021221	1	
404	175	5480	1657	2368	0	4320,9321596505992	2	
404	174	5455	1647	2359	0	4442,8579836862717	2	
404	372	5357	1558	0	0	4670,2400066350087	8	
405	0	5332	1525	0	4816	2383,920	0	
405	139	5417	1613	1907	0	2506,267864713692	12	
405	2	5403	1631	16	0	3272,2835085019828	7	
405	173	5436	1640	2359	0	3401,4887712549569	2	
405	140	5420	1642	1925	0	3512,6132867515540	4	
405	134	5406	1653	1852	0	3625,4177805663189	4	
405	131	5388	1635	1801	0	3745,8736246890346	1	
405	128	5374	1626	1755	0	3857,5169416661278	5	
405	132	5367	1612	1817	0	3968,1694175086263	7	
405	136	5388	1610	1854	0	4084,2644406183553	4	
405	138	5385	1593	1897	0	4196,5271171199874	17	
405	0	5332	1525	0	4816	4377,7419650291498	0	
405	94	5360	1595	1311	0	4453,1342723290329	28	
405	137	5376	1603	1880	0	4566,0228161490312	8	
406	0	5332	1525	0	4816	3973,200	0	
406	127	5384	1658	1737	0	4116,00406156689	33	
406	133	5387	1676	1845	0	4229,2523491577847	6	
406	316	5360	1572	0	0	4488,687661677674	25	
407	0	5332	1525	0	4816	1998,640	0	
407	350	5015	1332	0	0	2369,77070473891	11	
407	355	4994	1302	0	0	3815,8596668472011	3	
407	351	5041	1321	0	0	3961,5548342697474	18	
407	221	5033	1340	0	0	4077,1703623978357	7	
407	222	5050	1348	0	0	4190,9586566258916	17	
408	0	5332	1525	0	4816	2383,920	0	
408	180	5467	1621	0	0	2549,573252307342	4	
408	178	5490	1636	2404	0	2672,032312742834	4	
408	190	5504	1632	0	0	2781,592532521395	3	
408	183	5492	1619	0	0	2894,2843385343491	6	
408	182	5488	1608	0	0	3000,9890384450687	9	
408	186	5498	1598	0	0	3110,1311740687997	2	
408	185	5498	1585	0	0	3218,1311740687997	6	
408	189	5515	1581	0	0	3330,5954232653727	1	
408	344	5521	1573	0	0	3435,5954232653727	3	
408	367	5540	1584	0	0	3552,5499216654729	1	
408	208	5551	1585	0	0	3658,5952826826602	1	
408	343	5558	1577	0	0	3764,2254284953948	1	
408	349	5585	1572	0	0	3886,6844889308868	1	
408	342	5565	1557	0	0	4006,6844889308868	2	
408	341	5558	1551	0	0	4110,90403338817969	3	
408	340	5533	1561	0	0	4232,82985742385219	9	
408	339	5519	1561	0	0	4341,82985742385219	1	
408	184	5473	1582	0	0	4487,39664494293429	5	
409	0	5332	1525	0	4816	2721,040	0	
409	382	5675	1187	0	0	3202,592697012487	8	
409	358	5671	1223	0	0	3333,8142375650367	54	
409	0	5332	1525	0	4816	3882,8241493511117	0	
409	269	5458	1544	0	0	4010,2486367936747	28	
409	378	5487	1547	0	0	4134,4033962679012	14	
410	0	5332	1525	0	4816	3828,720	0	
410	228	5077	1387	0	0	4118,666546797854	24	
410	227	5078	1376	0	0	4224,7119078150413	35	
411	0	5332	1525	0	4816	2889,600	0	
411	253	5136	1467	0	0	3094,001565551734	1	
411	247	5122	1458	0	0	3205,6448825288272	7	
411	245	5118	1452	0	0	3307,85598507975518	4	
411	244	5109	1447	0	0	3413,15161522074218	2	
411	243	5103	1445	0	0	3514,47617054107894	3	
411	239	5085	1440	0	0	3628,15771223334834	12	
411	240	5086	1427	0	0	3736,19611704375364	5	
411	237	5077	1421	0	0	3842,01277087014564	3	
411	236	5073	1405	0	0	3953,50519337261624	6	
411	241	5095	1419	0	0	4074,58200299342684	4	
411	242	5122	1427	0	0	4197,74225867408424	3	
411	246	5129	1437	0	0	4304,94881428981794	2	
412	0	5332	1525	0	4816	4045,440	0	
412	259	5155	1458	0	0	4234,696439784753	38	
412	374	5153	1468	0	0	4339,8944788119386	14	
412	294	5280	1515	0	0	4570,3123506014476	12	
413	0	5332	1525	0	4816	3612,000	0	
413	262	5223	1472	0	0	3733,202310209006	5	
413	263	5218	1489	0	0	3845,9223553556754	14	
413	264	5196	1499	0	0	3965,0884473028645	23	
413	279	5193	1512	0	0	4073,4301113669908	3	
413	277	5208	1506	0	0	4184,5856057883943	6	
413	0	5332	1525	0	4816	4405,0328058368613	0	
414	0	5332	1525	0	4816	3852,800	0	
414	268	5496	1501	0	0	4018,546794840805	21	
414	337	5505	1471	0	0	4144,8677143675366	3	
414	300	5493	1474	0	0	4252,2370312443896	3	
414	267	5491	1481	0	0	4354,51714113367012	18	
415	0	5332	1525	0	4816	3852,800	0	
415	274	5438	1496	0	0	3962,69540481749	4	
415	273	5445	1495	0	0	4064,76647262935548	17	
415	271	5459	1494	0	0	4173,80214147697368	2	
415	270	5470	1490	0	0	4280,50684138769328	3	
415	272	5454	1489	0	0	4391,53806092957468	18	
416	0	5332	1525	0	4816	4286,240	0	
416	275	5247	1483	0	0	4381,0503369891701	36	
416	311	5324	1513	0	0	4558,6881007536864	26	
417	0	5332	1525	0	4816	3082,240	0	
417	321	5275	1533	0	0	3139,7986657246326	8	
417	292	5264	1536	0	0	3246,2004199756240	2	
417	293	5260	1531	0	0	3347,60354421305685	5	
417	291	5252	1543	0	0	3457,02574931491285	1	
417	319	5242	1556	0	0	3568,42696878176955	1	
417	283	5225	1561	0	0	3681,14701392843895	9	
417	284	5233	1549	0	0	3790,56921903029495	3	
417	285	5235	1535	0	0	3899,71135465402595	2	
417	286	5246	1524	0	0	4010,26770384012995	3	
417	276	5242	1508	0	0	4121,76012634260055	4	
417	320	5225	1515	0	0	4235,14490265345075	2	
417	278	5217	1523	0	0	4341,45861115243555	8	
417	288	5259	1508	0	0	4481,05681739439105	15	
418	0	5332	1525	0	4816	4238,080	0	
418	312	5331	1570	0	0	4283,0911097397076	4	
418	313	5339	1562	0	0	4389,4048182386924	53	
418	315	5343	1543	0	0	4503,8213060776400	8	
418	0	5332	1525	0	4816	4619,9163291873690	0	
418	317	5361	1540	0	0	4652,5659846219980	60	
419	0	5332	1525	0	4816	4045,440	0	
419	301	5401	1512	0	0	4115,6539587261678	10	
419	297	5409	1508	0	0	4219,59823063616696	12	
419	296	5423	1505	0	0	4328,91605169944336	11	
419	298	5417	1523	0	0	4442,88971766045366	19	
419	0	5332	1525	0	4816	4622,91324381645356	0	
419	322	5379	1521	0	0	4670,08314947673656	49	
420	0	5332	1525	0	4816	3226,720	0	
420	299	5407	1561	0	0	3309,9125477431723	30	
420	0	5332	1525	0	4816	3488,1050954863446	0	
420	360	5658	1274	0	0	3899,5379575671466	51	
420	357	5710	1247	0	0	4053,1297658683076	9	
420	0	5332	1525	0	4816	4617,3503962757956	0	
421	0	5332	1525	0	4816	4502,960	0	
421	314	5335	1533	0	0	4511,50400374531753	56	
422	0	5332	1525	0	4816	4382,560	0	
422	318	5385	1568	0	0	4450,8095421230062	47	
423	0	5332	1525	0	4816	3323,040	0	
423	353	5040	1301	0	0	3691,061738488367	19	
423	356	5022	1288	0	0	3808,2653417995415	12	
423	354	5026	1295	0	0	3911,32759954784005	11	
423	352	5027	1305	0	0	4016,37747516896095	23	
423	0	5332	1525	0	4816	4487,44262909843595	0	
424	0	5332	1525	0	4816	4502,960	0	
424	308	5313	1559	0	0	4541,9086841883009	42	
429	0	5332	1525	0	4816	3419,360	0	
429	326	5604	1384	0	0	3725,73395450658	37	
429	325	5585	1365	0	0	3847,6040121916688	5	
429	324	5600	1360	0	0	3958,4154004925107	3	
429	323	5607	1345	0	0	4069,9683458497575	8	
429	364	5581	1332	0	0	4194,0372295572548	2	
430	0	5332	1525	0	4816	3732,400	0	
430	329	5554	1446	0	0	3968,037433358964	34	
430	328	5595	1422	0	0	4110,5453274398428	23	
430	327	5607	1409	0	0	4223,2371334527969	7	
431	0	5332	1525	0	4816	3876,880	0	
431	330	5542	1459	0	0	4097,00723593413	4	
431	333	5540	1468	0	0	4201,22678039142289	32	
431	336	5542	1478	0	0	4306,42481941860849	11	
432	0	5332	1525	0	4816	3876,880	0	
432	338	5517	1543	0	0	4062,753612973978	1	
432	331	5581	1460	0	0	4262,562963701859	40	
433	0	5332	1525	0	4816	2432,080	0	
433	363	5631	1332	0	0	2787,959192985485	3	
433	362	5632	1311	0	0	2903,9829890271136	8	
433	361	5637	1296	0	0	3014,7943773279555	10	
433	359	5672	1325	0	0	3155,2476500374095	23	
433	383	5784	1331	0	0	3362,4082491798895	10	
433	375	5708	1347	0	0	3535,0742005356799	8	
433	0	5332	1525	0	4816	4046,0790082002069	0	
433	334	5534	1469	0	0	4255,6977096559689	21	
433	335	5532	1474	0	0	4356,0828744631034	21	
434	0	5332	1525	0	4816	4045,440	0	
434	332	5566	1469	0	0	4286,047564303369	37	
