%!PS-Adobe-3.0
%%DocumentNeededResources: font Helvetica
%%+ font Helvetica-Bold
%%+ font Helvetica-Oblique
%%+ font Helvetica-BoldOblique
%%+ font Symbol
%%DocumentMedia: a4 595 841 0 () ()
%%Title: R Graphics Output
%%Creator: R Software
%%Pages: (atend)
%%Orientation: Portrait
%%BoundingBox: 190 18 406 824
%%EndComments
%%BeginProlog
/bp  { gs sRGB gs } def
% begin .ps.prolog
/gs  { gsave } bind def
/gr  { grestore } bind def
/ep  { showpage gr gr } bind def
/m   { moveto } bind def
/l  { rlineto } bind def
/np  { newpath } bind def
/cp  { closepath } bind def
/f   { fill } bind def
/o   { stroke } bind def
/c   { newpath 0 360 arc } bind def
/r   { 4 2 roll moveto 1 copy 3 -1 roll exch 0 exch rlineto 0 rlineto -1 mul 0 exch rlineto closepath } bind def
/p1  { stroke } bind def
/p2  { gsave bg fill grestore newpath } bind def
/p3  { gsave bg fill grestore stroke } bind def
/p6  { gsave bg eofill grestore newpath } bind def
/p7  { gsave bg eofill grestore stroke } bind def
/t   { 5 -2 roll moveto gsave rotate
       1 index stringwidth pop
       mul neg 0 rmoveto show grestore } bind def
/ta  { 4 -2 roll moveto gsave rotate show } bind def
/tb  { 2 -1 roll 0 rmoveto show } bind def
/cl  { grestore gsave newpath 3 index 3 index moveto 1 index
       4 -1 roll lineto  exch 1 index lineto lineto
       closepath clip newpath } bind def
/rgb { setrgbcolor } bind def
/s   { scalefont setfont } bind def
% end   .ps.prolog
/sRGB { [ /CIEBasedABC
          << /DecodeLMN
               [ { dup 0.03928 le
                        {12.92321 div}
                        {0.055 add 1.055 div 2.4 exp }
                     ifelse
                 } bind dup dup
               ]
             /MatrixLMN [0.412457 0.212673 0.019334
                         0.357576 0.715152 0.119192
                         0.180437 0.072175 0.950301]
             /WhitePoint [0.9505 1.0 1.0890]
           >>
         ] setcolorspace } bind def
/srgb { setcolor } bind def
% begin encoding
/WinAnsiEncoding [
 /.notdef /.notdef /.notdef /.notdef /.notdef /.notdef /.notdef /.notdef
 /.notdef /.notdef /.notdef /.notdef /.notdef /.notdef /.notdef /.notdef
 /.notdef /.notdef /.notdef /.notdef /.notdef /.notdef /.notdef /.notdef
 /.notdef /.notdef /.notdef /.notdef /.notdef /.notdef /.notdef /.notdef
 /space /exclam /quotedbl /numbersign /dollar /percent /ampersand /quoteright
 /parenleft /parenright /asterisk /plus /comma /minus /period /slash
 /zero /one /two /three /four /five /six /seven
 /eight /nine /colon /semicolon /less /equal /greater /question
 /at /A /B /C /D /E /F /G
 /H /I /J /K /L /M /N /O
 /P /Q /R /S /T /U /V /W
 /X /Y /Z /bracketleft /backslash /bracketright /asciicircum /underscore
 /grave /a /b /c /d /e /f /g
 /h /i /j /k /l /m /n /o
 /p /q /r /s /t /u /v /w
 /x /y /z /braceleft /bar /braceright /asciitilde /.notdef
 /Euro /.notdef /quotesinglbase /florin /quotedblbase /ellipsis /dagger /daggerdbl
 /circumflex /perthousand /Scaron /guilsinglleft /OE /.notdef /Zcaron /.notdef
 /.notdef /quoteleft /quoteright /quotedblleft /quotedblright /bullet /endash /emdash
 /tilde /trademark /scaron /guilsinglright /oe /.notdef /zcaron /Ydieresis
 /space /exclamdown /cent /sterling /currency /yen /brokenbar /section
 /dieresis /copyright /ordfeminine /guillemotleft /logicalnot /hyphen /registered /macron
 /degree /plusminus /twosuperior /threesuperior /acute /mu /paragraph /periodcentered
 /cedilla /onesuperior /ordmasculine /guillemotright /onequarter /onehalf /threequarters /questiondown
 /Agrave /Aacute /Acircumflex /Atilde /Adieresis /Aring /AE /Ccedilla
 /Egrave /Eacute /Ecircumflex /Edieresis /Igrave /Iacute /Icircumflex /Idieresis
 /Eth /Ntilde /Ograve /Oacute /Ocircumflex /Otilde /Odieresis /multiply
 /Oslash /Ugrave /Uacute /Ucircumflex /Udieresis /Yacute /Thorn /germandbls
 /agrave /aacute /acircumflex /atilde /adieresis /aring /ae /ccedilla
 /egrave /eacute /ecircumflex /edieresis /igrave /iacute /icircumflex /idieresis
 /eth /ntilde /ograve /oacute /ocircumflex /otilde /odieresis /divide
 /oslash /ugrave /uacute /ucircumflex /udieresis /yacute /thorn /ydieresis
]
 def
% end encoding
%%IncludeResource: font Helvetica
/Helvetica findfont
dup length dict begin
  {1 index /FID ne {def} {pop pop} ifelse} forall
  /Encoding WinAnsiEncoding def
  currentdict
  end
/Font1 exch definefont pop
%%IncludeResource: font Helvetica-Bold
/Helvetica-Bold findfont
dup length dict begin
  {1 index /FID ne {def} {pop pop} ifelse} forall
  /Encoding WinAnsiEncoding def
  currentdict
  end
/Font2 exch definefont pop
%%IncludeResource: font Helvetica-Oblique
/Helvetica-Oblique findfont
dup length dict begin
  {1 index /FID ne {def} {pop pop} ifelse} forall
  /Encoding WinAnsiEncoding def
  currentdict
  end
/Font3 exch definefont pop
%%IncludeResource: font Helvetica-BoldOblique
/Helvetica-BoldOblique findfont
dup length dict begin
  {1 index /FID ne {def} {pop pop} ifelse} forall
  /Encoding WinAnsiEncoding def
  currentdict
  end
/Font4 exch definefont pop
%%IncludeResource: font Symbol
/Symbol findfont
dup length dict begin
  {1 index /FID ne {def} {pop pop} ifelse} forall
  currentdict
  end
/Font5 exch definefont pop
%%EndProlog
%%Page: 1 1
bp
189.64 18.00 405.64 823.89 cl
0 0 0 srgb
0.75 setlinewidth
[] 0 setdash
1 setlinecap
1 setlinejoin
10.00 setmiterlimit
np
228.60 681.71 m
0 98.99 l
o
np
228.60 681.71 m
-4.75 0 l
o
np
228.60 698.21 m
-4.75 0 l
o
np
228.60 714.71 m
-4.75 0 l
o
np
228.60 731.21 m
-4.75 0 l
o
np
228.60 747.70 m
-4.75 0 l
o
np
228.60 764.20 m
-4.75 0 l
o
np
228.60 780.70 m
-4.75 0 l
o
/Font1 findfont 8 s
217.20 681.71 (1.00) .5 90 t
217.20 714.71 (1.10) .5 90 t
217.20 747.70 (1.20) .5 90 t
217.20 780.70 (1.30) .5 90 t
np
228.60 670.89 m
157.08 0 l
0 114.03 l
-157.08 0 l
0 -114.03 l
o
189.64 622.42 405.64 823.89 cl
/Font2 findfont 10 s
0 0 0 srgb
278.80 800.82 (c) 0 ta
-0.100 (hristofides) tb gr
/Font1 findfont 8 s
287.80 634.77 (T) 0 ta
-0.960 (est cases) tb gr
198.19 702.57 (Relativ) 90 ta
-0.200 (e result) tb gr
228.60 670.89 385.68 784.92 cl
0 0 0 srgb
0.75 setlinewidth
[ 2.25 3.75] 0 setdash
1 setlinecap
1 setlinejoin
10.00 setmiterlimit
np
198.06 701.40 m
72.72 0 l
72.72 0 l
62.14 0 l
o
0.75 setlinewidth
[] 0 setdash
np
198.06 715.34 m
72.72 0 l
72.72 0 l
62.14 0 l
o
2.25 setlinewidth
[] 0 setdash
0 setlinecap
np
256.24 699.00 m
29.09 0 l
o
0.75 setlinewidth
[ 2.25 3.75] 0 setdash
1 setlinecap
np
270.78 681.71 m
0 10.48 l
o
np
270.78 741.86 m
0 -29.79 l
o
0.75 setlinewidth
[] 0 setdash
np
263.51 681.71 m
14.54 0 l
o
np
263.51 741.86 m
14.54 0 l
o
np
256.24 692.19 m
29.09 0 l
0 19.88 l
-29.09 0 l
0 -19.88 l
o
270.78 768.29 1.18 c p1
270.78 745.20 1.18 c p1
270.78 747.71 1.18 c p1
270.78 747.71 1.18 c p1
189.64 18.00 405.64 823.89 cl
0 0 0 srgb
0.75 setlinewidth
[] 0 setdash
1 setlinecap
1 setlinejoin
10.00 setmiterlimit
np
228.60 681.71 m
0 98.99 l
o
np
228.60 681.71 m
-4.75 0 l
o
np
228.60 698.21 m
-4.75 0 l
o
np
228.60 714.71 m
-4.75 0 l
o
np
228.60 731.21 m
-4.75 0 l
o
np
228.60 747.70 m
-4.75 0 l
o
np
228.60 764.20 m
-4.75 0 l
o
np
228.60 780.70 m
-4.75 0 l
o
/Font1 findfont 8 s
217.20 681.71 (1.00) .5 90 t
217.20 714.71 (1.10) .5 90 t
217.20 747.70 (1.20) .5 90 t
217.20 780.70 (1.30) .5 90 t
np
228.60 670.89 m
157.08 0 l
0 114.03 l
-157.08 0 l
0 -114.03 l
o
228.60 670.89 385.68 784.92 cl
0 0 0 srgb
1.50 setlinewidth
[] 0 setdash
1 setlinecap
1 setlinejoin
10.00 setmiterlimit
270.78 683.53 1.78 c p1
0.5020 0.5020 0.5020 srgb
2.25 setlinewidth
[] 0 setdash
0 setlinecap
np
328.96 719.68 m
29.09 0 l
o
0.75 setlinewidth
[ 2.25 3.75] 0 setdash
1 setlinecap
np
343.50 681.71 m
0 20.93 l
o
np
343.50 796.10 m
0 -55.96 l
o
0.75 setlinewidth
[] 0 setdash
np
336.23 681.71 m
14.54 0 l
o
np
336.23 796.10 m
14.54 0 l
o
np
328.96 702.64 m
29.09 0 l
0 37.50 l
-29.09 0 l
0 -37.50 l
o
343.50 797.47 1.18 c p1
343.50 797.77 1.18 c p1
343.50 797.77 1.18 c p1
343.50 806.62 1.18 c p1
343.50 810.99 1.18 c p1
343.50 816.73 1.18 c p1
343.50 799.56 1.18 c p1
343.50 799.56 1.18 c p1
343.50 799.78 1.18 c p1
343.50 797.87 1.18 c p1
343.50 797.19 1.18 c p1
343.50 797.19 1.18 c p1
189.64 18.00 405.64 823.89 cl
0 0 0 srgb
0.75 setlinewidth
[] 0 setdash
1 setlinecap
1 setlinejoin
10.00 setmiterlimit
np
228.60 681.71 m
0 98.99 l
o
np
228.60 681.71 m
-4.75 0 l
o
np
228.60 698.21 m
-4.75 0 l
o
np
228.60 714.71 m
-4.75 0 l
o
np
228.60 731.21 m
-4.75 0 l
o
np
228.60 747.70 m
-4.75 0 l
o
np
228.60 764.20 m
-4.75 0 l
o
np
228.60 780.70 m
-4.75 0 l
o
/Font1 findfont 8 s
217.20 681.71 (1.00) .5 90 t
217.20 714.71 (1.10) .5 90 t
217.20 747.70 (1.20) .5 90 t
217.20 780.70 (1.30) .5 90 t
np
228.60 670.89 m
157.08 0 l
0 114.03 l
-157.08 0 l
0 -114.03 l
o
228.60 670.89 385.68 784.92 cl
0.5020 0.5020 0.5020 srgb
1.50 setlinewidth
[] 0 setdash
1 setlinecap
1 setlinejoin
10.00 setmiterlimit
np
343.50 688.05 m
2.40 -4.16 l
-4.80 0 l
2.40 4.16 l
o
228.60 469.42 385.68 583.45 cl
189.64 18.00 405.64 823.89 cl
0 0 0 srgb
0.75 setlinewidth
[] 0 setdash
1 setlinecap
1 setlinejoin
10.00 setmiterlimit
np
228.60 480.24 m
0 98.99 l
o
np
228.60 480.24 m
-4.75 0 l
o
np
228.60 496.74 m
-4.75 0 l
o
np
228.60 513.23 m
-4.75 0 l
o
np
228.60 529.73 m
-4.75 0 l
o
np
228.60 546.23 m
-4.75 0 l
o
np
228.60 562.73 m
-4.75 0 l
o
np
228.60 579.23 m
-4.75 0 l
o
/Font1 findfont 8 s
217.20 480.24 (1.00) .5 90 t
217.20 513.23 (1.10) .5 90 t
217.20 546.23 (1.20) .5 90 t
217.20 579.23 (1.30) .5 90 t
np
228.60 469.42 m
157.08 0 l
0 114.03 l
-157.08 0 l
0 -114.03 l
o
189.64 420.94 405.64 622.42 cl
/Font2 findfont 10 s
0 0 0 srgb
307.14 599.34 (fisher) .5 0 t
/Font1 findfont 8 s
287.80 433.30 (T) 0 ta
-0.960 (est cases) tb gr
198.19 501.09 (Relativ) 90 ta
-0.200 (e result) tb gr
228.60 469.42 385.68 583.45 cl
0 0 0 srgb
0.75 setlinewidth
[ 2.25 3.75] 0 setdash
1 setlinecap
1 setlinejoin
10.00 setmiterlimit
np
198.06 515.26 m
72.72 0 l
72.72 0 l
62.14 0 l
o
0.75 setlinewidth
[] 0 setdash
np
198.06 534.44 m
72.72 0 l
72.72 0 l
62.14 0 l
o
2.25 setlinewidth
[] 0 setdash
0 setlinecap
np
256.24 490.20 m
29.09 0 l
o
0.75 setlinewidth
[ 2.25 3.75] 0 setdash
1 setlinecap
np
270.78 480.24 m
0 5.29 l
o
np
270.78 519.70 m
0 -19.87 l
o
0.75 setlinewidth
[] 0 setdash
np
263.51 480.24 m
14.54 0 l
o
np
263.51 519.70 m
14.54 0 l
o
np
256.24 485.53 m
29.09 0 l
0 14.30 l
-29.09 0 l
0 -14.30 l
o
270.78 560.35 1.18 c p1
270.78 531.36 1.18 c p1
270.78 529.06 1.18 c p1
270.78 533.75 1.18 c p1
270.78 541.15 1.18 c p1
189.64 18.00 405.64 823.89 cl
0 0 0 srgb
0.75 setlinewidth
[] 0 setdash
1 setlinecap
1 setlinejoin
10.00 setmiterlimit
np
228.60 480.24 m
0 98.99 l
o
np
228.60 480.24 m
-4.75 0 l
o
np
228.60 496.74 m
-4.75 0 l
o
np
228.60 513.23 m
-4.75 0 l
o
np
228.60 529.73 m
-4.75 0 l
o
np
228.60 546.23 m
-4.75 0 l
o
np
228.60 562.73 m
-4.75 0 l
o
np
228.60 579.23 m
-4.75 0 l
o
/Font1 findfont 8 s
217.20 480.24 (1.00) .5 90 t
217.20 513.23 (1.10) .5 90 t
217.20 546.23 (1.20) .5 90 t
217.20 579.23 (1.30) .5 90 t
np
228.60 469.42 m
157.08 0 l
0 114.03 l
-157.08 0 l
0 -114.03 l
o
228.60 469.42 385.68 583.45 cl
0 0 0 srgb
1.50 setlinewidth
[] 0 setdash
1 setlinecap
1 setlinejoin
10.00 setmiterlimit
270.78 480.24 1.78 c p1
0.5020 0.5020 0.5020 srgb
2.25 setlinewidth
[] 0 setdash
0 setlinecap
np
328.96 522.71 m
29.09 0 l
o
0.75 setlinewidth
[ 2.25 3.75] 0 setdash
1 setlinecap
np
343.50 493.89 m
0 17.41 l
o
np
343.50 613.06 m
0 -60.25 l
o
0.75 setlinewidth
[] 0 setdash
np
336.23 493.89 m
14.54 0 l
o
np
336.23 613.06 m
14.54 0 l
o
np
328.96 511.30 m
29.09 0 l
0 41.51 l
-29.09 0 l
0 -41.51 l
o
343.50 630.12 1.18 c p1
343.50 646.53 1.18 c p1
343.50 684.99 1.18 c p1
189.64 18.00 405.64 823.89 cl
0 0 0 srgb
0.75 setlinewidth
[] 0 setdash
1 setlinecap
1 setlinejoin
10.00 setmiterlimit
np
228.60 480.24 m
0 98.99 l
o
np
228.60 480.24 m
-4.75 0 l
o
np
228.60 496.74 m
-4.75 0 l
o
np
228.60 513.23 m
-4.75 0 l
o
np
228.60 529.73 m
-4.75 0 l
o
np
228.60 546.23 m
-4.75 0 l
o
np
228.60 562.73 m
-4.75 0 l
o
np
228.60 579.23 m
-4.75 0 l
o
/Font1 findfont 8 s
217.20 480.24 (1.00) .5 90 t
217.20 513.23 (1.10) .5 90 t
217.20 546.23 (1.20) .5 90 t
217.20 579.23 (1.30) .5 90 t
np
228.60 469.42 m
157.08 0 l
0 114.03 l
-157.08 0 l
0 -114.03 l
o
228.60 469.42 385.68 583.45 cl
0.5020 0.5020 0.5020 srgb
1.50 setlinewidth
[] 0 setdash
1 setlinecap
1 setlinejoin
10.00 setmiterlimit
np
343.50 502.16 m
2.40 -4.15 l
-4.80 0 l
2.40 4.15 l
o
228.60 267.94 385.68 381.98 cl
189.64 18.00 405.64 823.89 cl
0 0 0 srgb
0.75 setlinewidth
[] 0 setdash
1 setlinecap
1 setlinejoin
10.00 setmiterlimit
np
228.60 278.77 m
0 98.98 l
o
np
228.60 278.77 m
-4.75 0 l
o
np
228.60 295.26 m
-4.75 0 l
o
np
228.60 311.76 m
-4.75 0 l
o
np
228.60 328.26 m
-4.75 0 l
o
np
228.60 344.76 m
-4.75 0 l
o
np
228.60 361.26 m
-4.75 0 l
o
np
228.60 377.75 m
-4.75 0 l
o
/Font1 findfont 8 s
217.20 278.77 (1.00) .5 90 t
217.20 311.76 (1.10) .5 90 t
217.20 344.76 (1.20) .5 90 t
217.20 377.75 (1.30) .5 90 t
np
228.60 267.94 m
157.08 0 l
0 114.04 l
-157.08 0 l
0 -114.04 l
o
189.64 219.47 405.64 420.94 cl
/Font2 findfont 10 s
0 0 0 srgb
290.75 397.87 (taillar) 0 ta
-0.200 (d) tb gr
/Font1 findfont 8 s
287.80 231.83 (T) 0 ta
-0.960 (est cases) tb gr
198.19 299.62 (Relativ) 90 ta
-0.200 (e result) tb gr
228.60 267.94 385.68 381.98 cl
0 0 0 srgb
0.75 setlinewidth
[ 2.25 3.75] 0 setdash
1 setlinecap
1 setlinejoin
10.00 setmiterlimit
np
198.06 268.61 m
72.72 0 l
72.72 0 l
62.14 0 l
o
0.75 setlinewidth
[] 0 setdash
np
198.06 279.53 m
72.72 0 l
72.72 0 l
62.14 0 l
o
2.25 setlinewidth
[] 0 setdash
0 setlinecap
np
256.24 294.37 m
29.09 0 l
o
0.75 setlinewidth
[ 2.25 3.75] 0 setdash
1 setlinecap
np
270.78 278.77 m
0 8.29 l
o
np
270.78 323.47 m
0 -21.39 l
o
0.75 setlinewidth
[] 0 setdash
np
263.51 278.77 m
14.54 0 l
o
np
263.51 323.47 m
14.54 0 l
o
np
256.24 287.06 m
29.09 0 l
0 15.02 l
-29.09 0 l
0 -15.02 l
o
270.78 342.60 1.18 c p1
270.78 342.60 1.18 c p1
270.78 346.97 1.18 c p1
270.78 356.97 1.18 c p1
270.78 326.74 1.18 c p1
270.78 325.50 1.18 c p1
270.78 355.43 1.18 c p1
270.78 327.12 1.18 c p1
270.78 356.84 1.18 c p1
270.78 369.24 1.18 c p1
270.78 360.63 1.18 c p1
270.78 333.82 1.18 c p1
189.64 18.00 405.64 823.89 cl
0 0 0 srgb
0.75 setlinewidth
[] 0 setdash
1 setlinecap
1 setlinejoin
10.00 setmiterlimit
np
228.60 278.77 m
0 98.98 l
o
np
228.60 278.77 m
-4.75 0 l
o
np
228.60 295.26 m
-4.75 0 l
o
np
228.60 311.76 m
-4.75 0 l
o
np
228.60 328.26 m
-4.75 0 l
o
np
228.60 344.76 m
-4.75 0 l
o
np
228.60 361.26 m
-4.75 0 l
o
np
228.60 377.75 m
-4.75 0 l
o
/Font1 findfont 8 s
217.20 278.77 (1.00) .5 90 t
217.20 311.76 (1.10) .5 90 t
217.20 344.76 (1.20) .5 90 t
217.20 377.75 (1.30) .5 90 t
np
228.60 267.94 m
157.08 0 l
0 114.04 l
-157.08 0 l
0 -114.04 l
o
228.60 267.94 385.68 381.98 cl
0 0 0 srgb
1.50 setlinewidth
[] 0 setdash
1 setlinecap
1 setlinejoin
10.00 setmiterlimit
270.78 278.77 1.78 c p1
0.5020 0.5020 0.5020 srgb
2.25 setlinewidth
[] 0 setdash
0 setlinecap
np
328.96 320.97 m
29.09 0 l
o
0.75 setlinewidth
[ 2.25 3.75] 0 setdash
1 setlinecap
np
343.50 279.34 m
0 26.07 l
o
np
343.50 404.73 m
0 -59.49 l
o
0.75 setlinewidth
[] 0 setdash
np
336.23 279.34 m
14.54 0 l
o
np
336.23 404.73 m
14.54 0 l
o
np
328.96 305.41 m
29.09 0 l
0 39.83 l
-29.09 0 l
0 -39.83 l
o
343.50 405.25 1.18 c p1
343.50 406.32 1.18 c p1
343.50 408.61 1.18 c p1
343.50 410.46 1.18 c p1
343.50 412.49 1.18 c p1
343.50 418.21 1.18 c p1
343.50 419.23 1.18 c p1
343.50 419.27 1.18 c p1
343.50 423.04 1.18 c p1
343.50 427.67 1.18 c p1
343.50 432.81 1.18 c p1
343.50 436.59 1.18 c p1
343.50 438.32 1.18 c p1
343.50 417.89 1.18 c p1
343.50 422.53 1.18 c p1
343.50 405.07 1.18 c p1
343.50 413.67 1.18 c p1
343.50 437.91 1.18 c p1
343.50 415.97 1.18 c p1
343.50 415.97 1.18 c p1
343.50 433.64 1.18 c p1
343.50 439.25 1.18 c p1
343.50 451.10 1.18 c p1
343.50 405.73 1.18 c p1
343.50 406.76 1.18 c p1
343.50 406.76 1.18 c p1
343.50 407.37 1.18 c p1
343.50 411.43 1.18 c p1
343.50 420.55 1.18 c p1
343.50 424.55 1.18 c p1
343.50 454.80 1.18 c p1
343.50 410.02 1.18 c p1
343.50 408.27 1.18 c p1
343.50 408.34 1.18 c p1
343.50 412.22 1.18 c p1
343.50 416.37 1.18 c p1
343.50 423.79 1.18 c p1
343.50 423.79 1.18 c p1
343.50 424.25 1.18 c p1
343.50 428.11 1.18 c p1
343.50 431.27 1.18 c p1
189.64 18.00 405.64 823.89 cl
0 0 0 srgb
0.75 setlinewidth
[] 0 setdash
1 setlinecap
1 setlinejoin
10.00 setmiterlimit
np
228.60 278.77 m
0 98.98 l
o
np
228.60 278.77 m
-4.75 0 l
o
np
228.60 295.26 m
-4.75 0 l
o
np
228.60 311.76 m
-4.75 0 l
o
np
228.60 328.26 m
-4.75 0 l
o
np
228.60 344.76 m
-4.75 0 l
o
np
228.60 361.26 m
-4.75 0 l
o
np
228.60 377.75 m
-4.75 0 l
o
/Font1 findfont 8 s
217.20 278.77 (1.00) .5 90 t
217.20 311.76 (1.10) .5 90 t
217.20 344.76 (1.20) .5 90 t
217.20 377.75 (1.30) .5 90 t
np
228.60 267.94 m
157.08 0 l
0 114.04 l
-157.08 0 l
0 -114.04 l
o
228.60 267.94 385.68 381.98 cl
0.5020 0.5020 0.5020 srgb
1.50 setlinewidth
[] 0 setdash
1 setlinecap
1 setlinejoin
10.00 setmiterlimit
np
343.50 288.95 m
2.40 -4.15 l
-4.80 0 l
2.40 4.15 l
o
228.60 66.47 385.68 180.51 cl
189.64 18.00 405.64 219.47 cl
228.60 66.47 385.68 180.51 cl
0 0 0 srgb
0.75 setlinewidth
[] 0 setdash
1 setlinecap
1 setlinejoin
10.00 setmiterlimit
298.17 180.51 87.51 -57.02 r p1
1.50 setlinewidth
[] 0 setdash
np
300.73 169.10 m
17.11 0 l
o
0.5020 0.5020 0.5020 srgb
np
300.73 157.70 m
17.11 0 l
o
0 0 0 srgb
1.50 setlinewidth
[ 4.50 7.50] 0 setdash
np
300.73 146.29 m
17.11 0 l
o
1.50 setlinewidth
[] 0 setdash
np
300.73 134.89 m
17.11 0 l
o
309.29 169.10 2.14 c p1
0.5020 0.5020 0.5020 srgb
np
309.29 161.02 m
2.88 -4.99 l
-5.76 0 l
2.88 4.99 l
o
/bg { 0 0 0 srgb } def
308.79 145.79 1.00 1.00 r p2
308.79 134.39 1.00 1.00 r p2
/Font1 findfont 10 s
0 0 0 srgb
326.39 165.51 (2MPSO) 0 0 t
326.39 154.11 (2PSO) 0 0 t
326.39 142.70 (MAPSO min) 0 0 t
326.39 131.30 (MAPSO a) 0 ta
-0.200 (vg) tb gr
ep
%%Trailer
%%Pages: 1
%%EOF
