%!PS-Adobe-3.0
%%DocumentNeededResources: font Helvetica
%%+ font Helvetica-Bold
%%+ font Helvetica-Oblique
%%+ font Helvetica-BoldOblique
%%+ font Symbol
%%DocumentMedia: a4 595 841 0 () ()
%%Title: R Graphics Output
%%Creator: R Software
%%Pages: (atend)
%%Orientation: Portrait
%%BoundingBox: 18 18 577 824
%%EndComments
%%BeginProlog
/bp  { gs sRGB gs } def
% begin .ps.prolog
/gs  { gsave } bind def
/gr  { grestore } bind def
/ep  { showpage gr gr } bind def
/m   { moveto } bind def
/l  { rlineto } bind def
/np  { newpath } bind def
/cp  { closepath } bind def
/f   { fill } bind def
/o   { stroke } bind def
/c   { newpath 0 360 arc } bind def
/r   { 4 2 roll moveto 1 copy 3 -1 roll exch 0 exch rlineto 0 rlineto -1 mul 0 exch rlineto closepath } bind def
/p1  { stroke } bind def
/p2  { gsave bg fill grestore newpath } bind def
/p3  { gsave bg fill grestore stroke } bind def
/p6  { gsave bg eofill grestore newpath } bind def
/p7  { gsave bg eofill grestore stroke } bind def
/t   { 5 -2 roll moveto gsave rotate
       1 index stringwidth pop
       mul neg 0 rmoveto show grestore } bind def
/ta  { 4 -2 roll moveto gsave rotate show } bind def
/tb  { 2 -1 roll 0 rmoveto show } bind def
/cl  { grestore gsave newpath 3 index 3 index moveto 1 index
       4 -1 roll lineto  exch 1 index lineto lineto
       closepath clip newpath } bind def
/rgb { setrgbcolor } bind def
/s   { scalefont setfont } bind def
% end   .ps.prolog
/sRGB { [ /CIEBasedABC
          << /DecodeLMN
               [ { dup 0.03928 le
                        {12.92321 div}
                        {0.055 add 1.055 div 2.4 exp }
                     ifelse
                 } bind dup dup
               ]
             /MatrixLMN [0.412457 0.212673 0.019334
                         0.357576 0.715152 0.119192
                         0.180437 0.072175 0.950301]
             /WhitePoint [0.9505 1.0 1.0890]
           >>
         ] setcolorspace } bind def
/srgb { setcolor } bind def
% begin encoding
/WinAnsiEncoding [
 /.notdef /.notdef /.notdef /.notdef /.notdef /.notdef /.notdef /.notdef
 /.notdef /.notdef /.notdef /.notdef /.notdef /.notdef /.notdef /.notdef
 /.notdef /.notdef /.notdef /.notdef /.notdef /.notdef /.notdef /.notdef
 /.notdef /.notdef /.notdef /.notdef /.notdef /.notdef /.notdef /.notdef
 /space /exclam /quotedbl /numbersign /dollar /percent /ampersand /quoteright
 /parenleft /parenright /asterisk /plus /comma /minus /period /slash
 /zero /one /two /three /four /five /six /seven
 /eight /nine /colon /semicolon /less /equal /greater /question
 /at /A /B /C /D /E /F /G
 /H /I /J /K /L /M /N /O
 /P /Q /R /S /T /U /V /W
 /X /Y /Z /bracketleft /backslash /bracketright /asciicircum /underscore
 /grave /a /b /c /d /e /f /g
 /h /i /j /k /l /m /n /o
 /p /q /r /s /t /u /v /w
 /x /y /z /braceleft /bar /braceright /asciitilde /.notdef
 /Euro /.notdef /quotesinglbase /florin /quotedblbase /ellipsis /dagger /daggerdbl
 /circumflex /perthousand /Scaron /guilsinglleft /OE /.notdef /Zcaron /.notdef
 /.notdef /quoteleft /quoteright /quotedblleft /quotedblright /bullet /endash /emdash
 /tilde /trademark /scaron /guilsinglright /oe /.notdef /zcaron /Ydieresis
 /space /exclamdown /cent /sterling /currency /yen /brokenbar /section
 /dieresis /copyright /ordfeminine /guillemotleft /logicalnot /hyphen /registered /macron
 /degree /plusminus /twosuperior /threesuperior /acute /mu /paragraph /periodcentered
 /cedilla /onesuperior /ordmasculine /guillemotright /onequarter /onehalf /threequarters /questiondown
 /Agrave /Aacute /Acircumflex /Atilde /Adieresis /Aring /AE /Ccedilla
 /Egrave /Eacute /Ecircumflex /Edieresis /Igrave /Iacute /Icircumflex /Idieresis
 /Eth /Ntilde /Ograve /Oacute /Ocircumflex /Otilde /Odieresis /multiply
 /Oslash /Ugrave /Uacute /Ucircumflex /Udieresis /Yacute /Thorn /germandbls
 /agrave /aacute /acircumflex /atilde /adieresis /aring /ae /ccedilla
 /egrave /eacute /ecircumflex /edieresis /igrave /iacute /icircumflex /idieresis
 /eth /ntilde /ograve /oacute /ocircumflex /otilde /odieresis /divide
 /oslash /ugrave /uacute /ucircumflex /udieresis /yacute /thorn /ydieresis
]
 def
% end encoding
%%IncludeResource: font Helvetica
/Helvetica findfont
dup length dict begin
  {1 index /FID ne {def} {pop pop} ifelse} forall
  /Encoding WinAnsiEncoding def
  currentdict
  end
/Font1 exch definefont pop
%%IncludeResource: font Helvetica-Bold
/Helvetica-Bold findfont
dup length dict begin
  {1 index /FID ne {def} {pop pop} ifelse} forall
  /Encoding WinAnsiEncoding def
  currentdict
  end
/Font2 exch definefont pop
%%IncludeResource: font Helvetica-Oblique
/Helvetica-Oblique findfont
dup length dict begin
  {1 index /FID ne {def} {pop pop} ifelse} forall
  /Encoding WinAnsiEncoding def
  currentdict
  end
/Font3 exch definefont pop
%%IncludeResource: font Helvetica-BoldOblique
/Helvetica-BoldOblique findfont
dup length dict begin
  {1 index /FID ne {def} {pop pop} ifelse} forall
  /Encoding WinAnsiEncoding def
  currentdict
  end
/Font4 exch definefont pop
%%IncludeResource: font Symbol
/Symbol findfont
dup length dict begin
  {1 index /FID ne {def} {pop pop} ifelse} forall
  currentdict
  end
/Font5 exch definefont pop
%%EndProlog
%%Page: 1 1
bp
18.00 18.00 577.28 823.89 cl
0 0 0 srgb
0.75 setlinewidth
[] 0 setdash
1 setlinecap
1 setlinejoin
10.00 setmiterlimit
np
37.01 735.09 m
0 66.94 l
o
np
37.01 735.09 m
-4.75 0 l
o
np
37.01 746.25 m
-4.75 0 l
o
np
37.01 757.40 m
-4.75 0 l
o
np
37.01 768.56 m
-4.75 0 l
o
np
37.01 779.71 m
-4.75 0 l
o
np
37.01 790.87 m
-4.75 0 l
o
np
37.01 802.03 m
-4.75 0 l
o
/Font1 findfont 8 s
25.60 735.09 (1.00) .5 90 t
25.60 757.40 (1.10) .5 90 t
25.60 779.71 (1.20) .5 90 t
25.60 802.03 (1.30) .5 90 t
np
37.01 727.77 m
157.91 0 l
0 77.11 l
-157.91 0 l
0 -77.11 l
o
18.00 708.76 204.43 823.89 cl
/Font2 findfont 10 s
0 0 0 srgb
115.96 810.80 (c100bD.vrp) .5 0 t
/Font1 findfont 8 s
96.62 691.66 (T) 0 ta
-0.960 (est cases) tb gr
37.01 727.77 194.92 804.88 cl
0 0 0 srgb
0.75 setlinewidth
[ 2.25 3.75] 0 setdash
1 setlinecap
1 setlinejoin
10.00 setmiterlimit
np
18.00 745.18 m
61.41 0 l
73.11 0 l
73.11 0 l
o
0.75 setlinewidth
[] 0 setdash
np
18.00 749.48 m
61.41 0 l
73.11 0 l
73.11 0 l
o
2.25 setlinewidth
[] 0 setdash
0 setlinecap
np
64.79 742.56 m
29.24 0 l
o
0.75 setlinewidth
[ 2.25 3.75] 0 setdash
1 setlinecap
np
79.41 735.09 m
0 0.18 l
o
np
79.41 749.69 m
0 -6.67 l
o
0.75 setlinewidth
[] 0 setdash
np
72.10 735.09 m
14.62 0 l
o
np
72.10 749.69 m
14.62 0 l
o
np
64.79 735.27 m
29.24 0 l
0 7.75 l
-29.24 0 l
0 -7.75 l
o
18.00 18.00 577.28 823.89 cl
0 0 0 srgb
0.75 setlinewidth
[] 0 setdash
1 setlinecap
1 setlinejoin
10.00 setmiterlimit
np
37.01 735.09 m
0 66.94 l
o
np
37.01 735.09 m
-4.75 0 l
o
np
37.01 746.25 m
-4.75 0 l
o
np
37.01 757.40 m
-4.75 0 l
o
np
37.01 768.56 m
-4.75 0 l
o
np
37.01 779.71 m
-4.75 0 l
o
np
37.01 790.87 m
-4.75 0 l
o
np
37.01 802.03 m
-4.75 0 l
o
/Font1 findfont 8 s
25.60 735.09 (1.00) .5 90 t
25.60 757.40 (1.10) .5 90 t
25.60 779.71 (1.20) .5 90 t
25.60 802.03 (1.30) .5 90 t
np
37.01 727.77 m
157.91 0 l
0 77.11 l
-157.91 0 l
0 -77.11 l
o
37.01 727.77 194.92 804.88 cl
0 0 0 srgb
1.50 setlinewidth
[] 0 setdash
1 setlinecap
1 setlinejoin
10.00 setmiterlimit
79.41 735.09 1.78 c p1
0.5020 0.5020 0.5020 srgb
2.25 setlinewidth
[] 0 setdash
0 setlinecap
np
137.90 737.65 m
29.24 0 l
o
0.75 setlinewidth
[ 2.25 3.75] 0 setdash
1 setlinecap
np
152.52 735.09 m
0 1.25 l
o
np
152.52 758.90 m
0 -12.74 l
o
0.75 setlinewidth
[] 0 setdash
np
145.21 735.09 m
14.62 0 l
o
np
145.21 758.90 m
14.62 0 l
o
np
137.90 736.34 m
29.24 0 l
0 9.82 l
-29.24 0 l
0 -9.82 l
o
18.00 18.00 577.28 823.89 cl
0 0 0 srgb
0.75 setlinewidth
[] 0 setdash
1 setlinecap
1 setlinejoin
10.00 setmiterlimit
np
37.01 735.09 m
0 66.94 l
o
np
37.01 735.09 m
-4.75 0 l
o
np
37.01 746.25 m
-4.75 0 l
o
np
37.01 757.40 m
-4.75 0 l
o
np
37.01 768.56 m
-4.75 0 l
o
np
37.01 779.71 m
-4.75 0 l
o
np
37.01 790.87 m
-4.75 0 l
o
np
37.01 802.03 m
-4.75 0 l
o
/Font1 findfont 8 s
25.60 735.09 (1.00) .5 90 t
25.60 757.40 (1.10) .5 90 t
25.60 779.71 (1.20) .5 90 t
25.60 802.03 (1.30) .5 90 t
np
37.01 727.77 m
157.91 0 l
0 77.11 l
-157.91 0 l
0 -77.11 l
o
37.01 727.77 194.92 804.88 cl
0.5020 0.5020 0.5020 srgb
1.50 setlinewidth
[] 0 setdash
1 setlinecap
1 setlinejoin
10.00 setmiterlimit
np
152.52 737.86 m
2.40 -4.16 l
-4.80 0 l
2.40 4.16 l
o
223.43 727.77 381.35 804.88 cl
18.00 18.00 577.28 823.89 cl
0 0 0 srgb
0.75 setlinewidth
[] 0 setdash
1 setlinecap
1 setlinejoin
10.00 setmiterlimit
np
223.43 735.09 m
0 66.94 l
o
np
223.43 735.09 m
-4.75 0 l
o
np
223.43 746.25 m
-4.75 0 l
o
np
223.43 757.40 m
-4.75 0 l
o
np
223.43 768.56 m
-4.75 0 l
o
np
223.43 779.71 m
-4.75 0 l
o
np
223.43 790.87 m
-4.75 0 l
o
np
223.43 802.03 m
-4.75 0 l
o
/Font1 findfont 8 s
212.03 735.09 (1.00) .5 90 t
212.03 757.40 (1.10) .5 90 t
212.03 779.71 (1.20) .5 90 t
212.03 802.03 (1.30) .5 90 t
np
223.43 727.77 m
157.92 0 l
0 77.11 l
-157.92 0 l
0 -77.11 l
o
204.43 708.76 390.85 823.89 cl
/Font2 findfont 10 s
0 0 0 srgb
302.39 810.80 (c100D.vrp) .5 0 t
/Font1 findfont 8 s
283.05 691.66 (T) 0 ta
-0.960 (est cases) tb gr
193.02 740.99 (Relativ) 90 ta
-0.200 (e result) tb gr
223.43 727.77 381.35 804.88 cl
0 0 0 srgb
0.75 setlinewidth
[ 2.25 3.75] 0 setdash
1 setlinecap
1 setlinejoin
10.00 setmiterlimit
np
192.73 734.22 m
73.11 0 l
73.10 0 l
73.11 0 l
o
0.75 setlinewidth
[] 0 setdash
np
192.73 738.69 m
73.11 0 l
73.10 0 l
73.11 0 l
o
2.25 setlinewidth
[] 0 setdash
0 setlinecap
np
251.21 754.38 m
29.25 0 l
o
0.75 setlinewidth
[ 2.25 3.75] 0 setdash
1 setlinecap
np
265.84 735.09 m
0 11.84 l
o
np
265.84 770.49 m
0 -9.83 l
o
0.75 setlinewidth
[] 0 setdash
np
258.53 735.09 m
14.62 0 l
o
np
258.53 770.49 m
14.62 0 l
o
np
251.21 746.93 m
29.25 0 l
0 13.73 l
-29.25 0 l
0 -13.73 l
o
18.00 18.00 577.28 823.89 cl
0 0 0 srgb
0.75 setlinewidth
[] 0 setdash
1 setlinecap
1 setlinejoin
10.00 setmiterlimit
np
223.43 735.09 m
0 66.94 l
o
np
223.43 735.09 m
-4.75 0 l
o
np
223.43 746.25 m
-4.75 0 l
o
np
223.43 757.40 m
-4.75 0 l
o
np
223.43 768.56 m
-4.75 0 l
o
np
223.43 779.71 m
-4.75 0 l
o
np
223.43 790.87 m
-4.75 0 l
o
np
223.43 802.03 m
-4.75 0 l
o
/Font1 findfont 8 s
212.03 735.09 (1.00) .5 90 t
212.03 757.40 (1.10) .5 90 t
212.03 779.71 (1.20) .5 90 t
212.03 802.03 (1.30) .5 90 t
np
223.43 727.77 m
157.92 0 l
0 77.11 l
-157.92 0 l
0 -77.11 l
o
223.43 727.77 381.35 804.88 cl
0 0 0 srgb
1.50 setlinewidth
[] 0 setdash
1 setlinecap
1 setlinejoin
10.00 setmiterlimit
265.84 735.09 1.78 c p1
0.5020 0.5020 0.5020 srgb
2.25 setlinewidth
[] 0 setdash
0 setlinecap
np
324.32 778.37 m
29.25 0 l
o
0.75 setlinewidth
[ 2.25 3.75] 0 setdash
1 setlinecap
np
338.94 744.14 m
0 22.73 l
o
np
338.94 819.55 m
0 -30.92 l
o
0.75 setlinewidth
[] 0 setdash
np
331.63 744.14 m
14.62 0 l
o
np
331.63 819.55 m
14.62 0 l
o
np
324.32 766.87 m
29.25 0 l
0 21.76 l
-29.25 0 l
0 -21.76 l
o
338.94 822.51 1.18 c p1
18.00 18.00 577.28 823.89 cl
0 0 0 srgb
0.75 setlinewidth
[] 0 setdash
1 setlinecap
1 setlinejoin
10.00 setmiterlimit
np
223.43 735.09 m
0 66.94 l
o
np
223.43 735.09 m
-4.75 0 l
o
np
223.43 746.25 m
-4.75 0 l
o
np
223.43 757.40 m
-4.75 0 l
o
np
223.43 768.56 m
-4.75 0 l
o
np
223.43 779.71 m
-4.75 0 l
o
np
223.43 790.87 m
-4.75 0 l
o
np
223.43 802.03 m
-4.75 0 l
o
/Font1 findfont 8 s
212.03 735.09 (1.00) .5 90 t
212.03 757.40 (1.10) .5 90 t
212.03 779.71 (1.20) .5 90 t
212.03 802.03 (1.30) .5 90 t
np
223.43 727.77 m
157.92 0 l
0 77.11 l
-157.92 0 l
0 -77.11 l
o
223.43 727.77 381.35 804.88 cl
0.5020 0.5020 0.5020 srgb
1.50 setlinewidth
[] 0 setdash
1 setlinecap
1 setlinejoin
10.00 setmiterlimit
np
338.94 746.92 m
2.40 -4.16 l
-4.80 0 l
2.40 4.16 l
o
409.86 727.77 567.77 804.88 cl
18.00 18.00 577.28 823.89 cl
0 0 0 srgb
0.75 setlinewidth
[] 0 setdash
1 setlinecap
1 setlinejoin
10.00 setmiterlimit
np
409.86 735.09 m
0 66.94 l
o
np
409.86 735.09 m
-4.75 0 l
o
np
409.86 746.25 m
-4.75 0 l
o
np
409.86 757.40 m
-4.75 0 l
o
np
409.86 768.56 m
-4.75 0 l
o
np
409.86 779.71 m
-4.75 0 l
o
np
409.86 790.87 m
-4.75 0 l
o
np
409.86 802.03 m
-4.75 0 l
o
/Font1 findfont 8 s
398.45 735.09 (1.00) .5 90 t
398.45 757.40 (1.10) .5 90 t
398.45 779.71 (1.20) .5 90 t
398.45 802.03 (1.30) .5 90 t
np
409.86 727.77 m
157.91 0 l
0 77.11 l
-157.91 0 l
0 -77.11 l
o
390.85 708.76 577.28 823.89 cl
/Font2 findfont 10 s
0 0 0 srgb
488.81 810.80 (c120D.vrp) .5 0 t
/Font1 findfont 8 s
469.47 691.66 (T) 0 ta
-0.960 (est cases) tb gr
379.45 740.99 (Relativ) 90 ta
-0.200 (e result) tb gr
409.86 727.77 567.77 804.88 cl
0 0 0 srgb
0.75 setlinewidth
[ 2.25 3.75] 0 setdash
1 setlinecap
1 setlinejoin
10.00 setmiterlimit
np
379.15 764.93 m
73.11 0 l
73.11 0 l
51.91 0 l
o
0.75 setlinewidth
[] 0 setdash
np
379.15 779.88 m
73.11 0 l
73.11 0 l
51.91 0 l
o
2.25 setlinewidth
[] 0 setdash
0 setlinecap
np
437.64 737.48 m
29.24 0 l
o
0.75 setlinewidth
[ 2.25 3.75] 0 setdash
1 setlinecap
np
452.26 735.09 m
0 0.74 l
o
np
452.26 793.64 m
0 -26.74 l
o
0.75 setlinewidth
[] 0 setdash
np
444.95 735.09 m
14.62 0 l
o
np
444.95 793.64 m
14.62 0 l
o
np
437.64 735.83 m
29.24 0 l
0 31.07 l
-29.24 0 l
0 -31.07 l
o
18.00 18.00 577.28 823.89 cl
0 0 0 srgb
0.75 setlinewidth
[] 0 setdash
1 setlinecap
1 setlinejoin
10.00 setmiterlimit
np
409.86 735.09 m
0 66.94 l
o
np
409.86 735.09 m
-4.75 0 l
o
np
409.86 746.25 m
-4.75 0 l
o
np
409.86 757.40 m
-4.75 0 l
o
np
409.86 768.56 m
-4.75 0 l
o
np
409.86 779.71 m
-4.75 0 l
o
np
409.86 790.87 m
-4.75 0 l
o
np
409.86 802.03 m
-4.75 0 l
o
/Font1 findfont 8 s
398.45 735.09 (1.00) .5 90 t
398.45 757.40 (1.10) .5 90 t
398.45 779.71 (1.20) .5 90 t
398.45 802.03 (1.30) .5 90 t
np
409.86 727.77 m
157.91 0 l
0 77.11 l
-157.91 0 l
0 -77.11 l
o
409.86 727.77 567.77 804.88 cl
0 0 0 srgb
1.50 setlinewidth
[] 0 setdash
1 setlinecap
1 setlinejoin
10.00 setmiterlimit
452.26 735.09 1.78 c p1
0.5020 0.5020 0.5020 srgb
2.25 setlinewidth
[] 0 setdash
0 setlinecap
np
510.75 752.43 m
29.24 0 l
o
0.75 setlinewidth
[ 2.25 3.75] 0 setdash
1 setlinecap
np
525.37 736.72 m
0 9.79 l
o
np
525.37 814.93 m
0 -35.71 l
o
0.75 setlinewidth
[] 0 setdash
np
518.06 736.72 m
14.62 0 l
o
np
518.06 814.93 m
14.62 0 l
o
np
510.75 746.51 m
29.24 0 l
0 32.71 l
-29.24 0 l
0 -32.71 l
o
18.00 18.00 577.28 823.89 cl
0 0 0 srgb
0.75 setlinewidth
[] 0 setdash
1 setlinecap
1 setlinejoin
10.00 setmiterlimit
np
409.86 735.09 m
0 66.94 l
o
np
409.86 735.09 m
-4.75 0 l
o
np
409.86 746.25 m
-4.75 0 l
o
np
409.86 757.40 m
-4.75 0 l
o
np
409.86 768.56 m
-4.75 0 l
o
np
409.86 779.71 m
-4.75 0 l
o
np
409.86 790.87 m
-4.75 0 l
o
np
409.86 802.03 m
-4.75 0 l
o
/Font1 findfont 8 s
398.45 735.09 (1.00) .5 90 t
398.45 757.40 (1.10) .5 90 t
398.45 779.71 (1.20) .5 90 t
398.45 802.03 (1.30) .5 90 t
np
409.86 727.77 m
157.91 0 l
0 77.11 l
-157.91 0 l
0 -77.11 l
o
409.86 727.77 567.77 804.88 cl
0.5020 0.5020 0.5020 srgb
1.50 setlinewidth
[] 0 setdash
1 setlinecap
1 setlinejoin
10.00 setmiterlimit
np
525.37 739.49 m
2.40 -4.15 l
-4.80 0 l
2.40 4.15 l
o
37.01 612.64 194.92 689.75 cl
18.00 18.00 577.28 823.89 cl
0 0 0 srgb
0.75 setlinewidth
[] 0 setdash
1 setlinecap
1 setlinejoin
10.00 setmiterlimit
np
37.01 619.96 m
0 66.94 l
o
np
37.01 619.96 m
-4.75 0 l
o
np
37.01 631.12 m
-4.75 0 l
o
np
37.01 642.27 m
-4.75 0 l
o
np
37.01 653.43 m
-4.75 0 l
o
np
37.01 664.59 m
-4.75 0 l
o
np
37.01 675.74 m
-4.75 0 l
o
np
37.01 686.90 m
-4.75 0 l
o
/Font1 findfont 8 s
25.60 619.96 (1.00) .5 90 t
25.60 642.27 (1.10) .5 90 t
25.60 664.59 (1.20) .5 90 t
25.60 686.90 (1.30) .5 90 t
np
37.01 612.64 m
157.91 0 l
0 77.11 l
-157.91 0 l
0 -77.11 l
o
18.00 593.64 204.43 708.76 cl
/Font2 findfont 10 s
0 0 0 srgb
115.96 695.67 (c150D.vrp) .5 0 t
/Font1 findfont 8 s
96.62 576.53 (T) 0 ta
-0.960 (est cases) tb gr
37.01 612.64 194.92 689.75 cl
0 0 0 srgb
0.75 setlinewidth
[ 2.25 3.75] 0 setdash
1 setlinecap
1 setlinejoin
10.00 setmiterlimit
np
18.00 644.15 m
61.41 0 l
73.11 0 l
73.11 0 l
o
0.75 setlinewidth
[] 0 setdash
np
18.00 655.04 m
61.41 0 l
73.11 0 l
73.11 0 l
o
2.25 setlinewidth
[] 0 setdash
0 setlinecap
np
64.79 631.58 m
29.24 0 l
o
0.75 setlinewidth
[ 2.25 3.75] 0 setdash
1 setlinecap
np
79.41 619.96 m
0 7.57 l
o
np
79.41 640.17 m
0 -4.84 l
o
0.75 setlinewidth
[] 0 setdash
np
72.10 619.96 m
14.62 0 l
o
np
72.10 640.17 m
14.62 0 l
o
np
64.79 627.53 m
29.24 0 l
0 7.80 l
-29.24 0 l
0 -7.80 l
o
79.41 651.71 1.18 c p1
79.41 651.71 1.18 c p1
18.00 18.00 577.28 823.89 cl
0 0 0 srgb
0.75 setlinewidth
[] 0 setdash
1 setlinecap
1 setlinejoin
10.00 setmiterlimit
np
37.01 619.96 m
0 66.94 l
o
np
37.01 619.96 m
-4.75 0 l
o
np
37.01 631.12 m
-4.75 0 l
o
np
37.01 642.27 m
-4.75 0 l
o
np
37.01 653.43 m
-4.75 0 l
o
np
37.01 664.59 m
-4.75 0 l
o
np
37.01 675.74 m
-4.75 0 l
o
np
37.01 686.90 m
-4.75 0 l
o
/Font1 findfont 8 s
25.60 619.96 (1.00) .5 90 t
25.60 642.27 (1.10) .5 90 t
25.60 664.59 (1.20) .5 90 t
25.60 686.90 (1.30) .5 90 t
np
37.01 612.64 m
157.91 0 l
0 77.11 l
-157.91 0 l
0 -77.11 l
o
37.01 612.64 194.92 689.75 cl
0 0 0 srgb
1.50 setlinewidth
[] 0 setdash
1 setlinecap
1 setlinejoin
10.00 setmiterlimit
79.41 619.96 1.78 c p1
0.5020 0.5020 0.5020 srgb
2.25 setlinewidth
[] 0 setdash
0 setlinecap
np
137.90 649.79 m
29.24 0 l
o
0.75 setlinewidth
[ 2.25 3.75] 0 setdash
1 setlinecap
np
152.52 623.90 m
0 20.56 l
o
np
152.52 678.94 m
0 -19.78 l
o
0.75 setlinewidth
[] 0 setdash
np
145.21 623.90 m
14.62 0 l
o
np
145.21 678.94 m
14.62 0 l
o
np
137.90 644.46 m
29.24 0 l
0 14.70 l
-29.24 0 l
0 -14.70 l
o
152.52 620.09 1.18 c p1
152.52 681.86 1.18 c p1
152.52 689.28 1.18 c p1
152.52 698.51 1.18 c p1
18.00 18.00 577.28 823.89 cl
0 0 0 srgb
0.75 setlinewidth
[] 0 setdash
1 setlinecap
1 setlinejoin
10.00 setmiterlimit
np
37.01 619.96 m
0 66.94 l
o
np
37.01 619.96 m
-4.75 0 l
o
np
37.01 631.12 m
-4.75 0 l
o
np
37.01 642.27 m
-4.75 0 l
o
np
37.01 653.43 m
-4.75 0 l
o
np
37.01 664.59 m
-4.75 0 l
o
np
37.01 675.74 m
-4.75 0 l
o
np
37.01 686.90 m
-4.75 0 l
o
/Font1 findfont 8 s
25.60 619.96 (1.00) .5 90 t
25.60 642.27 (1.10) .5 90 t
25.60 664.59 (1.20) .5 90 t
25.60 686.90 (1.30) .5 90 t
np
37.01 612.64 m
157.91 0 l
0 77.11 l
-157.91 0 l
0 -77.11 l
o
37.01 612.64 194.92 689.75 cl
0.5020 0.5020 0.5020 srgb
1.50 setlinewidth
[] 0 setdash
1 setlinecap
1 setlinejoin
10.00 setmiterlimit
np
152.52 622.86 m
2.40 -4.15 l
-4.80 0 l
2.40 4.15 l
o
223.43 612.64 381.35 689.75 cl
18.00 18.00 577.28 823.89 cl
0 0 0 srgb
0.75 setlinewidth
[] 0 setdash
1 setlinecap
1 setlinejoin
10.00 setmiterlimit
np
223.43 619.96 m
0 66.94 l
o
np
223.43 619.96 m
-4.75 0 l
o
np
223.43 631.12 m
-4.75 0 l
o
np
223.43 642.27 m
-4.75 0 l
o
np
223.43 653.43 m
-4.75 0 l
o
np
223.43 664.59 m
-4.75 0 l
o
np
223.43 675.74 m
-4.75 0 l
o
np
223.43 686.90 m
-4.75 0 l
o
/Font1 findfont 8 s
212.03 619.96 (1.00) .5 90 t
212.03 642.27 (1.10) .5 90 t
212.03 664.59 (1.20) .5 90 t
212.03 686.90 (1.30) .5 90 t
np
223.43 612.64 m
157.92 0 l
0 77.11 l
-157.92 0 l
0 -77.11 l
o
204.43 593.64 390.85 708.76 cl
/Font2 findfont 10 s
0 0 0 srgb
302.39 695.67 (c199D.vrp) .5 0 t
/Font1 findfont 8 s
283.05 576.53 (T) 0 ta
-0.960 (est cases) tb gr
193.02 625.86 (Relativ) 90 ta
-0.200 (e result) tb gr
223.43 612.64 381.35 689.75 cl
0 0 0 srgb
0.75 setlinewidth
[ 2.25 3.75] 0 setdash
1 setlinecap
1 setlinejoin
10.00 setmiterlimit
np
192.73 649.62 m
73.11 0 l
73.10 0 l
73.11 0 l
o
0.75 setlinewidth
[] 0 setdash
np
192.73 657.60 m
73.11 0 l
73.10 0 l
73.11 0 l
o
2.25 setlinewidth
[] 0 setdash
0 setlinecap
np
251.21 628.01 m
29.25 0 l
o
0.75 setlinewidth
[ 2.25 3.75] 0 setdash
1 setlinecap
np
265.84 622.97 m
0 3.01 l
o
np
265.84 632.28 m
0 -3.11 l
o
0.75 setlinewidth
[] 0 setdash
np
258.53 622.97 m
14.62 0 l
o
np
258.53 632.28 m
14.62 0 l
o
np
251.21 625.98 m
29.25 0 l
0 3.19 l
-29.25 0 l
0 -3.19 l
o
265.84 619.96 1.18 c p1
265.84 639.85 1.18 c p1
18.00 18.00 577.28 823.89 cl
0 0 0 srgb
0.75 setlinewidth
[] 0 setdash
1 setlinecap
1 setlinejoin
10.00 setmiterlimit
np
223.43 619.96 m
0 66.94 l
o
np
223.43 619.96 m
-4.75 0 l
o
np
223.43 631.12 m
-4.75 0 l
o
np
223.43 642.27 m
-4.75 0 l
o
np
223.43 653.43 m
-4.75 0 l
o
np
223.43 664.59 m
-4.75 0 l
o
np
223.43 675.74 m
-4.75 0 l
o
np
223.43 686.90 m
-4.75 0 l
o
/Font1 findfont 8 s
212.03 619.96 (1.00) .5 90 t
212.03 642.27 (1.10) .5 90 t
212.03 664.59 (1.20) .5 90 t
212.03 686.90 (1.30) .5 90 t
np
223.43 612.64 m
157.92 0 l
0 77.11 l
-157.92 0 l
0 -77.11 l
o
223.43 612.64 381.35 689.75 cl
0 0 0 srgb
1.50 setlinewidth
[] 0 setdash
1 setlinecap
1 setlinejoin
10.00 setmiterlimit
265.84 619.96 1.78 c p1
0.5020 0.5020 0.5020 srgb
2.25 setlinewidth
[] 0 setdash
0 setlinecap
np
324.32 645.07 m
29.25 0 l
o
0.75 setlinewidth
[ 2.25 3.75] 0 setdash
1 setlinecap
np
338.94 626.01 m
0 12.21 l
o
np
338.94 675.38 m
0 -22.18 l
o
0.75 setlinewidth
[] 0 setdash
np
331.63 626.01 m
14.62 0 l
o
np
331.63 675.38 m
14.62 0 l
o
np
324.32 638.22 m
29.25 0 l
0 14.98 l
-29.25 0 l
0 -14.98 l
o
338.94 675.89 1.18 c p1
338.94 683.11 1.18 c p1
338.94 683.92 1.18 c p1
18.00 18.00 577.28 823.89 cl
0 0 0 srgb
0.75 setlinewidth
[] 0 setdash
1 setlinecap
1 setlinejoin
10.00 setmiterlimit
np
223.43 619.96 m
0 66.94 l
o
np
223.43 619.96 m
-4.75 0 l
o
np
223.43 631.12 m
-4.75 0 l
o
np
223.43 642.27 m
-4.75 0 l
o
np
223.43 653.43 m
-4.75 0 l
o
np
223.43 664.59 m
-4.75 0 l
o
np
223.43 675.74 m
-4.75 0 l
o
np
223.43 686.90 m
-4.75 0 l
o
/Font1 findfont 8 s
212.03 619.96 (1.00) .5 90 t
212.03 642.27 (1.10) .5 90 t
212.03 664.59 (1.20) .5 90 t
212.03 686.90 (1.30) .5 90 t
np
223.43 612.64 m
157.92 0 l
0 77.11 l
-157.92 0 l
0 -77.11 l
o
223.43 612.64 381.35 689.75 cl
0.5020 0.5020 0.5020 srgb
1.50 setlinewidth
[] 0 setdash
1 setlinecap
1 setlinejoin
10.00 setmiterlimit
np
338.94 628.78 m
2.40 -4.15 l
-4.80 0 l
2.40 4.15 l
o
409.86 612.64 567.77 689.75 cl
18.00 18.00 577.28 823.89 cl
0 0 0 srgb
0.75 setlinewidth
[] 0 setdash
1 setlinecap
1 setlinejoin
10.00 setmiterlimit
np
409.86 619.96 m
0 66.94 l
o
np
409.86 619.96 m
-4.75 0 l
o
np
409.86 631.12 m
-4.75 0 l
o
np
409.86 642.27 m
-4.75 0 l
o
np
409.86 653.43 m
-4.75 0 l
o
np
409.86 664.59 m
-4.75 0 l
o
np
409.86 675.74 m
-4.75 0 l
o
np
409.86 686.90 m
-4.75 0 l
o
/Font1 findfont 8 s
398.45 619.96 (1.00) .5 90 t
398.45 642.27 (1.10) .5 90 t
398.45 664.59 (1.20) .5 90 t
398.45 686.90 (1.30) .5 90 t
np
409.86 612.64 m
157.91 0 l
0 77.11 l
-157.91 0 l
0 -77.11 l
o
390.85 593.64 577.28 708.76 cl
/Font2 findfont 10 s
0 0 0 srgb
488.81 695.67 (c50D.vrp) .5 0 t
/Font1 findfont 8 s
469.47 576.53 (T) 0 ta
-0.960 (est cases) tb gr
379.45 625.86 (Relativ) 90 ta
-0.200 (e result) tb gr
409.86 612.64 567.77 689.75 cl
0 0 0 srgb
0.75 setlinewidth
[ 2.25 3.75] 0 setdash
1 setlinecap
1 setlinejoin
10.00 setmiterlimit
np
379.15 615.54 m
73.11 0 l
73.11 0 l
51.91 0 l
o
0.75 setlinewidth
[] 0 setdash
np
379.15 630.60 m
73.11 0 l
73.11 0 l
51.91 0 l
o
2.25 setlinewidth
[] 0 setdash
0 setlinecap
np
437.64 633.39 m
29.24 0 l
o
0.75 setlinewidth
[ 2.25 3.75] 0 setdash
1 setlinecap
np
452.26 622.40 m
0 5.90 l
o
np
452.26 656.69 m
0 -16.20 l
o
0.75 setlinewidth
[] 0 setdash
np
444.95 622.40 m
14.62 0 l
o
np
444.95 656.69 m
14.62 0 l
o
np
437.64 628.30 m
29.24 0 l
0 12.19 l
-29.24 0 l
0 -12.19 l
o
452.26 664.59 1.18 c p1
452.26 664.59 1.18 c p1
452.26 660.63 1.18 c p1
18.00 18.00 577.28 823.89 cl
0 0 0 srgb
0.75 setlinewidth
[] 0 setdash
1 setlinecap
1 setlinejoin
10.00 setmiterlimit
np
409.86 619.96 m
0 66.94 l
o
np
409.86 619.96 m
-4.75 0 l
o
np
409.86 631.12 m
-4.75 0 l
o
np
409.86 642.27 m
-4.75 0 l
o
np
409.86 653.43 m
-4.75 0 l
o
np
409.86 664.59 m
-4.75 0 l
o
np
409.86 675.74 m
-4.75 0 l
o
np
409.86 686.90 m
-4.75 0 l
o
/Font1 findfont 8 s
398.45 619.96 (1.00) .5 90 t
398.45 642.27 (1.10) .5 90 t
398.45 664.59 (1.20) .5 90 t
398.45 686.90 (1.30) .5 90 t
np
409.86 612.64 m
157.91 0 l
0 77.11 l
-157.91 0 l
0 -77.11 l
o
409.86 612.64 567.77 689.75 cl
0 0 0 srgb
1.50 setlinewidth
[] 0 setdash
1 setlinecap
1 setlinejoin
10.00 setmiterlimit
452.26 622.40 1.78 c p1
0.5020 0.5020 0.5020 srgb
2.25 setlinewidth
[] 0 setdash
0 setlinecap
np
510.75 653.50 m
29.24 0 l
o
0.75 setlinewidth
[ 2.25 3.75] 0 setdash
1 setlinecap
np
525.37 619.96 m
0 24.49 l
o
np
525.37 690.61 m
0 -27.23 l
o
0.75 setlinewidth
[] 0 setdash
np
518.06 619.96 m
14.62 0 l
o
np
518.06 690.61 m
14.62 0 l
o
np
510.75 644.45 m
29.24 0 l
0 18.93 l
-29.24 0 l
0 -18.93 l
o
525.37 697.31 1.18 c p1
525.37 698.05 1.18 c p1
525.37 698.05 1.18 c p1
525.37 719.23 1.18 c p1
18.00 18.00 577.28 823.89 cl
0 0 0 srgb
0.75 setlinewidth
[] 0 setdash
1 setlinecap
1 setlinejoin
10.00 setmiterlimit
np
409.86 619.96 m
0 66.94 l
o
np
409.86 619.96 m
-4.75 0 l
o
np
409.86 631.12 m
-4.75 0 l
o
np
409.86 642.27 m
-4.75 0 l
o
np
409.86 653.43 m
-4.75 0 l
o
np
409.86 664.59 m
-4.75 0 l
o
np
409.86 675.74 m
-4.75 0 l
o
np
409.86 686.90 m
-4.75 0 l
o
/Font1 findfont 8 s
398.45 619.96 (1.00) .5 90 t
398.45 642.27 (1.10) .5 90 t
398.45 664.59 (1.20) .5 90 t
398.45 686.90 (1.30) .5 90 t
np
409.86 612.64 m
157.91 0 l
0 77.11 l
-157.91 0 l
0 -77.11 l
o
409.86 612.64 567.77 689.75 cl
0.5020 0.5020 0.5020 srgb
1.50 setlinewidth
[] 0 setdash
1 setlinecap
1 setlinejoin
10.00 setmiterlimit
np
525.37 622.73 m
2.40 -4.15 l
-4.80 0 l
2.40 4.15 l
o
37.01 497.52 194.92 574.63 cl
18.00 18.00 577.28 823.89 cl
0 0 0 srgb
0.75 setlinewidth
[] 0 setdash
1 setlinecap
1 setlinejoin
10.00 setmiterlimit
np
37.01 504.83 m
0 66.94 l
o
np
37.01 504.83 m
-4.75 0 l
o
np
37.01 515.99 m
-4.75 0 l
o
np
37.01 527.15 m
-4.75 0 l
o
np
37.01 538.30 m
-4.75 0 l
o
np
37.01 549.46 m
-4.75 0 l
o
np
37.01 560.62 m
-4.75 0 l
o
np
37.01 571.77 m
-4.75 0 l
o
/Font1 findfont 8 s
25.60 504.83 (1.00) .5 90 t
25.60 527.15 (1.10) .5 90 t
25.60 549.46 (1.20) .5 90 t
25.60 571.77 (1.30) .5 90 t
np
37.01 497.52 m
157.91 0 l
0 77.11 l
-157.91 0 l
0 -77.11 l
o
18.00 478.51 204.43 593.64 cl
/Font2 findfont 10 s
0 0 0 srgb
115.96 580.54 (c75D.vrp) .5 0 t
/Font1 findfont 8 s
96.62 461.40 (T) 0 ta
-0.960 (est cases) tb gr
37.01 497.52 194.92 574.63 cl
0 0 0 srgb
0.75 setlinewidth
[ 2.25 3.75] 0 setdash
1 setlinecap
1 setlinejoin
10.00 setmiterlimit
np
18.00 509.57 m
61.41 0 l
73.11 0 l
73.11 0 l
o
0.75 setlinewidth
[] 0 setdash
np
18.00 517.87 m
61.41 0 l
73.11 0 l
73.11 0 l
o
2.25 setlinewidth
[] 0 setdash
0 setlinecap
np
64.79 523.81 m
29.24 0 l
o
0.75 setlinewidth
[ 2.25 3.75] 0 setdash
1 setlinecap
np
79.41 510.99 m
0 7.30 l
o
np
79.41 534.88 m
0 -6.69 l
o
0.75 setlinewidth
[] 0 setdash
np
72.10 510.99 m
14.62 0 l
o
np
72.10 534.88 m
14.62 0 l
o
np
64.79 518.29 m
29.24 0 l
0 9.90 l
-29.24 0 l
0 -9.90 l
o
18.00 18.00 577.28 823.89 cl
0 0 0 srgb
0.75 setlinewidth
[] 0 setdash
1 setlinecap
1 setlinejoin
10.00 setmiterlimit
np
37.01 504.83 m
0 66.94 l
o
np
37.01 504.83 m
-4.75 0 l
o
np
37.01 515.99 m
-4.75 0 l
o
np
37.01 527.15 m
-4.75 0 l
o
np
37.01 538.30 m
-4.75 0 l
o
np
37.01 549.46 m
-4.75 0 l
o
np
37.01 560.62 m
-4.75 0 l
o
np
37.01 571.77 m
-4.75 0 l
o
/Font1 findfont 8 s
25.60 504.83 (1.00) .5 90 t
25.60 527.15 (1.10) .5 90 t
25.60 549.46 (1.20) .5 90 t
25.60 571.77 (1.30) .5 90 t
np
37.01 497.52 m
157.91 0 l
0 77.11 l
-157.91 0 l
0 -77.11 l
o
37.01 497.52 194.92 574.63 cl
0 0 0 srgb
1.50 setlinewidth
[] 0 setdash
1 setlinecap
1 setlinejoin
10.00 setmiterlimit
79.41 510.99 1.78 c p1
0.5020 0.5020 0.5020 srgb
2.25 setlinewidth
[] 0 setdash
0 setlinecap
np
137.90 528.15 m
29.24 0 l
o
0.75 setlinewidth
[ 2.25 3.75] 0 setdash
1 setlinecap
np
152.52 504.83 m
0 15.78 l
o
np
152.52 562.51 m
0 -25.09 l
o
0.75 setlinewidth
[] 0 setdash
np
145.21 504.83 m
14.62 0 l
o
np
145.21 562.51 m
14.62 0 l
o
np
137.90 520.61 m
29.24 0 l
0 16.81 l
-29.24 0 l
0 -16.81 l
o
152.52 562.99 1.18 c p1
152.52 563.79 1.18 c p1
18.00 18.00 577.28 823.89 cl
0 0 0 srgb
0.75 setlinewidth
[] 0 setdash
1 setlinecap
1 setlinejoin
10.00 setmiterlimit
np
37.01 504.83 m
0 66.94 l
o
np
37.01 504.83 m
-4.75 0 l
o
np
37.01 515.99 m
-4.75 0 l
o
np
37.01 527.15 m
-4.75 0 l
o
np
37.01 538.30 m
-4.75 0 l
o
np
37.01 549.46 m
-4.75 0 l
o
np
37.01 560.62 m
-4.75 0 l
o
np
37.01 571.77 m
-4.75 0 l
o
/Font1 findfont 8 s
25.60 504.83 (1.00) .5 90 t
25.60 527.15 (1.10) .5 90 t
25.60 549.46 (1.20) .5 90 t
25.60 571.77 (1.30) .5 90 t
np
37.01 497.52 m
157.91 0 l
0 77.11 l
-157.91 0 l
0 -77.11 l
o
37.01 497.52 194.92 574.63 cl
0.5020 0.5020 0.5020 srgb
1.50 setlinewidth
[] 0 setdash
1 setlinecap
1 setlinejoin
10.00 setmiterlimit
np
152.52 507.61 m
2.40 -4.16 l
-4.80 0 l
2.40 4.16 l
o
223.43 497.52 381.35 574.63 cl
18.00 18.00 577.28 823.89 cl
0 0 0 srgb
0.75 setlinewidth
[] 0 setdash
1 setlinecap
1 setlinejoin
10.00 setmiterlimit
np
223.43 504.83 m
0 66.94 l
o
np
223.43 504.83 m
-4.75 0 l
o
np
223.43 515.99 m
-4.75 0 l
o
np
223.43 527.15 m
-4.75 0 l
o
np
223.43 538.30 m
-4.75 0 l
o
np
223.43 549.46 m
-4.75 0 l
o
np
223.43 560.62 m
-4.75 0 l
o
np
223.43 571.77 m
-4.75 0 l
o
/Font1 findfont 8 s
212.03 504.83 (1.00) .5 90 t
212.03 527.15 (1.10) .5 90 t
212.03 549.46 (1.20) .5 90 t
212.03 571.77 (1.30) .5 90 t
np
223.43 497.52 m
157.92 0 l
0 77.11 l
-157.92 0 l
0 -77.11 l
o
204.43 478.51 390.85 593.64 cl
/Font2 findfont 10 s
0 0 0 srgb
302.39 580.54 (f134D.vrp) .5 0 t
/Font1 findfont 8 s
283.05 461.40 (T) 0 ta
-0.960 (est cases) tb gr
193.02 510.73 (Relativ) 90 ta
-0.200 (e result) tb gr
223.43 497.52 381.35 574.63 cl
0 0 0 srgb
0.75 setlinewidth
[ 2.25 3.75] 0 setdash
1 setlinecap
1 setlinejoin
10.00 setmiterlimit
np
192.73 556.45 m
73.11 0 l
73.10 0 l
73.11 0 l
o
0.75 setlinewidth
[] 0 setdash
np
192.73 575.36 m
73.11 0 l
73.10 0 l
73.11 0 l
o
2.25 setlinewidth
[] 0 setdash
0 setlinecap
np
251.21 508.58 m
29.25 0 l
o
0.75 setlinewidth
[ 2.25 3.75] 0 setdash
1 setlinecap
np
265.84 504.83 m
0 3.28 l
o
np
265.84 514.79 m
0 -3.54 l
o
0.75 setlinewidth
[] 0 setdash
np
258.53 504.83 m
14.62 0 l
o
np
258.53 514.79 m
14.62 0 l
o
np
251.21 508.11 m
29.25 0 l
0 3.14 l
-29.25 0 l
0 -3.14 l
o
265.84 519.19 1.18 c p1
265.84 518.08 1.18 c p1
265.84 518.08 1.18 c p1
18.00 18.00 577.28 823.89 cl
0 0 0 srgb
0.75 setlinewidth
[] 0 setdash
1 setlinecap
1 setlinejoin
10.00 setmiterlimit
np
223.43 504.83 m
0 66.94 l
o
np
223.43 504.83 m
-4.75 0 l
o
np
223.43 515.99 m
-4.75 0 l
o
np
223.43 527.15 m
-4.75 0 l
o
np
223.43 538.30 m
-4.75 0 l
o
np
223.43 549.46 m
-4.75 0 l
o
np
223.43 560.62 m
-4.75 0 l
o
np
223.43 571.77 m
-4.75 0 l
o
/Font1 findfont 8 s
212.03 504.83 (1.00) .5 90 t
212.03 527.15 (1.10) .5 90 t
212.03 549.46 (1.20) .5 90 t
212.03 571.77 (1.30) .5 90 t
np
223.43 497.52 m
157.92 0 l
0 77.11 l
-157.92 0 l
0 -77.11 l
o
223.43 497.52 381.35 574.63 cl
0 0 0 srgb
1.50 setlinewidth
[] 0 setdash
1 setlinecap
1 setlinejoin
10.00 setmiterlimit
265.84 504.83 1.78 c p1
0.5020 0.5020 0.5020 srgb
2.25 setlinewidth
[] 0 setdash
0 setlinecap
np
324.32 525.90 m
29.25 0 l
o
0.75 setlinewidth
[ 2.25 3.75] 0 setdash
1 setlinecap
np
338.94 514.07 m
0 8.11 l
o
np
338.94 540.60 m
0 -10.67 l
o
0.75 setlinewidth
[] 0 setdash
np
331.63 514.07 m
14.62 0 l
o
np
331.63 540.60 m
14.62 0 l
o
np
324.32 522.18 m
29.25 0 l
0 7.75 l
-29.25 0 l
0 -7.75 l
o
338.94 544.08 1.18 c p1
338.94 544.08 1.18 c p1
18.00 18.00 577.28 823.89 cl
0 0 0 srgb
0.75 setlinewidth
[] 0 setdash
1 setlinecap
1 setlinejoin
10.00 setmiterlimit
np
223.43 504.83 m
0 66.94 l
o
np
223.43 504.83 m
-4.75 0 l
o
np
223.43 515.99 m
-4.75 0 l
o
np
223.43 527.15 m
-4.75 0 l
o
np
223.43 538.30 m
-4.75 0 l
o
np
223.43 549.46 m
-4.75 0 l
o
np
223.43 560.62 m
-4.75 0 l
o
np
223.43 571.77 m
-4.75 0 l
o
/Font1 findfont 8 s
212.03 504.83 (1.00) .5 90 t
212.03 527.15 (1.10) .5 90 t
212.03 549.46 (1.20) .5 90 t
212.03 571.77 (1.30) .5 90 t
np
223.43 497.52 m
157.92 0 l
0 77.11 l
-157.92 0 l
0 -77.11 l
o
223.43 497.52 381.35 574.63 cl
0.5020 0.5020 0.5020 srgb
1.50 setlinewidth
[] 0 setdash
1 setlinecap
1 setlinejoin
10.00 setmiterlimit
np
338.94 516.84 m
2.40 -4.16 l
-4.80 0 l
2.40 4.16 l
o
409.86 497.52 567.77 574.63 cl
18.00 18.00 577.28 823.89 cl
0 0 0 srgb
0.75 setlinewidth
[] 0 setdash
1 setlinecap
1 setlinejoin
10.00 setmiterlimit
np
409.86 504.83 m
0 66.94 l
o
np
409.86 504.83 m
-4.75 0 l
o
np
409.86 515.99 m
-4.75 0 l
o
np
409.86 527.15 m
-4.75 0 l
o
np
409.86 538.30 m
-4.75 0 l
o
np
409.86 549.46 m
-4.75 0 l
o
np
409.86 560.62 m
-4.75 0 l
o
np
409.86 571.77 m
-4.75 0 l
o
/Font1 findfont 8 s
398.45 504.83 (1.00) .5 90 t
398.45 527.15 (1.10) .5 90 t
398.45 549.46 (1.20) .5 90 t
398.45 571.77 (1.30) .5 90 t
np
409.86 497.52 m
157.91 0 l
0 77.11 l
-157.91 0 l
0 -77.11 l
o
390.85 478.51 577.28 593.64 cl
/Font2 findfont 10 s
0 0 0 srgb
488.81 580.54 (f71D.vrp) .5 0 t
/Font1 findfont 8 s
469.47 461.40 (T) 0 ta
-0.960 (est cases) tb gr
379.45 510.73 (Relativ) 90 ta
-0.200 (e result) tb gr
409.86 497.52 567.77 574.63 cl
0 0 0 srgb
0.75 setlinewidth
[ 2.25 3.75] 0 setdash
1 setlinecap
1 setlinejoin
10.00 setmiterlimit
np
379.15 500.58 m
73.11 0 l
73.11 0 l
51.91 0 l
o
0.75 setlinewidth
[] 0 setdash
np
379.15 507.62 m
73.11 0 l
73.11 0 l
51.91 0 l
o
2.25 setlinewidth
[] 0 setdash
0 setlinecap
np
437.64 517.85 m
29.24 0 l
o
0.75 setlinewidth
[ 2.25 3.75] 0 setdash
1 setlinecap
np
452.26 504.83 m
0 9.54 l
o
np
452.26 546.03 m
0 -14.51 l
o
0.75 setlinewidth
[] 0 setdash
np
444.95 504.83 m
14.62 0 l
o
np
444.95 546.03 m
14.62 0 l
o
np
437.64 514.37 m
29.24 0 l
0 17.15 l
-29.24 0 l
0 -17.15 l
o
452.26 559.01 1.18 c p1
18.00 18.00 577.28 823.89 cl
0 0 0 srgb
0.75 setlinewidth
[] 0 setdash
1 setlinecap
1 setlinejoin
10.00 setmiterlimit
np
409.86 504.83 m
0 66.94 l
o
np
409.86 504.83 m
-4.75 0 l
o
np
409.86 515.99 m
-4.75 0 l
o
np
409.86 527.15 m
-4.75 0 l
o
np
409.86 538.30 m
-4.75 0 l
o
np
409.86 549.46 m
-4.75 0 l
o
np
409.86 560.62 m
-4.75 0 l
o
np
409.86 571.77 m
-4.75 0 l
o
/Font1 findfont 8 s
398.45 504.83 (1.00) .5 90 t
398.45 527.15 (1.10) .5 90 t
398.45 549.46 (1.20) .5 90 t
398.45 571.77 (1.30) .5 90 t
np
409.86 497.52 m
157.91 0 l
0 77.11 l
-157.91 0 l
0 -77.11 l
o
409.86 497.52 567.77 574.63 cl
0 0 0 srgb
1.50 setlinewidth
[] 0 setdash
1 setlinecap
1 setlinejoin
10.00 setmiterlimit
452.26 504.83 1.78 c p1
0.5020 0.5020 0.5020 srgb
2.25 setlinewidth
[] 0 setdash
0 setlinecap
np
510.75 553.05 m
29.24 0 l
o
0.75 setlinewidth
[ 2.25 3.75] 0 setdash
1 setlinecap
np
525.37 521.51 m
0 18.88 l
o
np
525.37 594.65 m
0 -31.76 l
o
0.75 setlinewidth
[] 0 setdash
np
518.06 521.51 m
14.62 0 l
o
np
518.06 594.65 m
14.62 0 l
o
np
510.75 540.39 m
29.24 0 l
0 22.50 l
-29.24 0 l
0 -22.50 l
o
525.37 606.19 1.18 c p1
525.37 617.28 1.18 c p1
525.37 643.29 1.18 c p1
18.00 18.00 577.28 823.89 cl
0 0 0 srgb
0.75 setlinewidth
[] 0 setdash
1 setlinecap
1 setlinejoin
10.00 setmiterlimit
np
409.86 504.83 m
0 66.94 l
o
np
409.86 504.83 m
-4.75 0 l
o
np
409.86 515.99 m
-4.75 0 l
o
np
409.86 527.15 m
-4.75 0 l
o
np
409.86 538.30 m
-4.75 0 l
o
np
409.86 549.46 m
-4.75 0 l
o
np
409.86 560.62 m
-4.75 0 l
o
np
409.86 571.77 m
-4.75 0 l
o
/Font1 findfont 8 s
398.45 504.83 (1.00) .5 90 t
398.45 527.15 (1.10) .5 90 t
398.45 549.46 (1.20) .5 90 t
398.45 571.77 (1.30) .5 90 t
np
409.86 497.52 m
157.91 0 l
0 77.11 l
-157.91 0 l
0 -77.11 l
o
409.86 497.52 567.77 574.63 cl
0.5020 0.5020 0.5020 srgb
1.50 setlinewidth
[] 0 setdash
1 setlinecap
1 setlinejoin
10.00 setmiterlimit
np
525.37 524.28 m
2.40 -4.16 l
-4.80 0 l
2.40 4.16 l
o
37.01 382.39 194.92 459.50 cl
18.00 18.00 577.28 823.89 cl
0 0 0 srgb
0.75 setlinewidth
[] 0 setdash
1 setlinecap
1 setlinejoin
10.00 setmiterlimit
np
37.01 389.71 m
0 66.93 l
o
np
37.01 389.71 m
-4.75 0 l
o
np
37.01 400.86 m
-4.75 0 l
o
np
37.01 412.02 m
-4.75 0 l
o
np
37.01 423.18 m
-4.75 0 l
o
np
37.01 434.33 m
-4.75 0 l
o
np
37.01 445.49 m
-4.75 0 l
o
np
37.01 456.64 m
-4.75 0 l
o
/Font1 findfont 8 s
25.60 389.71 (1.00) .5 90 t
25.60 412.02 (1.10) .5 90 t
25.60 434.33 (1.20) .5 90 t
25.60 456.64 (1.30) .5 90 t
np
37.01 382.39 m
157.91 0 l
0 77.11 l
-157.91 0 l
0 -77.11 l
o
18.00 363.38 204.43 478.51 cl
/Font2 findfont 10 s
0 0 0 srgb
115.96 465.41 (tai100aD.vrp) .5 0 t
/Font1 findfont 8 s
96.62 346.27 (T) 0 ta
-0.960 (est cases) tb gr
37.01 382.39 194.92 459.50 cl
0 0 0 srgb
0.75 setlinewidth
[ 2.25 3.75] 0 setdash
1 setlinecap
1 setlinejoin
10.00 setmiterlimit
np
18.00 387.76 m
61.41 0 l
73.11 0 l
73.11 0 l
o
0.75 setlinewidth
[] 0 setdash
np
18.00 391.39 m
61.41 0 l
73.11 0 l
73.11 0 l
o
2.25 setlinewidth
[] 0 setdash
0 setlinecap
np
64.79 404.85 m
29.24 0 l
o
0.75 setlinewidth
[ 2.25 3.75] 0 setdash
1 setlinecap
np
79.41 389.71 m
0 11.48 l
o
np
79.41 418.50 m
0 -8.16 l
o
0.75 setlinewidth
[] 0 setdash
np
72.10 389.71 m
14.62 0 l
o
np
72.10 418.50 m
14.62 0 l
o
np
64.79 401.19 m
29.24 0 l
0 9.15 l
-29.24 0 l
0 -9.15 l
o
79.41 432.87 1.18 c p1
79.41 432.87 1.18 c p1
79.41 435.83 1.18 c p1
18.00 18.00 577.28 823.89 cl
0 0 0 srgb
0.75 setlinewidth
[] 0 setdash
1 setlinecap
1 setlinejoin
10.00 setmiterlimit
np
37.01 389.71 m
0 66.93 l
o
np
37.01 389.71 m
-4.75 0 l
o
np
37.01 400.86 m
-4.75 0 l
o
np
37.01 412.02 m
-4.75 0 l
o
np
37.01 423.18 m
-4.75 0 l
o
np
37.01 434.33 m
-4.75 0 l
o
np
37.01 445.49 m
-4.75 0 l
o
np
37.01 456.64 m
-4.75 0 l
o
/Font1 findfont 8 s
25.60 389.71 (1.00) .5 90 t
25.60 412.02 (1.10) .5 90 t
25.60 434.33 (1.20) .5 90 t
25.60 456.64 (1.30) .5 90 t
np
37.01 382.39 m
157.91 0 l
0 77.11 l
-157.91 0 l
0 -77.11 l
o
37.01 382.39 194.92 459.50 cl
0 0 0 srgb
1.50 setlinewidth
[] 0 setdash
1 setlinecap
1 setlinejoin
10.00 setmiterlimit
79.41 389.71 1.78 c p1
0.5020 0.5020 0.5020 srgb
2.25 setlinewidth
[] 0 setdash
0 setlinecap
np
137.90 438.67 m
29.24 0 l
o
0.75 setlinewidth
[ 2.25 3.75] 0 setdash
1 setlinecap
np
152.52 401.86 m
0 23.74 l
o
np
152.52 497.60 m
0 -42.23 l
o
0.75 setlinewidth
[] 0 setdash
np
145.21 401.86 m
14.62 0 l
o
np
145.21 497.60 m
14.62 0 l
o
np
137.90 425.60 m
29.24 0 l
0 29.77 l
-29.24 0 l
0 -29.77 l
o
18.00 18.00 577.28 823.89 cl
0 0 0 srgb
0.75 setlinewidth
[] 0 setdash
1 setlinecap
1 setlinejoin
10.00 setmiterlimit
np
37.01 389.71 m
0 66.93 l
o
np
37.01 389.71 m
-4.75 0 l
o
np
37.01 400.86 m
-4.75 0 l
o
np
37.01 412.02 m
-4.75 0 l
o
np
37.01 423.18 m
-4.75 0 l
o
np
37.01 434.33 m
-4.75 0 l
o
np
37.01 445.49 m
-4.75 0 l
o
np
37.01 456.64 m
-4.75 0 l
o
/Font1 findfont 8 s
25.60 389.71 (1.00) .5 90 t
25.60 412.02 (1.10) .5 90 t
25.60 434.33 (1.20) .5 90 t
25.60 456.64 (1.30) .5 90 t
np
37.01 382.39 m
157.91 0 l
0 77.11 l
-157.91 0 l
0 -77.11 l
o
37.01 382.39 194.92 459.50 cl
0.5020 0.5020 0.5020 srgb
1.50 setlinewidth
[] 0 setdash
1 setlinecap
1 setlinejoin
10.00 setmiterlimit
np
152.52 404.63 m
2.40 -4.15 l
-4.80 0 l
2.40 4.15 l
o
223.43 382.39 381.35 459.50 cl
18.00 18.00 577.28 823.89 cl
0 0 0 srgb
0.75 setlinewidth
[] 0 setdash
1 setlinecap
1 setlinejoin
10.00 setmiterlimit
np
223.43 389.71 m
0 66.93 l
o
np
223.43 389.71 m
-4.75 0 l
o
np
223.43 400.86 m
-4.75 0 l
o
np
223.43 412.02 m
-4.75 0 l
o
np
223.43 423.18 m
-4.75 0 l
o
np
223.43 434.33 m
-4.75 0 l
o
np
223.43 445.49 m
-4.75 0 l
o
np
223.43 456.64 m
-4.75 0 l
o
/Font1 findfont 8 s
212.03 389.71 (1.00) .5 90 t
212.03 412.02 (1.10) .5 90 t
212.03 434.33 (1.20) .5 90 t
212.03 456.64 (1.30) .5 90 t
np
223.43 382.39 m
157.92 0 l
0 77.11 l
-157.92 0 l
0 -77.11 l
o
204.43 363.38 390.85 478.51 cl
/Font2 findfont 10 s
0 0 0 srgb
302.39 465.41 (tai100bD.vrp) .5 0 t
/Font1 findfont 8 s
283.05 346.27 (T) 0 ta
-0.960 (est cases) tb gr
193.02 395.60 (Relativ) 90 ta
-0.200 (e result) tb gr
223.43 382.39 381.35 459.50 cl
0 0 0 srgb
0.75 setlinewidth
[ 2.25 3.75] 0 setdash
1 setlinecap
1 setlinejoin
10.00 setmiterlimit
np
192.73 390.36 m
73.11 0 l
73.10 0 l
73.11 0 l
o
0.75 setlinewidth
[] 0 setdash
np
192.73 398.52 m
73.11 0 l
73.10 0 l
73.11 0 l
o
2.25 setlinewidth
[] 0 setdash
0 setlinecap
np
251.21 402.55 m
29.25 0 l
o
0.75 setlinewidth
[ 2.25 3.75] 0 setdash
1 setlinecap
np
265.84 389.71 m
0 7.77 l
o
np
265.84 416.11 m
0 -6.50 l
o
0.75 setlinewidth
[] 0 setdash
np
258.53 389.71 m
14.62 0 l
o
np
258.53 416.11 m
14.62 0 l
o
np
251.21 397.48 m
29.25 0 l
0 12.13 l
-29.25 0 l
0 -12.13 l
o
265.84 442.59 1.18 c p1
18.00 18.00 577.28 823.89 cl
0 0 0 srgb
0.75 setlinewidth
[] 0 setdash
1 setlinecap
1 setlinejoin
10.00 setmiterlimit
np
223.43 389.71 m
0 66.93 l
o
np
223.43 389.71 m
-4.75 0 l
o
np
223.43 400.86 m
-4.75 0 l
o
np
223.43 412.02 m
-4.75 0 l
o
np
223.43 423.18 m
-4.75 0 l
o
np
223.43 434.33 m
-4.75 0 l
o
np
223.43 445.49 m
-4.75 0 l
o
np
223.43 456.64 m
-4.75 0 l
o
/Font1 findfont 8 s
212.03 389.71 (1.00) .5 90 t
212.03 412.02 (1.10) .5 90 t
212.03 434.33 (1.20) .5 90 t
212.03 456.64 (1.30) .5 90 t
np
223.43 382.39 m
157.92 0 l
0 77.11 l
-157.92 0 l
0 -77.11 l
o
223.43 382.39 381.35 459.50 cl
0 0 0 srgb
1.50 setlinewidth
[] 0 setdash
1 setlinecap
1 setlinejoin
10.00 setmiterlimit
265.84 389.71 1.78 c p1
0.5020 0.5020 0.5020 srgb
2.25 setlinewidth
[] 0 setdash
0 setlinecap
np
324.32 428.27 m
29.25 0 l
o
0.75 setlinewidth
[ 2.25 3.75] 0 setdash
1 setlinecap
np
338.94 395.31 m
0 22.65 l
o
np
338.94 464.57 m
0 -27.63 l
o
0.75 setlinewidth
[] 0 setdash
np
331.63 395.31 m
14.62 0 l
o
np
331.63 464.57 m
14.62 0 l
o
np
324.32 417.96 m
29.25 0 l
0 18.98 l
-29.25 0 l
0 -18.98 l
o
338.94 465.86 1.18 c p1
338.94 467.60 1.18 c p1
338.94 470.39 1.18 c p1
338.94 472.11 1.18 c p1
338.94 473.58 1.18 c p1
338.94 473.60 1.18 c p1
338.94 483.79 1.18 c p1
338.94 486.92 1.18 c p1
18.00 18.00 577.28 823.89 cl
0 0 0 srgb
0.75 setlinewidth
[] 0 setdash
1 setlinecap
1 setlinejoin
10.00 setmiterlimit
np
223.43 389.71 m
0 66.93 l
o
np
223.43 389.71 m
-4.75 0 l
o
np
223.43 400.86 m
-4.75 0 l
o
np
223.43 412.02 m
-4.75 0 l
o
np
223.43 423.18 m
-4.75 0 l
o
np
223.43 434.33 m
-4.75 0 l
o
np
223.43 445.49 m
-4.75 0 l
o
np
223.43 456.64 m
-4.75 0 l
o
/Font1 findfont 8 s
212.03 389.71 (1.00) .5 90 t
212.03 412.02 (1.10) .5 90 t
212.03 434.33 (1.20) .5 90 t
212.03 456.64 (1.30) .5 90 t
np
223.43 382.39 m
157.92 0 l
0 77.11 l
-157.92 0 l
0 -77.11 l
o
223.43 382.39 381.35 459.50 cl
0.5020 0.5020 0.5020 srgb
1.50 setlinewidth
[] 0 setdash
1 setlinecap
1 setlinejoin
10.00 setmiterlimit
np
338.94 398.08 m
2.40 -4.16 l
-4.80 0 l
2.40 4.16 l
o
409.86 382.39 567.77 459.50 cl
18.00 18.00 577.28 823.89 cl
0 0 0 srgb
0.75 setlinewidth
[] 0 setdash
1 setlinecap
1 setlinejoin
10.00 setmiterlimit
np
409.86 389.71 m
0 66.93 l
o
np
409.86 389.71 m
-4.75 0 l
o
np
409.86 400.86 m
-4.75 0 l
o
np
409.86 412.02 m
-4.75 0 l
o
np
409.86 423.18 m
-4.75 0 l
o
np
409.86 434.33 m
-4.75 0 l
o
np
409.86 445.49 m
-4.75 0 l
o
np
409.86 456.64 m
-4.75 0 l
o
/Font1 findfont 8 s
398.45 389.71 (1.00) .5 90 t
398.45 412.02 (1.10) .5 90 t
398.45 434.33 (1.20) .5 90 t
398.45 456.64 (1.30) .5 90 t
np
409.86 382.39 m
157.91 0 l
0 77.11 l
-157.91 0 l
0 -77.11 l
o
390.85 363.38 577.28 478.51 cl
/Font2 findfont 10 s
0 0 0 srgb
488.81 465.41 (tai100cD.vrp) .5 0 t
/Font1 findfont 8 s
469.47 346.27 (T) 0 ta
-0.960 (est cases) tb gr
379.45 395.60 (Relativ) 90 ta
-0.200 (e result) tb gr
409.86 382.39 567.77 459.50 cl
0 0 0 srgb
0.75 setlinewidth
[ 2.25 3.75] 0 setdash
1 setlinecap
1 setlinejoin
10.00 setmiterlimit
np
379.15 380.34 m
73.11 0 l
73.11 0 l
51.91 0 l
o
0.75 setlinewidth
[] 0 setdash
np
379.15 388.98 m
73.11 0 l
73.11 0 l
51.91 0 l
o
2.25 setlinewidth
[] 0 setdash
0 setlinecap
np
437.64 397.25 m
29.24 0 l
o
0.75 setlinewidth
[ 2.25 3.75] 0 setdash
1 setlinecap
np
452.26 389.71 m
0 3.61 l
o
np
452.26 405.32 m
0 -3.09 l
o
0.75 setlinewidth
[] 0 setdash
np
444.95 389.71 m
14.62 0 l
o
np
444.95 405.32 m
14.62 0 l
o
np
437.64 393.32 m
29.24 0 l
0 8.91 l
-29.24 0 l
0 -8.91 l
o
18.00 18.00 577.28 823.89 cl
0 0 0 srgb
0.75 setlinewidth
[] 0 setdash
1 setlinecap
1 setlinejoin
10.00 setmiterlimit
np
409.86 389.71 m
0 66.93 l
o
np
409.86 389.71 m
-4.75 0 l
o
np
409.86 400.86 m
-4.75 0 l
o
np
409.86 412.02 m
-4.75 0 l
o
np
409.86 423.18 m
-4.75 0 l
o
np
409.86 434.33 m
-4.75 0 l
o
np
409.86 445.49 m
-4.75 0 l
o
np
409.86 456.64 m
-4.75 0 l
o
/Font1 findfont 8 s
398.45 389.71 (1.00) .5 90 t
398.45 412.02 (1.10) .5 90 t
398.45 434.33 (1.20) .5 90 t
398.45 456.64 (1.30) .5 90 t
np
409.86 382.39 m
157.91 0 l
0 77.11 l
-157.91 0 l
0 -77.11 l
o
409.86 382.39 567.77 459.50 cl
0 0 0 srgb
1.50 setlinewidth
[] 0 setdash
1 setlinecap
1 setlinejoin
10.00 setmiterlimit
452.26 389.71 1.78 c p1
0.5020 0.5020 0.5020 srgb
2.25 setlinewidth
[] 0 setdash
0 setlinecap
np
510.75 405.69 m
29.24 0 l
o
0.75 setlinewidth
[ 2.25 3.75] 0 setdash
1 setlinecap
np
525.37 390.93 m
0 8.33 l
o
np
525.37 426.84 m
0 -15.89 l
o
0.75 setlinewidth
[] 0 setdash
np
518.06 390.93 m
14.62 0 l
o
np
518.06 426.84 m
14.62 0 l
o
np
510.75 399.26 m
29.24 0 l
0 11.69 l
-29.24 0 l
0 -11.69 l
o
525.37 429.43 1.18 c p1
525.37 429.85 1.18 c p1
525.37 436.65 1.18 c p1
525.37 436.97 1.18 c p1
525.37 445.38 1.18 c p1
525.37 458.55 1.18 c p1
18.00 18.00 577.28 823.89 cl
0 0 0 srgb
0.75 setlinewidth
[] 0 setdash
1 setlinecap
1 setlinejoin
10.00 setmiterlimit
np
409.86 389.71 m
0 66.93 l
o
np
409.86 389.71 m
-4.75 0 l
o
np
409.86 400.86 m
-4.75 0 l
o
np
409.86 412.02 m
-4.75 0 l
o
np
409.86 423.18 m
-4.75 0 l
o
np
409.86 434.33 m
-4.75 0 l
o
np
409.86 445.49 m
-4.75 0 l
o
np
409.86 456.64 m
-4.75 0 l
o
/Font1 findfont 8 s
398.45 389.71 (1.00) .5 90 t
398.45 412.02 (1.10) .5 90 t
398.45 434.33 (1.20) .5 90 t
398.45 456.64 (1.30) .5 90 t
np
409.86 382.39 m
157.91 0 l
0 77.11 l
-157.91 0 l
0 -77.11 l
o
409.86 382.39 567.77 459.50 cl
0.5020 0.5020 0.5020 srgb
1.50 setlinewidth
[] 0 setdash
1 setlinecap
1 setlinejoin
10.00 setmiterlimit
np
525.37 393.70 m
2.40 -4.16 l
-4.80 0 l
2.40 4.16 l
o
37.01 267.26 194.92 344.37 cl
18.00 18.00 577.28 823.89 cl
0 0 0 srgb
0.75 setlinewidth
[] 0 setdash
1 setlinecap
1 setlinejoin
10.00 setmiterlimit
np
37.01 274.58 m
0 66.94 l
o
np
37.01 274.58 m
-4.75 0 l
o
np
37.01 285.74 m
-4.75 0 l
o
np
37.01 296.89 m
-4.75 0 l
o
np
37.01 308.05 m
-4.75 0 l
o
np
37.01 319.21 m
-4.75 0 l
o
np
37.01 330.36 m
-4.75 0 l
o
np
37.01 341.52 m
-4.75 0 l
o
/Font1 findfont 8 s
25.60 274.58 (1.00) .5 90 t
25.60 296.89 (1.10) .5 90 t
25.60 319.21 (1.20) .5 90 t
25.60 341.52 (1.30) .5 90 t
np
37.01 267.26 m
157.91 0 l
0 77.11 l
-157.91 0 l
0 -77.11 l
o
18.00 248.25 204.43 363.38 cl
/Font2 findfont 10 s
0 0 0 srgb
115.96 350.29 (tai100dD.vrp) .5 0 t
/Font1 findfont 8 s
96.62 231.15 (T) 0 ta
-0.960 (est cases) tb gr
37.01 267.26 194.92 344.37 cl
0 0 0 srgb
0.75 setlinewidth
[ 2.25 3.75] 0 setdash
1 setlinecap
1 setlinejoin
10.00 setmiterlimit
np
18.00 276.93 m
61.41 0 l
73.11 0 l
73.11 0 l
o
0.75 setlinewidth
[] 0 setdash
np
18.00 287.96 m
61.41 0 l
73.11 0 l
73.11 0 l
o
2.25 setlinewidth
[] 0 setdash
0 setlinecap
np
64.79 289.85 m
29.24 0 l
o
0.75 setlinewidth
[ 2.25 3.75] 0 setdash
1 setlinecap
np
79.41 274.58 m
0 7.51 l
o
np
79.41 307.02 m
0 -12.41 l
o
0.75 setlinewidth
[] 0 setdash
np
72.10 274.58 m
14.62 0 l
o
np
72.10 307.02 m
14.62 0 l
o
np
64.79 282.09 m
29.24 0 l
0 12.52 l
-29.24 0 l
0 -12.52 l
o
18.00 18.00 577.28 823.89 cl
0 0 0 srgb
0.75 setlinewidth
[] 0 setdash
1 setlinecap
1 setlinejoin
10.00 setmiterlimit
np
37.01 274.58 m
0 66.94 l
o
np
37.01 274.58 m
-4.75 0 l
o
np
37.01 285.74 m
-4.75 0 l
o
np
37.01 296.89 m
-4.75 0 l
o
np
37.01 308.05 m
-4.75 0 l
o
np
37.01 319.21 m
-4.75 0 l
o
np
37.01 330.36 m
-4.75 0 l
o
np
37.01 341.52 m
-4.75 0 l
o
/Font1 findfont 8 s
25.60 274.58 (1.00) .5 90 t
25.60 296.89 (1.10) .5 90 t
25.60 319.21 (1.20) .5 90 t
25.60 341.52 (1.30) .5 90 t
np
37.01 267.26 m
157.91 0 l
0 77.11 l
-157.91 0 l
0 -77.11 l
o
37.01 267.26 194.92 344.37 cl
0 0 0 srgb
1.50 setlinewidth
[] 0 setdash
1 setlinecap
1 setlinejoin
10.00 setmiterlimit
79.41 274.58 1.78 c p1
0.5020 0.5020 0.5020 srgb
2.25 setlinewidth
[] 0 setdash
0 setlinecap
np
137.90 324.02 m
29.24 0 l
o
0.75 setlinewidth
[ 2.25 3.75] 0 setdash
1 setlinecap
np
152.52 279.50 m
0 31.32 l
o
np
152.52 365.80 m
0 -30.16 l
o
0.75 setlinewidth
[] 0 setdash
np
145.21 279.50 m
14.62 0 l
o
np
145.21 365.80 m
14.62 0 l
o
np
137.90 310.82 m
29.24 0 l
0 24.82 l
-29.24 0 l
0 -24.82 l
o
152.52 382.19 1.18 c p1
18.00 18.00 577.28 823.89 cl
0 0 0 srgb
0.75 setlinewidth
[] 0 setdash
1 setlinecap
1 setlinejoin
10.00 setmiterlimit
np
37.01 274.58 m
0 66.94 l
o
np
37.01 274.58 m
-4.75 0 l
o
np
37.01 285.74 m
-4.75 0 l
o
np
37.01 296.89 m
-4.75 0 l
o
np
37.01 308.05 m
-4.75 0 l
o
np
37.01 319.21 m
-4.75 0 l
o
np
37.01 330.36 m
-4.75 0 l
o
np
37.01 341.52 m
-4.75 0 l
o
/Font1 findfont 8 s
25.60 274.58 (1.00) .5 90 t
25.60 296.89 (1.10) .5 90 t
25.60 319.21 (1.20) .5 90 t
25.60 341.52 (1.30) .5 90 t
np
37.01 267.26 m
157.91 0 l
0 77.11 l
-157.91 0 l
0 -77.11 l
o
37.01 267.26 194.92 344.37 cl
0.5020 0.5020 0.5020 srgb
1.50 setlinewidth
[] 0 setdash
1 setlinecap
1 setlinejoin
10.00 setmiterlimit
np
152.52 282.27 m
2.40 -4.15 l
-4.80 0 l
2.40 4.15 l
o
223.43 267.26 381.35 344.37 cl
18.00 18.00 577.28 823.89 cl
0 0 0 srgb
0.75 setlinewidth
[] 0 setdash
1 setlinecap
1 setlinejoin
10.00 setmiterlimit
np
223.43 274.58 m
0 66.94 l
o
np
223.43 274.58 m
-4.75 0 l
o
np
223.43 285.74 m
-4.75 0 l
o
np
223.43 296.89 m
-4.75 0 l
o
np
223.43 308.05 m
-4.75 0 l
o
np
223.43 319.21 m
-4.75 0 l
o
np
223.43 330.36 m
-4.75 0 l
o
np
223.43 341.52 m
-4.75 0 l
o
/Font1 findfont 8 s
212.03 274.58 (1.00) .5 90 t
212.03 296.89 (1.10) .5 90 t
212.03 319.21 (1.20) .5 90 t
212.03 341.52 (1.30) .5 90 t
np
223.43 267.26 m
157.92 0 l
0 77.11 l
-157.92 0 l
0 -77.11 l
o
204.43 248.25 390.85 363.38 cl
/Font2 findfont 10 s
0 0 0 srgb
302.39 350.29 (tai150aD.vrp) .5 0 t
/Font1 findfont 8 s
283.05 231.15 (T) 0 ta
-0.960 (est cases) tb gr
193.02 280.48 (Relativ) 90 ta
-0.200 (e result) tb gr
223.43 267.26 381.35 344.37 cl
0 0 0 srgb
0.75 setlinewidth
[ 2.25 3.75] 0 setdash
1 setlinecap
1 setlinejoin
10.00 setmiterlimit
np
192.73 261.27 m
73.11 0 l
73.10 0 l
73.11 0 l
o
0.75 setlinewidth
[] 0 setdash
np
192.73 268.76 m
73.11 0 l
73.10 0 l
73.11 0 l
o
2.25 setlinewidth
[] 0 setdash
0 setlinecap
np
251.21 286.12 m
29.25 0 l
o
0.75 setlinewidth
[ 2.25 3.75] 0 setdash
1 setlinecap
np
265.84 274.58 m
0 6.01 l
o
np
265.84 303.23 m
0 -13.32 l
o
0.75 setlinewidth
[] 0 setdash
np
258.53 274.58 m
14.62 0 l
o
np
258.53 303.23 m
14.62 0 l
o
np
251.21 280.59 m
29.25 0 l
0 9.32 l
-29.25 0 l
0 -9.32 l
o
18.00 18.00 577.28 823.89 cl
0 0 0 srgb
0.75 setlinewidth
[] 0 setdash
1 setlinecap
1 setlinejoin
10.00 setmiterlimit
np
223.43 274.58 m
0 66.94 l
o
np
223.43 274.58 m
-4.75 0 l
o
np
223.43 285.74 m
-4.75 0 l
o
np
223.43 296.89 m
-4.75 0 l
o
np
223.43 308.05 m
-4.75 0 l
o
np
223.43 319.21 m
-4.75 0 l
o
np
223.43 330.36 m
-4.75 0 l
o
np
223.43 341.52 m
-4.75 0 l
o
/Font1 findfont 8 s
212.03 274.58 (1.00) .5 90 t
212.03 296.89 (1.10) .5 90 t
212.03 319.21 (1.20) .5 90 t
212.03 341.52 (1.30) .5 90 t
np
223.43 267.26 m
157.92 0 l
0 77.11 l
-157.92 0 l
0 -77.11 l
o
223.43 267.26 381.35 344.37 cl
0 0 0 srgb
1.50 setlinewidth
[] 0 setdash
1 setlinecap
1 setlinejoin
10.00 setmiterlimit
265.84 274.58 1.78 c p1
0.5020 0.5020 0.5020 srgb
2.25 setlinewidth
[] 0 setdash
0 setlinecap
np
324.32 313.41 m
29.25 0 l
o
0.75 setlinewidth
[ 2.25 3.75] 0 setdash
1 setlinecap
np
338.94 284.70 m
0 18.47 l
o
np
338.94 359.76 m
0 -31.61 l
o
0.75 setlinewidth
[] 0 setdash
np
331.63 284.70 m
14.62 0 l
o
np
331.63 359.76 m
14.62 0 l
o
np
324.32 303.17 m
29.25 0 l
0 24.98 l
-29.25 0 l
0 -24.98 l
o
338.94 367.36 1.18 c p1
338.94 367.36 1.18 c p1
338.94 379.31 1.18 c p1
338.94 383.10 1.18 c p1
338.94 391.11 1.18 c p1
18.00 18.00 577.28 823.89 cl
0 0 0 srgb
0.75 setlinewidth
[] 0 setdash
1 setlinecap
1 setlinejoin
10.00 setmiterlimit
np
223.43 274.58 m
0 66.94 l
o
np
223.43 274.58 m
-4.75 0 l
o
np
223.43 285.74 m
-4.75 0 l
o
np
223.43 296.89 m
-4.75 0 l
o
np
223.43 308.05 m
-4.75 0 l
o
np
223.43 319.21 m
-4.75 0 l
o
np
223.43 330.36 m
-4.75 0 l
o
np
223.43 341.52 m
-4.75 0 l
o
/Font1 findfont 8 s
212.03 274.58 (1.00) .5 90 t
212.03 296.89 (1.10) .5 90 t
212.03 319.21 (1.20) .5 90 t
212.03 341.52 (1.30) .5 90 t
np
223.43 267.26 m
157.92 0 l
0 77.11 l
-157.92 0 l
0 -77.11 l
o
223.43 267.26 381.35 344.37 cl
0.5020 0.5020 0.5020 srgb
1.50 setlinewidth
[] 0 setdash
1 setlinecap
1 setlinejoin
10.00 setmiterlimit
np
338.94 287.47 m
2.40 -4.15 l
-4.80 0 l
2.40 4.15 l
o
409.86 267.26 567.77 344.37 cl
18.00 18.00 577.28 823.89 cl
0 0 0 srgb
0.75 setlinewidth
[] 0 setdash
1 setlinecap
1 setlinejoin
10.00 setmiterlimit
np
409.86 274.58 m
0 66.94 l
o
np
409.86 274.58 m
-4.75 0 l
o
np
409.86 285.74 m
-4.75 0 l
o
np
409.86 296.89 m
-4.75 0 l
o
np
409.86 308.05 m
-4.75 0 l
o
np
409.86 319.21 m
-4.75 0 l
o
np
409.86 330.36 m
-4.75 0 l
o
np
409.86 341.52 m
-4.75 0 l
o
/Font1 findfont 8 s
398.45 274.58 (1.00) .5 90 t
398.45 296.89 (1.10) .5 90 t
398.45 319.21 (1.20) .5 90 t
398.45 341.52 (1.30) .5 90 t
np
409.86 267.26 m
157.91 0 l
0 77.11 l
-157.91 0 l
0 -77.11 l
o
390.85 248.25 577.28 363.38 cl
/Font2 findfont 10 s
0 0 0 srgb
488.81 350.29 (tai150bD.vrp) .5 0 t
/Font1 findfont 8 s
469.47 231.15 (T) 0 ta
-0.960 (est cases) tb gr
379.45 280.48 (Relativ) 90 ta
-0.200 (e result) tb gr
409.86 267.26 567.77 344.37 cl
0 0 0 srgb
0.75 setlinewidth
[ 2.25 3.75] 0 setdash
1 setlinecap
1 setlinejoin
10.00 setmiterlimit
np
379.15 263.96 m
73.11 0 l
73.11 0 l
51.91 0 l
o
0.75 setlinewidth
[] 0 setdash
np
379.15 271.01 m
73.11 0 l
73.11 0 l
51.91 0 l
o
2.25 setlinewidth
[] 0 setdash
0 setlinecap
np
437.64 283.62 m
29.24 0 l
o
0.75 setlinewidth
[ 2.25 3.75] 0 setdash
1 setlinecap
np
452.26 274.58 m
0 4.57 l
o
np
452.26 287.96 m
0 -2.42 l
o
0.75 setlinewidth
[] 0 setdash
np
444.95 274.58 m
14.62 0 l
o
np
444.95 287.96 m
14.62 0 l
o
np
437.64 279.15 m
29.24 0 l
0 6.39 l
-29.24 0 l
0 -6.39 l
o
452.26 299.17 1.18 c p1
18.00 18.00 577.28 823.89 cl
0 0 0 srgb
0.75 setlinewidth
[] 0 setdash
1 setlinecap
1 setlinejoin
10.00 setmiterlimit
np
409.86 274.58 m
0 66.94 l
o
np
409.86 274.58 m
-4.75 0 l
o
np
409.86 285.74 m
-4.75 0 l
o
np
409.86 296.89 m
-4.75 0 l
o
np
409.86 308.05 m
-4.75 0 l
o
np
409.86 319.21 m
-4.75 0 l
o
np
409.86 330.36 m
-4.75 0 l
o
np
409.86 341.52 m
-4.75 0 l
o
/Font1 findfont 8 s
398.45 274.58 (1.00) .5 90 t
398.45 296.89 (1.10) .5 90 t
398.45 319.21 (1.20) .5 90 t
398.45 341.52 (1.30) .5 90 t
np
409.86 267.26 m
157.91 0 l
0 77.11 l
-157.91 0 l
0 -77.11 l
o
409.86 267.26 567.77 344.37 cl
0 0 0 srgb
1.50 setlinewidth
[] 0 setdash
1 setlinecap
1 setlinejoin
10.00 setmiterlimit
452.26 274.58 1.78 c p1
0.5020 0.5020 0.5020 srgb
2.25 setlinewidth
[] 0 setdash
0 setlinecap
np
510.75 294.21 m
29.24 0 l
o
0.75 setlinewidth
[ 2.25 3.75] 0 setdash
1 setlinecap
np
525.37 282.23 m
0 7.87 l
o
np
525.37 317.84 m
0 -16.45 l
o
0.75 setlinewidth
[] 0 setdash
np
518.06 282.23 m
14.62 0 l
o
np
518.06 317.84 m
14.62 0 l
o
np
510.75 290.10 m
29.24 0 l
0 11.29 l
-29.24 0 l
0 -11.29 l
o
525.37 324.61 1.18 c p1
525.37 324.92 1.18 c p1
525.37 325.43 1.18 c p1
525.37 338.60 1.18 c p1
18.00 18.00 577.28 823.89 cl
0 0 0 srgb
0.75 setlinewidth
[] 0 setdash
1 setlinecap
1 setlinejoin
10.00 setmiterlimit
np
409.86 274.58 m
0 66.94 l
o
np
409.86 274.58 m
-4.75 0 l
o
np
409.86 285.74 m
-4.75 0 l
o
np
409.86 296.89 m
-4.75 0 l
o
np
409.86 308.05 m
-4.75 0 l
o
np
409.86 319.21 m
-4.75 0 l
o
np
409.86 330.36 m
-4.75 0 l
o
np
409.86 341.52 m
-4.75 0 l
o
/Font1 findfont 8 s
398.45 274.58 (1.00) .5 90 t
398.45 296.89 (1.10) .5 90 t
398.45 319.21 (1.20) .5 90 t
398.45 341.52 (1.30) .5 90 t
np
409.86 267.26 m
157.91 0 l
0 77.11 l
-157.91 0 l
0 -77.11 l
o
409.86 267.26 567.77 344.37 cl
0.5020 0.5020 0.5020 srgb
1.50 setlinewidth
[] 0 setdash
1 setlinecap
1 setlinejoin
10.00 setmiterlimit
np
525.37 285.00 m
2.40 -4.16 l
-4.80 0 l
2.40 4.16 l
o
37.01 152.14 194.92 229.25 cl
18.00 18.00 577.28 823.89 cl
0 0 0 srgb
0.75 setlinewidth
[] 0 setdash
1 setlinecap
1 setlinejoin
10.00 setmiterlimit
np
37.01 159.45 m
0 66.94 l
o
np
37.01 159.45 m
-4.75 0 l
o
np
37.01 170.61 m
-4.75 0 l
o
np
37.01 181.77 m
-4.75 0 l
o
np
37.01 192.92 m
-4.75 0 l
o
np
37.01 204.08 m
-4.75 0 l
o
np
37.01 215.23 m
-4.75 0 l
o
np
37.01 226.39 m
-4.75 0 l
o
/Font1 findfont 8 s
25.60 159.45 (1.00) .5 90 t
25.60 181.77 (1.10) .5 90 t
25.60 204.08 (1.20) .5 90 t
25.60 226.39 (1.30) .5 90 t
np
37.01 152.14 m
157.91 0 l
0 77.11 l
-157.91 0 l
0 -77.11 l
o
18.00 133.13 204.43 248.25 cl
/Font2 findfont 10 s
0 0 0 srgb
115.96 235.16 (tai150cD.vrp) .5 0 t
/Font1 findfont 8 s
96.62 116.02 (T) 0 ta
-0.960 (est cases) tb gr
37.01 152.14 194.92 229.25 cl
0 0 0 srgb
0.75 setlinewidth
[ 2.25 3.75] 0 setdash
1 setlinecap
1 setlinejoin
10.00 setmiterlimit
np
18.00 142.83 m
61.41 0 l
73.11 0 l
73.11 0 l
o
0.75 setlinewidth
[] 0 setdash
np
18.00 155.93 m
61.41 0 l
73.11 0 l
73.11 0 l
o
2.25 setlinewidth
[] 0 setdash
0 setlinecap
np
64.79 166.00 m
29.24 0 l
o
0.75 setlinewidth
[ 2.25 3.75] 0 setdash
1 setlinecap
np
79.41 159.45 m
0 4.84 l
o
np
79.41 178.16 m
0 -7.44 l
o
0.75 setlinewidth
[] 0 setdash
np
72.10 159.45 m
14.62 0 l
o
np
72.10 178.16 m
14.62 0 l
o
np
64.79 164.29 m
29.24 0 l
0 6.43 l
-29.24 0 l
0 -6.43 l
o
79.41 183.49 1.18 c p1
79.41 186.26 1.18 c p1
18.00 18.00 577.28 823.89 cl
0 0 0 srgb
0.75 setlinewidth
[] 0 setdash
1 setlinecap
1 setlinejoin
10.00 setmiterlimit
np
37.01 159.45 m
0 66.94 l
o
np
37.01 159.45 m
-4.75 0 l
o
np
37.01 170.61 m
-4.75 0 l
o
np
37.01 181.77 m
-4.75 0 l
o
np
37.01 192.92 m
-4.75 0 l
o
np
37.01 204.08 m
-4.75 0 l
o
np
37.01 215.23 m
-4.75 0 l
o
np
37.01 226.39 m
-4.75 0 l
o
/Font1 findfont 8 s
25.60 159.45 (1.00) .5 90 t
25.60 181.77 (1.10) .5 90 t
25.60 204.08 (1.20) .5 90 t
25.60 226.39 (1.30) .5 90 t
np
37.01 152.14 m
157.91 0 l
0 77.11 l
-157.91 0 l
0 -77.11 l
o
37.01 152.14 194.92 229.25 cl
0 0 0 srgb
1.50 setlinewidth
[] 0 setdash
1 setlinecap
1 setlinejoin
10.00 setmiterlimit
79.41 159.45 1.78 c p1
0.5020 0.5020 0.5020 srgb
2.25 setlinewidth
[] 0 setdash
0 setlinecap
np
137.90 178.59 m
29.24 0 l
o
0.75 setlinewidth
[ 2.25 3.75] 0 setdash
1 setlinecap
np
152.52 166.85 m
0 8.65 l
o
np
152.52 191.77 m
0 -9.53 l
o
0.75 setlinewidth
[] 0 setdash
np
145.21 166.85 m
14.62 0 l
o
np
145.21 191.77 m
14.62 0 l
o
np
137.90 175.50 m
29.24 0 l
0 6.74 l
-29.24 0 l
0 -6.74 l
o
152.52 164.94 1.18 c p1
152.52 193.70 1.18 c p1
152.52 194.62 1.18 c p1
152.52 196.10 1.18 c p1
152.52 201.13 1.18 c p1
18.00 18.00 577.28 823.89 cl
0 0 0 srgb
0.75 setlinewidth
[] 0 setdash
1 setlinecap
1 setlinejoin
10.00 setmiterlimit
np
37.01 159.45 m
0 66.94 l
o
np
37.01 159.45 m
-4.75 0 l
o
np
37.01 170.61 m
-4.75 0 l
o
np
37.01 181.77 m
-4.75 0 l
o
np
37.01 192.92 m
-4.75 0 l
o
np
37.01 204.08 m
-4.75 0 l
o
np
37.01 215.23 m
-4.75 0 l
o
np
37.01 226.39 m
-4.75 0 l
o
/Font1 findfont 8 s
25.60 159.45 (1.00) .5 90 t
25.60 181.77 (1.10) .5 90 t
25.60 204.08 (1.20) .5 90 t
25.60 226.39 (1.30) .5 90 t
np
37.01 152.14 m
157.91 0 l
0 77.11 l
-157.91 0 l
0 -77.11 l
o
37.01 152.14 194.92 229.25 cl
0.5020 0.5020 0.5020 srgb
1.50 setlinewidth
[] 0 setdash
1 setlinecap
1 setlinejoin
10.00 setmiterlimit
np
152.52 167.71 m
2.40 -4.15 l
-4.80 0 l
2.40 4.15 l
o
223.43 152.14 381.35 229.25 cl
18.00 18.00 577.28 823.89 cl
0 0 0 srgb
0.75 setlinewidth
[] 0 setdash
1 setlinecap
1 setlinejoin
10.00 setmiterlimit
np
223.43 159.45 m
0 66.94 l
o
np
223.43 159.45 m
-4.75 0 l
o
np
223.43 170.61 m
-4.75 0 l
o
np
223.43 181.77 m
-4.75 0 l
o
np
223.43 192.92 m
-4.75 0 l
o
np
223.43 204.08 m
-4.75 0 l
o
np
223.43 215.23 m
-4.75 0 l
o
np
223.43 226.39 m
-4.75 0 l
o
/Font1 findfont 8 s
212.03 159.45 (1.00) .5 90 t
212.03 181.77 (1.10) .5 90 t
212.03 204.08 (1.20) .5 90 t
212.03 226.39 (1.30) .5 90 t
np
223.43 152.14 m
157.92 0 l
0 77.11 l
-157.92 0 l
0 -77.11 l
o
204.43 133.13 390.85 248.25 cl
/Font2 findfont 10 s
0 0 0 srgb
302.39 235.16 (tai150dD.vrp) .5 0 t
/Font1 findfont 8 s
283.05 116.02 (T) 0 ta
-0.960 (est cases) tb gr
193.02 165.35 (Relativ) 90 ta
-0.200 (e result) tb gr
223.43 152.14 381.35 229.25 cl
0 0 0 srgb
0.75 setlinewidth
[ 2.25 3.75] 0 setdash
1 setlinecap
1 setlinejoin
10.00 setmiterlimit
np
192.73 147.06 m
73.11 0 l
73.10 0 l
73.11 0 l
o
0.75 setlinewidth
[] 0 setdash
np
192.73 156.47 m
73.11 0 l
73.10 0 l
73.11 0 l
o
2.25 setlinewidth
[] 0 setdash
0 setlinecap
np
251.21 169.65 m
29.25 0 l
o
0.75 setlinewidth
[ 2.25 3.75] 0 setdash
1 setlinecap
np
265.84 159.45 m
0 5.82 l
o
np
265.84 178.32 m
0 -4.36 l
o
0.75 setlinewidth
[] 0 setdash
np
258.53 159.45 m
14.62 0 l
o
np
258.53 178.32 m
14.62 0 l
o
np
251.21 165.27 m
29.25 0 l
0 8.69 l
-29.25 0 l
0 -8.69 l
o
265.84 191.05 1.18 c p1
18.00 18.00 577.28 823.89 cl
0 0 0 srgb
0.75 setlinewidth
[] 0 setdash
1 setlinecap
1 setlinejoin
10.00 setmiterlimit
np
223.43 159.45 m
0 66.94 l
o
np
223.43 159.45 m
-4.75 0 l
o
np
223.43 170.61 m
-4.75 0 l
o
np
223.43 181.77 m
-4.75 0 l
o
np
223.43 192.92 m
-4.75 0 l
o
np
223.43 204.08 m
-4.75 0 l
o
np
223.43 215.23 m
-4.75 0 l
o
np
223.43 226.39 m
-4.75 0 l
o
/Font1 findfont 8 s
212.03 159.45 (1.00) .5 90 t
212.03 181.77 (1.10) .5 90 t
212.03 204.08 (1.20) .5 90 t
212.03 226.39 (1.30) .5 90 t
np
223.43 152.14 m
157.92 0 l
0 77.11 l
-157.92 0 l
0 -77.11 l
o
223.43 152.14 381.35 229.25 cl
0 0 0 srgb
1.50 setlinewidth
[] 0 setdash
1 setlinecap
1 setlinejoin
10.00 setmiterlimit
265.84 159.45 1.78 c p1
0.5020 0.5020 0.5020 srgb
2.25 setlinewidth
[] 0 setdash
0 setlinecap
np
324.32 189.48 m
29.25 0 l
o
0.75 setlinewidth
[ 2.25 3.75] 0 setdash
1 setlinecap
np
338.94 160.82 m
0 19.71 l
o
np
338.94 233.38 m
0 -30.24 l
o
0.75 setlinewidth
[] 0 setdash
np
331.63 160.82 m
14.62 0 l
o
np
331.63 233.38 m
14.62 0 l
o
np
324.32 180.53 m
29.25 0 l
0 22.61 l
-29.25 0 l
0 -22.61 l
o
338.94 245.31 1.18 c p1
18.00 18.00 577.28 823.89 cl
0 0 0 srgb
0.75 setlinewidth
[] 0 setdash
1 setlinecap
1 setlinejoin
10.00 setmiterlimit
np
223.43 159.45 m
0 66.94 l
o
np
223.43 159.45 m
-4.75 0 l
o
np
223.43 170.61 m
-4.75 0 l
o
np
223.43 181.77 m
-4.75 0 l
o
np
223.43 192.92 m
-4.75 0 l
o
np
223.43 204.08 m
-4.75 0 l
o
np
223.43 215.23 m
-4.75 0 l
o
np
223.43 226.39 m
-4.75 0 l
o
/Font1 findfont 8 s
212.03 159.45 (1.00) .5 90 t
212.03 181.77 (1.10) .5 90 t
212.03 204.08 (1.20) .5 90 t
212.03 226.39 (1.30) .5 90 t
np
223.43 152.14 m
157.92 0 l
0 77.11 l
-157.92 0 l
0 -77.11 l
o
223.43 152.14 381.35 229.25 cl
0.5020 0.5020 0.5020 srgb
1.50 setlinewidth
[] 0 setdash
1 setlinecap
1 setlinejoin
10.00 setmiterlimit
np
338.94 163.59 m
2.40 -4.16 l
-4.80 0 l
2.40 4.16 l
o
409.86 152.14 567.77 229.25 cl
18.00 18.00 577.28 823.89 cl
0 0 0 srgb
0.75 setlinewidth
[] 0 setdash
1 setlinecap
1 setlinejoin
10.00 setmiterlimit
np
409.86 159.45 m
0 66.94 l
o
np
409.86 159.45 m
-4.75 0 l
o
np
409.86 170.61 m
-4.75 0 l
o
np
409.86 181.77 m
-4.75 0 l
o
np
409.86 192.92 m
-4.75 0 l
o
np
409.86 204.08 m
-4.75 0 l
o
np
409.86 215.23 m
-4.75 0 l
o
np
409.86 226.39 m
-4.75 0 l
o
/Font1 findfont 8 s
398.45 159.45 (1.00) .5 90 t
398.45 181.77 (1.10) .5 90 t
398.45 204.08 (1.20) .5 90 t
398.45 226.39 (1.30) .5 90 t
np
409.86 152.14 m
157.91 0 l
0 77.11 l
-157.91 0 l
0 -77.11 l
o
390.85 133.13 577.28 248.25 cl
/Font2 findfont 10 s
0 0 0 srgb
488.81 235.16 (tai75aD.vrp) .5 0 t
/Font1 findfont 8 s
469.47 116.02 (T) 0 ta
-0.960 (est cases) tb gr
379.45 165.35 (Relativ) 90 ta
-0.200 (e result) tb gr
409.86 152.14 567.77 229.25 cl
0 0 0 srgb
0.75 setlinewidth
[ 2.25 3.75] 0 setdash
1 setlinecap
1 setlinejoin
10.00 setmiterlimit
np
379.15 156.92 m
73.11 0 l
73.11 0 l
51.91 0 l
o
0.75 setlinewidth
[] 0 setdash
np
379.15 163.68 m
73.11 0 l
73.11 0 l
51.91 0 l
o
2.25 setlinewidth
[] 0 setdash
0 setlinecap
np
437.64 175.31 m
29.24 0 l
o
0.75 setlinewidth
[ 2.25 3.75] 0 setdash
1 setlinecap
np
452.26 159.45 m
0 11.24 l
o
np
452.26 189.68 m
0 -7.64 l
o
0.75 setlinewidth
[] 0 setdash
np
444.95 159.45 m
14.62 0 l
o
np
444.95 189.68 m
14.62 0 l
o
np
437.64 170.69 m
29.24 0 l
0 11.35 l
-29.24 0 l
0 -11.35 l
o
452.26 211.30 1.18 c p1
18.00 18.00 577.28 823.89 cl
0 0 0 srgb
0.75 setlinewidth
[] 0 setdash
1 setlinecap
1 setlinejoin
10.00 setmiterlimit
np
409.86 159.45 m
0 66.94 l
o
np
409.86 159.45 m
-4.75 0 l
o
np
409.86 170.61 m
-4.75 0 l
o
np
409.86 181.77 m
-4.75 0 l
o
np
409.86 192.92 m
-4.75 0 l
o
np
409.86 204.08 m
-4.75 0 l
o
np
409.86 215.23 m
-4.75 0 l
o
np
409.86 226.39 m
-4.75 0 l
o
/Font1 findfont 8 s
398.45 159.45 (1.00) .5 90 t
398.45 181.77 (1.10) .5 90 t
398.45 204.08 (1.20) .5 90 t
398.45 226.39 (1.30) .5 90 t
np
409.86 152.14 m
157.91 0 l
0 77.11 l
-157.91 0 l
0 -77.11 l
o
409.86 152.14 567.77 229.25 cl
0 0 0 srgb
1.50 setlinewidth
[] 0 setdash
1 setlinecap
1 setlinejoin
10.00 setmiterlimit
452.26 159.45 1.78 c p1
0.5020 0.5020 0.5020 srgb
2.25 setlinewidth
[] 0 setdash
0 setlinecap
np
510.75 193.67 m
29.24 0 l
o
0.75 setlinewidth
[ 2.25 3.75] 0 setdash
1 setlinecap
np
525.37 166.35 m
0 19.92 l
o
np
525.37 246.01 m
0 -35.76 l
o
0.75 setlinewidth
[] 0 setdash
np
518.06 166.35 m
14.62 0 l
o
np
518.06 246.01 m
14.62 0 l
o
np
510.75 186.27 m
29.24 0 l
0 23.98 l
-29.24 0 l
0 -23.98 l
o
525.37 246.42 1.18 c p1
525.37 249.16 1.18 c p1
525.37 255.33 1.18 c p1
525.37 258.04 1.18 c p1
525.37 278.49 1.18 c p1
18.00 18.00 577.28 823.89 cl
0 0 0 srgb
0.75 setlinewidth
[] 0 setdash
1 setlinecap
1 setlinejoin
10.00 setmiterlimit
np
409.86 159.45 m
0 66.94 l
o
np
409.86 159.45 m
-4.75 0 l
o
np
409.86 170.61 m
-4.75 0 l
o
np
409.86 181.77 m
-4.75 0 l
o
np
409.86 192.92 m
-4.75 0 l
o
np
409.86 204.08 m
-4.75 0 l
o
np
409.86 215.23 m
-4.75 0 l
o
np
409.86 226.39 m
-4.75 0 l
o
/Font1 findfont 8 s
398.45 159.45 (1.00) .5 90 t
398.45 181.77 (1.10) .5 90 t
398.45 204.08 (1.20) .5 90 t
398.45 226.39 (1.30) .5 90 t
np
409.86 152.14 m
157.91 0 l
0 77.11 l
-157.91 0 l
0 -77.11 l
o
409.86 152.14 567.77 229.25 cl
0.5020 0.5020 0.5020 srgb
1.50 setlinewidth
[] 0 setdash
1 setlinecap
1 setlinejoin
10.00 setmiterlimit
np
525.37 169.12 m
2.40 -4.15 l
-4.80 0 l
2.40 4.15 l
o
37.01 37.01 194.92 114.12 cl
18.00 18.00 577.28 823.89 cl
0 0 0 srgb
0.75 setlinewidth
[] 0 setdash
1 setlinecap
1 setlinejoin
10.00 setmiterlimit
np
37.01 44.33 m
0 66.93 l
o
np
37.01 44.33 m
-4.75 0 l
o
np
37.01 55.48 m
-4.75 0 l
o
np
37.01 66.64 m
-4.75 0 l
o
np
37.01 77.79 m
-4.75 0 l
o
np
37.01 88.95 m
-4.75 0 l
o
np
37.01 100.11 m
-4.75 0 l
o
np
37.01 111.26 m
-4.75 0 l
o
/Font1 findfont 8 s
25.60 44.33 (1.00) .5 90 t
25.60 66.64 (1.10) .5 90 t
25.60 88.95 (1.20) .5 90 t
25.60 111.26 (1.30) .5 90 t
np
37.01 37.01 m
157.91 0 l
0 77.11 l
-157.91 0 l
0 -77.11 l
o
18.00 18.00 204.43 133.13 cl
/Font2 findfont 10 s
0 0 0 srgb
115.96 120.03 (tai75bD.vrp) .5 0 t
37.01 37.01 194.92 114.12 cl
0 0 0 srgb
0.75 setlinewidth
[ 2.25 3.75] 0 setdash
1 setlinecap
1 setlinejoin
10.00 setmiterlimit
np
18.00 38.21 m
61.41 0 l
73.11 0 l
73.11 0 l
o
0.75 setlinewidth
[] 0 setdash
np
18.00 42.91 m
61.41 0 l
73.11 0 l
73.11 0 l
o
2.25 setlinewidth
[] 0 setdash
0 setlinecap
np
64.79 52.80 m
29.24 0 l
o
0.75 setlinewidth
[ 2.25 3.75] 0 setdash
1 setlinecap
np
79.41 44.33 m
0 5.57 l
o
np
79.41 57.69 m
0 -3.52 l
o
0.75 setlinewidth
[] 0 setdash
np
72.10 44.33 m
14.62 0 l
o
np
72.10 57.69 m
14.62 0 l
o
np
64.79 49.90 m
29.24 0 l
0 4.27 l
-29.24 0 l
0 -4.27 l
o
79.41 62.84 1.18 c p1
18.00 18.00 577.28 823.89 cl
0 0 0 srgb
0.75 setlinewidth
[] 0 setdash
1 setlinecap
1 setlinejoin
10.00 setmiterlimit
np
37.01 44.33 m
0 66.93 l
o
np
37.01 44.33 m
-4.75 0 l
o
np
37.01 55.48 m
-4.75 0 l
o
np
37.01 66.64 m
-4.75 0 l
o
np
37.01 77.79 m
-4.75 0 l
o
np
37.01 88.95 m
-4.75 0 l
o
np
37.01 100.11 m
-4.75 0 l
o
np
37.01 111.26 m
-4.75 0 l
o
/Font1 findfont 8 s
25.60 44.33 (1.00) .5 90 t
25.60 66.64 (1.10) .5 90 t
25.60 88.95 (1.20) .5 90 t
25.60 111.26 (1.30) .5 90 t
np
37.01 37.01 m
157.91 0 l
0 77.11 l
-157.91 0 l
0 -77.11 l
o
37.01 37.01 194.92 114.12 cl
0 0 0 srgb
1.50 setlinewidth
[] 0 setdash
1 setlinecap
1 setlinejoin
10.00 setmiterlimit
79.41 44.33 1.78 c p1
0.5020 0.5020 0.5020 srgb
2.25 setlinewidth
[] 0 setdash
0 setlinecap
np
137.90 62.79 m
29.24 0 l
o
0.75 setlinewidth
[ 2.25 3.75] 0 setdash
1 setlinecap
np
152.52 48.24 m
0 9.98 l
o
np
152.52 84.22 m
0 -15.51 l
o
0.75 setlinewidth
[] 0 setdash
np
145.21 48.24 m
14.62 0 l
o
np
145.21 84.22 m
14.62 0 l
o
np
137.90 58.22 m
29.24 0 l
0 10.49 l
-29.24 0 l
0 -10.49 l
o
152.52 84.49 1.18 c p1
152.52 90.38 1.18 c p1
152.52 90.38 1.18 c p1
152.52 95.70 1.18 c p1
152.52 100.18 1.18 c p1
152.52 103.54 1.18 c p1
152.52 133.08 1.18 c p1
18.00 18.00 577.28 823.89 cl
0 0 0 srgb
0.75 setlinewidth
[] 0 setdash
1 setlinecap
1 setlinejoin
10.00 setmiterlimit
np
37.01 44.33 m
0 66.93 l
o
np
37.01 44.33 m
-4.75 0 l
o
np
37.01 55.48 m
-4.75 0 l
o
np
37.01 66.64 m
-4.75 0 l
o
np
37.01 77.79 m
-4.75 0 l
o
np
37.01 88.95 m
-4.75 0 l
o
np
37.01 100.11 m
-4.75 0 l
o
np
37.01 111.26 m
-4.75 0 l
o
/Font1 findfont 8 s
25.60 44.33 (1.00) .5 90 t
25.60 66.64 (1.10) .5 90 t
25.60 88.95 (1.20) .5 90 t
25.60 111.26 (1.30) .5 90 t
np
37.01 37.01 m
157.91 0 l
0 77.11 l
-157.91 0 l
0 -77.11 l
o
37.01 37.01 194.92 114.12 cl
0.5020 0.5020 0.5020 srgb
1.50 setlinewidth
[] 0 setdash
1 setlinecap
1 setlinejoin
10.00 setmiterlimit
np
152.52 51.01 m
2.40 -4.15 l
-4.80 0 l
2.40 4.15 l
o
223.43 37.01 381.35 114.12 cl
18.00 18.00 577.28 823.89 cl
0 0 0 srgb
0.75 setlinewidth
[] 0 setdash
1 setlinecap
1 setlinejoin
10.00 setmiterlimit
np
223.43 44.33 m
0 66.93 l
o
np
223.43 44.33 m
-4.75 0 l
o
np
223.43 55.48 m
-4.75 0 l
o
np
223.43 66.64 m
-4.75 0 l
o
np
223.43 77.79 m
-4.75 0 l
o
np
223.43 88.95 m
-4.75 0 l
o
np
223.43 100.11 m
-4.75 0 l
o
np
223.43 111.26 m
-4.75 0 l
o
/Font1 findfont 8 s
212.03 44.33 (1.00) .5 90 t
212.03 66.64 (1.10) .5 90 t
212.03 88.95 (1.20) .5 90 t
212.03 111.26 (1.30) .5 90 t
np
223.43 37.01 m
157.92 0 l
0 77.11 l
-157.92 0 l
0 -77.11 l
o
204.43 18.00 390.85 133.13 cl
/Font2 findfont 10 s
0 0 0 srgb
302.39 120.03 (tai75cD.vrp) .5 0 t
/Font1 findfont 8 s
193.02 50.22 (Relativ) 90 ta
-0.200 (e result) tb gr
223.43 37.01 381.35 114.12 cl
0 0 0 srgb
0.75 setlinewidth
[ 2.25 3.75] 0 setdash
1 setlinecap
1 setlinejoin
10.00 setmiterlimit
np
192.73 42.16 m
73.11 0 l
73.10 0 l
73.11 0 l
o
0.75 setlinewidth
[] 0 setdash
np
192.73 47.46 m
73.11 0 l
73.10 0 l
73.11 0 l
o
2.25 setlinewidth
[] 0 setdash
0 setlinecap
np
251.21 64.29 m
29.25 0 l
o
0.75 setlinewidth
[ 2.25 3.75] 0 setdash
1 setlinecap
np
265.84 44.33 m
0 14.74 l
o
np
265.84 81.55 m
0 -9.10 l
o
0.75 setlinewidth
[] 0 setdash
np
258.53 44.33 m
14.62 0 l
o
np
258.53 81.55 m
14.62 0 l
o
np
251.21 59.07 m
29.25 0 l
0 13.38 l
-29.25 0 l
0 -13.38 l
o
265.84 97.12 1.18 c p1
265.84 105.51 1.18 c p1
265.84 99.69 1.18 c p1
18.00 18.00 577.28 823.89 cl
0 0 0 srgb
0.75 setlinewidth
[] 0 setdash
1 setlinecap
1 setlinejoin
10.00 setmiterlimit
np
223.43 44.33 m
0 66.93 l
o
np
223.43 44.33 m
-4.75 0 l
o
np
223.43 55.48 m
-4.75 0 l
o
np
223.43 66.64 m
-4.75 0 l
o
np
223.43 77.79 m
-4.75 0 l
o
np
223.43 88.95 m
-4.75 0 l
o
np
223.43 100.11 m
-4.75 0 l
o
np
223.43 111.26 m
-4.75 0 l
o
/Font1 findfont 8 s
212.03 44.33 (1.00) .5 90 t
212.03 66.64 (1.10) .5 90 t
212.03 88.95 (1.20) .5 90 t
212.03 111.26 (1.30) .5 90 t
np
223.43 37.01 m
157.92 0 l
0 77.11 l
-157.92 0 l
0 -77.11 l
o
223.43 37.01 381.35 114.12 cl
0 0 0 srgb
1.50 setlinewidth
[] 0 setdash
1 setlinecap
1 setlinejoin
10.00 setmiterlimit
265.84 44.33 1.78 c p1
0.5020 0.5020 0.5020 srgb
2.25 setlinewidth
[] 0 setdash
0 setlinecap
np
324.32 90.08 m
29.25 0 l
o
0.75 setlinewidth
[ 2.25 3.75] 0 setdash
1 setlinecap
np
338.94 44.71 m
0 28.79 l
o
np
338.94 147.45 m
0 -40.50 l
o
0.75 setlinewidth
[] 0 setdash
np
331.63 44.71 m
14.62 0 l
o
np
331.63 147.45 m
14.62 0 l
o
np
324.32 73.50 m
29.25 0 l
0 33.45 l
-29.25 0 l
0 -33.45 l
o
18.00 18.00 577.28 823.89 cl
0 0 0 srgb
0.75 setlinewidth
[] 0 setdash
1 setlinecap
1 setlinejoin
10.00 setmiterlimit
np
223.43 44.33 m
0 66.93 l
o
np
223.43 44.33 m
-4.75 0 l
o
np
223.43 55.48 m
-4.75 0 l
o
np
223.43 66.64 m
-4.75 0 l
o
np
223.43 77.79 m
-4.75 0 l
o
np
223.43 88.95 m
-4.75 0 l
o
np
223.43 100.11 m
-4.75 0 l
o
np
223.43 111.26 m
-4.75 0 l
o
/Font1 findfont 8 s
212.03 44.33 (1.00) .5 90 t
212.03 66.64 (1.10) .5 90 t
212.03 88.95 (1.20) .5 90 t
212.03 111.26 (1.30) .5 90 t
np
223.43 37.01 m
157.92 0 l
0 77.11 l
-157.92 0 l
0 -77.11 l
o
223.43 37.01 381.35 114.12 cl
0.5020 0.5020 0.5020 srgb
1.50 setlinewidth
[] 0 setdash
1 setlinecap
1 setlinejoin
10.00 setmiterlimit
np
338.94 47.48 m
2.40 -4.15 l
-4.80 0 l
2.40 4.15 l
o
409.86 37.01 567.77 114.12 cl
18.00 18.00 577.28 823.89 cl
0 0 0 srgb
0.75 setlinewidth
[] 0 setdash
1 setlinecap
1 setlinejoin
10.00 setmiterlimit
np
409.86 44.33 m
0 66.93 l
o
np
409.86 44.33 m
-4.75 0 l
o
np
409.86 55.48 m
-4.75 0 l
o
np
409.86 66.64 m
-4.75 0 l
o
np
409.86 77.79 m
-4.75 0 l
o
np
409.86 88.95 m
-4.75 0 l
o
np
409.86 100.11 m
-4.75 0 l
o
np
409.86 111.26 m
-4.75 0 l
o
/Font1 findfont 8 s
398.45 44.33 (1.00) .5 90 t
398.45 66.64 (1.10) .5 90 t
398.45 88.95 (1.20) .5 90 t
398.45 111.26 (1.30) .5 90 t
np
409.86 37.01 m
157.91 0 l
0 77.11 l
-157.91 0 l
0 -77.11 l
o
390.85 18.00 577.28 133.13 cl
/Font2 findfont 10 s
0 0 0 srgb
488.81 120.03 (tai75dD.vrp) .5 0 t
/Font1 findfont 8 s
379.45 50.22 (Relativ) 90 ta
-0.200 (e result) tb gr
409.86 37.01 567.77 114.12 cl
0 0 0 srgb
0.75 setlinewidth
[ 2.25 3.75] 0 setdash
1 setlinecap
1 setlinejoin
10.00 setmiterlimit
np
379.15 33.98 m
73.11 0 l
73.11 0 l
51.91 0 l
o
0.75 setlinewidth
[] 0 setdash
np
379.15 37.32 m
73.11 0 l
73.11 0 l
51.91 0 l
o
2.25 setlinewidth
[] 0 setdash
0 setlinecap
np
437.64 47.64 m
29.24 0 l
o
0.75 setlinewidth
[ 2.25 3.75] 0 setdash
1 setlinecap
np
452.26 44.33 m
0 2.09 l
o
np
452.26 56.33 m
0 -5.59 l
o
0.75 setlinewidth
[] 0 setdash
np
444.95 44.33 m
14.62 0 l
o
np
444.95 56.33 m
14.62 0 l
o
np
437.64 46.42 m
29.24 0 l
0 4.32 l
-29.24 0 l
0 -4.32 l
o
452.26 69.97 1.18 c p1
18.00 18.00 577.28 823.89 cl
0 0 0 srgb
0.75 setlinewidth
[] 0 setdash
1 setlinecap
1 setlinejoin
10.00 setmiterlimit
np
409.86 44.33 m
0 66.93 l
o
np
409.86 44.33 m
-4.75 0 l
o
np
409.86 55.48 m
-4.75 0 l
o
np
409.86 66.64 m
-4.75 0 l
o
np
409.86 77.79 m
-4.75 0 l
o
np
409.86 88.95 m
-4.75 0 l
o
np
409.86 100.11 m
-4.75 0 l
o
np
409.86 111.26 m
-4.75 0 l
o
/Font1 findfont 8 s
398.45 44.33 (1.00) .5 90 t
398.45 66.64 (1.10) .5 90 t
398.45 88.95 (1.20) .5 90 t
398.45 111.26 (1.30) .5 90 t
np
409.86 37.01 m
157.91 0 l
0 77.11 l
-157.91 0 l
0 -77.11 l
o
409.86 37.01 567.77 114.12 cl
0 0 0 srgb
1.50 setlinewidth
[] 0 setdash
1 setlinecap
1 setlinejoin
10.00 setmiterlimit
452.26 44.33 1.78 c p1
0.5020 0.5020 0.5020 srgb
2.25 setlinewidth
[] 0 setdash
0 setlinecap
np
510.75 61.33 m
29.24 0 l
o
0.75 setlinewidth
[ 2.25 3.75] 0 setdash
1 setlinecap
np
525.37 44.81 m
0 6.62 l
o
np
525.37 106.97 m
0 -32.99 l
o
0.75 setlinewidth
[] 0 setdash
np
518.06 44.81 m
14.62 0 l
o
np
518.06 106.97 m
14.62 0 l
o
np
510.75 51.43 m
29.24 0 l
0 22.55 l
-29.24 0 l
0 -22.55 l
o
525.37 108.71 1.18 c p1
525.37 109.98 1.18 c p1
525.37 115.22 1.18 c p1
18.00 18.00 577.28 823.89 cl
0 0 0 srgb
0.75 setlinewidth
[] 0 setdash
1 setlinecap
1 setlinejoin
10.00 setmiterlimit
np
409.86 44.33 m
0 66.93 l
o
np
409.86 44.33 m
-4.75 0 l
o
np
409.86 55.48 m
-4.75 0 l
o
np
409.86 66.64 m
-4.75 0 l
o
np
409.86 77.79 m
-4.75 0 l
o
np
409.86 88.95 m
-4.75 0 l
o
np
409.86 100.11 m
-4.75 0 l
o
np
409.86 111.26 m
-4.75 0 l
o
/Font1 findfont 8 s
398.45 44.33 (1.00) .5 90 t
398.45 66.64 (1.10) .5 90 t
398.45 88.95 (1.20) .5 90 t
398.45 111.26 (1.30) .5 90 t
np
409.86 37.01 m
157.91 0 l
0 77.11 l
-157.91 0 l
0 -77.11 l
o
409.86 37.01 567.77 114.12 cl
0.5020 0.5020 0.5020 srgb
1.50 setlinewidth
[] 0 setdash
1 setlinecap
1 setlinejoin
10.00 setmiterlimit
np
525.37 47.58 m
2.40 -4.16 l
-4.80 0 l
2.40 4.16 l
o
ep
%%Trailer
%%Pages: 1
%%EOF
