<?xml version="1.0" encoding="UTF-8" standalone="no"?>
<!-- Created with Inkscape (http://www.inkscape.org/) -->

<svg
   xmlns:dc="http://purl.org/dc/elements/1.1/"
   xmlns:cc="http://creativecommons.org/ns#"
   xmlns:rdf="http://www.w3.org/1999/02/22-rdf-syntax-ns#"
   xmlns:svg="http://www.w3.org/2000/svg"
   xmlns="http://www.w3.org/2000/svg"
   xmlns:sodipodi="http://sodipodi.sourceforge.net/DTD/sodipodi-0.dtd"
   xmlns:inkscape="http://www.inkscape.org/namespaces/inkscape"
   width="187.95454"
   height="203.76894"
   id="svg2"
   version="1.1"
   inkscape:version="0.48.4 r9939"
   sodipodi:docname="AntiProof.svg">
  <defs
     id="defs4" />
  <sodipodi:namedview
     id="base"
     pagecolor="#ffffff"
     bordercolor="#666666"
     borderopacity="1.0"
     inkscape:pageopacity="0.0"
     inkscape:pageshadow="2"
     inkscape:zoom="4"
     inkscape:cx="121.00331"
     inkscape:cy="89.602977"
     inkscape:document-units="px"
     inkscape:current-layer="layer1"
     showgrid="false"
     inkscape:window-width="1920"
     inkscape:window-height="1138"
     inkscape:window-x="-8"
     inkscape:window-y="-8"
     inkscape:window-maximized="1"
     fit-margin-top="0"
     fit-margin-left="0"
     fit-margin-right="0"
     fit-margin-bottom="0" />
  <metadata
     id="metadata7">
    <rdf:RDF>
      <cc:Work
         rdf:about="">
        <dc:format>image/svg+xml</dc:format>
        <dc:type
           rdf:resource="http://purl.org/dc/dcmitype/StillImage" />
        <dc:title></dc:title>
      </cc:Work>
    </rdf:RDF>
  </metadata>
  <g
     inkscape:label="Layer 1"
     inkscape:groupmode="layer"
     id="layer1"
     transform="translate(-179.86215,-315.91513)">
    <g
       id="g2989"
       transform="matrix(1.5743916,0,0,1.5743916,103.70987,187.60972)"
       style="stroke:#000000;stroke-width:1;stroke-miterlimit:4;stroke-opacity:1;stroke-dasharray:1, 8;stroke-dashoffset:0">
      <path
         id="path2995"
         d="m 110.96099,96.358809 -54.504411,94.406641 109.008831,0 -54.50442,-94.406641"
         style="fill:none;stroke:#000000;stroke-width:1;stroke-linecap:round;stroke-linejoin:round;stroke-miterlimit:4;stroke-opacity:1;stroke-dasharray:1, 8;stroke-dashoffset:0"
         inkscape:connector-curvature="0"
         sodipodi:nodetypes="cccc" />
    </g>
    <path
       sodipodi:type="arc"
       style="fill:#cecece;fill-opacity:1;stroke:#000000;stroke-width:1;stroke-miterlimit:4;stroke-opacity:1;stroke-dasharray:none;stroke-dashoffset:0"
       id="path3776"
       sodipodi:cx="193.82301"
       sodipodi:cy="490.33856"
       sodipodi:rx="11.490485"
       sodipodi:ry="11.490485"
       d="m 205.3135,490.33856 c 0,6.34602 -5.14447,11.49049 -11.49049,11.49049 -6.34602,0 -11.49048,-5.14447 -11.49048,-11.49049 0,-6.34602 5.14446,-11.49048 11.49048,-11.49048 6.34602,0 11.49049,5.14446 11.49049,11.49048 z"
       transform="matrix(0.53664602,0,0,0.53664602,91.056131,223.66732)" />
    <path
       sodipodi:type="arc"
       style="fill:#3a3a3a;fill-opacity:1;stroke:#000000;stroke-width:1;stroke-miterlimit:4;stroke-opacity:1;stroke-dasharray:none;stroke-dashoffset:0"
       id="path3776-1"
       sodipodi:cx="193.82301"
       sodipodi:cy="490.33856"
       sodipodi:rx="11.490485"
       sodipodi:ry="11.490485"
       d="m 205.3135,490.33856 c 0,6.34602 -5.14447,11.49049 -11.49049,11.49049 -6.34602,0 -11.49048,-5.14447 -11.49048,-11.49049 0,-6.34602 5.14446,-11.49048 11.49048,-11.49048 6.34602,0 11.49049,5.14446 11.49049,11.49048 z"
       transform="matrix(0.53664602,0,0,0.53664602,114.81493,223.66732)" />
    <path
       sodipodi:type="arc"
       style="fill:#3a3a3a;fill-opacity:1;stroke:#000000;stroke-width:1;stroke-miterlimit:4;stroke-opacity:1;stroke-dasharray:none;stroke-dashoffset:0"
       id="path3776-7"
       sodipodi:cx="193.82301"
       sodipodi:cy="490.33856"
       sodipodi:rx="11.490485"
       sodipodi:ry="11.490485"
       d="m 205.3135,490.33856 c 0,6.34602 -5.14447,11.49049 -11.49049,11.49049 -6.34602,0 -11.49048,-5.14447 -11.49048,-11.49049 0,-6.34602 5.14446,-11.49048 11.49048,-11.49048 6.34602,0 11.49049,5.14446 11.49049,11.49048 z"
       transform="matrix(0.53664602,0,0,0.53664602,162.33254,223.66732)" />
    <path
       sodipodi:type="arc"
       style="fill:#3a3a3a;fill-opacity:1;stroke:#000000;stroke-width:1;stroke-miterlimit:4;stroke-opacity:1;stroke-dasharray:none;stroke-dashoffset:0"
       id="path3776-4"
       sodipodi:cx="193.82301"
       sodipodi:cy="490.33856"
       sodipodi:rx="11.490485"
       sodipodi:ry="11.490485"
       d="m 205.3135,490.33856 c 0,6.34602 -5.14447,11.49049 -11.49049,11.49049 -6.34602,0 -11.49048,-5.14447 -11.49048,-11.49049 0,-6.34602 5.14446,-11.49048 11.49048,-11.49048 6.34602,0 11.49049,5.14446 11.49049,11.49048 z"
       transform="matrix(0.53664602,0,0,0.53664602,209.85012,223.66732)" />
    <path
       sodipodi:type="arc"
       style="fill:#3a3a3a;fill-opacity:1;stroke:#000000;stroke-width:1;stroke-miterlimit:4;stroke-opacity:1;stroke-dasharray:none;stroke-dashoffset:0"
       id="path3776-0"
       sodipodi:cx="193.82301"
       sodipodi:cy="490.33856"
       sodipodi:rx="11.490485"
       sodipodi:ry="11.490485"
       d="m 205.3135,490.33856 c 0,6.34602 -5.14447,11.49049 -11.49049,11.49049 -6.34602,0 -11.49048,-5.14447 -11.49048,-11.49049 0,-6.34602 5.14446,-11.49048 11.49048,-11.49048 6.34602,0 11.49049,5.14446 11.49049,11.49048 z"
       transform="matrix(0.53664602,0,0,0.53664602,257.3677,223.66732)" />
    <path
       sodipodi:type="arc"
       style="fill:#cecece;fill-opacity:1;stroke:#000000;stroke-width:1;stroke-miterlimit:4;stroke-opacity:1;stroke-dasharray:none;stroke-dashoffset:0"
       id="path3776-9"
       sodipodi:cx="193.82301"
       sodipodi:cy="490.33856"
       sodipodi:rx="11.490485"
       sodipodi:ry="11.490485"
       d="m 205.3135,490.33856 c 0,6.34602 -5.14447,11.49049 -11.49049,11.49049 -6.34602,0 -11.49048,-5.14447 -11.49048,-11.49049 0,-6.34602 5.14446,-11.49048 11.49048,-11.49048 6.34602,0 11.49049,5.14446 11.49049,11.49048 z"
       transform="matrix(0.53664602,0,0,0.53664602,233.60891,223.66732)" />
    <path
       sodipodi:type="arc"
       style="fill:#cecece;fill-opacity:1;stroke:#000000;stroke-width:1;stroke-miterlimit:4;stroke-opacity:1;stroke-dasharray:none;stroke-dashoffset:0"
       id="path3776-48"
       sodipodi:cx="193.82301"
       sodipodi:cy="490.33856"
       sodipodi:rx="11.490485"
       sodipodi:ry="11.490485"
       d="m 205.3135,490.33856 c 0,6.34602 -5.14447,11.49049 -11.49049,11.49049 -6.34602,0 -11.49048,-5.14447 -11.49048,-11.49049 0,-6.34602 5.14446,-11.49048 11.49048,-11.49048 6.34602,0 11.49049,5.14446 11.49049,11.49048 z"
       transform="matrix(0.53664602,0,0,0.53664602,186.09133,223.66732)" />
    <path
       sodipodi:type="arc"
       style="fill:#cecece;fill-opacity:1;stroke:#000000;stroke-width:1;stroke-miterlimit:4;stroke-opacity:1;stroke-dasharray:none;stroke-dashoffset:0"
       id="path3776-8"
       sodipodi:cx="193.82301"
       sodipodi:cy="490.33856"
       sodipodi:rx="11.490485"
       sodipodi:ry="11.490485"
       d="m 205.3135,490.33856 c 0,6.34602 -5.14447,11.49049 -11.49049,11.49049 -6.34602,0 -11.49048,-5.14447 -11.49048,-11.49049 0,-6.34602 5.14446,-11.49048 11.49048,-11.49048 6.34602,0 11.49049,5.14446 11.49049,11.49048 z"
       transform="matrix(0.53664602,0,0,0.53664602,138.57374,223.66732)" />
    <path
       sodipodi:type="arc"
       style="fill:#000000;fill-opacity:1;stroke:#000000;stroke-width:1;stroke-miterlimit:4;stroke-opacity:1;stroke-dasharray:none;stroke-dashoffset:0"
       id="path3776-0-4"
       sodipodi:cx="193.82301"
       sodipodi:cy="490.33856"
       sodipodi:rx="11.490485"
       sodipodi:ry="11.490485"
       d="m 205.3135,490.33856 c 0,6.34602 -5.14447,11.49049 -11.49049,11.49049 -6.34602,0 -11.49048,-5.14447 -11.49048,-11.49049 0,-6.34602 5.14446,-11.49048 11.49048,-11.49048 6.34602,0 11.49049,5.14446 11.49049,11.49048 z"
       transform="matrix(0.53664602,0,0,0.53664602,175.48565,75.97394)" />
    <flowRoot
       xml:space="preserve"
       id="flowRoot3863"
       style="font-size:40px;font-style:normal;font-weight:normal;line-height:125%;letter-spacing:0px;word-spacing:0px;fill:#000000;fill-opacity:1;stroke:none;font-family:Sans"
       transform="matrix(0.37810998,0,0,0.37810998,181.32448,203.4595)"><flowRegion
         id="flowRegion3865"><rect
           id="rect3867"
           width="185"
           height="125.25"
           x="201.25"
           y="292.61218" /></flowRegion><flowPara
         id="flowPara3869">Depot</flowPara></flowRoot>    <path
       style="font-size:40px;font-style:normal;font-weight:normal;line-height:125%;letter-spacing:0px;word-spacing:0px;fill:#000000;fill-opacity:1;stroke:none;font-family:Sans"
       inkscape:connector-curvature="0"
       id="path3940"
       d="m 207.66959,474.98813 -0.50671,0 0,-3.22889 c -0.12199,0.11636 -0.28198,0.23272 -0.47997,0.34907 -0.198,0.11636 -0.37581,0.20363 -0.53346,0.2618 l 0,-0.48982 c 0.28339,-0.13324 0.53111,-0.29464 0.74318,-0.48419 0.21207,-0.18955 0.3622,-0.37346 0.45041,-0.55175 l 0.32655,0 z" />
    <path
       style="font-size:40px;font-style:normal;font-weight:normal;line-height:125%;letter-spacing:0px;word-spacing:0px;fill:#000000;fill-opacity:1;stroke:none;font-family:Sans"
       inkscape:connector-curvature="0"
       id="path3942"
       d="m 208.97015,472.95283 c 0,-0.48794 0.0502,-0.88064 0.15061,-1.1781 0.1004,-0.29746 0.2496,-0.52689 0.44759,-0.68829 0.19799,-0.16139 0.44713,-0.24209 0.7474,-0.24209 0.22145,0 0.41569,0.0446 0.58272,0.13371 0.16703,0.0891 0.30497,0.2177 0.41382,0.38566 0.10884,0.16797 0.19423,0.37254 0.25617,0.61369 0.0619,0.24116 0.0929,0.5663 0.0929,0.97542 -1e-5,0.48419 -0.0497,0.87502 -0.1492,1.17248 -0.0995,0.29746 -0.2482,0.52735 -0.44619,0.68969 -0.198,0.16233 -0.44807,0.2435 -0.75022,0.2435 -0.39786,0 -0.71033,-0.14263 -0.93741,-0.42789 -0.27213,-0.34344 -0.40819,-0.9027 -0.40819,-1.67778 z m 0.52079,0 c 0,0.6775 0.0793,1.12838 0.23787,1.35264 0.15858,0.22427 0.35423,0.3364 0.58694,0.3364 0.23271,0 0.42836,-0.1126 0.58694,-0.33781 0.15859,-0.2252 0.23788,-0.67561 0.23788,-1.35123 0,-0.67937 -0.0793,-1.13071 -0.23788,-1.35405 -0.15858,-0.22332 -0.3561,-0.33499 -0.59257,-0.33499 -0.23271,0 -0.4185,0.0985 -0.55738,0.29558 -0.17453,0.25148 -0.2618,0.71597 -0.2618,1.39346 z" />
    <path
       style="font-size:40px;font-style:normal;font-weight:normal;line-height:125%;letter-spacing:0px;word-spacing:0px;fill:#000000;fill-opacity:1;stroke:none;font-family:Sans"
       inkscape:connector-curvature="0"
       id="path3944"
       d="m 212.17933,472.95283 c 0,-0.48794 0.0502,-0.88064 0.1506,-1.1781 0.10041,-0.29746 0.24961,-0.52689 0.4476,-0.68829 0.19799,-0.16139 0.44713,-0.24209 0.7474,-0.24209 0.22145,0 0.41569,0.0446 0.58272,0.13371 0.16703,0.0891 0.30496,0.2177 0.41382,0.38566 0.10884,0.16797 0.19423,0.37254 0.25617,0.61369 0.0619,0.24116 0.0929,0.5663 0.0929,0.97542 0,0.48419 -0.0497,0.87502 -0.1492,1.17248 -0.0995,0.29746 -0.24819,0.52735 -0.44618,0.68969 -0.198,0.16233 -0.44807,0.2435 -0.75022,0.2435 -0.39786,0 -0.71034,-0.14263 -0.93742,-0.42789 -0.27212,-0.34344 -0.40818,-0.9027 -0.40818,-1.67778 z m 0.52079,0 c 0,0.6775 0.0793,1.12838 0.23787,1.35264 0.15858,0.22427 0.35423,0.3364 0.58694,0.3364 0.23271,0 0.42836,-0.1126 0.58694,-0.33781 0.15858,-0.2252 0.23787,-0.67561 0.23788,-1.35123 -1e-5,-0.67937 -0.0793,-1.13071 -0.23788,-1.35405 -0.15858,-0.22332 -0.35611,-0.33499 -0.59257,-0.33499 -0.23271,0 -0.41851,0.0985 -0.55738,0.29558 -0.17454,0.25148 -0.2618,0.71597 -0.2618,1.39346 z" />
    <path
       style="font-size:40px;font-style:normal;font-weight:normal;line-height:125%;letter-spacing:0px;word-spacing:0px;fill:#000000;fill-opacity:1;stroke:none;font-family:Sans"
       inkscape:connector-curvature="0"
       id="path3946"
       d="m 216.93116,473.7495 0,-0.50953 1.55674,0 0,0.50953 z" />
    <g
       id="g4093"
       transform="translate(1.7329087,-35.115657)">
      <path
         d="m 221.57915,514.73813 -0.50671,0 0,-3.22889 c -0.12199,0.11636 -0.28198,0.23272 -0.47997,0.34907 -0.198,0.11636 -0.37582,0.20363 -0.53346,0.2618 l 0,-0.48982 c 0.28338,-0.13324 0.53111,-0.29464 0.74318,-0.48419 0.21207,-0.18955 0.3622,-0.37346 0.45041,-0.55175 l 0.32655,0 z"
         id="path3960"
         inkscape:connector-curvature="0"
         style="font-size:40px;font-style:normal;font-weight:normal;line-height:125%;letter-spacing:0px;word-spacing:0px;fill:#000000;fill-opacity:1;stroke:none;font-family:Sans" />
      <path
         d="m 222.87971,512.70283 c 0,-0.48794 0.0502,-0.88064 0.1506,-1.1781 0.10041,-0.29746 0.24961,-0.52689 0.4476,-0.68829 0.19799,-0.16139 0.44713,-0.24209 0.7474,-0.24209 0.22145,0 0.41569,0.0446 0.58272,0.13371 0.16703,0.0891 0.30496,0.2177 0.41382,0.38566 0.10884,0.16797 0.19423,0.37254 0.25617,0.61369 0.0619,0.24116 0.0929,0.5663 0.0929,0.97542 0,0.48419 -0.0497,0.87502 -0.14919,1.17248 -0.0995,0.29746 -0.2482,0.52735 -0.44619,0.68969 -0.198,0.16233 -0.44807,0.2435 -0.75022,0.2435 -0.39786,0 -0.71033,-0.14263 -0.93742,-0.42789 -0.27212,-0.34344 -0.40818,-0.9027 -0.40818,-1.67778 z m 0.52079,0 c 0,0.6775 0.0793,1.12838 0.23787,1.35264 0.15858,0.22427 0.35423,0.3364 0.58694,0.3364 0.23271,0 0.42836,-0.1126 0.58694,-0.33781 0.15858,-0.2252 0.23787,-0.67561 0.23788,-1.35123 -1e-5,-0.67937 -0.0793,-1.13071 -0.23788,-1.35405 -0.15858,-0.22332 -0.3561,-0.33499 -0.59257,-0.33499 -0.23271,0 -0.41851,0.0985 -0.55738,0.29558 -0.17454,0.25148 -0.2618,0.71597 -0.2618,1.39346 z"
         id="path3962"
         inkscape:connector-curvature="0"
         style="font-size:40px;font-style:normal;font-weight:normal;line-height:125%;letter-spacing:0px;word-spacing:0px;fill:#000000;fill-opacity:1;stroke:none;font-family:Sans" />
      <path
         d="m 226.08889,512.70283 c 0,-0.48794 0.0502,-0.88064 0.1506,-1.1781 0.10041,-0.29746 0.2496,-0.52689 0.4476,-0.68829 0.19799,-0.16139 0.44712,-0.24209 0.7474,-0.24209 0.22145,0 0.41569,0.0446 0.58272,0.13371 0.16702,0.0891 0.30496,0.2177 0.41381,0.38566 0.10885,0.16797 0.19424,0.37254 0.25617,0.61369 0.0619,0.24116 0.0929,0.5663 0.0929,0.97542 0,0.48419 -0.0497,0.87502 -0.1492,1.17248 -0.0995,0.29746 -0.24819,0.52735 -0.44619,0.68969 -0.19799,0.16233 -0.44806,0.2435 -0.75021,0.2435 -0.39786,0 -0.71034,-0.14263 -0.93742,-0.42789 -0.27212,-0.34344 -0.40818,-0.9027 -0.40818,-1.67778 z m 0.52078,0 c 0,0.6775 0.0793,1.12838 0.23788,1.35264 0.15858,0.22427 0.35423,0.3364 0.58694,0.3364 0.23271,0 0.42836,-0.1126 0.58694,-0.33781 0.15858,-0.2252 0.23787,-0.67561 0.23787,-1.35123 0,-0.67937 -0.0793,-1.13071 -0.23787,-1.35405 -0.15858,-0.22332 -0.35611,-0.33499 -0.59257,-0.33499 -0.23271,0 -0.41851,0.0985 -0.55738,0.29558 -0.17454,0.25148 -0.26181,0.71597 -0.26181,1.39346 z"
         id="path3964"
         inkscape:connector-curvature="0"
         style="font-size:40px;font-style:normal;font-weight:normal;line-height:125%;letter-spacing:0px;word-spacing:0px;fill:#000000;fill-opacity:1;stroke:none;font-family:Sans" />
    </g>
    <path
       style="font-size:40px;font-style:normal;font-weight:normal;line-height:125%;letter-spacing:0px;word-spacing:0px;fill:#000000;fill-opacity:1;stroke:none;font-family:Sans"
       inkscape:connector-curvature="0"
       id="path3946-6"
       d="m 219.72163,473.7495 0,-0.50953 12.93174,0 0,0.50953 z" />
    <g
       transform="translate(29.21767,-27.142023)"
       id="g4134-1">
      <path
         inkscape:connector-curvature="0"
         d="m 195.7312,499.14632 0,-4.12689 0.50672,0 0,2.35339 1.19922,-1.21611 0.65591,0 -1.14292,1.10914 1.25833,1.88047 -0.62494,0 -0.98809,-1.52859 -0.35751,0.34344 0,1.18515 z"
         id="path3977-4"
         style="font-size:40px;font-style:normal;font-weight:normal;line-height:125%;letter-spacing:0px;word-spacing:0px;fill:#000000;fill-opacity:1;stroke:none;font-family:Sans" />
    </g>
    <path
       style="font-size:40px;font-style:normal;font-weight:normal;line-height:125%;letter-spacing:0px;word-spacing:0px;fill:#000000;fill-opacity:1;stroke:none;font-family:Sans"
       inkscape:connector-curvature="0"
       id="path3967"
       d="m 181.38229,502.95882 -0.50671,0 0,-3.22889 c -0.12199,0.11636 -0.28198,0.23272 -0.47997,0.34907 -0.198,0.11636 -0.37581,0.20363 -0.53346,0.2618 l 0,-0.48982 c 0.28339,-0.13324 0.53111,-0.29464 0.74318,-0.48419 0.21207,-0.18955 0.3622,-0.37346 0.45041,-0.55175 l 0.32655,0 z" />
    <path
       style="font-size:40px;font-style:normal;font-weight:normal;line-height:125%;letter-spacing:0px;word-spacing:0px;fill:#000000;fill-opacity:1;stroke:none;font-family:Sans"
       inkscape:connector-curvature="0"
       id="path3969"
       d="m 182.68285,500.92352 c 0,-0.48794 0.0502,-0.88064 0.15061,-1.1781 0.1004,-0.29746 0.2496,-0.52689 0.44759,-0.68829 0.19799,-0.16139 0.44713,-0.24209 0.7474,-0.24209 0.22145,0 0.41569,0.0446 0.58272,0.13371 0.16703,0.0891 0.30497,0.2177 0.41382,0.38566 0.10884,0.16797 0.19423,0.37254 0.25617,0.61369 0.0619,0.24116 0.0929,0.5663 0.0929,0.97542 -10e-6,0.48419 -0.0497,0.87502 -0.1492,1.17248 -0.0995,0.29746 -0.2482,0.52735 -0.44619,0.68969 -0.198,0.16233 -0.44807,0.2435 -0.75022,0.2435 -0.39786,0 -0.71033,-0.14263 -0.93741,-0.42789 -0.27213,-0.34344 -0.40819,-0.9027 -0.40819,-1.67778 z m 0.52079,0 c 0,0.6775 0.0793,1.12838 0.23787,1.35264 0.15858,0.22427 0.35423,0.3364 0.58694,0.3364 0.23271,0 0.42836,-0.1126 0.58694,-0.33781 0.15859,-0.2252 0.23788,-0.67561 0.23788,-1.35123 0,-0.67937 -0.0793,-1.13071 -0.23788,-1.35405 -0.15858,-0.22332 -0.3561,-0.33499 -0.59257,-0.33499 -0.23271,0 -0.4185,0.0985 -0.55738,0.29558 -0.17453,0.25148 -0.2618,0.71597 -0.2618,1.39346 z" />
    <path
       style="font-size:40px;font-style:normal;font-weight:normal;line-height:125%;letter-spacing:0px;word-spacing:0px;fill:#000000;fill-opacity:1;stroke:none;font-family:Sans"
       inkscape:connector-curvature="0"
       id="path3971"
       d="m 185.89203,500.92352 c 0,-0.48794 0.0502,-0.88064 0.1506,-1.1781 0.10041,-0.29746 0.24961,-0.52689 0.4476,-0.68829 0.19799,-0.16139 0.44713,-0.24209 0.7474,-0.24209 0.22145,0 0.41569,0.0446 0.58272,0.13371 0.16703,0.0891 0.30496,0.2177 0.41382,0.38566 0.10884,0.16797 0.19423,0.37254 0.25617,0.61369 0.0619,0.24116 0.0929,0.5663 0.0929,0.97542 0,0.48419 -0.0497,0.87502 -0.1492,1.17248 -0.0995,0.29746 -0.24819,0.52735 -0.44618,0.68969 -0.198,0.16233 -0.44807,0.2435 -0.75022,0.2435 -0.39786,0 -0.71034,-0.14263 -0.93742,-0.42789 -0.27212,-0.34344 -0.40818,-0.9027 -0.40818,-1.67778 z m 0.52079,0 c 0,0.6775 0.0793,1.12838 0.23787,1.35264 0.15858,0.22427 0.35423,0.3364 0.58694,0.3364 0.23271,0 0.42836,-0.1126 0.58694,-0.33781 0.15858,-0.2252 0.23787,-0.67561 0.23788,-1.35123 -1e-5,-0.67937 -0.0793,-1.13071 -0.23788,-1.35405 -0.15858,-0.22332 -0.35611,-0.33499 -0.59257,-0.33499 -0.23271,0 -0.41851,0.0985 -0.55738,0.29558 -0.17454,0.25148 -0.2618,0.71597 -0.2618,1.39346 z" />
    <path
       style="font-size:40px;font-style:normal;font-weight:normal;line-height:125%;letter-spacing:0px;word-spacing:0px;fill:#000000;fill-opacity:1;stroke:none;font-family:Sans"
       inkscape:connector-curvature="0"
       id="path3973"
       d="m 190.64386,501.72019 0,-0.50953 1.55674,0 0,0.50953 z" />
    <g
       id="g4045"
       transform="translate(-10.5,7.982435)">
      <path
         d="m 208.35435,499.52132 -0.50671,0 0,-3.22889 c -0.12199,0.11636 -0.28198,0.23272 -0.47997,0.34907 -0.198,0.11636 -0.37582,0.20363 -0.53346,0.2618 l 0,-0.48982 c 0.28338,-0.13324 0.53111,-0.29464 0.74318,-0.48419 0.21207,-0.18955 0.3622,-0.37346 0.45041,-0.55175 l 0.32655,0 z"
         id="path3987"
         inkscape:connector-curvature="0"
         style="font-size:40px;font-style:normal;font-weight:normal;line-height:125%;letter-spacing:0px;word-spacing:0px;fill:#000000;fill-opacity:1;stroke:none;font-family:Sans" />
      <path
         d="m 209.65491,497.48602 c 0,-0.48794 0.0502,-0.88064 0.1506,-1.1781 0.10041,-0.29746 0.24961,-0.52689 0.4476,-0.68829 0.19799,-0.16139 0.44713,-0.24209 0.7474,-0.24209 0.22145,0 0.41569,0.0446 0.58272,0.13371 0.16703,0.0891 0.30496,0.2177 0.41382,0.38566 0.10884,0.16797 0.19423,0.37254 0.25617,0.61369 0.0619,0.24116 0.0929,0.5663 0.0929,0.97542 0,0.48419 -0.0497,0.87502 -0.14919,1.17248 -0.0995,0.29746 -0.2482,0.52735 -0.44619,0.68969 -0.198,0.16233 -0.44807,0.2435 -0.75022,0.2435 -0.39786,0 -0.71033,-0.14263 -0.93742,-0.42789 -0.27212,-0.34344 -0.40818,-0.9027 -0.40818,-1.67778 z m 0.52079,0 c 0,0.6775 0.0793,1.12838 0.23787,1.35264 0.15858,0.22427 0.35423,0.3364 0.58694,0.3364 0.23271,0 0.42836,-0.1126 0.58694,-0.33781 0.15858,-0.2252 0.23787,-0.67561 0.23788,-1.35123 -1e-5,-0.67937 -0.0793,-1.13071 -0.23788,-1.35405 -0.15858,-0.22332 -0.3561,-0.33499 -0.59257,-0.33499 -0.23271,0 -0.41851,0.0985 -0.55738,0.29558 -0.17454,0.25148 -0.2618,0.71597 -0.2618,1.39346 z"
         id="path3989"
         inkscape:connector-curvature="0"
         style="font-size:40px;font-style:normal;font-weight:normal;line-height:125%;letter-spacing:0px;word-spacing:0px;fill:#000000;fill-opacity:1;stroke:none;font-family:Sans" />
    </g>
    <path
       style="font-size:40px;font-style:normal;font-weight:normal;line-height:125%;letter-spacing:0px;word-spacing:0px;fill:#000000;fill-opacity:1;stroke:none;font-family:Sans"
       inkscape:connector-curvature="0"
       id="path3973-7"
       d="m 193.09663,501.72019 0,-0.50953 13.43174,0 0,0.50953 z" />
    <path
       style="font-size:40px;font-style:normal;font-weight:normal;line-height:125%;letter-spacing:0px;word-spacing:0px;fill:#000000;fill-opacity:1;stroke:none;font-family:Sans"
       id="path3977-4-2"
       d="m 198.57387,500.5043 0,-4.12689 0.50672,0 0,2.35339 1.19922,-1.21611 0.65591,0 -1.14292,1.10914 1.25833,1.88047 -0.62494,0 -0.98809,-1.52859 -0.35751,0.34344 0,1.18515 z"
       inkscape:connector-curvature="0" />
    <path
       style="font-size:40px;font-style:normal;font-weight:normal;line-height:125%;letter-spacing:0px;word-spacing:0px;fill:#000000;fill-opacity:1;stroke:none;font-family:Sans"
       id="path3977-4-2-8"
       d="m 202.4232,504.37606 0,-2.35686 0.28939,0 0,1.34402 0.68487,-0.69452 0.37459,0 -0.65272,0.63343 0.71863,1.07393 -0.3569,0 -0.5643,-0.87298 -0.20417,0.19614 0,0.67684 z"
       inkscape:connector-curvature="0" />
    <path
       style="font-size:40px;font-style:normal;font-weight:normal;line-height:125%;letter-spacing:0px;word-spacing:0px;fill:#000000;fill-opacity:1;stroke:none;font-family:Sans"
       id="path3977-4-2-8-0"
       d="m 245.23012,504.16561 0,-2.35686 0.28939,0 0,1.34402 0.68487,-0.69452 0.37459,0 -0.65272,0.63343 0.71863,1.07393 -0.3569,0 -0.5643,-0.87298 -0.20417,0.19614 0,0.67684 z"
       inkscape:connector-curvature="0" />
    <path
       style="font-size:40px;font-style:normal;font-weight:normal;line-height:125%;letter-spacing:0px;word-spacing:0px;fill:#000000;fill-opacity:1;stroke:none;font-family:Sans"
       id="path3977-4-2-8-2"
       d="m 292.29999,503.94187 0,-2.35686 0.28939,0 0,1.34402 0.68487,-0.69452 0.37459,0 -0.65272,0.63343 0.71863,1.07393 -0.3569,0 -0.5643,-0.87298 -0.20417,0.19614 0,0.67684 z"
       inkscape:connector-curvature="0" />
    <path
       style="font-size:40px;font-style:normal;font-weight:normal;line-height:125%;letter-spacing:0px;word-spacing:0px;fill:#000000;fill-opacity:1;stroke:none;font-family:Sans"
       id="path3977-4-2-8-8"
       d="m 339.58776,503.41154 0,-2.35686 0.28939,0 0,1.34402 0.68487,-0.69452 0.37459,0 -0.65272,0.63343 0.71863,1.07393 -0.3569,0 -0.5643,-0.87298 -0.20417,0.19614 0,0.67684 z"
       inkscape:connector-curvature="0" />
    <g
       id="g4045-8"
       transform="translate(32.618065,7.7758981)">
      <path
         d="m 208.35435,499.52132 -0.50671,0 0,-3.22889 c -0.12199,0.11636 -0.28198,0.23272 -0.47997,0.34907 -0.198,0.11636 -0.37582,0.20363 -0.53346,0.2618 l 0,-0.48982 c 0.28338,-0.13324 0.53111,-0.29464 0.74318,-0.48419 0.21207,-0.18955 0.3622,-0.37346 0.45041,-0.55175 l 0.32655,0 z"
         id="path3987-9"
         inkscape:connector-curvature="0"
         style="font-size:40px;font-style:normal;font-weight:normal;line-height:125%;letter-spacing:0px;word-spacing:0px;fill:#000000;fill-opacity:1;stroke:none;font-family:Sans" />
      <path
         d="m 209.65491,497.48602 c 0,-0.48794 0.0502,-0.88064 0.1506,-1.1781 0.10041,-0.29746 0.24961,-0.52689 0.4476,-0.68829 0.19799,-0.16139 0.44713,-0.24209 0.7474,-0.24209 0.22145,0 0.41569,0.0446 0.58272,0.13371 0.16703,0.0891 0.30496,0.2177 0.41382,0.38566 0.10884,0.16797 0.19423,0.37254 0.25617,0.61369 0.0619,0.24116 0.0929,0.5663 0.0929,0.97542 0,0.48419 -0.0497,0.87502 -0.14919,1.17248 -0.0995,0.29746 -0.2482,0.52735 -0.44619,0.68969 -0.198,0.16233 -0.44807,0.2435 -0.75022,0.2435 -0.39786,0 -0.71033,-0.14263 -0.93742,-0.42789 -0.27212,-0.34344 -0.40818,-0.9027 -0.40818,-1.67778 z m 0.52079,0 c 0,0.6775 0.0793,1.12838 0.23787,1.35264 0.15858,0.22427 0.35423,0.3364 0.58694,0.3364 0.23271,0 0.42836,-0.1126 0.58694,-0.33781 0.15858,-0.2252 0.23787,-0.67561 0.23788,-1.35123 -1e-5,-0.67937 -0.0793,-1.13071 -0.23788,-1.35405 -0.15858,-0.22332 -0.3561,-0.33499 -0.59257,-0.33499 -0.23271,0 -0.41851,0.0985 -0.55738,0.29558 -0.17454,0.25148 -0.2618,0.71597 -0.2618,1.39346 z"
         id="path3989-2"
         inkscape:connector-curvature="0"
         style="font-size:40px;font-style:normal;font-weight:normal;line-height:125%;letter-spacing:0px;word-spacing:0px;fill:#000000;fill-opacity:1;stroke:none;font-family:Sans" />
    </g>
    <path
       style="font-size:40px;font-style:normal;font-weight:normal;line-height:125%;letter-spacing:0px;word-spacing:0px;fill:#000000;fill-opacity:1;stroke:none;font-family:Sans"
       inkscape:connector-curvature="0"
       id="path3973-7-7"
       d="m 238.40918,501.51365 0,-0.50953 7.5981,0 0,0.50953 z" />
    <path
       style="font-size:40px;font-style:normal;font-weight:normal;line-height:125%;letter-spacing:0px;word-spacing:0px;fill:#000000;fill-opacity:1;stroke:none;font-family:Sans"
       id="path3981-3-6-3"
       d="m 266.65636,471.12961 -0.50671,0 0,-3.22889 c -0.12199,0.11636 -0.28197,0.23272 -0.47997,0.34907 -0.19799,0.11636 -0.37581,0.20363 -0.53345,0.2618 l 0,-0.48982 c 0.28338,-0.13324 0.53111,-0.29464 0.74318,-0.48419 0.21206,-0.18955 0.3622,-0.37346 0.45041,-0.55175 l 0.32654,0 z"
       inkscape:connector-curvature="0" />
    <g
       transform="translate(46.998444,-0.41156143)"
       id="g4304-1">
      <g
         transform="translate(32.618065,7.7758981)"
         id="g4045-8-2">
        <path
           style="font-size:40px;font-style:normal;font-weight:normal;line-height:125%;letter-spacing:0px;word-spacing:0px;fill:#000000;fill-opacity:1;stroke:none;font-family:Sans"
           inkscape:connector-curvature="0"
           id="path3987-9-3"
           d="m 208.35435,499.52132 -0.50671,0 0,-3.22889 c -0.12199,0.11636 -0.28198,0.23272 -0.47997,0.34907 -0.198,0.11636 -0.37582,0.20363 -0.53346,0.2618 l 0,-0.48982 c 0.28338,-0.13324 0.53111,-0.29464 0.74318,-0.48419 0.21207,-0.18955 0.3622,-0.37346 0.45041,-0.55175 l 0.32655,0 z" />
        <path
           style="font-size:40px;font-style:normal;font-weight:normal;line-height:125%;letter-spacing:0px;word-spacing:0px;fill:#000000;fill-opacity:1;stroke:none;font-family:Sans"
           inkscape:connector-curvature="0"
           id="path3989-2-3"
           d="m 209.65491,497.48602 c 0,-0.48794 0.0502,-0.88064 0.1506,-1.1781 0.10041,-0.29746 0.24961,-0.52689 0.4476,-0.68829 0.19799,-0.16139 0.44713,-0.24209 0.7474,-0.24209 0.22145,0 0.41569,0.0446 0.58272,0.13371 0.16703,0.0891 0.30496,0.2177 0.41382,0.38566 0.10884,0.16797 0.19423,0.37254 0.25617,0.61369 0.0619,0.24116 0.0929,0.5663 0.0929,0.97542 0,0.48419 -0.0497,0.87502 -0.14919,1.17248 -0.0995,0.29746 -0.2482,0.52735 -0.44619,0.68969 -0.198,0.16233 -0.44807,0.2435 -0.75022,0.2435 -0.39786,0 -0.71033,-0.14263 -0.93742,-0.42789 -0.27212,-0.34344 -0.40818,-0.9027 -0.40818,-1.67778 z m 0.52079,0 c 0,0.6775 0.0793,1.12838 0.23787,1.35264 0.15858,0.22427 0.35423,0.3364 0.58694,0.3364 0.23271,0 0.42836,-0.1126 0.58694,-0.33781 0.15858,-0.2252 0.23787,-0.67561 0.23788,-1.35123 -1e-5,-0.67937 -0.0793,-1.13071 -0.23788,-1.35405 -0.15858,-0.22332 -0.3561,-0.33499 -0.59257,-0.33499 -0.23271,0 -0.41851,0.0985 -0.55738,0.29558 -0.17454,0.25148 -0.2618,0.71597 -0.2618,1.39346 z" />
      </g>
      <path
         d="m 238.40918,501.51365 0,-0.50953 7.5981,0 0,0.50953 z"
         id="path3973-7-7-4"
         inkscape:connector-curvature="0"
         style="font-size:40px;font-style:normal;font-weight:normal;line-height:125%;letter-spacing:0px;word-spacing:0px;fill:#000000;fill-opacity:1;stroke:none;font-family:Sans" />
      <path
         inkscape:connector-curvature="0"
         d="m 242.96829,500.29776 -0.50671,0 0,-3.22889 c -0.12199,0.11636 -0.28197,0.23272 -0.47997,0.34907 -0.19799,0.11636 -0.37581,0.20363 -0.53345,0.2618 l 0,-0.48982 c 0.28338,-0.13324 0.53111,-0.29464 0.74318,-0.48419 0.21206,-0.18955 0.3622,-0.37346 0.45041,-0.55175 l 0.32654,0 z"
         id="path3981-3-6-3-1"
         style="font-size:40px;font-style:normal;font-weight:normal;line-height:125%;letter-spacing:0px;word-spacing:0px;fill:#000000;fill-opacity:1;stroke:none;font-family:Sans" />
    </g>
    <g
       transform="translate(94.374598,-1.2954449)"
       id="g4304-13">
      <g
         transform="translate(32.618065,7.7758981)"
         id="g4045-8-8">
        <path
           style="font-size:40px;font-style:normal;font-weight:normal;line-height:125%;letter-spacing:0px;word-spacing:0px;fill:#000000;fill-opacity:1;stroke:none;font-family:Sans"
           inkscape:connector-curvature="0"
           id="path3987-9-7"
           d="m 208.35435,499.52132 -0.50671,0 0,-3.22889 c -0.12199,0.11636 -0.28198,0.23272 -0.47997,0.34907 -0.198,0.11636 -0.37582,0.20363 -0.53346,0.2618 l 0,-0.48982 c 0.28338,-0.13324 0.53111,-0.29464 0.74318,-0.48419 0.21207,-0.18955 0.3622,-0.37346 0.45041,-0.55175 l 0.32655,0 z" />
        <path
           style="font-size:40px;font-style:normal;font-weight:normal;line-height:125%;letter-spacing:0px;word-spacing:0px;fill:#000000;fill-opacity:1;stroke:none;font-family:Sans"
           inkscape:connector-curvature="0"
           id="path3989-2-4"
           d="m 209.65491,497.48602 c 0,-0.48794 0.0502,-0.88064 0.1506,-1.1781 0.10041,-0.29746 0.24961,-0.52689 0.4476,-0.68829 0.19799,-0.16139 0.44713,-0.24209 0.7474,-0.24209 0.22145,0 0.41569,0.0446 0.58272,0.13371 0.16703,0.0891 0.30496,0.2177 0.41382,0.38566 0.10884,0.16797 0.19423,0.37254 0.25617,0.61369 0.0619,0.24116 0.0929,0.5663 0.0929,0.97542 0,0.48419 -0.0497,0.87502 -0.14919,1.17248 -0.0995,0.29746 -0.2482,0.52735 -0.44619,0.68969 -0.198,0.16233 -0.44807,0.2435 -0.75022,0.2435 -0.39786,0 -0.71033,-0.14263 -0.93742,-0.42789 -0.27212,-0.34344 -0.40818,-0.9027 -0.40818,-1.67778 z m 0.52079,0 c 0,0.6775 0.0793,1.12838 0.23787,1.35264 0.15858,0.22427 0.35423,0.3364 0.58694,0.3364 0.23271,0 0.42836,-0.1126 0.58694,-0.33781 0.15858,-0.2252 0.23787,-0.67561 0.23788,-1.35123 -1e-5,-0.67937 -0.0793,-1.13071 -0.23788,-1.35405 -0.15858,-0.22332 -0.3561,-0.33499 -0.59257,-0.33499 -0.23271,0 -0.41851,0.0985 -0.55738,0.29558 -0.17454,0.25148 -0.2618,0.71597 -0.2618,1.39346 z" />
      </g>
      <path
         d="m 238.40918,501.51365 0,-0.50953 7.5981,0 0,0.50953 z"
         id="path3973-7-7-2"
         inkscape:connector-curvature="0"
         style="font-size:40px;font-style:normal;font-weight:normal;line-height:125%;letter-spacing:0px;word-spacing:0px;fill:#000000;fill-opacity:1;stroke:none;font-family:Sans" />
      <path
         inkscape:connector-curvature="0"
         d="m 242.96829,500.29776 -0.50671,0 0,-3.22889 c -0.12199,0.11636 -0.28197,0.23272 -0.47997,0.34907 -0.19799,0.11636 -0.37581,0.20363 -0.53345,0.2618 l 0,-0.48982 c 0.28338,-0.13324 0.53111,-0.29464 0.74318,-0.48419 0.21206,-0.18955 0.3622,-0.37346 0.45041,-0.55175 l 0.32654,0 z"
         id="path3981-3-6-3-7"
         style="font-size:40px;font-style:normal;font-weight:normal;line-height:125%;letter-spacing:0px;word-spacing:0px;fill:#000000;fill-opacity:1;stroke:none;font-family:Sans" />
    </g>
    <g
       id="g4365"
       transform="matrix(0.57488712,0,0,0.57488712,235.37693,496.97249)">
      <path
         id="path4367"
         d="M 1.8740773,20.26451 C 6.5592706,32.446013 13.352801,22.801274 20.84911,25.84665 l 75.509699,-0.156173 0.01559,3.519639 -0.01559,-3.519639 75.587781,-0.156174 c 7.49631,-3.045375 14.21176,6.599363 18.81886,-5.660226"
         style="fill:none;stroke:#000000;stroke-width:1.24938488px;stroke-linecap:round;stroke-linejoin:round;stroke-opacity:1;stroke-dasharray:none"
         inkscape:connector-curvature="0"
         sodipodi:nodetypes="ccccccc" />
    </g>
    <path
       style="font-size:40px;font-style:normal;font-weight:normal;line-height:125%;letter-spacing:0px;word-spacing:0px;fill:#000000;fill-opacity:1;stroke:none;font-family:Sans"
       id="path3977-4-9"
       d="m 289.49275,519.68407 0,-4.12689 0.50672,0 0,2.35339 1.19922,-1.21611 0.65591,0 -1.14292,1.10914 1.25833,1.88047 -0.62494,0 -0.98809,-1.52859 -0.35751,0.34344 0,1.18515 z"
       inkscape:connector-curvature="0" />
    <path
       style="font-size:40px;font-style:normal;font-weight:normal;line-height:125%;letter-spacing:0px;word-spacing:0px;fill:#000000;fill-opacity:1;stroke:none;font-family:Sans"
       id="path3977-4-2-8-0-6"
       d="m 230.95516,476.65307 0,-2.35686 0.28939,0 0,1.34402 0.68487,-0.69452 0.37459,0 -0.65272,0.63343 0.71863,1.07393 -0.3569,0 -0.5643,-0.87298 -0.20417,0.19614 0,0.67684 z"
       inkscape:connector-curvature="0" />
    <path
       style="font-size:40px;font-style:normal;font-weight:normal;line-height:125%;letter-spacing:0px;word-spacing:0px;fill:#000000;fill-opacity:1;stroke:none;font-family:Sans"
       inkscape:connector-curvature="0"
       id="path3946-6-6"
       d="m 259.75983,472.63157 0,-0.50953 12.93174,0 0,0.50953 z" />
    <g
       id="g4612"
       transform="translate(0,1.736638)">
      <g
         transform="translate(41.837404,-36.852295)"
         id="g4093-0">
        <path
           style="font-size:40px;font-style:normal;font-weight:normal;line-height:125%;letter-spacing:0px;word-spacing:0px;fill:#000000;fill-opacity:1;stroke:none;font-family:Sans"
           inkscape:connector-curvature="0"
           id="path3960-2"
           d="m 221.57915,514.73813 -0.50671,0 0,-3.22889 c -0.12199,0.11636 -0.28198,0.23272 -0.47997,0.34907 -0.198,0.11636 -0.37582,0.20363 -0.53346,0.2618 l 0,-0.48982 c 0.28338,-0.13324 0.53111,-0.29464 0.74318,-0.48419 0.21207,-0.18955 0.3622,-0.37346 0.45041,-0.55175 l 0.32655,0 z" />
        <path
           style="font-size:40px;font-style:normal;font-weight:normal;line-height:125%;letter-spacing:0px;word-spacing:0px;fill:#000000;fill-opacity:1;stroke:none;font-family:Sans"
           inkscape:connector-curvature="0"
           id="path3962-4"
           d="m 222.87971,512.70283 c 0,-0.48794 0.0502,-0.88064 0.1506,-1.1781 0.10041,-0.29746 0.24961,-0.52689 0.4476,-0.68829 0.19799,-0.16139 0.44713,-0.24209 0.7474,-0.24209 0.22145,0 0.41569,0.0446 0.58272,0.13371 0.16703,0.0891 0.30496,0.2177 0.41382,0.38566 0.10884,0.16797 0.19423,0.37254 0.25617,0.61369 0.0619,0.24116 0.0929,0.5663 0.0929,0.97542 0,0.48419 -0.0497,0.87502 -0.14919,1.17248 -0.0995,0.29746 -0.2482,0.52735 -0.44619,0.68969 -0.198,0.16233 -0.44807,0.2435 -0.75022,0.2435 -0.39786,0 -0.71033,-0.14263 -0.93742,-0.42789 -0.27212,-0.34344 -0.40818,-0.9027 -0.40818,-1.67778 z m 0.52079,0 c 0,0.6775 0.0793,1.12838 0.23787,1.35264 0.15858,0.22427 0.35423,0.3364 0.58694,0.3364 0.23271,0 0.42836,-0.1126 0.58694,-0.33781 0.15858,-0.2252 0.23787,-0.67561 0.23788,-1.35123 -1e-5,-0.67937 -0.0793,-1.13071 -0.23788,-1.35405 -0.15858,-0.22332 -0.3561,-0.33499 -0.59257,-0.33499 -0.23271,0 -0.41851,0.0985 -0.55738,0.29558 -0.17454,0.25148 -0.2618,0.71597 -0.2618,1.39346 z" />
        <path
           style="font-size:40px;font-style:normal;font-weight:normal;line-height:125%;letter-spacing:0px;word-spacing:0px;fill:#000000;fill-opacity:1;stroke:none;font-family:Sans"
           inkscape:connector-curvature="0"
           id="path3964-8"
           d="m 226.08889,512.70283 c 0,-0.48794 0.0502,-0.88064 0.1506,-1.1781 0.10041,-0.29746 0.2496,-0.52689 0.4476,-0.68829 0.19799,-0.16139 0.44712,-0.24209 0.7474,-0.24209 0.22145,0 0.41569,0.0446 0.58272,0.13371 0.16702,0.0891 0.30496,0.2177 0.41381,0.38566 0.10885,0.16797 0.19424,0.37254 0.25617,0.61369 0.0619,0.24116 0.0929,0.5663 0.0929,0.97542 0,0.48419 -0.0497,0.87502 -0.1492,1.17248 -0.0995,0.29746 -0.24819,0.52735 -0.44619,0.68969 -0.19799,0.16233 -0.44806,0.2435 -0.75021,0.2435 -0.39786,0 -0.71034,-0.14263 -0.93742,-0.42789 -0.27212,-0.34344 -0.40818,-0.9027 -0.40818,-1.67778 z m 0.52078,0 c 0,0.6775 0.0793,1.12838 0.23788,1.35264 0.15858,0.22427 0.35423,0.3364 0.58694,0.3364 0.23271,0 0.42836,-0.1126 0.58694,-0.33781 0.15858,-0.2252 0.23787,-0.67561 0.23787,-1.35123 0,-0.67937 -0.0793,-1.13071 -0.23787,-1.35405 -0.15858,-0.22332 -0.35611,-0.33499 -0.59257,-0.33499 -0.23271,0 -0.41851,0.0985 -0.55738,0.29558 -0.17454,0.25148 -0.26181,0.71597 -0.26181,1.39346 z" />
      </g>
      <path
         inkscape:connector-curvature="0"
         d="m 270.97126,475.049 0,-2.35686 0.28939,0 0,1.34402 0.68487,-0.69452 0.37459,0 -0.65272,0.63343 0.71863,1.07393 -0.3569,0 -0.5643,-0.87298 -0.20417,0.19614 0,0.67684 z"
         id="path3977-4-2-8-0-6-9"
         style="font-size:40px;font-style:normal;font-weight:normal;line-height:125%;letter-spacing:0px;word-spacing:0px;fill:#000000;fill-opacity:1;stroke:none;font-family:Sans" />
    </g>
    <path
       style="font-size:40px;font-style:normal;font-weight:normal;line-height:125%;letter-spacing:0px;word-spacing:0px;fill:#000000;fill-opacity:1;stroke:none;font-family:Sans"
       inkscape:connector-curvature="0"
       id="path3946-6-8"
       d="m 307.31276,472.63157 0,-0.50953 12.93174,0 0,0.50953 z" />
    <g
       id="g4633"
       transform="translate(0,1.736638)">
      <g
         transform="translate(89.390334,-36.852295)"
         id="g4093-00">
        <path
           style="font-size:40px;font-style:normal;font-weight:normal;line-height:125%;letter-spacing:0px;word-spacing:0px;fill:#000000;fill-opacity:1;stroke:none;font-family:Sans"
           inkscape:connector-curvature="0"
           id="path3960-6"
           d="m 221.57915,514.73813 -0.50671,0 0,-3.22889 c -0.12199,0.11636 -0.28198,0.23272 -0.47997,0.34907 -0.198,0.11636 -0.37582,0.20363 -0.53346,0.2618 l 0,-0.48982 c 0.28338,-0.13324 0.53111,-0.29464 0.74318,-0.48419 0.21207,-0.18955 0.3622,-0.37346 0.45041,-0.55175 l 0.32655,0 z" />
        <path
           style="font-size:40px;font-style:normal;font-weight:normal;line-height:125%;letter-spacing:0px;word-spacing:0px;fill:#000000;fill-opacity:1;stroke:none;font-family:Sans"
           inkscape:connector-curvature="0"
           id="path3962-1"
           d="m 222.87971,512.70283 c 0,-0.48794 0.0502,-0.88064 0.1506,-1.1781 0.10041,-0.29746 0.24961,-0.52689 0.4476,-0.68829 0.19799,-0.16139 0.44713,-0.24209 0.7474,-0.24209 0.22145,0 0.41569,0.0446 0.58272,0.13371 0.16703,0.0891 0.30496,0.2177 0.41382,0.38566 0.10884,0.16797 0.19423,0.37254 0.25617,0.61369 0.0619,0.24116 0.0929,0.5663 0.0929,0.97542 0,0.48419 -0.0497,0.87502 -0.14919,1.17248 -0.0995,0.29746 -0.2482,0.52735 -0.44619,0.68969 -0.198,0.16233 -0.44807,0.2435 -0.75022,0.2435 -0.39786,0 -0.71033,-0.14263 -0.93742,-0.42789 -0.27212,-0.34344 -0.40818,-0.9027 -0.40818,-1.67778 z m 0.52079,0 c 0,0.6775 0.0793,1.12838 0.23787,1.35264 0.15858,0.22427 0.35423,0.3364 0.58694,0.3364 0.23271,0 0.42836,-0.1126 0.58694,-0.33781 0.15858,-0.2252 0.23787,-0.67561 0.23788,-1.35123 -1e-5,-0.67937 -0.0793,-1.13071 -0.23788,-1.35405 -0.15858,-0.22332 -0.3561,-0.33499 -0.59257,-0.33499 -0.23271,0 -0.41851,0.0985 -0.55738,0.29558 -0.17454,0.25148 -0.2618,0.71597 -0.2618,1.39346 z" />
        <path
           style="font-size:40px;font-style:normal;font-weight:normal;line-height:125%;letter-spacing:0px;word-spacing:0px;fill:#000000;fill-opacity:1;stroke:none;font-family:Sans"
           inkscape:connector-curvature="0"
           id="path3964-3"
           d="m 226.08889,512.70283 c 0,-0.48794 0.0502,-0.88064 0.1506,-1.1781 0.10041,-0.29746 0.2496,-0.52689 0.4476,-0.68829 0.19799,-0.16139 0.44712,-0.24209 0.7474,-0.24209 0.22145,0 0.41569,0.0446 0.58272,0.13371 0.16702,0.0891 0.30496,0.2177 0.41381,0.38566 0.10885,0.16797 0.19424,0.37254 0.25617,0.61369 0.0619,0.24116 0.0929,0.5663 0.0929,0.97542 0,0.48419 -0.0497,0.87502 -0.1492,1.17248 -0.0995,0.29746 -0.24819,0.52735 -0.44619,0.68969 -0.19799,0.16233 -0.44806,0.2435 -0.75021,0.2435 -0.39786,0 -0.71034,-0.14263 -0.93742,-0.42789 -0.27212,-0.34344 -0.40818,-0.9027 -0.40818,-1.67778 z m 0.52078,0 c 0,0.6775 0.0793,1.12838 0.23788,1.35264 0.15858,0.22427 0.35423,0.3364 0.58694,0.3364 0.23271,0 0.42836,-0.1126 0.58694,-0.33781 0.15858,-0.2252 0.23787,-0.67561 0.23787,-1.35123 0,-0.67937 -0.0793,-1.13071 -0.23787,-1.35405 -0.15858,-0.22332 -0.35611,-0.33499 -0.59257,-0.33499 -0.23271,0 -0.41851,0.0985 -0.55738,0.29558 -0.17454,0.25148 -0.26181,0.71597 -0.26181,1.39346 z" />
      </g>
      <path
         inkscape:connector-curvature="0"
         d="m 318.52419,475.049 0,-2.35686 0.28939,0 0,1.34402 0.68487,-0.69452 0.37459,0 -0.65272,0.63343 0.71863,1.07393 -0.3569,0 -0.5643,-0.87298 -0.20417,0.19614 0,0.67684 z"
         id="path3977-4-2-8-0-6-4"
         style="font-size:40px;font-style:normal;font-weight:normal;line-height:125%;letter-spacing:0px;word-spacing:0px;fill:#000000;fill-opacity:1;stroke:none;font-family:Sans" />
    </g>
    <rect
       style="fill:#ffffff;fill-opacity:1;stroke:none;stroke-width:1;stroke-miterlimit:4;stroke-opacity:1;stroke-dasharray:none;stroke-dashoffset:0"
       id="rect4686"
       width="15.9375"
       height="8.5"
       x="171.5"
       y="155.20644"
       transform="translate(179.86215,315.91513)" />
    <path
       style="font-size:40px;font-style:normal;font-weight:normal;line-height:125%;letter-spacing:0px;word-spacing:0px;fill:#000000;fill-opacity:1;stroke:none;font-family:Sans"
       inkscape:connector-curvature="0"
       id="path3946-6-1"
       d="m 353.80503,472.80836 0,-0.50953 12.93174,0 0,0.50953 z" />
    <g
       id="g4640"
       transform="translate(0,1.559861)">
      <g
         transform="translate(135.8826,-36.675518)"
         id="g4093-4">
        <path
           style="font-size:40px;font-style:normal;font-weight:normal;line-height:125%;letter-spacing:0px;word-spacing:0px;fill:#000000;fill-opacity:1;stroke:none;font-family:Sans"
           inkscape:connector-curvature="0"
           id="path3960-60"
           d="m 221.57915,514.73813 -0.50671,0 0,-3.22889 c -0.12199,0.11636 -0.28198,0.23272 -0.47997,0.34907 -0.198,0.11636 -0.37582,0.20363 -0.53346,0.2618 l 0,-0.48982 c 0.28338,-0.13324 0.53111,-0.29464 0.74318,-0.48419 0.21207,-0.18955 0.3622,-0.37346 0.45041,-0.55175 l 0.32655,0 z" />
        <path
           style="font-size:40px;font-style:normal;font-weight:normal;line-height:125%;letter-spacing:0px;word-spacing:0px;fill:#000000;fill-opacity:1;stroke:none;font-family:Sans"
           inkscape:connector-curvature="0"
           id="path3962-6"
           d="m 222.87971,512.70283 c 0,-0.48794 0.0502,-0.88064 0.1506,-1.1781 0.10041,-0.29746 0.24961,-0.52689 0.4476,-0.68829 0.19799,-0.16139 0.44713,-0.24209 0.7474,-0.24209 0.22145,0 0.41569,0.0446 0.58272,0.13371 0.16703,0.0891 0.30496,0.2177 0.41382,0.38566 0.10884,0.16797 0.19423,0.37254 0.25617,0.61369 0.0619,0.24116 0.0929,0.5663 0.0929,0.97542 0,0.48419 -0.0497,0.87502 -0.14919,1.17248 -0.0995,0.29746 -0.2482,0.52735 -0.44619,0.68969 -0.198,0.16233 -0.44807,0.2435 -0.75022,0.2435 -0.39786,0 -0.71033,-0.14263 -0.93742,-0.42789 -0.27212,-0.34344 -0.40818,-0.9027 -0.40818,-1.67778 z m 0.52079,0 c 0,0.6775 0.0793,1.12838 0.23787,1.35264 0.15858,0.22427 0.35423,0.3364 0.58694,0.3364 0.23271,0 0.42836,-0.1126 0.58694,-0.33781 0.15858,-0.2252 0.23787,-0.67561 0.23788,-1.35123 -1e-5,-0.67937 -0.0793,-1.13071 -0.23788,-1.35405 -0.15858,-0.22332 -0.3561,-0.33499 -0.59257,-0.33499 -0.23271,0 -0.41851,0.0985 -0.55738,0.29558 -0.17454,0.25148 -0.2618,0.71597 -0.2618,1.39346 z" />
        <path
           style="font-size:40px;font-style:normal;font-weight:normal;line-height:125%;letter-spacing:0px;word-spacing:0px;fill:#000000;fill-opacity:1;stroke:none;font-family:Sans"
           inkscape:connector-curvature="0"
           id="path3964-6"
           d="m 226.08889,512.70283 c 0,-0.48794 0.0502,-0.88064 0.1506,-1.1781 0.10041,-0.29746 0.2496,-0.52689 0.4476,-0.68829 0.19799,-0.16139 0.44712,-0.24209 0.7474,-0.24209 0.22145,0 0.41569,0.0446 0.58272,0.13371 0.16702,0.0891 0.30496,0.2177 0.41381,0.38566 0.10885,0.16797 0.19424,0.37254 0.25617,0.61369 0.0619,0.24116 0.0929,0.5663 0.0929,0.97542 0,0.48419 -0.0497,0.87502 -0.1492,1.17248 -0.0995,0.29746 -0.24819,0.52735 -0.44619,0.68969 -0.19799,0.16233 -0.44806,0.2435 -0.75021,0.2435 -0.39786,0 -0.71034,-0.14263 -0.93742,-0.42789 -0.27212,-0.34344 -0.40818,-0.9027 -0.40818,-1.67778 z m 0.52078,0 c 0,0.6775 0.0793,1.12838 0.23788,1.35264 0.15858,0.22427 0.35423,0.3364 0.58694,0.3364 0.23271,0 0.42836,-0.1126 0.58694,-0.33781 0.15858,-0.2252 0.23787,-0.67561 0.23787,-1.35123 0,-0.67937 -0.0793,-1.13071 -0.23787,-1.35405 -0.15858,-0.22332 -0.35611,-0.33499 -0.59257,-0.33499 -0.23271,0 -0.41851,0.0985 -0.55738,0.29558 -0.17454,0.25148 -0.26181,0.71597 -0.26181,1.39346 z" />
      </g>
      <path
         inkscape:connector-curvature="0"
         d="m 365.01646,475.22579 0,-2.35686 0.28939,0 0,1.34402 0.68487,-0.69452 0.37459,0 -0.65272,0.63343 0.71863,1.07393 -0.3569,0 -0.5643,-0.87298 -0.20417,0.19614 0,0.67684 z"
         id="path3977-4-2-8-0-6-96"
         style="font-size:40px;font-style:normal;font-weight:normal;line-height:125%;letter-spacing:0px;word-spacing:0px;fill:#000000;fill-opacity:1;stroke:none;font-family:Sans" />
    </g>
    <path
       style="font-size:40px;font-style:normal;font-weight:normal;line-height:125%;letter-spacing:0px;word-spacing:0px;fill:#000000;fill-opacity:1;stroke:none;font-family:Sans"
       id="path3981-3-6-3-3"
       d="m 313.30126,470.8942 -0.50671,0 0,-3.22889 c -0.12199,0.11636 -0.28197,0.23272 -0.47997,0.34907 -0.19799,0.11636 -0.37581,0.20363 -0.53345,0.2618 l 0,-0.48982 c 0.28338,-0.13324 0.53111,-0.29464 0.74318,-0.48419 0.21206,-0.18955 0.3622,-0.37346 0.45041,-0.55175 l 0.32654,0 z"
       inkscape:connector-curvature="0" />
    <path
       style="font-size:40px;font-style:normal;font-weight:normal;line-height:125%;letter-spacing:0px;word-spacing:0px;fill:#000000;fill-opacity:1;stroke:none;font-family:Sans"
       id="path3981-3-6-3-78"
       d="m 361.38452,470.54065 -0.50671,0 0,-3.22889 c -0.12199,0.11636 -0.28197,0.23272 -0.47997,0.34907 -0.19799,0.11636 -0.37581,0.20363 -0.53345,0.2618 l 0,-0.48982 c 0.28338,-0.13324 0.53111,-0.29464 0.74318,-0.48419 0.21206,-0.18955 0.3622,-0.37346 0.45041,-0.55175 l 0.32654,0 z"
       inkscape:connector-curvature="0" />
    <g
       id="g4365-8"
       transform="matrix(-0.57488712,0,0,-0.57488712,367.37299,478.47112)">
      <path
         id="path4367-2"
         d="M 1.8740773,20.26451 C 6.5592706,32.446013 13.352801,22.801274 20.84911,25.84665 l 75.509699,-0.156173 0.01559,3.519639 -0.01559,-3.519639 75.587781,-0.156174 c 7.49631,-3.045375 14.21176,6.599363 18.81886,-5.660226"
         style="fill:none;stroke:#000000;stroke-width:1.24938488px;stroke-linecap:round;stroke-linejoin:round;stroke-opacity:1;stroke-dasharray:none"
         inkscape:connector-curvature="0"
         sodipodi:nodetypes="ccccccc" />
    </g>
    <path
       style="font-size:40px;font-style:normal;font-weight:normal;line-height:125%;letter-spacing:0px;word-spacing:0px;fill:#000000;fill-opacity:1;stroke:none;font-family:Sans"
       id="path3977-4-9-9"
       d="m 310.51137,459.67563 0,-4.12689 0.50672,0 0,2.35339 1.19922,-1.21611 0.65591,0 -1.14292,1.10914 1.25833,1.88047 -0.62494,0 -0.98809,-1.52859 -0.35751,0.34344 0,1.18515 z"
       inkscape:connector-curvature="0" />
  </g>
</svg>
