
_20P,NA,NA	_20P,LessThen0_4,Forty
10	566
1,45920399208954	1,1565900992849
_20P,NA,NA	_20P,LessThen0_4,Sixty
414	9
1,18858642049957	1,28772630716506
_20P,NA,NA	_20P,LessThen0_2,Forty
334	9
1,18730778673785	1,4390563528628
_20P,NA,NA	_20P,LessThen0_2,Sixty
8	268
1,38377313619504	1,19848252057452
_20P,NA,NA	_20P,LessThen0_4,Forty	_20P,LessThen0_4,Sixty
16	9	244
1,34716680332792	1,38588740598227	1,14908969362903
_20P,NA,NA	_20P,LessThen0_2,Forty	_20P,LessThen0_4,Forty
12	24	183
1,40212929293492	1,33554943312793	1,1652739749662
_20P,NA,NA	_20P,LessThen0_4,Twenty
209	8
1,20145469028236	1,38994780637875
_20P,NA,NA	_20P,LessThen0_2,Hundred
7	172
1,51731481380667	1,12179953180934
_20P,NA,NA	_20P,LessThen0_4,Twenty	_20P,LessThen0_4,Forty
131	12	7
1,17410395919763	1,34259184271636	1,42112514194788
_20P,NA,NA	_20P,LessThen0_4,Forty	_20P,LessThen0_2,Sixty
81	58	6
1,16212783042472	1,20648944560758	1,71543735172026
