%!PS-Adobe-3.0
%%DocumentNeededResources: font Helvetica
%%+ font Helvetica-Bold
%%+ font Helvetica-Oblique
%%+ font Helvetica-BoldOblique
%%+ font Symbol
%%DocumentMedia: a4 595 841 0 () ()
%%Title: R Graphics Output
%%Creator: R Software
%%Pages: (atend)
%%Orientation: Portrait
%%BoundingBox: 18 277 577 565
%%EndComments
%%BeginProlog
/bp  { gs sRGB gs } def
% begin .ps.prolog
/gs  { gsave } bind def
/gr  { grestore } bind def
/ep  { showpage gr gr } bind def
/m   { moveto } bind def
/l  { rlineto } bind def
/np  { newpath } bind def
/cp  { closepath } bind def
/f   { fill } bind def
/o   { stroke } bind def
/c   { newpath 0 360 arc } bind def
/r   { 4 2 roll moveto 1 copy 3 -1 roll exch 0 exch rlineto 0 rlineto -1 mul 0 exch rlineto closepath } bind def
/p1  { stroke } bind def
/p2  { gsave bg fill grestore newpath } bind def
/p3  { gsave bg fill grestore stroke } bind def
/p6  { gsave bg eofill grestore newpath } bind def
/p7  { gsave bg eofill grestore stroke } bind def
/t   { 5 -2 roll moveto gsave rotate
       1 index stringwidth pop
       mul neg 0 rmoveto show grestore } bind def
/ta  { 4 -2 roll moveto gsave rotate show } bind def
/tb  { 2 -1 roll 0 rmoveto show } bind def
/cl  { grestore gsave newpath 3 index 3 index moveto 1 index
       4 -1 roll lineto  exch 1 index lineto lineto
       closepath clip newpath } bind def
/rgb { setrgbcolor } bind def
/s   { scalefont setfont } bind def
% end   .ps.prolog
/sRGB { [ /CIEBasedABC
          << /DecodeLMN
               [ { dup 0.03928 le
                        {12.92321 div}
                        {0.055 add 1.055 div 2.4 exp }
                     ifelse
                 } bind dup dup
               ]
             /MatrixLMN [0.412457 0.212673 0.019334
                         0.357576 0.715152 0.119192
                         0.180437 0.072175 0.950301]
             /WhitePoint [0.9505 1.0 1.0890]
           >>
         ] setcolorspace } bind def
/srgb { setcolor } bind def
% begin encoding
/WinAnsiEncoding [
 /.notdef /.notdef /.notdef /.notdef /.notdef /.notdef /.notdef /.notdef
 /.notdef /.notdef /.notdef /.notdef /.notdef /.notdef /.notdef /.notdef
 /.notdef /.notdef /.notdef /.notdef /.notdef /.notdef /.notdef /.notdef
 /.notdef /.notdef /.notdef /.notdef /.notdef /.notdef /.notdef /.notdef
 /space /exclam /quotedbl /numbersign /dollar /percent /ampersand /quoteright
 /parenleft /parenright /asterisk /plus /comma /minus /period /slash
 /zero /one /two /three /four /five /six /seven
 /eight /nine /colon /semicolon /less /equal /greater /question
 /at /A /B /C /D /E /F /G
 /H /I /J /K /L /M /N /O
 /P /Q /R /S /T /U /V /W
 /X /Y /Z /bracketleft /backslash /bracketright /asciicircum /underscore
 /grave /a /b /c /d /e /f /g
 /h /i /j /k /l /m /n /o
 /p /q /r /s /t /u /v /w
 /x /y /z /braceleft /bar /braceright /asciitilde /.notdef
 /Euro /.notdef /quotesinglbase /florin /quotedblbase /ellipsis /dagger /daggerdbl
 /circumflex /perthousand /Scaron /guilsinglleft /OE /.notdef /Zcaron /.notdef
 /.notdef /quoteleft /quoteright /quotedblleft /quotedblright /bullet /endash /emdash
 /tilde /trademark /scaron /guilsinglright /oe /.notdef /zcaron /Ydieresis
 /space /exclamdown /cent /sterling /currency /yen /brokenbar /section
 /dieresis /copyright /ordfeminine /guillemotleft /logicalnot /hyphen /registered /macron
 /degree /plusminus /twosuperior /threesuperior /acute /mu /paragraph /periodcentered
 /cedilla /onesuperior /ordmasculine /guillemotright /onequarter /onehalf /threequarters /questiondown
 /Agrave /Aacute /Acircumflex /Atilde /Adieresis /Aring /AE /Ccedilla
 /Egrave /Eacute /Ecircumflex /Edieresis /Igrave /Iacute /Icircumflex /Idieresis
 /Eth /Ntilde /Ograve /Oacute /Ocircumflex /Otilde /Odieresis /multiply
 /Oslash /Ugrave /Uacute /Ucircumflex /Udieresis /Yacute /Thorn /germandbls
 /agrave /aacute /acircumflex /atilde /adieresis /aring /ae /ccedilla
 /egrave /eacute /ecircumflex /edieresis /igrave /iacute /icircumflex /idieresis
 /eth /ntilde /ograve /oacute /ocircumflex /otilde /odieresis /divide
 /oslash /ugrave /uacute /ucircumflex /udieresis /yacute /thorn /ydieresis
]
 def
% end encoding
%%IncludeResource: font Helvetica
/Helvetica findfont
dup length dict begin
  {1 index /FID ne {def} {pop pop} ifelse} forall
  /Encoding WinAnsiEncoding def
  currentdict
  end
/Font1 exch definefont pop
%%IncludeResource: font Helvetica-Bold
/Helvetica-Bold findfont
dup length dict begin
  {1 index /FID ne {def} {pop pop} ifelse} forall
  /Encoding WinAnsiEncoding def
  currentdict
  end
/Font2 exch definefont pop
%%IncludeResource: font Helvetica-Oblique
/Helvetica-Oblique findfont
dup length dict begin
  {1 index /FID ne {def} {pop pop} ifelse} forall
  /Encoding WinAnsiEncoding def
  currentdict
  end
/Font3 exch definefont pop
%%IncludeResource: font Helvetica-BoldOblique
/Helvetica-BoldOblique findfont
dup length dict begin
  {1 index /FID ne {def} {pop pop} ifelse} forall
  /Encoding WinAnsiEncoding def
  currentdict
  end
/Font4 exch definefont pop
%%IncludeResource: font Symbol
/Symbol findfont
dup length dict begin
  {1 index /FID ne {def} {pop pop} ifelse} forall
  currentdict
  end
/Font5 exch definefont pop
%%EndProlog
%%Page: 1 1
bp
18.00 276.94 577.28 564.94 cl
0 0 0 srgb
0.75 setlinewidth
[] 0 setdash
1 setlinecap
1 setlinejoin
10.00 setmiterlimit
np
77.04 365.14 m
0 135.00 l
o
np
77.04 365.14 m
-7.20 0 l
o
np
77.04 387.64 m
-7.20 0 l
o
np
77.04 410.14 m
-7.20 0 l
o
np
77.04 432.64 m
-7.20 0 l
o
np
77.04 455.14 m
-7.20 0 l
o
np
77.04 477.64 m
-7.20 0 l
o
np
77.04 500.14 m
-7.20 0 l
o
/Font1 findfont 12 s
59.76 365.14 (1.00) .5 90 t
59.76 410.14 (1.10) .5 90 t
59.76 455.14 (1.20) .5 90 t
59.76 500.14 (1.30) .5 90 t
np
77.04 350.38 m
190.36 0 l
0 155.52 l
-190.36 0 l
0 -155.52 l
o
18.00 276.94 297.64 564.94 cl
/Font2 findfont 14 s
0 0 0 srgb
172.22 530.40 (all) .5 0 t
/Font1 findfont 12 s
143.21 295.66 (T) 0 ta
-1.440 (est cases) tb gr
30.96 390.13 (Relativ) 90 ta
-0.300 (e result) tb gr
18.00 276.94 577.28 564.94 cl
0 0 0 srgb
0.75 setlinewidth
[] 0 setdash
1 setlinecap
1 setlinejoin
10.00 setmiterlimit
np
113.47 350.38 m
117.50 0 l
o
np
113.47 350.38 m
0 -7.20 l
o
np
172.22 350.38 m
0 -7.20 l
o
np
230.97 350.38 m
0 -7.20 l
o
/Font1 findfont 12 s
113.47 324.46 (10^3) .5 0 t
172.22 324.46 (10^4) .5 0 t
230.97 324.46 (10^5) .5 0 t
77.04 350.38 267.40 505.90 cl
0 0 0 srgb
0.75 setlinewidth
[ 2.25 3.75] 0 setdash
1 setlinecap
1 setlinejoin
10.00 setmiterlimit
np
54.71 386.24 m
58.76 0 l
58.75 0 l
58.75 0 l
58.75 0 l
o
0.75 setlinewidth
[] 0 setdash
np
54.71 404.22 m
58.76 0 l
58.75 0 l
58.75 0 l
58.75 0 l
o
2.25 setlinewidth
[] 0 setdash
0 setlinecap
np
101.72 403.65 m
23.50 0 l
o
0.75 setlinewidth
[ 2.25 3.75] 0 setdash
1 setlinecap
np
113.47 365.14 m
0 26.20 l
o
np
113.47 457.83 m
0 -38.74 l
o
0.75 setlinewidth
[] 0 setdash
np
107.59 365.14 m
11.75 0 l
o
np
107.59 457.83 m
11.75 0 l
o
np
101.72 391.34 m
23.50 0 l
0 27.75 l
-23.50 0 l
0 -27.75 l
o
113.47 467.45 2.70 c p1
113.47 474.43 2.70 c p1
113.47 466.13 2.70 c p1
113.47 506.92 2.70 c p1
113.47 466.34 2.70 c p1
113.47 504.42 2.70 c p1
113.47 508.19 2.70 c p1
113.47 470.74 2.70 c p1
113.47 474.10 2.70 c p1
113.47 461.02 2.70 c p1
18.00 276.94 577.28 564.94 cl
0 0 0 srgb
0.75 setlinewidth
[] 0 setdash
1 setlinecap
1 setlinejoin
10.00 setmiterlimit
np
77.04 365.14 m
0 135.00 l
o
np
77.04 365.14 m
-7.20 0 l
o
np
77.04 387.64 m
-7.20 0 l
o
np
77.04 410.14 m
-7.20 0 l
o
np
77.04 432.64 m
-7.20 0 l
o
np
77.04 455.14 m
-7.20 0 l
o
np
77.04 477.64 m
-7.20 0 l
o
np
77.04 500.14 m
-7.20 0 l
o
/Font1 findfont 12 s
59.76 365.14 (1.00) .5 90 t
59.76 410.14 (1.10) .5 90 t
59.76 455.14 (1.20) .5 90 t
59.76 500.14 (1.30) .5 90 t
np
77.04 350.38 m
190.36 0 l
0 155.52 l
-190.36 0 l
0 -155.52 l
o
77.04 350.38 267.40 505.90 cl
0.4000 0.4000 0.4000 srgb
1.50 setlinewidth
[] 0 setdash
1 setlinecap
1 setlinejoin
10.00 setmiterlimit
np
113.47 381.72 m
3.63 -6.30 l
-7.27 0 l
3.64 6.30 l
o
0 0 0 srgb
2.25 setlinewidth
[] 0 setdash
0 setlinecap
np
160.47 388.20 m
23.50 0 l
o
0.75 setlinewidth
[ 2.25 3.75] 0 setdash
1 setlinecap
np
172.22 365.14 m
0 14.78 l
o
np
172.22 432.16 m
0 -31.11 l
o
0.75 setlinewidth
[] 0 setdash
np
166.34 365.14 m
11.75 0 l
o
np
166.34 432.16 m
11.75 0 l
o
np
160.47 379.92 m
23.50 0 l
0 21.13 l
-23.50 0 l
0 -21.13 l
o
172.22 437.08 2.70 c p1
172.22 434.21 2.70 c p1
172.22 457.12 2.70 c p1
172.22 441.10 2.70 c p1
172.22 433.50 2.70 c p1
172.22 435.16 2.70 c p1
172.22 450.34 2.70 c p1
172.22 438.72 2.70 c p1
172.22 441.23 2.70 c p1
172.22 434.36 2.70 c p1
172.22 440.42 2.70 c p1
18.00 276.94 577.28 564.94 cl
0 0 0 srgb
0.75 setlinewidth
[] 0 setdash
1 setlinecap
1 setlinejoin
10.00 setmiterlimit
np
77.04 365.14 m
0 135.00 l
o
np
77.04 365.14 m
-7.20 0 l
o
np
77.04 387.64 m
-7.20 0 l
o
np
77.04 410.14 m
-7.20 0 l
o
np
77.04 432.64 m
-7.20 0 l
o
np
77.04 455.14 m
-7.20 0 l
o
np
77.04 477.64 m
-7.20 0 l
o
np
77.04 500.14 m
-7.20 0 l
o
/Font1 findfont 12 s
59.76 365.14 (1.00) .5 90 t
59.76 410.14 (1.10) .5 90 t
59.76 455.14 (1.20) .5 90 t
59.76 500.14 (1.30) .5 90 t
np
77.04 350.38 m
190.36 0 l
0 155.52 l
-190.36 0 l
0 -155.52 l
o
77.04 350.38 267.40 505.90 cl
0.4000 0.4000 0.4000 srgb
1.50 setlinewidth
[] 0 setdash
1 setlinecap
1 setlinejoin
10.00 setmiterlimit
np
172.22 372.63 m
3.64 -6.30 l
-7.28 0 l
3.64 6.30 l
o
0 0 0 srgb
2.25 setlinewidth
[] 0 setdash
0 setlinecap
np
219.22 383.42 m
23.50 0 l
o
0.75 setlinewidth
[ 2.25 3.75] 0 setdash
1 setlinecap
np
230.97 365.14 m
0 9.50 l
o
np
230.97 419.41 m
0 -25.55 l
o
0.75 setlinewidth
[] 0 setdash
np
225.10 365.14 m
11.75 0 l
o
np
225.10 419.41 m
11.75 0 l
o
np
219.22 374.64 m
23.50 0 l
0 19.22 l
-23.50 0 l
0 -19.22 l
o
230.97 436.58 2.70 c p1
230.97 437.68 2.70 c p1
230.97 430.82 2.70 c p1
230.97 427.98 2.70 c p1
230.97 446.30 2.70 c p1
18.00 276.94 577.28 564.94 cl
0 0 0 srgb
0.75 setlinewidth
[] 0 setdash
1 setlinecap
1 setlinejoin
10.00 setmiterlimit
np
77.04 365.14 m
0 135.00 l
o
np
77.04 365.14 m
-7.20 0 l
o
np
77.04 387.64 m
-7.20 0 l
o
np
77.04 410.14 m
-7.20 0 l
o
np
77.04 432.64 m
-7.20 0 l
o
np
77.04 455.14 m
-7.20 0 l
o
np
77.04 477.64 m
-7.20 0 l
o
np
77.04 500.14 m
-7.20 0 l
o
/Font1 findfont 12 s
59.76 365.14 (1.00) .5 90 t
59.76 410.14 (1.10) .5 90 t
59.76 455.14 (1.20) .5 90 t
59.76 500.14 (1.30) .5 90 t
np
77.04 350.38 m
190.36 0 l
0 155.52 l
-190.36 0 l
0 -155.52 l
o
77.04 350.38 267.40 505.90 cl
0.4000 0.4000 0.4000 srgb
1.50 setlinewidth
[] 0 setdash
1 setlinecap
1 setlinejoin
10.00 setmiterlimit
np
230.97 372.90 m
3.64 -6.30 l
-7.27 0 l
3.63 6.30 l
o
356.68 350.38 547.04 505.90 cl
297.64 276.94 577.28 564.94 cl
/Font1 findfont 12 s
0 0 0 srgb
451.86 295.66 (1:10) .5 0 t
310.60 428.14 (1:10) .5 90 t
356.68 350.38 547.04 505.90 cl
0 0 0 srgb
0.75 setlinewidth
[] 0 setdash
1 setlinecap
1 setlinejoin
10.00 setmiterlimit
439.98 505.90 107.05 -86.40 r p1
1.50 setlinewidth
[] 0 setdash
np
443.22 491.50 m
21.60 0 l
o
np
443.22 477.10 m
21.60 0 l
o
np
443.22 462.70 m
21.60 0 l
o
1.50 setlinewidth
[ 4.50 7.50] 0 setdash
np
443.22 448.30 m
21.60 0 l
o
1.50 setlinewidth
[] 0 setdash
np
443.22 433.90 m
21.60 0 l
o
454.02 491.50 2.70 c p1
np
454.02 481.30 m
3.64 -6.29 l
-7.27 0 l
3.63 6.29 l
o
np
450.21 462.70 m
7.63 0 l
o
np
454.02 458.89 m
0 7.63 l
o
/bg { 0 0 0 srgb } def
453.52 447.80 1.00 1.00 r p2
453.52 433.40 1.00 1.00 r p2
/Font1 findfont 12 s
475.62 487.20 (10^3) 0 0 t
475.62 472.80 (10^4) 0 0 t
475.62 458.40 (10^5) 0 0 t
475.62 444.00 (MAPSO min) 0 0 t
475.62 429.60 (MAPSO a) 0 ta
-0.240 (vg) tb gr
ep
%%Trailer
%%Pages: 1
%%EOF
