%!PS-Adobe-3.0
%%DocumentNeededResources: font Helvetica
%%+ font Helvetica-Bold
%%+ font Helvetica-Oblique
%%+ font Helvetica-BoldOblique
%%+ font Symbol
%%DocumentMedia: a4 595 841 0 () ()
%%Title: R Graphics Output
%%Creator: R Software
%%Pages: (atend)
%%Orientation: Portrait
%%BoundingBox: 190 241 406 601
%%EndComments
%%BeginProlog
/bp  { gs sRGB gs } def
% begin .ps.prolog
/gs  { gsave } bind def
/gr  { grestore } bind def
/ep  { showpage gr gr } bind def
/m   { moveto } bind def
/l  { rlineto } bind def
/np  { newpath } bind def
/cp  { closepath } bind def
/f   { fill } bind def
/o   { stroke } bind def
/c   { newpath 0 360 arc } bind def
/r   { 4 2 roll moveto 1 copy 3 -1 roll exch 0 exch rlineto 0 rlineto -1 mul 0 exch rlineto closepath } bind def
/p1  { stroke } bind def
/p2  { gsave bg fill grestore newpath } bind def
/p3  { gsave bg fill grestore stroke } bind def
/p6  { gsave bg eofill grestore newpath } bind def
/p7  { gsave bg eofill grestore stroke } bind def
/t   { 5 -2 roll moveto gsave rotate
       1 index stringwidth pop
       mul neg 0 rmoveto show grestore } bind def
/ta  { 4 -2 roll moveto gsave rotate show } bind def
/tb  { 2 -1 roll 0 rmoveto show } bind def
/cl  { grestore gsave newpath 3 index 3 index moveto 1 index
       4 -1 roll lineto  exch 1 index lineto lineto
       closepath clip newpath } bind def
/rgb { setrgbcolor } bind def
/s   { scalefont setfont } bind def
% end   .ps.prolog
/sRGB { [ /CIEBasedABC
          << /DecodeLMN
               [ { dup 0.03928 le
                        {12.92321 div}
                        {0.055 add 1.055 div 2.4 exp }
                     ifelse
                 } bind dup dup
               ]
             /MatrixLMN [0.412457 0.212673 0.019334
                         0.357576 0.715152 0.119192
                         0.180437 0.072175 0.950301]
             /WhitePoint [0.9505 1.0 1.0890]
           >>
         ] setcolorspace } bind def
/srgb { setcolor } bind def
% begin encoding
/WinAnsiEncoding [
 /.notdef /.notdef /.notdef /.notdef /.notdef /.notdef /.notdef /.notdef
 /.notdef /.notdef /.notdef /.notdef /.notdef /.notdef /.notdef /.notdef
 /.notdef /.notdef /.notdef /.notdef /.notdef /.notdef /.notdef /.notdef
 /.notdef /.notdef /.notdef /.notdef /.notdef /.notdef /.notdef /.notdef
 /space /exclam /quotedbl /numbersign /dollar /percent /ampersand /quoteright
 /parenleft /parenright /asterisk /plus /comma /minus /period /slash
 /zero /one /two /three /four /five /six /seven
 /eight /nine /colon /semicolon /less /equal /greater /question
 /at /A /B /C /D /E /F /G
 /H /I /J /K /L /M /N /O
 /P /Q /R /S /T /U /V /W
 /X /Y /Z /bracketleft /backslash /bracketright /asciicircum /underscore
 /grave /a /b /c /d /e /f /g
 /h /i /j /k /l /m /n /o
 /p /q /r /s /t /u /v /w
 /x /y /z /braceleft /bar /braceright /asciitilde /.notdef
 /Euro /.notdef /quotesinglbase /florin /quotedblbase /ellipsis /dagger /daggerdbl
 /circumflex /perthousand /Scaron /guilsinglleft /OE /.notdef /Zcaron /.notdef
 /.notdef /quoteleft /quoteright /quotedblleft /quotedblright /bullet /endash /emdash
 /tilde /trademark /scaron /guilsinglright /oe /.notdef /zcaron /Ydieresis
 /space /exclamdown /cent /sterling /currency /yen /brokenbar /section
 /dieresis /copyright /ordfeminine /guillemotleft /logicalnot /hyphen /registered /macron
 /degree /plusminus /twosuperior /threesuperior /acute /mu /paragraph /periodcentered
 /cedilla /onesuperior /ordmasculine /guillemotright /onequarter /onehalf /threequarters /questiondown
 /Agrave /Aacute /Acircumflex /Atilde /Adieresis /Aring /AE /Ccedilla
 /Egrave /Eacute /Ecircumflex /Edieresis /Igrave /Iacute /Icircumflex /Idieresis
 /Eth /Ntilde /Ograve /Oacute /Ocircumflex /Otilde /Odieresis /multiply
 /Oslash /Ugrave /Uacute /Ucircumflex /Udieresis /Yacute /Thorn /germandbls
 /agrave /aacute /acircumflex /atilde /adieresis /aring /ae /ccedilla
 /egrave /eacute /ecircumflex /edieresis /igrave /iacute /icircumflex /idieresis
 /eth /ntilde /ograve /oacute /ocircumflex /otilde /odieresis /divide
 /oslash /ugrave /uacute /ucircumflex /udieresis /yacute /thorn /ydieresis
]
 def
% end encoding
%%IncludeResource: font Helvetica
/Helvetica findfont
dup length dict begin
  {1 index /FID ne {def} {pop pop} ifelse} forall
  /Encoding WinAnsiEncoding def
  currentdict
  end
/Font1 exch definefont pop
%%IncludeResource: font Helvetica-Bold
/Helvetica-Bold findfont
dup length dict begin
  {1 index /FID ne {def} {pop pop} ifelse} forall
  /Encoding WinAnsiEncoding def
  currentdict
  end
/Font2 exch definefont pop
%%IncludeResource: font Helvetica-Oblique
/Helvetica-Oblique findfont
dup length dict begin
  {1 index /FID ne {def} {pop pop} ifelse} forall
  /Encoding WinAnsiEncoding def
  currentdict
  end
/Font3 exch definefont pop
%%IncludeResource: font Helvetica-BoldOblique
/Helvetica-BoldOblique findfont
dup length dict begin
  {1 index /FID ne {def} {pop pop} ifelse} forall
  /Encoding WinAnsiEncoding def
  currentdict
  end
/Font4 exch definefont pop
%%IncludeResource: font Symbol
/Symbol findfont
dup length dict begin
  {1 index /FID ne {def} {pop pop} ifelse} forall
  currentdict
  end
/Font5 exch definefont pop
%%EndProlog
%%Page: 1 1
bp
189.64 240.94 405.64 600.94 cl
0 0 0 srgb
0.75 setlinewidth
[] 0 setdash
1 setlinecap
1 setlinejoin
10.00 setmiterlimit
np
218.15 524.94 m
0 54.66 l
o
np
218.15 524.94 m
-4.75 0 l
o
np
218.15 534.05 m
-4.75 0 l
o
np
218.15 543.16 m
-4.75 0 l
o
np
218.15 552.27 m
-4.75 0 l
o
np
218.15 561.38 m
-4.75 0 l
o
np
218.15 570.49 m
-4.75 0 l
o
np
218.15 579.60 m
-4.75 0 l
o
/Font1 findfont 8 s
206.74 524.94 (1.00) .5 90 t
206.74 552.27 (1.15) .5 90 t
206.74 579.60 (1.30) .5 90 t
np
218.15 518.96 m
168.48 0 l
0 62.98 l
-168.48 0 l
0 -62.98 l
o
189.64 480.94 405.64 600.94 cl
/Font2 findfont 10 s
0 0 0 srgb
274.05 587.85 (c) 0 ta
-0.100 (hristofides) tb gr
/Font1 findfont 8 s
283.05 492.35 (T) 0 ta
-0.960 (est cases) tb gr
197.24 525.11 (Relativ) 90 ta
-0.200 (e result) tb gr
189.64 240.94 405.64 600.94 cl
0 0 0 srgb
0.75 setlinewidth
[] 0 setdash
1 setlinecap
1 setlinejoin
10.00 setmiterlimit
np
263.39 518.96 m
78.00 0 l
o
np
263.39 518.96 m
0 -4.75 l
o
np
341.39 518.96 m
0 -4.75 l
o
/Font1 findfont 8 s
263.39 501.85 (2MPSO) .5 0 t
341.39 501.85 (2PSO) .5 0 t
218.15 518.96 386.63 581.94 cl
0 0 0 srgb
0.75 setlinewidth
[ 2.25 3.75] 0 setdash
1 setlinecap
1 setlinejoin
10.00 setmiterlimit
np
189.64 535.81 m
73.75 0 l
78.00 0 l
64.25 0 l
o
0.75 setlinewidth
[] 0 setdash
np
189.64 543.51 m
73.75 0 l
78.00 0 l
64.25 0 l
o
2.25 setlinewidth
[] 0 setdash
0 setlinecap
np
247.79 534.48 m
31.20 0 l
o
0.75 setlinewidth
[ 2.25 3.75] 0 setdash
1 setlinecap
np
263.39 524.94 m
0 5.79 l
o
np
263.39 558.15 m
0 -16.45 l
o
0.75 setlinewidth
[] 0 setdash
np
255.59 524.94 m
15.60 0 l
o
np
255.59 558.15 m
15.60 0 l
o
np
247.79 530.73 m
31.20 0 l
0 10.97 l
-31.20 0 l
0 -10.97 l
o
263.39 572.75 1.18 c p1
263.39 560.00 1.18 c p1
263.39 561.39 1.18 c p1
263.39 561.39 1.18 c p1
189.64 240.94 405.64 600.94 cl
0 0 0 srgb
0.75 setlinewidth
[] 0 setdash
1 setlinecap
1 setlinejoin
10.00 setmiterlimit
np
218.15 524.94 m
0 54.66 l
o
np
218.15 524.94 m
-4.75 0 l
o
np
218.15 534.05 m
-4.75 0 l
o
np
218.15 543.16 m
-4.75 0 l
o
np
218.15 552.27 m
-4.75 0 l
o
np
218.15 561.38 m
-4.75 0 l
o
np
218.15 570.49 m
-4.75 0 l
o
np
218.15 579.60 m
-4.75 0 l
o
/Font1 findfont 8 s
206.74 524.94 (1.00) .5 90 t
206.74 552.27 (1.15) .5 90 t
206.74 579.60 (1.30) .5 90 t
np
218.15 518.96 m
168.48 0 l
0 62.98 l
-168.48 0 l
0 -62.98 l
o
218.15 518.96 386.63 581.94 cl
0.4000 0.4000 0.4000 srgb
1.50 setlinewidth
[] 0 setdash
1 setlinecap
1 setlinejoin
10.00 setmiterlimit
np
263.39 528.71 m
2.40 -4.16 l
-4.80 0 l
2.40 4.16 l
o
0 0 0 srgb
2.25 setlinewidth
[] 0 setdash
0 setlinecap
np
325.79 545.90 m
31.20 0 l
o
0.75 setlinewidth
[ 2.25 3.75] 0 setdash
1 setlinecap
np
341.39 524.94 m
0 11.56 l
o
np
341.39 588.11 m
0 -30.90 l
o
0.75 setlinewidth
[] 0 setdash
np
333.59 524.94 m
15.60 0 l
o
np
333.59 588.11 m
15.60 0 l
o
np
325.79 536.50 m
31.20 0 l
0 20.71 l
-31.20 0 l
0 -20.71 l
o
341.39 588.87 1.18 c p1
341.39 589.03 1.18 c p1
341.39 589.03 1.18 c p1
341.39 593.92 1.18 c p1
341.39 596.33 1.18 c p1
341.39 599.50 1.18 c p1
341.39 590.02 1.18 c p1
341.39 590.02 1.18 c p1
341.39 590.14 1.18 c p1
341.39 589.09 1.18 c p1
341.39 588.71 1.18 c p1
341.39 588.71 1.18 c p1
189.64 240.94 405.64 600.94 cl
0 0 0 srgb
0.75 setlinewidth
[] 0 setdash
1 setlinecap
1 setlinejoin
10.00 setmiterlimit
np
218.15 524.94 m
0 54.66 l
o
np
218.15 524.94 m
-4.75 0 l
o
np
218.15 534.05 m
-4.75 0 l
o
np
218.15 543.16 m
-4.75 0 l
o
np
218.15 552.27 m
-4.75 0 l
o
np
218.15 561.38 m
-4.75 0 l
o
np
218.15 570.49 m
-4.75 0 l
o
np
218.15 579.60 m
-4.75 0 l
o
/Font1 findfont 8 s
206.74 524.94 (1.00) .5 90 t
206.74 552.27 (1.15) .5 90 t
206.74 579.60 (1.30) .5 90 t
np
218.15 518.96 m
168.48 0 l
0 62.98 l
-168.48 0 l
0 -62.98 l
o
218.15 518.96 386.63 581.94 cl
0.4000 0.4000 0.4000 srgb
1.50 setlinewidth
[] 0 setdash
1 setlinecap
1 setlinejoin
10.00 setmiterlimit
np
341.39 529.68 m
2.40 -4.16 l
-4.80 0 l
2.40 4.16 l
o
218.15 398.96 386.63 461.94 cl
189.64 240.94 405.64 600.94 cl
0 0 0 srgb
0.75 setlinewidth
[] 0 setdash
1 setlinecap
1 setlinejoin
10.00 setmiterlimit
np
218.15 404.94 m
0 54.66 l
o
np
218.15 404.94 m
-4.75 0 l
o
np
218.15 414.05 m
-4.75 0 l
o
np
218.15 423.16 m
-4.75 0 l
o
np
218.15 432.27 m
-4.75 0 l
o
np
218.15 441.38 m
-4.75 0 l
o
np
218.15 450.49 m
-4.75 0 l
o
np
218.15 459.60 m
-4.75 0 l
o
/Font1 findfont 8 s
206.74 404.94 (1.00) .5 90 t
206.74 432.27 (1.15) .5 90 t
206.74 459.60 (1.30) .5 90 t
np
218.15 398.96 m
168.48 0 l
0 62.98 l
-168.48 0 l
0 -62.98 l
o
189.64 360.94 405.64 480.94 cl
/Font2 findfont 10 s
0 0 0 srgb
302.39 467.85 (fisher) .5 0 t
/Font1 findfont 8 s
283.05 372.35 (T) 0 ta
-0.960 (est cases) tb gr
197.24 405.11 (Relativ) 90 ta
-0.200 (e result) tb gr
189.64 240.94 405.64 600.94 cl
0 0 0 srgb
0.75 setlinewidth
[] 0 setdash
1 setlinecap
1 setlinejoin
10.00 setmiterlimit
np
263.39 398.96 m
78.00 0 l
o
np
263.39 398.96 m
0 -4.75 l
o
np
341.39 398.96 m
0 -4.75 l
o
/Font1 findfont 8 s
263.39 381.85 (2MPSO) .5 0 t
341.39 381.85 (2PSO) .5 0 t
218.15 398.96 386.63 461.94 cl
0 0 0 srgb
0.75 setlinewidth
[ 2.25 3.75] 0 setdash
1 setlinecap
1 setlinejoin
10.00 setmiterlimit
np
189.64 424.28 m
73.75 0 l
78.00 0 l
64.25 0 l
o
0.75 setlinewidth
[] 0 setdash
np
189.64 434.87 m
73.75 0 l
78.00 0 l
64.25 0 l
o
2.25 setlinewidth
[] 0 setdash
0 setlinecap
np
247.79 410.44 m
31.20 0 l
o
0.75 setlinewidth
[ 2.25 3.75] 0 setdash
1 setlinecap
np
263.39 404.94 m
0 2.92 l
o
np
263.39 426.73 m
0 -10.97 l
o
0.75 setlinewidth
[] 0 setdash
np
255.59 404.94 m
15.60 0 l
o
np
255.59 426.73 m
15.60 0 l
o
np
247.79 407.86 m
31.20 0 l
0 7.90 l
-31.20 0 l
0 -7.90 l
o
263.39 449.18 1.18 c p1
263.39 433.17 1.18 c p1
263.39 431.90 1.18 c p1
263.39 434.49 1.18 c p1
263.39 438.58 1.18 c p1
189.64 240.94 405.64 600.94 cl
0 0 0 srgb
0.75 setlinewidth
[] 0 setdash
1 setlinecap
1 setlinejoin
10.00 setmiterlimit
np
218.15 404.94 m
0 54.66 l
o
np
218.15 404.94 m
-4.75 0 l
o
np
218.15 414.05 m
-4.75 0 l
o
np
218.15 423.16 m
-4.75 0 l
o
np
218.15 432.27 m
-4.75 0 l
o
np
218.15 441.38 m
-4.75 0 l
o
np
218.15 450.49 m
-4.75 0 l
o
np
218.15 459.60 m
-4.75 0 l
o
/Font1 findfont 8 s
206.74 404.94 (1.00) .5 90 t
206.74 432.27 (1.15) .5 90 t
206.74 459.60 (1.30) .5 90 t
np
218.15 398.96 m
168.48 0 l
0 62.98 l
-168.48 0 l
0 -62.98 l
o
218.15 398.96 386.63 461.94 cl
0.4000 0.4000 0.4000 srgb
1.50 setlinewidth
[] 0 setdash
1 setlinecap
1 setlinejoin
10.00 setmiterlimit
np
263.39 407.71 m
2.40 -4.16 l
-4.80 0 l
2.40 4.16 l
o
0 0 0 srgb
2.25 setlinewidth
[] 0 setdash
0 setlinecap
np
325.79 428.39 m
31.20 0 l
o
0.75 setlinewidth
[ 2.25 3.75] 0 setdash
1 setlinecap
np
341.39 412.48 m
0 9.61 l
o
np
341.39 478.29 m
0 -33.28 l
o
0.75 setlinewidth
[] 0 setdash
np
333.59 412.48 m
15.60 0 l
o
np
333.59 478.29 m
15.60 0 l
o
np
325.79 422.09 m
31.20 0 l
0 22.92 l
-31.20 0 l
0 -22.92 l
o
341.39 487.71 1.18 c p1
341.39 496.77 1.18 c p1
341.39 518.01 1.18 c p1
189.64 240.94 405.64 600.94 cl
0 0 0 srgb
0.75 setlinewidth
[] 0 setdash
1 setlinecap
1 setlinejoin
10.00 setmiterlimit
np
218.15 404.94 m
0 54.66 l
o
np
218.15 404.94 m
-4.75 0 l
o
np
218.15 414.05 m
-4.75 0 l
o
np
218.15 423.16 m
-4.75 0 l
o
np
218.15 432.27 m
-4.75 0 l
o
np
218.15 441.38 m
-4.75 0 l
o
np
218.15 450.49 m
-4.75 0 l
o
np
218.15 459.60 m
-4.75 0 l
o
/Font1 findfont 8 s
206.74 404.94 (1.00) .5 90 t
206.74 432.27 (1.15) .5 90 t
206.74 459.60 (1.30) .5 90 t
np
218.15 398.96 m
168.48 0 l
0 62.98 l
-168.48 0 l
0 -62.98 l
o
218.15 398.96 386.63 461.94 cl
0.4000 0.4000 0.4000 srgb
1.50 setlinewidth
[] 0 setdash
1 setlinecap
1 setlinejoin
10.00 setmiterlimit
np
341.39 418.29 m
2.40 -4.16 l
-4.80 0 l
2.40 4.16 l
o
218.15 278.96 386.63 341.94 cl
189.64 240.94 405.64 600.94 cl
0 0 0 srgb
0.75 setlinewidth
[] 0 setdash
1 setlinecap
1 setlinejoin
10.00 setmiterlimit
np
218.15 284.94 m
0 54.66 l
o
np
218.15 284.94 m
-4.75 0 l
o
np
218.15 294.05 m
-4.75 0 l
o
np
218.15 303.16 m
-4.75 0 l
o
np
218.15 312.27 m
-4.75 0 l
o
np
218.15 321.38 m
-4.75 0 l
o
np
218.15 330.49 m
-4.75 0 l
o
np
218.15 339.60 m
-4.75 0 l
o
/Font1 findfont 8 s
206.74 284.94 (1.00) .5 90 t
206.74 312.27 (1.15) .5 90 t
206.74 339.60 (1.30) .5 90 t
np
218.15 278.96 m
168.48 0 l
0 62.98 l
-168.48 0 l
0 -62.98 l
o
189.64 240.94 405.64 360.94 cl
/Font2 findfont 10 s
0 0 0 srgb
285.99 347.85 (taillar) 0 ta
-0.200 (d) tb gr
/Font1 findfont 8 s
283.05 252.35 (T) 0 ta
-0.960 (est cases) tb gr
197.24 285.11 (Relativ) 90 ta
-0.200 (e result) tb gr
189.64 240.94 405.64 600.94 cl
0 0 0 srgb
0.75 setlinewidth
[] 0 setdash
1 setlinecap
1 setlinejoin
10.00 setmiterlimit
np
263.39 278.96 m
78.00 0 l
o
np
263.39 278.96 m
0 -4.75 l
o
np
341.39 278.96 m
0 -4.75 l
o
/Font1 findfont 8 s
263.39 261.85 (2MPSO) .5 0 t
341.39 261.85 (2PSO) .5 0 t
218.15 278.96 386.63 341.94 cl
0 0 0 srgb
0.75 setlinewidth
[ 2.25 3.75] 0 setdash
1 setlinecap
1 setlinejoin
10.00 setmiterlimit
np
189.64 279.33 m
73.75 0 l
78.00 0 l
64.25 0 l
o
0.75 setlinewidth
[] 0 setdash
np
189.64 285.36 m
73.75 0 l
78.00 0 l
64.25 0 l
o
2.25 setlinewidth
[] 0 setdash
0 setlinecap
np
247.79 293.55 m
31.20 0 l
o
0.75 setlinewidth
[ 2.25 3.75] 0 setdash
1 setlinecap
np
263.39 284.94 m
0 4.58 l
o
np
263.39 309.63 m
0 -11.82 l
o
0.75 setlinewidth
[] 0 setdash
np
255.59 284.94 m
15.60 0 l
o
np
255.59 309.63 m
15.60 0 l
o
np
247.79 289.52 m
31.20 0 l
0 8.29 l
-31.20 0 l
0 -8.29 l
o
263.39 320.19 1.18 c p1
263.39 320.19 1.18 c p1
263.39 322.61 1.18 c p1
263.39 328.12 1.18 c p1
263.39 311.43 1.18 c p1
263.39 310.75 1.18 c p1
263.39 327.28 1.18 c p1
263.39 311.64 1.18 c p1
263.39 328.06 1.18 c p1
263.39 334.90 1.18 c p1
263.39 330.15 1.18 c p1
263.39 315.34 1.18 c p1
189.64 240.94 405.64 600.94 cl
0 0 0 srgb
0.75 setlinewidth
[] 0 setdash
1 setlinecap
1 setlinejoin
10.00 setmiterlimit
np
218.15 284.94 m
0 54.66 l
o
np
218.15 284.94 m
-4.75 0 l
o
np
218.15 294.05 m
-4.75 0 l
o
np
218.15 303.16 m
-4.75 0 l
o
np
218.15 312.27 m
-4.75 0 l
o
np
218.15 321.38 m
-4.75 0 l
o
np
218.15 330.49 m
-4.75 0 l
o
np
218.15 339.60 m
-4.75 0 l
o
/Font1 findfont 8 s
206.74 284.94 (1.00) .5 90 t
206.74 312.27 (1.15) .5 90 t
206.74 339.60 (1.30) .5 90 t
np
218.15 278.96 m
168.48 0 l
0 62.98 l
-168.48 0 l
0 -62.98 l
o
218.15 278.96 386.63 341.94 cl
0.4000 0.4000 0.4000 srgb
1.50 setlinewidth
[] 0 setdash
1 setlinecap
1 setlinejoin
10.00 setmiterlimit
np
263.39 287.71 m
2.40 -4.16 l
-4.80 0 l
2.40 4.16 l
o
0 0 0 srgb
2.25 setlinewidth
[] 0 setdash
0 setlinecap
np
325.79 308.24 m
31.20 0 l
o
0.75 setlinewidth
[ 2.25 3.75] 0 setdash
1 setlinecap
np
341.39 285.25 m
0 14.40 l
o
np
341.39 354.50 m
0 -32.85 l
o
0.75 setlinewidth
[] 0 setdash
np
333.59 285.25 m
15.60 0 l
o
np
333.59 354.50 m
15.60 0 l
o
np
325.79 299.65 m
31.20 0 l
0 22.00 l
-31.20 0 l
0 -22.00 l
o
341.39 354.79 1.18 c p1
341.39 355.38 1.18 c p1
341.39 356.64 1.18 c p1
341.39 357.66 1.18 c p1
341.39 358.79 1.18 c p1
341.39 361.94 1.18 c p1
341.39 362.51 1.18 c p1
341.39 362.53 1.18 c p1
341.39 364.61 1.18 c p1
341.39 367.17 1.18 c p1
341.39 370.01 1.18 c p1
341.39 372.10 1.18 c p1
341.39 373.05 1.18 c p1
341.39 361.77 1.18 c p1
341.39 364.33 1.18 c p1
341.39 354.69 1.18 c p1
341.39 359.44 1.18 c p1
341.39 372.83 1.18 c p1
341.39 360.71 1.18 c p1
341.39 360.71 1.18 c p1
341.39 370.47 1.18 c p1
341.39 373.57 1.18 c p1
341.39 380.11 1.18 c p1
341.39 355.06 1.18 c p1
341.39 355.62 1.18 c p1
341.39 355.62 1.18 c p1
341.39 355.96 1.18 c p1
341.39 358.20 1.18 c p1
341.39 363.24 1.18 c p1
341.39 365.45 1.18 c p1
341.39 382.15 1.18 c p1
341.39 357.42 1.18 c p1
341.39 356.46 1.18 c p1
341.39 356.50 1.18 c p1
341.39 358.64 1.18 c p1
341.39 360.93 1.18 c p1
341.39 365.03 1.18 c p1
341.39 365.03 1.18 c p1
341.39 365.28 1.18 c p1
341.39 367.41 1.18 c p1
341.39 369.16 1.18 c p1
189.64 240.94 405.64 600.94 cl
0 0 0 srgb
0.75 setlinewidth
[] 0 setdash
1 setlinecap
1 setlinejoin
10.00 setmiterlimit
np
218.15 284.94 m
0 54.66 l
o
np
218.15 284.94 m
-4.75 0 l
o
np
218.15 294.05 m
-4.75 0 l
o
np
218.15 303.16 m
-4.75 0 l
o
np
218.15 312.27 m
-4.75 0 l
o
np
218.15 321.38 m
-4.75 0 l
o
np
218.15 330.49 m
-4.75 0 l
o
np
218.15 339.60 m
-4.75 0 l
o
/Font1 findfont 8 s
206.74 284.94 (1.00) .5 90 t
206.74 312.27 (1.15) .5 90 t
206.74 339.60 (1.30) .5 90 t
np
218.15 278.96 m
168.48 0 l
0 62.98 l
-168.48 0 l
0 -62.98 l
o
218.15 278.96 386.63 341.94 cl
0.4000 0.4000 0.4000 srgb
1.50 setlinewidth
[] 0 setdash
1 setlinecap
1 setlinejoin
10.00 setmiterlimit
np
341.39 291.81 m
2.40 -4.16 l
-4.80 0 l
2.40 4.16 l
o
ep
%%Trailer
%%Pages: 1
%%EOF
