%!PS-Adobe-3.0 EPSF-3.0
%%DocumentNeededResources: font Helvetica
%%+ font Helvetica-Bold
%%+ font Helvetica-Oblique
%%+ font Helvetica-BoldOblique
%%+ font Symbol
%%Title: R Graphics Output
%%Creator: R Software
%%Pages: (atend)
%%BoundingBox: 0 0 618 403
%%EndComments
%%BeginProlog
/bp  { gs sRGB gs } def
% begin .ps.prolog
/gs  { gsave } bind def
/gr  { grestore } bind def
/ep  { showpage gr gr } bind def
/m   { moveto } bind def
/l  { rlineto } bind def
/np  { newpath } bind def
/cp  { closepath } bind def
/f   { fill } bind def
/o   { stroke } bind def
/c   { newpath 0 360 arc } bind def
/r   { 4 2 roll moveto 1 copy 3 -1 roll exch 0 exch rlineto 0 rlineto -1 mul 0 exch rlineto closepath } bind def
/p1  { stroke } bind def
/p2  { gsave bg fill grestore newpath } bind def
/p3  { gsave bg fill grestore stroke } bind def
/p6  { gsave bg eofill grestore newpath } bind def
/p7  { gsave bg eofill grestore stroke } bind def
/t   { 5 -2 roll moveto gsave rotate
       1 index stringwidth pop
       mul neg 0 rmoveto show grestore } bind def
/ta  { 4 -2 roll moveto gsave rotate show } bind def
/tb  { 2 -1 roll 0 rmoveto show } bind def
/cl  { grestore gsave newpath 3 index 3 index moveto 1 index
       4 -1 roll lineto  exch 1 index lineto lineto
       closepath clip newpath } bind def
/rgb { setrgbcolor } bind def
/s   { scalefont setfont } bind def
% end   .ps.prolog
/sRGB { [ /CIEBasedABC
          << /DecodeLMN
               [ { dup 0.03928 le
                        {12.92321 div}
                        {0.055 add 1.055 div 2.4 exp }
                     ifelse
                 } bind dup dup
               ]
             /MatrixLMN [0.412457 0.212673 0.019334
                         0.357576 0.715152 0.119192
                         0.180437 0.072175 0.950301]
             /WhitePoint [0.9505 1.0 1.0890]
           >>
         ] setcolorspace } bind def
/srgb { setcolor } bind def
% begin encoding
/WinAnsiEncoding [
 /.notdef /.notdef /.notdef /.notdef /.notdef /.notdef /.notdef /.notdef
 /.notdef /.notdef /.notdef /.notdef /.notdef /.notdef /.notdef /.notdef
 /.notdef /.notdef /.notdef /.notdef /.notdef /.notdef /.notdef /.notdef
 /.notdef /.notdef /.notdef /.notdef /.notdef /.notdef /.notdef /.notdef
 /space /exclam /quotedbl /numbersign /dollar /percent /ampersand /quoteright
 /parenleft /parenright /asterisk /plus /comma /minus /period /slash
 /zero /one /two /three /four /five /six /seven
 /eight /nine /colon /semicolon /less /equal /greater /question
 /at /A /B /C /D /E /F /G
 /H /I /J /K /L /M /N /O
 /P /Q /R /S /T /U /V /W
 /X /Y /Z /bracketleft /backslash /bracketright /asciicircum /underscore
 /grave /a /b /c /d /e /f /g
 /h /i /j /k /l /m /n /o
 /p /q /r /s /t /u /v /w
 /x /y /z /braceleft /bar /braceright /asciitilde /.notdef
 /Euro /.notdef /quotesinglbase /florin /quotedblbase /ellipsis /dagger /daggerdbl
 /circumflex /perthousand /Scaron /guilsinglleft /OE /.notdef /Zcaron /.notdef
 /.notdef /quoteleft /quoteright /quotedblleft /quotedblright /bullet /endash /emdash
 /tilde /trademark /scaron /guilsinglright /oe /.notdef /zcaron /Ydieresis
 /space /exclamdown /cent /sterling /currency /yen /brokenbar /section
 /dieresis /copyright /ordfeminine /guillemotleft /logicalnot /hyphen /registered /macron
 /degree /plusminus /twosuperior /threesuperior /acute /mu /paragraph /periodcentered
 /cedilla /onesuperior /ordmasculine /guillemotright /onequarter /onehalf /threequarters /questiondown
 /Agrave /Aacute /Acircumflex /Atilde /Adieresis /Aring /AE /Ccedilla
 /Egrave /Eacute /Ecircumflex /Edieresis /Igrave /Iacute /Icircumflex /Idieresis
 /Eth /Ntilde /Ograve /Oacute /Ocircumflex /Otilde /Odieresis /multiply
 /Oslash /Ugrave /Uacute /Ucircumflex /Udieresis /Yacute /Thorn /germandbls
 /agrave /aacute /acircumflex /atilde /adieresis /aring /ae /ccedilla
 /egrave /eacute /ecircumflex /edieresis /igrave /iacute /icircumflex /idieresis
 /eth /ntilde /ograve /oacute /ocircumflex /otilde /odieresis /divide
 /oslash /ugrave /uacute /ucircumflex /udieresis /yacute /thorn /ydieresis
]
 def
% end encoding
%%IncludeResource: font Helvetica
/Helvetica findfont
dup length dict begin
  {1 index /FID ne {def} {pop pop} ifelse} forall
  /Encoding WinAnsiEncoding def
  currentdict
  end
/Font1 exch definefont pop
%%IncludeResource: font Helvetica-Bold
/Helvetica-Bold findfont
dup length dict begin
  {1 index /FID ne {def} {pop pop} ifelse} forall
  /Encoding WinAnsiEncoding def
  currentdict
  end
/Font2 exch definefont pop
%%IncludeResource: font Helvetica-Oblique
/Helvetica-Oblique findfont
dup length dict begin
  {1 index /FID ne {def} {pop pop} ifelse} forall
  /Encoding WinAnsiEncoding def
  currentdict
  end
/Font3 exch definefont pop
%%IncludeResource: font Helvetica-BoldOblique
/Helvetica-BoldOblique findfont
dup length dict begin
  {1 index /FID ne {def} {pop pop} ifelse} forall
  /Encoding WinAnsiEncoding def
  currentdict
  end
/Font4 exch definefont pop
%%IncludeResource: font Symbol
/Symbol findfont
dup length dict begin
  {1 index /FID ne {def} {pop pop} ifelse} forall
  currentdict
  end
/Font5 exch definefont pop
%%EndProlog
%%Page: 1 1
bp
/bg { 1 1 1 srgb } def
0.00 0.00 618.00 402.75 r p2
28.80 28.80 294.60 373.95 cl
0.00 0.00 618.00 402.75 cl
0 0 0 srgb
0.75 setlinewidth
[] 0 setdash
1 setlinecap
1 setlinejoin
10.00 setmiterlimit
np
38.64 28.80 m
246.12 0 l
o
np
38.64 28.80 m
0 -7.20 l
o
np
100.17 28.80 m
0 -7.20 l
o
np
161.70 28.80 m
0 -7.20 l
o
np
223.23 28.80 m
0 -7.20 l
o
np
284.76 28.80 m
0 -7.20 l
o
/Font1 findfont 16 s
38.64 2.88 (1) .5 0 t
100.17 2.88 (2) .5 0 t
161.70 2.88 (3) .5 0 t
223.23 2.88 (4) .5 0 t
284.76 2.88 (5) .5 0 t
np
28.80 61.56 m
0 299.61 l
o
np
28.80 61.56 m
-7.20 0 l
o
np
28.80 111.49 m
-7.20 0 l
o
np
28.80 161.43 m
-7.20 0 l
o
np
28.80 211.36 m
-7.20 0 l
o
np
28.80 261.30 m
-7.20 0 l
o
np
28.80 311.23 m
-7.20 0 l
o
np
28.80 361.17 m
-7.20 0 l
o
11.52 61.56 (1.00) .5 90 t
11.52 111.49 (1.05) .5 90 t
11.52 161.43 (1.10) .5 90 t
11.52 211.36 (1.15) .5 90 t
11.52 261.30 (1.20) .5 90 t
11.52 311.23 (1.25) .5 90 t
11.52 361.17 (1.30) .5 90 t
np
28.80 28.80 m
265.80 0 l
0 345.15 l
-265.80 0 l
0 -345.15 l
o
0.00 0.00 309.00 402.75 cl
/Font2 findfont 19 s
0 0 0 srgb
161.70 381.53 (all) .5 0 t
28.80 28.80 294.60 373.95 cl
0 0 0 srgb
0.75 setlinewidth
[ 2.25 3.75] 0 setdash
1 setlinecap
1 setlinejoin
10.00 setmiterlimit
np
0.00 96.21 m
38.64 0 l
61.53 0 l
61.53 0 l
61.53 0 l
61.53 0 l
61.52 0 l
o
0.75 setlinewidth
[] 0 setdash
np
0.00 135.65 m
38.64 0 l
61.53 0 l
61.53 0 l
61.53 0 l
61.53 0 l
61.52 0 l
o
0.4000 0.2000 0.2000 srgb
38.64 229.39 2.70 c p1
1.50 setlinewidth
[] 0 setdash
np
38.64 162.26 m
0 134.27 l
o
np
36.65 162.26 m
3.99 0 l
o
np
36.65 296.53 m
3.99 0 l
o
38.64 106.10 2.70 c p1
0.3608 0.4000 0.2000 srgb
0.75 setlinewidth
[] 0 setdash
np
100.17 143.55 m
3.64 -6.30 l
-7.27 0 l
3.63 6.30 l
o
1.50 setlinewidth
[] 0 setdash
np
100.17 94.93 m
0 88.85 l
o
np
98.18 94.93 m
3.99 0 l
o
np
98.18 183.78 m
3.99 0 l
o
np
100.17 85.21 m
3.64 -6.30 l
-7.27 0 l
3.63 6.30 l
o
0.2000 0.4000 0.2784 srgb
0.75 setlinewidth
[] 0 setdash
np
157.88 174.70 m
7.64 0 l
o
np
161.70 170.88 m
0 7.64 l
o
1.50 setlinewidth
[] 0 setdash
np
161.70 107.61 m
0 134.18 l
o
np
159.71 107.61 m
3.98 0 l
o
np
159.71 241.79 m
3.98 0 l
o
np
157.88 95.98 m
7.64 0 l
o
np
161.70 92.16 m
0 7.64 l
o
0.2000 0.2784 0.4000 srgb
0.75 setlinewidth
[] 0 setdash
np
220.53 164.18 m
5.40 5.40 l
o
np
220.53 169.58 m
5.40 -5.40 l
o
1.50 setlinewidth
[] 0 setdash
np
223.23 107.84 m
0 118.09 l
o
np
221.23 107.84 m
3.99 0 l
o
np
221.23 225.93 m
3.99 0 l
o
np
220.53 98.13 m
5.40 5.40 l
o
np
220.53 103.53 m
5.40 -5.40 l
o
0.3608 0.2000 0.4000 srgb
0.75 setlinewidth
[] 0 setdash
np
280.94 133.73 m
3.82 3.82 l
3.81 -3.82 l
-3.81 -3.82 l
-3.82 3.82 l
o
1.50 setlinewidth
[] 0 setdash
np
284.76 83.64 m
0 100.19 l
o
np
282.76 83.64 m
3.99 0 l
o
np
282.76 183.83 m
3.99 0 l
o
np
280.94 74.45 m
3.82 3.82 l
3.81 -3.82 l
-3.81 -3.82 l
-3.82 3.82 l
o
337.80 28.80 603.60 373.95 cl
309.00 0.00 618.00 402.75 cl
/Font1 findfont 16 s
0 0 0 srgb
291.72 201.38 (1:10) .5 90 t
337.80 28.80 603.60 373.95 cl
/bg { 1 1 1 srgb } def
0 0 0 srgb
0.75 setlinewidth
[] 0 setdash
1 setlinecap
1 setlinejoin
10.00 setmiterlimit
372.81 373.95 230.79 -115.20 r p3
0.4000 0.2000 0.2000 srgb
1.50 setlinewidth
[] 0 setdash
np
376.05 359.55 m
21.60 0 l
o
0.3608 0.4000 0.2000 srgb
np
376.05 345.15 m
21.60 0 l
o
0.2000 0.4000 0.2784 srgb
np
376.05 330.75 m
21.60 0 l
o
0.2000 0.2784 0.4000 srgb
np
376.05 316.35 m
21.60 0 l
o
0.3608 0.2000 0.4000 srgb
np
376.05 301.95 m
21.60 0 l
o
0 0 0 srgb
np
376.05 287.55 m
21.60 0 l
o
np
376.05 273.15 m
21.60 0 l
o
0.4000 0.2000 0.2000 srgb
386.85 359.55 2.70 c p1
0.3608 0.4000 0.2000 srgb
np
386.85 349.35 m
3.64 -6.30 l
-7.28 0 l
3.64 6.30 l
o
0.2000 0.4000 0.2784 srgb
np
383.03 330.75 m
7.64 0 l
o
np
386.85 326.93 m
0 7.64 l
o
0.2000 0.2784 0.4000 srgb
np
384.15 313.65 m
5.40 5.40 l
o
np
384.15 319.05 m
5.40 -5.40 l
o
0.3608 0.2000 0.4000 srgb
np
383.03 301.95 m
3.82 3.82 l
3.82 -3.82 l
-3.82 -3.82 l
-3.82 3.82 l
o
0 0 0 srgb
np
386.85 283.35 m
3.64 6.30 l
-7.28 0 l
3.64 -6.30 l
o
384.15 270.45 5.40 5.40 r p1
np
384.15 270.45 m
5.40 5.40 l
o
np
384.15 275.85 m
5.40 -5.40 l
o
/Font1 findfont 16 s
408.45 353.81 (2PSO 1/40/500/500) 0 0 t
408.45 339.41 (2PSOv2 2OPT 1/40/250/800) 0 0 t
408.45 325.01 (2PSOv2x2 2OPT 1/40/500/1) 0 0 t
408.45 310.61 (2PSOv2x3 2OPT 1/40/500/1) 0 0 t
408.45 296.21 (2PSOv2x3+4 2OPT 1/100/1000/500) 0 0 t
408.45 281.81 (MAPSO min) 0 0 t
408.45 267.41 (MAPSO a) 0 ta
-0.320 (vg) tb gr
ep
%%Trailer
%%Pages: 1
%%EOF
