%!PS-Adobe-3.0 EPSF-3.0
%%DocumentNeededResources: font Helvetica
%%+ font Helvetica-Bold
%%+ font Helvetica-Oblique
%%+ font Helvetica-BoldOblique
%%+ font Symbol
%%Title: R Graphics Output
%%Creator: R Software
%%Pages: (atend)
%%BoundingBox: 0 0 638 415
%%EndComments
%%BeginProlog
/bp  { gs sRGB gs } def
% begin .ps.prolog
/gs  { gsave } bind def
/gr  { grestore } bind def
/ep  { showpage gr gr } bind def
/m   { moveto } bind def
/l  { rlineto } bind def
/np  { newpath } bind def
/cp  { closepath } bind def
/f   { fill } bind def
/o   { stroke } bind def
/c   { newpath 0 360 arc } bind def
/r   { 4 2 roll moveto 1 copy 3 -1 roll exch 0 exch rlineto 0 rlineto -1 mul 0 exch rlineto closepath } bind def
/p1  { stroke } bind def
/p2  { gsave bg fill grestore newpath } bind def
/p3  { gsave bg fill grestore stroke } bind def
/p6  { gsave bg eofill grestore newpath } bind def
/p7  { gsave bg eofill grestore stroke } bind def
/t   { 5 -2 roll moveto gsave rotate
       1 index stringwidth pop
       mul neg 0 rmoveto show grestore } bind def
/ta  { 4 -2 roll moveto gsave rotate show } bind def
/tb  { 2 -1 roll 0 rmoveto show } bind def
/cl  { grestore gsave newpath 3 index 3 index moveto 1 index
       4 -1 roll lineto  exch 1 index lineto lineto
       closepath clip newpath } bind def
/rgb { setrgbcolor } bind def
/s   { scalefont setfont } bind def
% end   .ps.prolog
/sRGB { [ /CIEBasedABC
          << /DecodeLMN
               [ { dup 0.03928 le
                        {12.92321 div}
                        {0.055 add 1.055 div 2.4 exp }
                     ifelse
                 } bind dup dup
               ]
             /MatrixLMN [0.412457 0.212673 0.019334
                         0.357576 0.715152 0.119192
                         0.180437 0.072175 0.950301]
             /WhitePoint [0.9505 1.0 1.0890]
           >>
         ] setcolorspace } bind def
/srgb { setcolor } bind def
% begin encoding
/WinAnsiEncoding [
 /.notdef /.notdef /.notdef /.notdef /.notdef /.notdef /.notdef /.notdef
 /.notdef /.notdef /.notdef /.notdef /.notdef /.notdef /.notdef /.notdef
 /.notdef /.notdef /.notdef /.notdef /.notdef /.notdef /.notdef /.notdef
 /.notdef /.notdef /.notdef /.notdef /.notdef /.notdef /.notdef /.notdef
 /space /exclam /quotedbl /numbersign /dollar /percent /ampersand /quoteright
 /parenleft /parenright /asterisk /plus /comma /minus /period /slash
 /zero /one /two /three /four /five /six /seven
 /eight /nine /colon /semicolon /less /equal /greater /question
 /at /A /B /C /D /E /F /G
 /H /I /J /K /L /M /N /O
 /P /Q /R /S /T /U /V /W
 /X /Y /Z /bracketleft /backslash /bracketright /asciicircum /underscore
 /grave /a /b /c /d /e /f /g
 /h /i /j /k /l /m /n /o
 /p /q /r /s /t /u /v /w
 /x /y /z /braceleft /bar /braceright /asciitilde /.notdef
 /Euro /.notdef /quotesinglbase /florin /quotedblbase /ellipsis /dagger /daggerdbl
 /circumflex /perthousand /Scaron /guilsinglleft /OE /.notdef /Zcaron /.notdef
 /.notdef /quoteleft /quoteright /quotedblleft /quotedblright /bullet /endash /emdash
 /tilde /trademark /scaron /guilsinglright /oe /.notdef /zcaron /Ydieresis
 /space /exclamdown /cent /sterling /currency /yen /brokenbar /section
 /dieresis /copyright /ordfeminine /guillemotleft /logicalnot /hyphen /registered /macron
 /degree /plusminus /twosuperior /threesuperior /acute /mu /paragraph /periodcentered
 /cedilla /onesuperior /ordmasculine /guillemotright /onequarter /onehalf /threequarters /questiondown
 /Agrave /Aacute /Acircumflex /Atilde /Adieresis /Aring /AE /Ccedilla
 /Egrave /Eacute /Ecircumflex /Edieresis /Igrave /Iacute /Icircumflex /Idieresis
 /Eth /Ntilde /Ograve /Oacute /Ocircumflex /Otilde /Odieresis /multiply
 /Oslash /Ugrave /Uacute /Ucircumflex /Udieresis /Yacute /Thorn /germandbls
 /agrave /aacute /acircumflex /atilde /adieresis /aring /ae /ccedilla
 /egrave /eacute /ecircumflex /edieresis /igrave /iacute /icircumflex /idieresis
 /eth /ntilde /ograve /oacute /ocircumflex /otilde /odieresis /divide
 /oslash /ugrave /uacute /ucircumflex /udieresis /yacute /thorn /ydieresis
]
 def
% end encoding
%%IncludeResource: font Helvetica
/Helvetica findfont
dup length dict begin
  {1 index /FID ne {def} {pop pop} ifelse} forall
  /Encoding WinAnsiEncoding def
  currentdict
  end
/Font1 exch definefont pop
%%IncludeResource: font Helvetica-Bold
/Helvetica-Bold findfont
dup length dict begin
  {1 index /FID ne {def} {pop pop} ifelse} forall
  /Encoding WinAnsiEncoding def
  currentdict
  end
/Font2 exch definefont pop
%%IncludeResource: font Helvetica-Oblique
/Helvetica-Oblique findfont
dup length dict begin
  {1 index /FID ne {def} {pop pop} ifelse} forall
  /Encoding WinAnsiEncoding def
  currentdict
  end
/Font3 exch definefont pop
%%IncludeResource: font Helvetica-BoldOblique
/Helvetica-BoldOblique findfont
dup length dict begin
  {1 index /FID ne {def} {pop pop} ifelse} forall
  /Encoding WinAnsiEncoding def
  currentdict
  end
/Font4 exch definefont pop
%%IncludeResource: font Symbol
/Symbol findfont
dup length dict begin
  {1 index /FID ne {def} {pop pop} ifelse} forall
  currentdict
  end
/Font5 exch definefont pop
%%EndProlog
%%Page: 1 1
bp
/bg { 1 1 1 srgb } def
0.00 0.00 637.50 414.75 r p2
28.80 28.80 304.35 385.95 cl
0.00 0.00 637.50 414.75 cl
0 0 0 srgb
0.75 setlinewidth
[] 0 setdash
1 setlinecap
1 setlinejoin
10.00 setmiterlimit
np
39.01 28.80 m
255.13 0 l
o
np
39.01 28.80 m
0 -7.20 l
o
np
81.53 28.80 m
0 -7.20 l
o
np
124.05 28.80 m
0 -7.20 l
o
np
166.58 28.80 m
0 -7.20 l
o
np
209.10 28.80 m
0 -7.20 l
o
np
251.62 28.80 m
0 -7.20 l
o
np
294.14 28.80 m
0 -7.20 l
o
/Font1 findfont 16 s
39.01 2.88 (1.0) .5 0 t
81.53 2.88 (1.5) .5 0 t
124.05 2.88 (2.0) .5 0 t
166.58 2.88 (2.5) .5 0 t
209.10 2.88 (3.0) .5 0 t
251.62 2.88 (3.5) .5 0 t
294.14 2.88 (4.0) .5 0 t
np
28.80 62.70 m
0 310.02 l
o
np
28.80 62.70 m
-7.20 0 l
o
np
28.80 114.37 m
-7.20 0 l
o
np
28.80 166.04 m
-7.20 0 l
o
np
28.80 217.71 m
-7.20 0 l
o
np
28.80 269.38 m
-7.20 0 l
o
np
28.80 321.05 m
-7.20 0 l
o
np
28.80 372.72 m
-7.20 0 l
o
11.52 62.70 (1.00) .5 90 t
11.52 114.37 (1.05) .5 90 t
11.52 166.04 (1.10) .5 90 t
11.52 217.71 (1.15) .5 90 t
11.52 269.38 (1.20) .5 90 t
11.52 321.05 (1.25) .5 90 t
11.52 372.72 (1.30) .5 90 t
np
28.80 28.80 m
275.55 0 l
0 357.15 l
-275.55 0 l
0 -357.15 l
o
0.00 0.00 318.75 414.75 cl
/Font2 findfont 19 s
0 0 0 srgb
166.58 393.53 (all) .5 0 t
28.80 28.80 304.35 385.95 cl
0 0 0 srgb
0.75 setlinewidth
[ 2.25 3.75] 0 setdash
1 setlinecap
1 setlinejoin
10.00 setmiterlimit
np
0.00 102.51 m
39.01 0 l
85.04 0 l
85.05 0 l
85.04 0 l
85.05 0 l
o
0.75 setlinewidth
[] 0 setdash
np
0.00 143.45 m
39.01 0 l
85.04 0 l
85.05 0 l
85.04 0 l
85.05 0 l
o
0.4000 0.2000 0.2000 srgb
39.01 151.12 2.70 c p1
1.50 setlinewidth
[] 0 setdash
np
39.01 110.10 m
0 82.05 l
o
np
36.94 110.10 m
4.13 0 l
o
np
36.94 192.15 m
4.13 0 l
o
39.01 91.52 2.70 c p1
0.3020 0.4000 0.2000 srgb
0.75 setlinewidth
[] 0 setdash
np
124.05 111.19 m
3.64 -6.30 l
-7.27 0 l
3.63 6.30 l
o
1.50 setlinewidth
[] 0 setdash
np
124.05 78.85 m
0 56.27 l
o
np
121.99 78.85 m
4.13 0 l
o
np
121.99 135.12 m
4.13 0 l
o
np
124.05 72.32 m
3.64 -6.30 l
-7.27 0 l
3.63 6.30 l
o
0.2000 0.4000 0.4000 srgb
0.75 setlinewidth
[] 0 setdash
np
205.28 240.81 m
7.64 0 l
o
np
209.10 236.99 m
0 7.64 l
o
1.50 setlinewidth
[] 0 setdash
np
209.10 171.10 m
0 139.43 l
o
np
207.03 171.10 m
4.13 0 l
o
np
207.03 310.53 m
4.13 0 l
o
np
205.28 112.89 m
7.64 0 l
o
np
209.10 109.07 m
0 7.64 l
o
0.3020 0.2000 0.4000 srgb
0.75 setlinewidth
[] 0 setdash
np
291.44 144.67 m
5.40 5.40 l
o
np
291.44 150.07 m
5.40 -5.40 l
o
1.50 setlinewidth
[] 0 setdash
np
294.14 101.23 m
0 92.27 l
o
np
292.08 101.23 m
4.13 0 l
o
np
292.08 193.50 m
4.13 0 l
o
np
291.44 84.11 m
5.40 5.40 l
o
np
291.44 89.51 m
5.40 -5.40 l
o
347.55 28.80 623.10 385.95 cl
318.75 0.00 637.50 414.75 cl
/Font1 findfont 16 s
0 0 0 srgb
301.47 207.38 (1:10) .5 90 t
347.55 28.80 623.10 385.95 cl
/bg { 1 1 1 srgb } def
0 0 0 srgb
0.75 setlinewidth
[] 0 setdash
1 setlinecap
1 setlinejoin
10.00 setmiterlimit
414.17 385.95 208.93 -104.30 r p3
0.4000 0.2000 0.2000 srgb
1.50 setlinewidth
[] 0 setdash
np
417.53 371.05 m
22.39 0 l
o
0.3020 0.4000 0.2000 srgb
np
417.53 356.15 m
22.39 0 l
o
0.2000 0.4000 0.4000 srgb
np
417.53 341.25 m
22.39 0 l
o
0.3020 0.2000 0.4000 srgb
np
417.53 326.35 m
22.39 0 l
o
0 0 0 srgb
np
417.53 311.45 m
22.39 0 l
o
np
417.53 296.55 m
22.39 0 l
o
0.4000 0.2000 0.2000 srgb
428.72 371.05 2.70 c p1
0.3020 0.4000 0.2000 srgb
np
428.72 360.35 m
3.64 -6.30 l
-7.27 0 l
3.63 6.30 l
o
0.2000 0.4000 0.4000 srgb
np
424.90 341.25 m
7.64 0 l
o
np
428.72 337.43 m
0 7.64 l
o
0.3020 0.2000 0.4000 srgb
np
426.02 323.65 m
5.40 5.40 l
o
np
426.02 329.05 m
5.40 -5.40 l
o
0 0 0 srgb
np
424.90 311.45 m
3.82 3.82 l
3.82 -3.82 l
-3.82 -3.82 l
-3.82 3.82 l
o
np
428.72 292.35 m
3.64 6.30 l
-7.27 0 l
3.63 -6.30 l
o
/Font1 findfont 16 s
451.11 365.31 (2MPSO 2OPT 8/40/250/800) 0 0 t
451.11 350.40 (2MPSOv2 2OPT 8/40/250/800) 0 0 t
451.11 335.50 (2PSO 1/40/500/500) 0 0 t
451.11 320.60 (2PSOv2 2OPT 1/40/250/800) 0 0 t
451.11 305.70 (MAPSO min) 0 0 t
451.11 290.80 (MAPSO a) 0 ta
-0.320 (vg) tb gr
ep
%%Trailer
%%Pages: 1
%%EOF
