%!PS-Adobe-3.0 EPSF-3.0
%%DocumentNeededResources: font Helvetica
%%+ font Helvetica-Bold
%%+ font Helvetica-Oblique
%%+ font Helvetica-BoldOblique
%%+ font Symbol
%%Title: R Graphics Output
%%Creator: R Software
%%Pages: (atend)
%%BoundingBox: 0 0 638 570
%%EndComments
%%BeginProlog
/bp  { gs sRGB gs } def
% begin .ps.prolog
/gs  { gsave } bind def
/gr  { grestore } bind def
/ep  { showpage gr gr } bind def
/m   { moveto } bind def
/l  { rlineto } bind def
/np  { newpath } bind def
/cp  { closepath } bind def
/f   { fill } bind def
/o   { stroke } bind def
/c   { newpath 0 360 arc } bind def
/r   { 4 2 roll moveto 1 copy 3 -1 roll exch 0 exch rlineto 0 rlineto -1 mul 0 exch rlineto closepath } bind def
/p1  { stroke } bind def
/p2  { gsave bg fill grestore newpath } bind def
/p3  { gsave bg fill grestore stroke } bind def
/p6  { gsave bg eofill grestore newpath } bind def
/p7  { gsave bg eofill grestore stroke } bind def
/t   { 5 -2 roll moveto gsave rotate
       1 index stringwidth pop
       mul neg 0 rmoveto show grestore } bind def
/ta  { 4 -2 roll moveto gsave rotate show } bind def
/tb  { 2 -1 roll 0 rmoveto show } bind def
/cl  { grestore gsave newpath 3 index 3 index moveto 1 index
       4 -1 roll lineto  exch 1 index lineto lineto
       closepath clip newpath } bind def
/rgb { setrgbcolor } bind def
/s   { scalefont setfont } bind def
% end   .ps.prolog
/sRGB { [ /CIEBasedABC
          << /DecodeLMN
               [ { dup 0.03928 le
                        {12.92321 div}
                        {0.055 add 1.055 div 2.4 exp }
                     ifelse
                 } bind dup dup
               ]
             /MatrixLMN [0.412457 0.212673 0.019334
                         0.357576 0.715152 0.119192
                         0.180437 0.072175 0.950301]
             /WhitePoint [0.9505 1.0 1.0890]
           >>
         ] setcolorspace } bind def
/srgb { setcolor } bind def
% begin encoding
/WinAnsiEncoding [
 /.notdef /.notdef /.notdef /.notdef /.notdef /.notdef /.notdef /.notdef
 /.notdef /.notdef /.notdef /.notdef /.notdef /.notdef /.notdef /.notdef
 /.notdef /.notdef /.notdef /.notdef /.notdef /.notdef /.notdef /.notdef
 /.notdef /.notdef /.notdef /.notdef /.notdef /.notdef /.notdef /.notdef
 /space /exclam /quotedbl /numbersign /dollar /percent /ampersand /quoteright
 /parenleft /parenright /asterisk /plus /comma /minus /period /slash
 /zero /one /two /three /four /five /six /seven
 /eight /nine /colon /semicolon /less /equal /greater /question
 /at /A /B /C /D /E /F /G
 /H /I /J /K /L /M /N /O
 /P /Q /R /S /T /U /V /W
 /X /Y /Z /bracketleft /backslash /bracketright /asciicircum /underscore
 /grave /a /b /c /d /e /f /g
 /h /i /j /k /l /m /n /o
 /p /q /r /s /t /u /v /w
 /x /y /z /braceleft /bar /braceright /asciitilde /.notdef
 /Euro /.notdef /quotesinglbase /florin /quotedblbase /ellipsis /dagger /daggerdbl
 /circumflex /perthousand /Scaron /guilsinglleft /OE /.notdef /Zcaron /.notdef
 /.notdef /quoteleft /quoteright /quotedblleft /quotedblright /bullet /endash /emdash
 /tilde /trademark /scaron /guilsinglright /oe /.notdef /zcaron /Ydieresis
 /space /exclamdown /cent /sterling /currency /yen /brokenbar /section
 /dieresis /copyright /ordfeminine /guillemotleft /logicalnot /hyphen /registered /macron
 /degree /plusminus /twosuperior /threesuperior /acute /mu /paragraph /periodcentered
 /cedilla /onesuperior /ordmasculine /guillemotright /onequarter /onehalf /threequarters /questiondown
 /Agrave /Aacute /Acircumflex /Atilde /Adieresis /Aring /AE /Ccedilla
 /Egrave /Eacute /Ecircumflex /Edieresis /Igrave /Iacute /Icircumflex /Idieresis
 /Eth /Ntilde /Ograve /Oacute /Ocircumflex /Otilde /Odieresis /multiply
 /Oslash /Ugrave /Uacute /Ucircumflex /Udieresis /Yacute /Thorn /germandbls
 /agrave /aacute /acircumflex /atilde /adieresis /aring /ae /ccedilla
 /egrave /eacute /ecircumflex /edieresis /igrave /iacute /icircumflex /idieresis
 /eth /ntilde /ograve /oacute /ocircumflex /otilde /odieresis /divide
 /oslash /ugrave /uacute /ucircumflex /udieresis /yacute /thorn /ydieresis
]
 def
% end encoding
%%IncludeResource: font Helvetica
/Helvetica findfont
dup length dict begin
  {1 index /FID ne {def} {pop pop} ifelse} forall
  /Encoding WinAnsiEncoding def
  currentdict
  end
/Font1 exch definefont pop
%%IncludeResource: font Helvetica-Bold
/Helvetica-Bold findfont
dup length dict begin
  {1 index /FID ne {def} {pop pop} ifelse} forall
  /Encoding WinAnsiEncoding def
  currentdict
  end
/Font2 exch definefont pop
%%IncludeResource: font Helvetica-Oblique
/Helvetica-Oblique findfont
dup length dict begin
  {1 index /FID ne {def} {pop pop} ifelse} forall
  /Encoding WinAnsiEncoding def
  currentdict
  end
/Font3 exch definefont pop
%%IncludeResource: font Helvetica-BoldOblique
/Helvetica-BoldOblique findfont
dup length dict begin
  {1 index /FID ne {def} {pop pop} ifelse} forall
  /Encoding WinAnsiEncoding def
  currentdict
  end
/Font4 exch definefont pop
%%IncludeResource: font Symbol
/Symbol findfont
dup length dict begin
  {1 index /FID ne {def} {pop pop} ifelse} forall
  currentdict
  end
/Font5 exch definefont pop
%%EndProlog
%%Page: 1 1
bp
/bg { 1 1 1 srgb } def
0.00 0.00 637.50 570.00 r p2
23.90 308.90 306.80 546.10 cl
0.00 0.00 637.50 570.00 cl
0 0 0 srgb
0.75 setlinewidth
[] 0 setdash
1 setlinecap
1 setlinejoin
10.00 setmiterlimit
np
34.38 308.90 m
261.94 0 l
o
np
34.38 308.90 m
0 -5.97 l
o
np
78.04 308.90 m
0 -5.97 l
o
np
121.69 308.90 m
0 -5.97 l
o
np
165.35 308.90 m
0 -5.97 l
o
np
209.01 308.90 m
0 -5.97 l
o
np
252.66 308.90 m
0 -5.97 l
o
np
296.32 308.90 m
0 -5.97 l
o
/Font1 findfont 13 s
34.38 287.39 (1.0) .5 0 t
78.04 287.39 (1.5) .5 0 t
121.69 287.39 (2.0) .5 0 t
165.35 287.39 (2.5) .5 0 t
209.01 287.39 (3.0) .5 0 t
252.66 287.39 (3.5) .5 0 t
296.32 287.39 (4.0) .5 0 t
np
23.90 331.42 m
0 205.89 l
o
np
23.90 331.42 m
-5.97 0 l
o
np
23.90 365.73 m
-5.97 0 l
o
np
23.90 400.05 m
-5.97 0 l
o
np
23.90 434.36 m
-5.97 0 l
o
np
23.90 468.68 m
-5.97 0 l
o
np
23.90 503.00 m
-5.97 0 l
o
np
23.90 537.31 m
-5.97 0 l
o
9.56 331.42 (1.00) .5 90 t
9.56 400.05 (1.10) .5 90 t
9.56 468.68 (1.20) .5 90 t
9.56 537.31 (1.30) .5 90 t
np
23.90 308.90 m
282.90 0 l
0 237.20 l
-282.90 0 l
0 -237.20 l
o
0.00 285.00 318.75 570.00 cl
/Font2 findfont 16 s
0 0 0 srgb
120.01 552.30 (c) 0 ta
-0.160 (hristofides) tb gr
/Font1 findfont 13 s
165.35 263.49 (1:n) .5 0 t
23.90 308.90 306.80 546.10 cl
0 0 0 srgb
0.75 setlinewidth
[ 2.25 3.75] 0 setdash
1 setlinecap
1 setlinejoin
10.00 setmiterlimit
np
0.00 383.57 m
34.38 0 l
87.31 0 l
87.32 0 l
87.31 0 l
87.31 0 l
o
0.75 setlinewidth
[] 0 setdash
np
0.00 413.02 m
34.38 0 l
87.31 0 l
87.32 0 l
87.31 0 l
87.31 0 l
o
0.4000 0.2000 0.2000 srgb
34.38 385.58 2.24 c p1
1.50 setlinewidth
[] 0 setdash
np
34.38 356.85 m
0 57.45 l
o
np
32.26 356.85 m
4.24 0 l
o
np
32.26 414.30 m
4.24 0 l
o
34.38 345.44 2.24 c p1
0.3020 0.4000 0.2000 srgb
0.75 setlinewidth
[] 0 setdash
np
121.69 369.55 m
3.02 -5.23 l
-6.03 0 l
3.01 5.23 l
o
1.50 setlinewidth
[] 0 setdash
np
121.69 344.86 m
0 42.40 l
o
np
119.57 344.86 m
4.25 0 l
o
np
119.57 387.26 m
4.25 0 l
o
np
121.69 341.39 m
3.02 -5.23 l
-6.03 0 l
3.01 5.23 l
o
0.2000 0.4000 0.4000 srgb
0.75 setlinewidth
[] 0 setdash
np
205.84 429.56 m
6.34 0 l
o
np
209.01 426.39 m
0 6.34 l
o
1.50 setlinewidth
[] 0 setdash
np
209.01 385.65 m
0 87.81 l
o
np
206.89 385.65 m
4.24 0 l
o
np
206.89 473.46 m
4.24 0 l
o
np
205.84 349.18 m
6.34 0 l
o
np
209.01 346.01 m
0 6.34 l
o
0.3020 0.2000 0.4000 srgb
0.75 setlinewidth
[] 0 setdash
np
294.08 386.46 m
4.48 4.48 l
o
np
294.08 390.94 m
4.48 -4.48 l
o
1.50 setlinewidth
[] 0 setdash
np
296.32 355.29 m
0 66.82 l
o
np
294.20 355.29 m
4.24 0 l
o
np
294.20 422.11 m
4.24 0 l
o
np
294.08 338.52 m
4.48 4.48 l
o
np
294.08 343.00 m
4.48 -4.48 l
o
342.65 308.90 625.55 546.10 cl
0.00 0.00 637.50 570.00 cl
0 0 0 srgb
0.75 setlinewidth
[] 0 setdash
1 setlinecap
1 setlinejoin
10.00 setmiterlimit
np
353.13 308.90 m
261.94 0 l
o
np
353.13 308.90 m
0 -5.97 l
o
np
396.79 308.90 m
0 -5.97 l
o
np
440.44 308.90 m
0 -5.97 l
o
np
484.10 308.90 m
0 -5.97 l
o
np
527.76 308.90 m
0 -5.97 l
o
np
571.41 308.90 m
0 -5.97 l
o
np
615.07 308.90 m
0 -5.97 l
o
/Font1 findfont 13 s
353.13 287.39 (1.0) .5 0 t
396.79 287.39 (1.5) .5 0 t
440.44 287.39 (2.0) .5 0 t
484.10 287.39 (2.5) .5 0 t
527.76 287.39 (3.0) .5 0 t
571.41 287.39 (3.5) .5 0 t
615.07 287.39 (4.0) .5 0 t
np
342.65 331.42 m
0 205.89 l
o
np
342.65 331.42 m
-5.97 0 l
o
np
342.65 365.73 m
-5.97 0 l
o
np
342.65 400.05 m
-5.97 0 l
o
np
342.65 434.36 m
-5.97 0 l
o
np
342.65 468.68 m
-5.97 0 l
o
np
342.65 503.00 m
-5.97 0 l
o
np
342.65 537.31 m
-5.97 0 l
o
328.31 331.42 (1.00) .5 90 t
328.31 400.05 (1.10) .5 90 t
328.31 468.68 (1.20) .5 90 t
328.31 537.31 (1.30) .5 90 t
np
342.65 308.90 m
282.90 0 l
0 237.20 l
-282.90 0 l
0 -237.20 l
o
318.75 285.00 637.50 570.00 cl
/Font2 findfont 16 s
0 0 0 srgb
484.10 552.30 (fisher) .5 0 t
/Font1 findfont 13 s
484.10 263.49 (1:n) .5 0 t
304.41 427.50 (1:n) .5 90 t
342.65 308.90 625.55 546.10 cl
0 0 0 srgb
0.75 setlinewidth
[ 2.25 3.75] 0 setdash
1 setlinecap
1 setlinejoin
10.00 setmiterlimit
np
265.82 417.17 m
87.31 0 l
87.31 0 l
87.32 0 l
87.31 0 l
22.43 0 l
o
0.75 setlinewidth
[] 0 setdash
np
265.82 457.87 m
87.31 0 l
87.31 0 l
87.32 0 l
87.31 0 l
22.43 0 l
o
0.4000 0.2000 0.2000 srgb
353.13 378.93 2.24 c p1
1.50 setlinewidth
[] 0 setdash
np
353.13 350.36 m
0 57.13 l
o
np
351.01 350.36 m
4.24 0 l
o
np
351.01 407.49 m
4.24 0 l
o
353.13 342.45 2.24 c p1
0.3020 0.4000 0.2000 srgb
0.75 setlinewidth
[] 0 setdash
np
440.44 364.48 m
3.02 -5.23 l
-6.03 0 l
3.01 5.23 l
o
1.50 setlinewidth
[] 0 setdash
np
440.44 337.51 m
0 46.97 l
o
np
438.32 337.51 m
4.25 0 l
o
np
438.32 384.48 m
4.25 0 l
o
np
440.44 335.34 m
3.02 -5.23 l
-6.03 0 l
3.01 5.23 l
o
0.2000 0.4000 0.4000 srgb
0.75 setlinewidth
[] 0 setdash
np
524.59 451.48 m
6.34 0 l
o
np
527.76 448.31 m
0 6.34 l
o
1.50 setlinewidth
[] 0 setdash
np
527.76 414.39 m
0 74.18 l
o
np
525.64 414.39 m
4.24 0 l
o
np
525.64 488.57 m
4.24 0 l
o
np
524.59 382.83 m
6.34 0 l
o
np
527.76 379.66 m
0 6.34 l
o
0.3020 0.2000 0.4000 srgb
0.75 setlinewidth
[] 0 setdash
np
612.83 398.95 m
4.48 4.48 l
o
np
612.83 403.43 m
4.48 -4.48 l
o
1.50 setlinewidth
[] 0 setdash
np
615.07 361.00 m
0 80.38 l
o
np
612.95 361.00 m
4.24 0 l
o
np
612.95 441.38 m
4.24 0 l
o
np
612.83 339.93 m
4.48 4.48 l
o
np
612.83 344.41 m
4.48 -4.48 l
o
23.90 23.90 306.80 261.10 cl
0.00 0.00 637.50 570.00 cl
0 0 0 srgb
0.75 setlinewidth
[] 0 setdash
1 setlinecap
1 setlinejoin
10.00 setmiterlimit
np
34.38 23.90 m
261.94 0 l
o
np
34.38 23.90 m
0 -5.97 l
o
np
78.04 23.90 m
0 -5.97 l
o
np
121.69 23.90 m
0 -5.97 l
o
np
165.35 23.90 m
0 -5.97 l
o
np
209.01 23.90 m
0 -5.97 l
o
np
252.66 23.90 m
0 -5.97 l
o
np
296.32 23.90 m
0 -5.97 l
o
/Font1 findfont 13 s
34.38 2.39 (1.0) .5 0 t
78.04 2.39 (1.5) .5 0 t
121.69 2.39 (2.0) .5 0 t
165.35 2.39 (2.5) .5 0 t
209.01 2.39 (3.0) .5 0 t
252.66 2.39 (3.5) .5 0 t
296.32 2.39 (4.0) .5 0 t
np
23.90 46.42 m
0 205.89 l
o
np
23.90 46.42 m
-5.97 0 l
o
np
23.90 80.73 m
-5.97 0 l
o
np
23.90 115.05 m
-5.97 0 l
o
np
23.90 149.36 m
-5.97 0 l
o
np
23.90 183.68 m
-5.97 0 l
o
np
23.90 218.00 m
-5.97 0 l
o
np
23.90 252.31 m
-5.97 0 l
o
9.56 46.42 (1.00) .5 90 t
9.56 115.05 (1.10) .5 90 t
9.56 183.68 (1.20) .5 90 t
9.56 252.31 (1.30) .5 90 t
np
23.90 23.90 m
282.90 0 l
0 237.20 l
-282.90 0 l
0 -237.20 l
o
0.00 0.00 318.75 285.00 cl
/Font2 findfont 16 s
0 0 0 srgb
139.12 267.30 (taillar) 0 ta
-0.320 (d) tb gr
23.90 23.90 306.80 261.10 cl
0 0 0 srgb
0.75 setlinewidth
[ 2.25 3.75] 0 setdash
1 setlinecap
1 setlinejoin
10.00 setmiterlimit
np
0.00 47.98 m
34.38 0 l
87.31 0 l
87.32 0 l
87.31 0 l
87.31 0 l
o
0.75 setlinewidth
[] 0 setdash
np
0.00 71.59 m
34.38 0 l
87.31 0 l
87.32 0 l
87.31 0 l
87.31 0 l
o
0.4000 0.2000 0.2000 srgb
34.38 109.67 2.24 c p1
1.50 setlinewidth
[] 0 setdash
np
34.38 83.51 m
0 52.33 l
o
np
32.26 83.51 m
4.24 0 l
o
np
32.26 135.84 m
4.24 0 l
o
34.38 69.90 2.24 c p1
0.3020 0.4000 0.2000 srgb
0.75 setlinewidth
[] 0 setdash
np
121.69 76.24 m
3.02 -5.23 l
-6.03 0 l
3.01 5.23 l
o
1.50 setlinewidth
[] 0 setdash
np
121.69 56.34 m
0 32.82 l
o
np
119.57 56.34 m
4.25 0 l
o
np
119.57 89.16 m
4.25 0 l
o
np
121.69 52.34 m
3.02 -5.22 l
-6.03 0 l
3.01 5.22 l
o
0.2000 0.4000 0.4000 srgb
0.75 setlinewidth
[] 0 setdash
np
205.84 176.17 m
6.34 0 l
o
np
209.01 173.00 m
0 6.33 l
o
1.50 setlinewidth
[] 0 setdash
np
209.01 126.94 m
0 98.45 l
o
np
206.89 126.94 m
4.24 0 l
o
np
206.89 225.39 m
4.24 0 l
o
np
205.84 85.82 m
6.34 0 l
o
np
209.01 82.65 m
0 6.34 l
o
0.3020 0.2000 0.4000 srgb
0.75 setlinewidth
[] 0 setdash
np
294.08 97.54 m
4.48 4.48 l
o
np
294.08 102.02 m
4.48 -4.48 l
o
1.50 setlinewidth
[] 0 setdash
np
296.32 72.35 m
0 54.86 l
o
np
294.20 72.35 m
4.24 0 l
o
np
294.20 127.21 m
4.24 0 l
o
np
294.08 64.96 m
4.48 4.48 l
o
np
294.08 69.44 m
4.48 -4.48 l
o
342.65 23.90 625.55 261.10 cl
318.75 0.00 637.50 285.00 cl
/Font1 findfont 13 s
0 0 0 srgb
304.41 142.50 (1:10) .5 90 t
342.65 23.90 625.55 261.10 cl
/bg { 1 1 1 srgb } def
0 0 0 srgb
0.75 setlinewidth
[] 0 setdash
1 setlinecap
1 setlinejoin
10.00 setmiterlimit
455.11 261.10 170.44 -129.22 r p3
0.4000 0.2000 0.2000 srgb
1.50 setlinewidth
[] 0 setdash
np
457.90 242.64 m
18.56 0 l
o
0.3020 0.4000 0.2000 srgb
np
457.90 224.18 m
18.56 0 l
o
0.2000 0.4000 0.4000 srgb
np
457.90 205.71 m
18.56 0 l
o
0.3020 0.2000 0.4000 srgb
np
457.90 187.25 m
18.56 0 l
o
0 0 0 srgb
np
457.90 168.79 m
18.56 0 l
o
np
457.90 150.33 m
18.56 0 l
o
0.4000 0.2000 0.2000 srgb
467.18 242.64 2.24 c p1
0.3020 0.4000 0.2000 srgb
np
467.18 227.66 m
3.02 -5.23 l
-6.04 0 l
3.02 5.23 l
o
0.2000 0.4000 0.4000 srgb
np
464.01 205.71 m
6.34 0 l
o
np
467.18 202.55 m
0 6.33 l
o
0.3020 0.2000 0.4000 srgb
np
464.94 185.01 m
4.48 4.49 l
o
np
464.94 189.50 m
4.48 -4.49 l
o
0 0 0 srgb
np
464.01 168.79 m
3.17 3.17 l
3.17 -3.17 l
-3.17 -3.17 l
-3.17 3.17 l
o
np
467.18 146.85 m
3.02 5.23 l
-6.04 0 l
3.02 -5.23 l
o
/Font1 findfont 13 s
485.75 237.97 (2MPSO 2OPT 8/40/250/800) 0 0 t
485.75 219.51 (2MPSOv2 2OPT 8/40/250/800) 0 0 t
485.75 201.05 (2PSO 1/40/500/500) 0 0 t
485.75 182.59 (2PSOv2 2OPT 1/40/250/800) 0 0 t
485.75 164.13 (MAPSO min) 0 0 t
485.75 145.67 (MAPSO a) 0 ta
-0.260 (vg) tb gr
ep
%%Trailer
%%Pages: 1
%%EOF
