%!PS-Adobe-3.0 EPSF-3.0
%%Creator: cairo 1.11.2 (http://cairographics.org)
%%CreationDate: Thu May 04 14:56:04 2017
%%Pages: 1
%%DocumentData: Clean7Bit
%%LanguageLevel: 2
%%BoundingBox: 0 -1 370 343
%%EndComments
%%BeginProlog
/cairo_eps_state save def
/dict_count countdictstack def
/op_count count 1 sub def
userdict begin
/q { gsave } bind def
/Q { grestore } bind def
/cm { 6 array astore concat } bind def
/w { setlinewidth } bind def
/J { setlinecap } bind def
/j { setlinejoin } bind def
/M { setmiterlimit } bind def
/d { setdash } bind def
/m { moveto } bind def
/l { lineto } bind def
/c { curveto } bind def
/h { closepath } bind def
/re { exch dup neg 3 1 roll 5 3 roll moveto 0 rlineto
      0 exch rlineto 0 rlineto closepath } bind def
/S { stroke } bind def
/f { fill } bind def
/f* { eofill } bind def
/n { newpath } bind def
/W { clip } bind def
/W* { eoclip } bind def
/BT { } bind def
/ET { } bind def
/pdfmark where { pop globaldict /?pdfmark /exec load put }
    { globaldict begin /?pdfmark /pop load def /pdfmark
    /cleartomark load def end } ifelse
/BDC { mark 3 1 roll /BDC pdfmark } bind def
/EMC { mark /EMC pdfmark } bind def
/cairo_store_point { /cairo_point_y exch def /cairo_point_x exch def } def
/Tj { show currentpoint cairo_store_point } bind def
/TJ {
  {
    dup
    type /stringtype eq
    { show } { -0.001 mul 0 cairo_font_matrix dtransform rmoveto } ifelse
  } forall
  currentpoint cairo_store_point
} bind def
/cairo_selectfont { cairo_font_matrix aload pop pop pop 0 0 6 array astore
    cairo_font exch selectfont cairo_point_x cairo_point_y moveto } bind def
/Tf { pop /cairo_font exch def /cairo_font_matrix where
      { pop cairo_selectfont } if } bind def
/Td { matrix translate cairo_font_matrix matrix concatmatrix dup
      /cairo_font_matrix exch def dup 4 get exch 5 get cairo_store_point
      /cairo_font where { pop cairo_selectfont } if } bind def
/Tm { 2 copy 8 2 roll 6 array astore /cairo_font_matrix exch def
      cairo_store_point /cairo_font where { pop cairo_selectfont } if } bind def
/g { setgray } bind def
/rg { setrgbcolor } bind def
/d1 { setcachedevice } bind def
%%EndProlog
%%Page: 1 1
%%BeginPageSetup
%%PageBoundingBox: 0 -1 370 343
%%EndPageSetup
q 0 -1 370 344 rectclip q
0 342.005 370 -343 re W n
0 g
200.535 265.739 m 200.535 262.142 195.133 262.142 195.133 265.739 c 195.133
 269.341 200.535 269.341 200.535 265.739 c f
200.535 190.79 m 200.535 187.196 195.133 187.196 195.133 190.79 c 195.133
 194.395 200.535 194.395 200.535 190.79 c f
120.234 303.212 m 120.234 299.614 114.836 299.614 114.836 303.212 c 114.836
 306.813 120.234 306.813 120.234 303.212 c f
254.066 303.212 m 254.066 299.614 248.668 299.614 248.668 303.212 c 248.668
 306.813 254.066 306.813 254.066 303.212 c f
114.883 30.196 m 114.883 26.599 109.484 26.599 109.484 30.196 c 109.484
 33.798 114.883 33.798 114.883 30.196 c f
45.289 30.196 m 45.289 26.599 39.891 26.599 39.891 30.196 c 39.891 33.798
 45.289 33.798 45.289 30.196 c f
2.365136 w
1 J
1 j
[ 16.555953 11.825681] 0 d
10 M 262.977 228.204 m 131.762 228.395 l S
[ 16.555953 11.825681] 0 d
54.918 174.017 m 130.887 227.79 l S
[ 16.555953 11.825681] 0 d
184.102 340.821 m 131.762 228.798 l S
[ 16.555953 11.825681] 0 d
368.664 178.384 m 263.508 227.892 l S
[] 0.0 d
212.105 85.669 m 284.406 91.591 l S
291.973 92.212 m 282.387 86.395 l 283.699 89.669 283.406 93.376 281.566
 96.392 c h
f*
1 g
150.969 207.11 m 134.172 203.606 l 134.172 172.419 l 167.23 172.419 l 167.23
 203.599 l h
f*
0 g
156.32 189.079 5.289 -5.547 re f*
155.488 182.837 m 155.488 192.77 l 154.637 192.77 l 154.637 181.935 l 161.617
 181.935 l 161.617 182.837 l h
142.688 179.599 m 141.637 179.599 140.785 178.696 140.785 177.591 c 140.785
 176.489 141.637 175.595 142.688 175.595 c 143.738 175.595 144.598 176.489
 144.598 177.591 c 144.598 178.696 143.738 179.599 142.688 179.599 c h
156.141 179.599 m 155.09 179.599 154.238 178.696 154.238 177.591 c 154.238
 176.489 155.09 175.595 156.141 175.595 c 157.191 175.595 158.055 176.489
 158.055 177.591 c 158.055 178.696 157.191 179.599 156.141 179.599 c h
153.574 177.591 m 153.574 179.083 154.723 180.294 156.141 180.294 c 156.52
 180.294 156.887 180.2 157.215 180.04 c 157.215 180.442 l 157.215 180.755
 156.961 181.02 156.656 181.02 c 153.754 181.02 l 153.754 190.817 l 152.43
 190.817 l 152.43 182.102 l 142.043 182.102 l 141.793 182.102 141.582 181.837
 141.582 181.524 c 141.582 180.02 l 141.918 180.188 142.285 180.294 142.688
 180.294 c 144.105 180.294 145.262 179.083 145.262 177.591 c 145.262 177.403
 145.242 177.212 145.199 177.036 c 153.629 177.036 l 153.598 177.212 153.574
 177.403 153.574 177.591 c h
149.75 185.466 m 144.211 185.466 l 144.02 185.466 143.875 185.622 143.875
 185.813 c 143.875 191.122 l 143.875 191.278 144.012 191.403 144.18 191.403
 c 149.172 191.403 l 149.34 191.403 149.488 191.278 149.496 191.122 c 150.055
 185.813 l 150.074 185.622 149.938 185.466 149.75 185.466 c h
151.652 183.583 m 150.676 192.602 l 150.645 192.864 150.422 193.075 150.18
 193.075 c 142.875 193.075 l 142.633 193.075 142.434 192.864 142.434 192.602
 c 142.434 183.583 l 142.434 183.259 142.656 182.985 142.938 182.985 c 151.211
 182.985 l 151.496 182.985 151.684 183.259 151.652 183.583 c h
f*
153.91 198.692 m 153.906 198.052 153.855 197.474 153.754 196.962 c 153.652
 196.442 153.484 196.001 153.25 195.642 c 153.016 195.274 152.711 194.997
 152.34 194.81 c 151.965 194.614 151.508 194.52 150.973 194.52 c 150.418
 194.52 149.965 194.614 149.609 194.802 c 149.25 194.989 148.965 195.259
 148.758 195.61 c 148.543 195.962 148.395 196.392 148.313 196.899 c 148.227
 197.407 148.188 197.981 148.188 198.63 c 148.188 199.263 148.238 199.841
 148.344 200.36 c 148.449 200.876 148.617 201.317 148.852 201.681 c 149.082
 202.04 149.387 202.317 149.762 202.513 c 150.133 202.708 150.586 202.806
 151.125 202.806 c 151.672 202.806 152.129 202.712 152.488 202.524 c 152.848
 202.337 153.133 202.063 153.344 201.712 c 153.555 201.356 153.699 200.927
 153.785 200.419 c 153.863 199.907 153.906 199.333 153.91 198.692 c h
152.27 198.614 m 152.266 198.989 152.254 199.325 152.238 199.618 c 152.215
 199.907 152.184 200.157 152.141 200.376 c 152.098 200.587 152.043 200.77
 151.98 200.919 c 151.914 201.067 151.84 201.185 151.75 201.274 c 151.656
 201.36 151.551 201.423 151.441 201.462 c 151.324 201.497 151.199 201.517
 151.059 201.52 c 150.813 201.517 150.609 201.458 150.453 201.345 c 150.293
 201.224 150.168 201.048 150.078 200.813 c 149.98 200.579 149.914 200.286
 149.883 199.935 c 149.844 199.583 149.828 199.173 149.828 198.712 c 149.828
 198.142 149.848 197.673 149.895 197.298 c 149.938 196.923 150.012 196.626
 150.109 196.407 c 150.203 196.188 150.324 196.032 150.48 195.942 c 150.629
 195.852 150.816 195.81 151.035 195.81 c 151.191 195.81 151.332 195.833 
151.457 195.888 c 151.582 195.935 151.691 196.013 151.785 196.118 c 151.879
 196.22 151.953 196.349 152.016 196.509 c 152.074 196.665 152.125 196.849
 152.168 197.056 c 152.203 197.259 152.23 197.489 152.246 197.751 c 152.258
 198.009 152.266 198.298 152.27 198.614 c h
f
1 g
153.313 301.337 m 153.313 306.423 157.445 310.556 162.531 310.556 c 167.621
 310.556 171.75 306.423 171.75 301.337 c 171.75 296.239 167.621 292.118 
162.531 292.118 c 157.445 292.118 153.313 296.239 153.313 301.337 c h
f
0.498039 g
153.313 301.337 m 153.313 306.423 157.445 310.556 162.531 310.556 c 167.621
 310.556 171.75 306.423 171.75 301.337 c 171.75 296.239 167.621 292.118 
162.531 292.118 c 157.445 292.118 153.313 296.239 153.313 301.337 c h
S
35.809 162.95 m 35.809 168.036 39.938 172.169 45.027 172.169 c 50.117 172.169
 54.246 168.036 54.246 162.95 c 54.246 157.86 50.117 153.731 45.027 153.731
 c 39.938 153.731 35.809 157.86 35.809 162.95 c h
S
0 g
47.707 159.544 m 47.703 159.423 47.699 159.321 47.691 159.235 c 47.68 159.149
 47.664 159.079 47.645 159.028 c 47.621 158.974 47.594 158.935 47.563 158.915
 c 47.527 158.892 47.492 158.884 47.453 158.884 c 42.859 158.884 l 42.766
 158.884 42.688 158.892 42.625 158.907 c 42.559 158.923 42.504 158.954 42.465
 159.005 c 42.422 159.048 42.391 159.118 42.375 159.212 c 42.352 159.302
 42.344 159.419 42.348 159.563 c 42.344 159.696 42.352 159.81 42.367 159.911
 c 42.379 160.005 42.398 160.091 42.434 160.169 c 42.465 160.243 42.508 
160.317 42.559 160.392 c 42.609 160.462 42.676 160.544 42.762 160.63 c 44.145
 162.11 l 44.418 162.395 44.641 162.657 44.809 162.899 c 44.977 163.134 
45.109 163.352 45.203 163.548 c 45.297 163.743 45.359 163.923 45.398 164.087
 c 45.43 164.251 45.449 164.407 45.453 164.556 c 45.449 164.688 45.426 164.813
 45.387 164.938 c 45.34 165.056 45.277 165.165 45.195 165.259 c 45.109 165.349
 45.004 165.419 44.879 165.47 c 44.75 165.52 44.602 165.544 44.43 165.548
 c 44.184 165.544 43.965 165.513 43.781 165.454 c 43.594 165.392 43.43 165.325
 43.289 165.251 c 43.141 165.173 43.023 165.102 42.934 165.04 c 42.836 164.974
 42.762 164.942 42.711 164.946 c 42.672 164.942 42.641 164.954 42.617 164.981
 c 42.59 165.005 42.566 165.048 42.551 165.106 c 42.531 165.161 42.52 165.235
 42.512 165.337 c 42.5 165.431 42.496 165.552 42.496 165.692 c 42.496 165.786
 42.496 165.864 42.504 165.927 c 42.508 165.989 42.52 166.044 42.531 166.095
 c 42.543 166.138 42.559 166.177 42.582 166.216 c 42.602 166.247 42.637 
166.29 42.688 166.345 c 42.738 166.392 42.832 166.454 42.973 166.532 c 43.105
 166.606 43.277 166.681 43.48 166.755 c 43.684 166.825 43.906 166.888 44.148
 166.938 c 44.391 166.985 44.645 167.009 44.91 167.013 c 45.324 167.009 
45.684 166.958 45.996 166.852 c 46.305 166.747 46.566 166.599 46.773 166.415
 c 46.977 166.227 47.129 166.009 47.23 165.751 c 47.332 165.493 47.383 165.216
 47.383 164.919 c 47.383 164.661 47.355 164.403 47.309 164.153 c 47.254 
163.899 47.152 163.63 47 163.341 c 46.84 163.048 46.621 162.727 46.34 162.38
 c 46.055 162.024 45.676 161.614 45.211 161.153 c 44.281 160.2 l 47.426 
160.2 l 47.465 160.196 47.504 160.185 47.539 160.161 c 47.574 160.138 47.605
 160.099 47.629 160.048 c 47.652 159.993 47.672 159.923 47.688 159.841 c
 47.699 159.755 47.703 159.657 47.707 159.544 c h
f
0.498039 g
10.902 294.88 m 15.984 294.599 19.883 290.255 19.609 285.169 c 19.332 280.091
 14.988 276.192 9.902 276.466 c 4.82 276.739 0.922 281.091 1.195 286.169
 c 1.473 291.255 5.816 295.153 10.902 294.88 c h
S
0 g
229.375 116.243 m 229.375 121.333 233.496 125.462 238.594 125.462 c 243.684
 125.462 247.813 121.333 247.813 116.243 c 247.813 111.149 243.684 107.02
 238.594 107.02 c 233.496 107.02 229.375 111.149 229.375 116.243 c h
S
241.559 114.544 m 241.555 114.333 241.535 114.173 241.492 114.063 c 241.449
 113.954 241.391 113.899 241.316 113.899 c 240.605 113.899 l 240.605 112.458
 l 240.602 112.415 240.59 112.376 240.566 112.349 c 240.543 112.313 240.5
 112.29 240.438 112.27 c 240.375 112.251 240.293 112.239 240.199 112.227
 c 240.098 112.22 239.973 112.212 239.816 112.212 c 239.668 112.212 239.543
 112.22 239.441 112.227 c 239.34 112.239 239.258 112.251 239.203 112.27 
c 239.141 112.29 239.102 112.313 239.078 112.349 c 239.055 112.376 239.043
 112.415 239.047 112.458 c 239.047 113.899 l 235.992 113.899 l 235.93 113.899
 235.879 113.907 235.836 113.923 c 235.789 113.938 235.75 113.97 235.723
 114.02 c 235.688 114.071 235.664 114.145 235.652 114.243 c 235.637 114.337
 235.633 114.466 235.633 114.63 c 235.633 114.759 235.633 114.872 235.641
 114.97 c 235.645 115.067 235.656 115.157 235.672 115.235 c 235.684 115.313
 235.703 115.384 235.734 115.454 c 235.758 115.52 235.793 115.599 235.836
 115.681 c 238.316 120.056 l 238.336 120.091 238.371 120.122 238.422 120.149
 c 238.469 120.177 238.535 120.2 238.629 120.22 c 238.715 120.235 238.828
 120.247 238.965 120.259 c 239.098 120.263 239.262 120.267 239.461 120.27
 c 239.664 120.267 239.844 120.263 239.996 120.255 c 240.141 120.243 240.258
 120.227 240.352 120.204 c 240.438 120.181 240.504 120.153 240.543 120.122
 c 240.582 120.087 240.602 120.048 240.605 120.005 c 240.605 115.196 l 241.316
 115.196 l 241.379 115.192 241.434 115.142 241.484 115.044 c 241.531 114.942
 241.555 114.778 241.559 114.544 c h
239.047 118.868 m 239.031 118.868 l 236.93 115.196 l 239.047 115.196 l 
h
f
0.74902 g
161.879 245.727 m 161.879 250.817 166.012 254.946 171.098 254.946 c 176.199
 254.946 180.316 250.817 180.316 245.727 c 180.316 240.63 176.199 236.509
 171.098 236.509 c 166.012 236.509 161.879 240.63 161.879 245.727 c h
S
0 g
173.559 242.325 m 173.555 242.208 173.547 242.11 173.539 242.032 c 173.523
 241.946 173.508 241.884 173.484 241.841 c 173.461 241.79 173.434 241.755
 173.41 241.739 c 173.379 241.716 173.348 241.708 173.309 241.708 c 168.902
 241.708 l 168.871 241.708 168.84 241.716 168.809 241.739 c 168.777 241.755
 168.75 241.79 168.73 241.841 c 168.707 241.884 168.691 241.946 168.68 242.032
 c 168.668 242.11 168.66 242.208 168.664 242.325 c 168.66 242.442 168.664
 242.544 168.676 242.622 c 168.684 242.7 168.703 242.763 168.727 242.817
 c 168.75 242.864 168.773 242.903 168.805 242.927 c 168.828 242.95 168.863
 242.962 168.902 242.962 c 170.391 242.962 l 170.391 248.157 l 169.105 247.446
 l 169.008 247.399 168.93 247.372 168.875 247.364 c 168.813 247.349 168.766
 247.36 168.73 247.399 c 168.695 247.431 168.672 247.493 168.66 247.583 
c 168.648 247.665 168.645 247.786 168.645 247.946 c 168.645 248.044 168.645
 248.126 168.648 248.188 c 168.652 248.251 168.664 248.306 168.68 248.352
 c 168.695 248.399 168.719 248.435 168.75 248.466 c 168.777 248.489 168.816
 248.52 168.867 248.56 c 170.582 249.669 l 170.602 249.685 170.629 249.696
 170.66 249.708 c 170.691 249.716 170.73 249.724 170.781 249.731 c 170.828
 249.735 170.891 249.743 170.973 249.747 c 171.051 249.747 171.156 249.747
 171.285 249.751 c 171.438 249.747 171.563 249.743 171.664 249.739 c 171.758
 249.731 171.832 249.72 171.883 249.708 c 171.93 249.692 171.961 249.673
 171.98 249.649 c 171.996 249.622 172.008 249.595 172.008 249.56 c 172.008
 242.962 l 173.309 242.962 l 173.348 242.962 173.379 242.95 173.41 242.927
 c 173.438 242.903 173.465 242.864 173.492 242.817 c 173.512 242.763 173.531
 242.7 173.543 242.622 c 173.551 242.544 173.555 242.442 173.559 242.325
 c h
f
0.74902 g
268.344 300.895 m 268.344 305.981 272.473 310.114 277.574 310.114 c 282.66
 310.114 286.793 305.981 286.793 300.895 c 286.793 295.806 282.66 291.677
 277.574 291.677 c 272.473 291.677 268.344 295.806 268.344 300.895 c h
S
0 g
280.234 299.239 m 280.23 298.837 280.152 298.485 280.004 298.177 c 279.848
 297.868 279.637 297.606 279.371 297.399 c 279.098 297.185 278.773 297.024
 278.395 296.919 c 278.016 296.81 277.602 296.759 277.156 296.759 c 276.879
 296.759 276.625 296.778 276.387 296.817 c 276.148 296.856 275.938 296.903
 275.754 296.962 c 275.57 297.017 275.418 297.075 275.301 297.138 c 275.18
 297.196 275.102 297.243 275.066 297.282 c 275.027 297.313 275 297.352 274.984
 297.392 c 274.965 297.431 274.949 297.477 274.934 297.536 c 274.918 297.591
 274.906 297.661 274.902 297.747 c 274.895 297.829 274.891 297.931 274.895
 298.052 c 274.891 298.247 274.91 298.384 274.945 298.462 c 274.977 298.536
 275.023 298.575 275.094 298.579 c 275.133 298.575 275.203 298.548 275.305
 298.493 c 275.402 298.438 275.531 298.376 275.691 298.313 c 275.844 298.247
 276.027 298.188 276.238 298.134 c 276.445 298.075 276.684 298.048 276.957
 298.052 c 277.18 298.048 277.379 298.075 277.555 298.134 c 277.727 298.185
 277.875 298.259 277.996 298.36 c 278.117 298.454 278.207 298.571 278.27
 298.712 c 278.324 298.845 278.355 298.997 278.359 299.169 c 278.355 299.352
 278.32 299.52 278.25 299.669 c 278.176 299.813 278.066 299.938 277.926 
300.048 c 277.781 300.149 277.602 300.231 277.391 300.294 c 277.172 300.349
 276.918 300.38 276.629 300.38 c 275.938 300.38 l 275.883 300.38 275.84 
300.384 275.801 300.399 c 275.762 300.411 275.73 300.442 275.707 300.489
 c 275.684 300.532 275.664 300.595 275.656 300.681 c 275.641 300.759 275.637
 300.864 275.641 300.993 c 275.637 301.106 275.641 301.204 275.656 301.282
 c 275.664 301.36 275.684 301.419 275.707 301.458 c 275.73 301.497 275.758
 301.524 275.793 301.544 c 275.828 301.56 275.871 301.567 275.922 301.571
 c 276.617 301.571 l 276.852 301.567 277.066 301.595 277.254 301.653 c 277.438
 301.708 277.59 301.79 277.719 301.892 c 277.84 301.993 277.938 302.118 
278.004 302.267 c 278.07 302.411 278.102 302.571 278.105 302.751 c 278.102
 302.884 278.078 303.013 278.035 303.134 c 277.988 303.255 277.922 303.36
 277.836 303.45 c 277.742 303.536 277.629 303.606 277.492 303.661 c 277.352
 303.712 277.188 303.735 277 303.739 c 276.785 303.735 276.582 303.704 276.395
 303.642 c 276.203 303.575 276.035 303.505 275.887 303.431 c 275.734 303.352
 275.605 303.282 275.504 303.22 c 275.395 303.153 275.32 303.122 275.273
 303.122 c 275.238 303.122 275.207 303.126 275.184 303.142 c 275.156 303.153
 275.137 303.181 275.121 303.224 c 275.105 303.263 275.094 303.325 275.086
 303.403 c 275.078 303.481 275.074 303.583 275.074 303.708 c 275.074 303.81
 275.074 303.892 275.078 303.962 c 275.082 304.024 275.09 304.083 275.105
 304.13 c 275.113 304.177 275.129 304.216 275.152 304.247 c 275.168 304.278
 275.199 304.313 275.242 304.356 c 275.281 304.392 275.367 304.45 275.496
 304.532 c 275.621 304.61 275.781 304.688 275.977 304.763 c 276.168 304.833
 276.391 304.895 276.645 304.95 c 276.895 305.001 277.168 305.024 277.469
 305.028 c 277.855 305.024 278.199 304.981 278.496 304.892 c 278.793 304.798
 279.043 304.665 279.25 304.497 c 279.449 304.325 279.602 304.114 279.711
 303.868 c 279.813 303.618 279.867 303.341 279.871 303.028 c 279.867 302.786
 279.836 302.56 279.777 302.349 c 279.711 302.138 279.621 301.95 279.504
 301.786 c 279.387 301.622 279.238 301.481 279.059 301.368 c 278.879 301.251
 278.672 301.165 278.438 301.11 c 278.438 301.091 l 278.719 301.052 278.969
 300.981 279.191 300.876 c 279.41 300.763 279.598 300.626 279.754 300.466
 c 279.906 300.298 280.023 300.11 280.109 299.907 c 280.188 299.696 280.23
 299.474 280.234 299.239 c h
f
291.941 92.966 m 291.941 98.056 296.074 102.185 301.16 102.185 c 306.258
 102.185 310.379 98.056 310.379 92.966 c 310.379 87.872 306.258 83.747 301.16
 83.747 c 296.074 83.747 291.941 87.872 291.941 92.966 c h
S
303.914 93.333 m 303.914 93.005 303.895 92.665 303.863 92.321 c 303.828
 91.97 303.766 91.63 303.676 91.302 c 303.582 90.966 303.457 90.649 303.293
 90.349 c 303.129 90.048 302.918 89.786 302.664 89.563 c 302.406 89.337 
302.094 89.157 301.727 89.028 c 301.355 88.895 300.922 88.833 300.422 88.833
 c 300.242 88.833 300.066 88.849 299.895 88.872 c 299.719 88.899 299.559
 88.927 299.414 88.962 c 299.27 88.997 299.145 89.036 299.047 89.079 c 298.945
 89.118 298.875 89.157 298.828 89.204 c 298.781 89.243 298.746 89.306 298.73
 89.392 c 298.707 89.47 298.699 89.587 298.699 89.739 c 298.699 89.872 298.699
 89.981 298.707 90.063 c 298.711 90.145 298.727 90.208 298.746 90.255 c 
298.762 90.298 298.781 90.329 298.813 90.345 c 298.836 90.36 298.871 90.368
 298.91 90.368 c 298.957 90.368 299.023 90.352 299.117 90.325 c 299.203 
90.294 299.316 90.263 299.449 90.227 c 299.578 90.188 299.723 90.153 299.891
 90.126 c 300.051 90.095 300.234 90.079 300.441 90.083 c 300.781 90.079 
301.074 90.142 301.316 90.267 c 301.555 90.388 301.746 90.556 301.895 90.767
 c 302.039 90.977 302.148 91.22 302.223 91.497 c 302.289 91.77 302.328 92.06
 302.34 92.368 c 302.148 92.243 301.922 92.142 301.656 92.056 c 301.387 
91.966 301.082 91.919 300.738 91.923 c 300.313 91.919 299.949 91.977 299.656
 92.091 c 299.355 92.2 299.117 92.36 298.934 92.571 c 298.746 92.782 298.609
 93.036 298.527 93.337 c 298.441 93.634 298.398 93.974 298.402 94.356 c 
298.398 94.751 298.461 95.118 298.582 95.458 c 298.699 95.79 298.875 96.079
 299.113 96.329 c 299.344 96.571 299.637 96.763 299.988 96.899 c 300.34 
97.032 300.746 97.099 301.207 97.102 c 301.574 97.099 301.895 97.056 302.176
 96.974 c 302.449 96.884 302.688 96.763 302.891 96.602 c 303.086 96.438 
303.254 96.243 303.391 96.017 c 303.523 95.79 303.629 95.536 303.707 95.255
 c 303.781 94.974 303.836 94.669 303.867 94.349 c 303.898 94.02 303.914 
93.685 303.914 93.333 c h
302.305 93.552 m 302.301 93.989 302.277 94.36 302.23 94.657 c 302.18 94.954
 302.105 95.188 302.008 95.368 c 301.906 95.54 301.781 95.665 301.637 95.743
 c 301.484 95.813 301.313 95.852 301.121 95.856 c 300.922 95.852 300.754
 95.817 300.617 95.755 c 300.477 95.685 300.363 95.591 300.27 95.466 c 300.176
 95.341 300.105 95.192 300.063 95.028 c 300.016 94.856 299.992 94.673 299.996
 94.474 c 299.992 94.251 300.012 94.06 300.055 93.895 c 300.09 93.727 300.152
 93.587 300.238 93.481 c 300.32 93.368 300.43 93.286 300.57 93.235 c 300.703
 93.181 300.867 93.157 301.063 93.157 c 301.297 93.157 301.523 93.192 301.738
 93.267 c 301.949 93.337 302.137 93.431 302.305 93.552 c h
f
1 g
317.844 175.278 m 317.844 180.376 321.965 184.497 327.063 184.497 c 332.148
 184.497 336.281 180.376 336.281 175.278 c 336.281 170.192 332.148 166.06
 327.063 166.06 c 321.965 166.06 317.844 170.192 317.844 175.278 c h
f*
0 g
317.844 175.278 m 317.844 180.376 321.965 184.497 327.063 184.497 c 332.148
 184.497 336.281 180.376 336.281 175.278 c 336.281 170.192 332.148 166.06
 327.063 166.06 c 321.965 166.06 317.844 170.192 317.844 175.278 c h
S
329.758 178.606 m 329.758 178.485 329.754 178.38 329.746 178.294 c 329.738
 178.204 329.727 178.122 329.711 178.048 c 329.695 177.97 329.676 177.899
 329.652 177.833 c 329.629 177.763 329.598 177.688 329.566 177.614 c 326.938
 171.52 l 326.91 171.466 326.879 171.423 326.84 171.392 c 326.801 171.356
 326.746 171.329 326.676 171.313 c 326.605 171.294 326.516 171.286 326.41
 171.278 c 326.297 171.274 326.16 171.27 326.004 171.27 c 325.785 171.27
 325.613 171.278 325.488 171.294 c 325.355 171.306 325.262 171.325 325.207
 171.356 c 325.145 171.384 325.113 171.423 325.109 171.474 c 325.105 171.52
 325.121 171.579 325.152 171.649 c 327.98 177.884 l 324.621 177.884 l 324.531
 177.88 324.469 177.935 324.426 178.052 c 324.383 178.161 324.359 178.345
 324.363 178.595 c 324.359 178.716 324.367 178.821 324.379 178.911 c 324.391
 178.997 324.406 179.067 324.434 179.13 c 324.453 179.185 324.48 179.227
 324.516 179.255 c 324.543 179.278 324.578 179.29 324.621 179.294 c 329.367
 179.294 l 329.438 179.29 329.5 179.282 329.555 179.27 c 329.602 179.255
 329.641 179.224 329.672 179.177 c 329.695 179.122 329.719 179.052 329.734
 178.966 c 329.75 178.872 329.758 178.755 329.758 178.606 c h
f
193.699 84.915 m 193.699 90.009 197.832 94.138 202.918 94.138 c 208.016
 94.138 212.137 90.009 212.137 84.915 c 212.137 79.825 208.016 75.696 202.918
 75.696 c 197.832 75.696 193.699 79.825 193.699 84.915 c h
S
205.672 83.595 m 205.672 83.188 205.609 82.817 205.484 82.474 c 205.359
 82.13 205.176 81.833 204.941 81.583 c 204.699 81.333 204.406 81.138 204.059
 80.997 c 203.707 80.856 203.305 80.786 202.852 80.786 c 202.48 80.786 202.156
 80.829 201.883 80.911 c 201.602 80.993 201.363 81.11 201.164 81.274 c 200.961
 81.431 200.797 81.626 200.672 81.852 c 200.543 82.079 200.441 82.333 200.367
 82.618 c 200.289 82.899 200.238 83.208 200.211 83.544 c 200.18 83.876 200.164
 84.231 200.168 84.606 c 200.164 84.919 200.18 85.243 200.211 85.587 c 200.242
 85.923 200.301 86.259 200.391 86.591 c 200.477 86.919 200.602 87.231 200.766
 87.532 c 200.926 87.829 201.133 88.091 201.387 88.317 c 201.637 88.536 
201.941 88.716 202.305 88.849 c 202.66 88.981 203.09 89.048 203.586 89.048
 c 203.742 89.048 203.898 89.036 204.059 89.02 c 204.215 88.997 204.363 
88.974 204.5 88.95 c 204.633 88.919 204.746 88.888 204.844 88.852 c 204.938
 88.813 205 88.782 205.031 88.755 c 205.059 88.727 205.082 88.696 205.102
 88.665 c 205.117 88.63 205.133 88.595 205.145 88.56 c 205.152 88.517 205.156
 88.466 205.164 88.411 c 205.164 88.349 205.168 88.282 205.172 88.204 c 
205.168 88.075 205.164 87.966 205.16 87.884 c 205.152 87.798 205.141 87.735
 205.129 87.688 c 205.109 87.642 205.09 87.606 205.063 87.587 c 205.031 
87.563 204.996 87.552 204.957 87.556 c 204.906 87.552 204.84 87.567 204.766
 87.595 c 204.684 87.622 204.59 87.649 204.48 87.685 c 204.367 87.716 204.238
 87.747 204.09 87.77 c 203.938 87.794 203.762 87.806 203.566 87.81 c 203.23
 87.806 202.949 87.743 202.719 87.622 c 202.488 87.497 202.301 87.329 202.16
 87.118 c 202.016 86.903 201.91 86.657 201.844 86.38 c 201.777 86.099 201.742
 85.802 201.742 85.493 c 201.828 85.548 201.934 85.606 202.051 85.665 c 
202.168 85.724 202.293 85.774 202.434 85.813 c 202.566 85.852 202.719 85.884
 202.883 85.915 c 203.043 85.938 203.211 85.954 203.395 85.958 c 203.793
 85.954 204.141 85.899 204.43 85.79 c 204.719 85.677 204.953 85.517 205.137
 85.313 c 205.32 85.106 205.457 84.856 205.543 84.567 c 205.629 84.27 205.672
 83.946 205.672 83.595 c h
204.078 83.438 m 204.078 83.645 204.059 83.829 204.023 83.989 c 203.984
 84.145 203.926 84.278 203.844 84.392 c 203.762 84.497 203.652 84.579 203.52
 84.638 c 203.383 84.692 203.219 84.724 203.023 84.724 c 202.906 84.724 
202.793 84.712 202.684 84.692 c 202.574 84.669 202.465 84.638 202.359 84.602
 c 202.25 84.563 202.148 84.52 202.051 84.47 c 201.949 84.419 201.855 84.364
 201.773 84.31 c 201.77 83.864 201.793 83.497 201.844 83.208 c 201.891 82.911
 201.965 82.677 202.063 82.505 c 202.16 82.329 202.281 82.208 202.43 82.138
 c 202.574 82.063 202.742 82.028 202.938 82.032 c 203.125 82.028 203.293
 82.063 203.434 82.138 c 203.574 82.204 203.691 82.302 203.789 82.435 c 
203.883 82.56 203.953 82.708 204.004 82.88 c 204.051 83.048 204.078 83.235
 204.078 83.438 c h
f
0.498039 g
134.172 185.169 m 61.563 164.977 l S
54.246 162.95 m 62.566 170.466 l 61.891 166.997 62.887 163.423 65.25 160.806
 c h
f*
41.859 171.61 m 14.871 269.466 l S
12.855 276.782 m 20.352 268.454 l 16.891 269.126 13.309 268.142 10.688 
265.786 c h
f*
19.574 286.618 m 145.809 299.61 l S
153.367 300.392 m 143.895 294.376 l 145.145 297.677 144.766 301.376 142.875
 304.352 c h
f*
162.531 292.118 m 153.535 214.29 l S
152.66 206.739 m 148.836 217.282 l 151.789 215.349 155.48 214.919 158.801
 216.126 c h
f*
0 g
140.309 172.419 m 90.051 88.505 l S
86.148 81.993 m 87 93.173 l 88.898 90.196 92.086 88.286 95.605 88.017 c
 h
f*
90.57 74.938 m 186.172 83.431 l S
193.742 84.102 m 184.195 78.22 l 185.488 81.505 185.152 85.204 183.305 
88.208 c h
f*
303.938 101.759 m 322.016 159.247 l S
324.297 166.481 m 326.063 155.411 l 323.531 157.872 319.988 158.985 316.496
 158.431 c h
f*
319.387 170.161 m 252.574 125.575 l S
246.258 121.36 m 251.82 131.095 l 252.262 127.595 254.32 124.505 257.379
 122.755 c h
f*
231.52 122.157 m 173.055 171.063 l S
167.23 175.942 m 178.141 173.345 l 174.906 171.935 172.52 169.087 171.699
 165.661 c h
f*
0.74902 g
166.641 203.724 m 264.926 289.813 l S
270.633 294.817 m 266.387 284.442 l 265.504 287.849 263.055 290.645 259.785
 291.981 c h
f*
268.879 297.825 m 185.68 254.087 l S
178.953 250.552 m 185.5 259.657 l 185.574 256.126 187.297 252.845 190.168
 250.786 c h
f*
167.945 237.067 m 159.18 213.028 l S
156.582 205.899 m 155.313 217.044 l 157.727 214.477 161.219 213.204 164.73
 213.606 c h
f*
0 g
9.875 282.337 m 9.871 282.22 9.863 282.122 9.855 282.044 c 9.84 281.958
 9.824 281.895 9.801 281.852 c 9.777 281.802 9.75 281.767 9.727 281.751 
c 9.695 281.727 9.664 281.72 9.625 281.72 c 5.211 281.72 l 5.176 281.72 
5.145 281.727 5.117 281.751 c 5.086 281.767 5.059 281.802 5.039 281.852 
c 5.016 281.895 5 281.958 4.988 282.044 c 4.973 282.122 4.965 282.22 4.969
 282.337 c 4.965 282.454 4.973 282.556 4.984 282.638 c 4.992 282.716 5.008
 282.782 5.031 282.833 c 5.055 282.88 5.078 282.915 5.109 282.938 c 5.137
 282.962 5.172 282.974 5.211 282.974 c 6.699 282.974 l 6.699 288.185 l 5.414
 287.47 l 5.316 287.423 5.242 287.395 5.184 287.388 c 5.121 287.372 5.07
 287.384 5.039 287.423 c 5 287.454 4.977 287.517 4.969 287.606 c 4.953 287.692
 4.949 287.813 4.949 287.974 c 4.949 288.067 4.949 288.149 4.953 288.216
 c 4.957 288.278 4.969 288.333 4.984 288.38 c 5 288.423 5.023 288.462 5.055
 288.493 c 5.082 288.52 5.121 288.548 5.172 288.583 c 6.891 289.696 l 6.906
 289.712 6.934 289.727 6.969 289.739 c 6.996 289.747 7.035 289.755 7.09 
289.763 c 7.137 289.767 7.203 289.77 7.285 289.774 c 7.363 289.774 7.469
 289.774 7.598 289.778 c 7.754 289.774 7.879 289.77 7.977 289.767 c 8.074
 289.759 8.148 289.751 8.199 289.735 c 8.246 289.72 8.277 289.7 8.297 289.677
 c 8.309 289.653 8.316 289.622 8.32 289.587 c 8.32 282.974 l 9.625 282.974
 l 9.664 282.974 9.695 282.962 9.727 282.938 c 9.754 282.915 9.781 282.88
 9.809 282.833 c 9.828 282.782 9.848 282.716 9.859 282.638 c 9.867 282.556
 9.871 282.454 9.875 282.337 c h
f
16.445 285.751 m 16.441 285.11 16.391 284.532 16.289 284.02 c 16.188 283.501
 16.02 283.06 15.785 282.7 c 15.551 282.333 15.246 282.056 14.875 281.868
 c 14.5 281.673 14.043 281.579 13.508 281.579 c 12.953 281.579 12.5 281.673
 12.145 281.86 c 11.785 282.048 11.5 282.317 11.293 282.669 c 11.078 283.02
 10.93 283.45 10.848 283.958 c 10.762 284.466 10.723 285.04 10.723 285.688
 c 10.723 286.321 10.773 286.899 10.879 287.419 c 10.984 287.935 11.152 
288.376 11.387 288.739 c 11.617 289.099 11.922 289.376 12.297 289.571 c 
12.668 289.767 13.121 289.864 13.66 289.864 c 14.207 289.864 14.664 289.77
 15.023 289.583 c 15.383 289.395 15.668 289.122 15.879 288.77 c 16.09 288.415
 16.234 287.985 16.32 287.477 c 16.398 286.966 16.441 286.392 16.445 285.751
 c h
14.805 285.673 m 14.801 286.048 14.789 286.384 14.773 286.677 c 14.75 286.966
 14.719 287.216 14.676 287.435 c 14.633 287.645 14.578 287.829 14.516 287.977
 c 14.449 288.126 14.375 288.243 14.285 288.333 c 14.191 288.419 14.086 
288.481 13.977 288.52 c 13.859 288.556 13.734 288.575 13.594 288.579 c 13.348
 288.575 13.145 288.517 12.988 288.403 c 12.828 288.282 12.703 288.106 12.613
 287.872 c 12.516 287.638 12.449 287.345 12.418 286.993 c 12.379 286.642
 12.363 286.231 12.363 285.77 c 12.363 285.2 12.383 284.731 12.43 284.356
 c 12.473 283.981 12.547 283.685 12.645 283.466 c 12.738 283.247 12.859 
283.091 13.016 283.001 c 13.164 282.911 13.352 282.868 13.57 282.868 c 13.727
 282.868 13.867 282.892 13.992 282.946 c 14.117 282.993 14.227 283.071 14.32
 283.177 c 14.414 283.278 14.488 283.407 14.551 283.567 c 14.609 283.724
 14.66 283.907 14.703 284.114 c 14.738 284.317 14.766 284.548 14.781 284.81
 c 14.793 285.067 14.801 285.356 14.805 285.673 c h
f
198.516 196.087 m 201.438 195.708 203.512 193.028 203.133 190.106 c 202.742
 187.185 200.074 185.122 197.148 185.501 c 194.227 185.88 192.156 188.56
 192.535 191.481 c 192.926 194.403 195.594 196.466 198.516 196.087 c h
f*
0.74902 g
198.523 271.032 m 201.445 270.653 203.504 267.974 203.125 265.052 c 202.746
 262.13 200.066 260.067 197.145 260.446 c 194.223 260.825 192.164 263.505
 192.539 266.427 c 192.918 269.349 195.602 271.411 198.523 271.032 c h
f*
0.498039 g
118.219 308.505 m 121.141 308.126 123.211 305.446 122.832 302.524 c 122.445
 299.602 119.773 297.54 116.852 297.919 c 113.93 298.298 111.859 300.966
 112.238 303.899 c 112.625 306.821 115.297 308.884 118.219 308.505 c h
f*
37.25 30.196 m 37.25 33.145 39.641 35.532 42.59 35.532 c 45.535 35.532 
47.926 33.145 47.926 30.196 c 47.926 27.247 45.535 24.86 42.59 24.86 c 39.641
 24.86 37.25 27.247 37.25 30.196 c h
f*
0 g
[ 16.555953 11.825681] 0 d
78.02 1.185 m 77.586 150.501 l S
1 g
72.27 74.126 m 72.27 79.188 76.375 83.294 81.438 83.294 c 86.5 83.294 90.605
 79.188 90.605 74.126 c 90.605 69.06 86.5 64.958 81.438 64.958 c 76.375 
64.958 72.27 69.06 72.27 74.126 c h
f
0 g
[] 0.0 d
72.27 74.126 m 72.27 79.188 76.375 83.294 81.438 83.294 c 86.5 83.294 90.605
 79.188 90.605 74.126 c 90.605 69.06 86.5 64.958 81.438 64.958 c 76.375 
64.958 72.27 69.06 72.27 74.126 c h
S
0.74902 g
247.047 300.079 m 245.313 302.466 245.848 305.798 248.223 307.532 c 250.609
 309.267 253.953 308.731 255.688 306.356 c 257.422 303.97 256.887 300.626
 254.5 298.892 c 252.113 297.157 248.781 297.692 247.047 300.079 c h
f*
0 g
112.863 35.489 m 115.793 35.11 117.855 32.431 117.477 29.509 c 117.098 
26.587 114.418 24.524 111.496 24.903 c 108.574 25.282 106.504 27.962 106.891
 30.884 c 107.27 33.806 109.941 35.868 112.863 35.489 c h
f*
[ 16.555953 11.825681] 0 d
77.328 152.243 m 55.113 173.302 l S
84.262 72.274 m 84.262 71.907 84.199 71.587 84.074 71.306 c 83.949 71.02
 83.762 70.778 83.52 70.587 c 83.27 70.388 82.969 70.239 82.609 70.142 c
 82.246 70.04 81.828 69.993 81.355 69.993 c 80.902 69.993 80.504 70.04 80.164
 70.13 c 79.82 70.22 79.535 70.349 79.305 70.524 c 79.074 70.696 78.898 
70.911 78.785 71.173 c 78.668 71.427 78.613 71.724 78.613 72.06 c 78.613
 72.282 78.645 72.493 78.715 72.696 c 78.781 72.892 78.883 73.079 79.02 
73.251 c 79.148 73.423 79.316 73.583 79.516 73.735 c 79.715 73.884 79.945
 74.028 80.207 74.165 c 79.996 74.278 79.805 74.399 79.637 74.536 c 79.469
 74.669 79.324 74.817 79.207 74.974 c 79.082 75.13 78.992 75.302 78.934 
75.497 c 78.871 75.685 78.84 75.892 78.844 76.114 c 78.84 76.431 78.898 
76.72 79.012 76.985 c 79.125 77.243 79.293 77.47 79.52 77.665 c 79.742 77.852
 80.023 78.001 80.359 78.106 c 80.695 78.208 81.086 78.259 81.535 78.263
 c 81.973 78.259 82.352 78.212 82.668 78.118 c 82.98 78.02 83.238 77.888
 83.441 77.72 c 83.641 77.544 83.789 77.337 83.887 77.099 c 83.984 76.856
 84.031 76.591 84.035 76.298 c 84.031 76.102 84 75.915 83.938 75.735 c 83.871
 75.552 83.781 75.376 83.668 75.212 c 83.551 75.044 83.41 74.888 83.242 
74.747 c 83.074 74.599 82.883 74.466 82.668 74.349 c 82.918 74.216 83.141
 74.079 83.344 73.931 c 83.539 73.782 83.707 73.622 83.844 73.45 c 83.977
 73.278 84.078 73.095 84.152 72.903 c 84.223 72.708 84.262 72.497 84.262
 72.274 c h
82.473 76.153 m 82.469 76.294 82.449 76.423 82.41 76.54 c 82.367 76.649
 82.301 76.747 82.215 76.833 c 82.125 76.911 82.016 76.974 81.887 77.017
 c 81.758 77.056 81.605 77.075 81.43 77.079 c 81.082 77.075 80.824 76.997
 80.656 76.841 c 80.488 76.681 80.406 76.462 80.406 76.181 c 80.406 76.048
 80.426 75.927 80.469 75.817 c 80.512 75.708 80.578 75.602 80.668 75.505
 c 80.758 75.403 80.875 75.306 81.02 75.212 c 81.164 75.114 81.336 75.013
 81.535 74.911 c 81.832 75.083 82.063 75.274 82.227 75.477 c 82.387 75.681
 82.469 75.903 82.473 76.153 c h
82.656 72.165 m 82.656 72.313 82.629 72.45 82.578 72.579 c 82.527 72.704
 82.449 72.825 82.34 72.935 c 82.23 73.044 82.094 73.149 81.93 73.255 c 
81.766 73.356 81.574 73.462 81.355 73.571 c 81.164 73.466 80.996 73.364 
80.855 73.263 c 80.711 73.161 80.59 73.052 80.496 72.938 c 80.398 72.825
 80.328 72.704 80.285 72.579 c 80.234 72.45 80.211 72.317 80.215 72.177 
c 80.211 71.852 80.316 71.606 80.523 71.442 c 80.73 71.27 81.039 71.188 
81.453 71.188 c 81.855 71.188 82.156 71.274 82.355 71.446 c 82.555 71.618
 82.656 71.856 82.656 72.165 c h
f
165.152 300.009 m 165.148 299.575 165.074 299.188 164.926 298.849 c 164.773
 298.509 164.559 298.224 164.289 297.989 c 164.012 297.755 163.684 297.575
 163.301 297.458 c 162.914 297.333 162.488 297.274 162.02 297.274 c 161.773
 297.274 161.539 297.29 161.316 297.321 c 161.094 297.352 160.895 297.388
 160.719 297.435 c 160.539 297.481 160.391 297.532 160.281 297.579 c 160.164
 297.626 160.09 297.665 160.059 297.696 c 160.02 297.727 159.996 297.759
 159.984 297.798 c 159.965 297.829 159.953 297.876 159.945 297.931 c 159.934
 297.981 159.926 298.044 159.922 298.126 c 159.918 298.2 159.914 298.294
 159.918 298.403 c 159.914 298.517 159.918 298.614 159.93 298.696 c 159.934
 298.774 159.949 298.841 159.969 298.892 c 159.984 298.938 160.004 298.97
 160.031 298.993 c 160.055 299.009 160.086 299.02 160.121 299.024 c 160.16
 299.02 160.223 298.997 160.309 298.954 c 160.391 298.903 160.5 298.852 
160.641 298.798 c 160.777 298.739 160.945 298.685 161.145 298.638 c 161.34
 298.587 161.578 298.563 161.855 298.567 c 162.09 298.563 162.305 298.587
 162.504 298.642 c 162.699 298.688 162.867 298.77 163.004 298.88 c 163.137
 298.989 163.238 299.126 163.316 299.29 c 163.387 299.454 163.426 299.649
 163.43 299.884 c 163.426 300.079 163.395 300.255 163.336 300.411 c 163.27
 300.56 163.172 300.692 163.043 300.802 c 162.91 300.911 162.738 300.989
 162.531 301.044 c 162.32 301.095 162.066 301.122 161.77 301.126 c 161.527
 301.122 161.313 301.11 161.117 301.087 c 160.922 301.06 160.738 301.048
 160.566 301.052 c 160.445 301.048 160.359 301.075 160.309 301.138 c 160.254
 301.192 160.227 301.306 160.23 301.47 c 160.23 304.938 l 160.227 305.102
 160.258 305.22 160.324 305.294 c 160.387 305.364 160.488 305.399 160.633
 305.403 c 164.418 305.403 l 164.449 305.399 164.484 305.388 164.52 305.364
 c 164.551 305.337 164.578 305.298 164.602 305.247 c 164.621 305.192 164.637
 305.122 164.652 305.036 c 164.66 304.946 164.668 304.841 164.668 304.716
 c 164.668 304.466 164.645 304.286 164.602 304.177 c 164.559 304.067 164.496
 304.013 164.418 304.013 c 161.578 304.013 l 161.578 302.302 l 161.719 302.317
 161.859 302.325 162.004 302.333 c 162.145 302.333 162.297 302.337 162.453
 302.341 c 162.883 302.337 163.266 302.286 163.605 302.188 c 163.938 302.083
 164.219 301.935 164.449 301.743 c 164.676 301.544 164.852 301.302 164.973
 301.017 c 165.09 300.724 165.148 300.388 165.152 300.009 c h
f
[] 0.0 d
150.969 207.11 m 134.172 203.606 l 134.172 172.419 l 167.23 172.419 l 167.23
 203.599 l h
S
Q Q
showpage
%%Trailer
count op_count sub {pop} repeat
countdictstack dict_count sub {end} repeat
cairo_eps_state restore
%%EOF
