VRPTEST 1.0
COMMENT: 
COMMENT: Best known objective: 134.71
NAME: small8
NUM_DEPOTS: 1
NUM_CAPACITIES: 1
NUM_VISITS: 8
NUM_LOCATIONS: 9
NUM_VEHICLES: 8
CAPACITIES: 90
DATA_SECTION
DEPOTS
  0
DEMAND_SECTION
  1 -7
  2 -30
  3 -16
  4 -9
  5 -21
  6 -15
  7 -19
  8 -23
LOCATION_COORD_SECTION
  0 20 20
  1 4 4
  2 5 5
  3 50 50
  4 51 51
  5 4 5
  6 5 4
  7 51 50
  8 50 51
DEPOT_LOCATION_SECTION
  0 0
VISIT_LOCATION_SECTION
  1 1
  2 2
  3 3
  4 4
  5 5
  6 6
  7 7
  8 8
DURATION_SECTION
  1 15
  2 15
  3 15
  4 15
  5 15
  6 15
  7 15
  8 15
DEPOT_TIME_WINDOW_SECTION
  0 0 150
COMMENT: TIMESTEP: 7
TIME_AVAIL_SECTION
  1 1
  2 4
  3 9
  4 12
  5 12
  6 16
  7 21
  8 34
EOF
