%!PS-Adobe-3.0
%%DocumentNeededResources: font Helvetica
%%+ font Helvetica-Bold
%%+ font Helvetica-Oblique
%%+ font Helvetica-BoldOblique
%%+ font Symbol
%%DocumentMedia: a4 595 841 0 () ()
%%Title: R Graphics Output
%%Creator: R Software
%%Pages: (atend)
%%Orientation: Portrait
%%BoundingBox: 18 259 577 583
%%EndComments
%%BeginProlog
/bp  { gs sRGB gs } def
% begin .ps.prolog
/gs  { gsave } bind def
/gr  { grestore } bind def
/ep  { showpage gr gr } bind def
/m   { moveto } bind def
/l  { rlineto } bind def
/np  { newpath } bind def
/cp  { closepath } bind def
/f   { fill } bind def
/o   { stroke } bind def
/c   { newpath 0 360 arc } bind def
/r   { 4 2 roll moveto 1 copy 3 -1 roll exch 0 exch rlineto 0 rlineto -1 mul 0 exch rlineto closepath } bind def
/p1  { stroke } bind def
/p2  { gsave bg fill grestore newpath } bind def
/p3  { gsave bg fill grestore stroke } bind def
/p6  { gsave bg eofill grestore newpath } bind def
/p7  { gsave bg eofill grestore stroke } bind def
/t   { 5 -2 roll moveto gsave rotate
       1 index stringwidth pop
       mul neg 0 rmoveto show grestore } bind def
/ta  { 4 -2 roll moveto gsave rotate show } bind def
/tb  { 2 -1 roll 0 rmoveto show } bind def
/cl  { grestore gsave newpath 3 index 3 index moveto 1 index
       4 -1 roll lineto  exch 1 index lineto lineto
       closepath clip newpath } bind def
/rgb { setrgbcolor } bind def
/s   { scalefont setfont } bind def
% end   .ps.prolog
/sRGB { [ /CIEBasedABC
          << /DecodeLMN
               [ { dup 0.03928 le
                        {12.92321 div}
                        {0.055 add 1.055 div 2.4 exp }
                     ifelse
                 } bind dup dup
               ]
             /MatrixLMN [0.412457 0.212673 0.019334
                         0.357576 0.715152 0.119192
                         0.180437 0.072175 0.950301]
             /WhitePoint [0.9505 1.0 1.0890]
           >>
         ] setcolorspace } bind def
/srgb { setcolor } bind def
% begin encoding
/WinAnsiEncoding [
 /.notdef /.notdef /.notdef /.notdef /.notdef /.notdef /.notdef /.notdef
 /.notdef /.notdef /.notdef /.notdef /.notdef /.notdef /.notdef /.notdef
 /.notdef /.notdef /.notdef /.notdef /.notdef /.notdef /.notdef /.notdef
 /.notdef /.notdef /.notdef /.notdef /.notdef /.notdef /.notdef /.notdef
 /space /exclam /quotedbl /numbersign /dollar /percent /ampersand /quoteright
 /parenleft /parenright /asterisk /plus /comma /minus /period /slash
 /zero /one /two /three /four /five /six /seven
 /eight /nine /colon /semicolon /less /equal /greater /question
 /at /A /B /C /D /E /F /G
 /H /I /J /K /L /M /N /O
 /P /Q /R /S /T /U /V /W
 /X /Y /Z /bracketleft /backslash /bracketright /asciicircum /underscore
 /grave /a /b /c /d /e /f /g
 /h /i /j /k /l /m /n /o
 /p /q /r /s /t /u /v /w
 /x /y /z /braceleft /bar /braceright /asciitilde /.notdef
 /Euro /.notdef /quotesinglbase /florin /quotedblbase /ellipsis /dagger /daggerdbl
 /circumflex /perthousand /Scaron /guilsinglleft /OE /.notdef /Zcaron /.notdef
 /.notdef /quoteleft /quoteright /quotedblleft /quotedblright /bullet /endash /emdash
 /tilde /trademark /scaron /guilsinglright /oe /.notdef /zcaron /Ydieresis
 /space /exclamdown /cent /sterling /currency /yen /brokenbar /section
 /dieresis /copyright /ordfeminine /guillemotleft /logicalnot /hyphen /registered /macron
 /degree /plusminus /twosuperior /threesuperior /acute /mu /paragraph /periodcentered
 /cedilla /onesuperior /ordmasculine /guillemotright /onequarter /onehalf /threequarters /questiondown
 /Agrave /Aacute /Acircumflex /Atilde /Adieresis /Aring /AE /Ccedilla
 /Egrave /Eacute /Ecircumflex /Edieresis /Igrave /Iacute /Icircumflex /Idieresis
 /Eth /Ntilde /Ograve /Oacute /Ocircumflex /Otilde /Odieresis /multiply
 /Oslash /Ugrave /Uacute /Ucircumflex /Udieresis /Yacute /Thorn /germandbls
 /agrave /aacute /acircumflex /atilde /adieresis /aring /ae /ccedilla
 /egrave /eacute /ecircumflex /edieresis /igrave /iacute /icircumflex /idieresis
 /eth /ntilde /ograve /oacute /ocircumflex /otilde /odieresis /divide
 /oslash /ugrave /uacute /ucircumflex /udieresis /yacute /thorn /ydieresis
]
 def
% end encoding
%%IncludeResource: font Helvetica
/Helvetica findfont
dup length dict begin
  {1 index /FID ne {def} {pop pop} ifelse} forall
  /Encoding WinAnsiEncoding def
  currentdict
  end
/Font1 exch definefont pop
%%IncludeResource: font Helvetica-Bold
/Helvetica-Bold findfont
dup length dict begin
  {1 index /FID ne {def} {pop pop} ifelse} forall
  /Encoding WinAnsiEncoding def
  currentdict
  end
/Font2 exch definefont pop
%%IncludeResource: font Helvetica-Oblique
/Helvetica-Oblique findfont
dup length dict begin
  {1 index /FID ne {def} {pop pop} ifelse} forall
  /Encoding WinAnsiEncoding def
  currentdict
  end
/Font3 exch definefont pop
%%IncludeResource: font Helvetica-BoldOblique
/Helvetica-BoldOblique findfont
dup length dict begin
  {1 index /FID ne {def} {pop pop} ifelse} forall
  /Encoding WinAnsiEncoding def
  currentdict
  end
/Font4 exch definefont pop
%%IncludeResource: font Symbol
/Symbol findfont
dup length dict begin
  {1 index /FID ne {def} {pop pop} ifelse} forall
  currentdict
  end
/Font5 exch definefont pop
%%EndProlog
%%Page: 1 1
bp
77.04 332.38 267.40 523.90 cl
0 0 0 srgb
0.75 setlinewidth
[] 0 setdash
1 setlinecap
1 setlinejoin
10.00 setmiterlimit
128.15 383.81 2.70 c p1
166.71 393.66 2.70 c p1
125.40 440.46 2.70 c p1
191.50 415.83 2.70 c p1
219.04 378.89 2.70 c p1
158.45 413.37 2.70 c p1
205.27 452.77 2.70 c p1
219.04 440.46 2.70 c p1
139.17 474.94 2.70 c p1
177.73 492.18 2.70 c p1
219.04 489.72 2.70 c p1
163.96 455.24 2.70 c p1
238.32 415.83 2.70 c p1
238.32 470.02 2.70 c p1
238.32 388.74 2.70 c p1
125.40 418.29 2.70 c p1
158.45 438.00 2.70 c p1
92.35 467.55 2.70 c p1
238.32 447.85 2.70 c p1
249.33 364.11 2.70 c p1
188.74 361.64 2.70 c p1
139.17 361.64 2.70 c p1
97.86 398.59 2.70 c p1
86.84 435.53 2.70 c p1
114.38 487.26 2.70 c p1
180.48 442.92 2.70 c p1
219.04 413.37 2.70 c p1
163.96 369.03 2.70 c p1
210.78 393.66 2.70 c p1
185.99 393.66 2.70 c p1
152.94 516.81 2.70 c p1
128.15 460.16 2.70 c p1
139.17 401.05 2.70 c p1
205.27 428.14 2.70 c p1
219.04 452.77 2.70 c p1
216.28 354.26 2.70 c p1
232.81 366.57 2.70 c p1
197.01 492.18 2.70 c p1
150.19 477.40 2.70 c p1
150.19 452.77 2.70 c p1
100.61 371.50 2.70 c p1
108.88 364.11 2.70 c p1
111.63 376.42 2.70 c p1
125.40 447.85 2.70 c p1
205.27 403.52 2.70 c p1
208.02 433.07 2.70 c p1
205.27 366.57 2.70 c p1
199.76 381.35 2.70 c p1
100.61 423.22 2.70 c p1
108.88 467.55 2.70 c p1
147.43 425.68 2.70 c p1
216.28 423.22 2.70 c p1
219.04 470.02 2.70 c p1
252.09 430.61 2.70 c p1
95.11 502.03 2.70 c p1
84.09 391.20 2.70 c p1
246.58 396.13 2.70 c p1
177.73 477.40 2.70 c p1
260.35 487.26 2.70 c p1
243.82 339.48 2.70 c p1
166.71 344.40 2.70 c p1
150.19 378.89 2.70 c p1
122.65 403.52 2.70 c p1
108.88 341.94 2.70 c p1
205.27 502.03 2.70 c p1
224.55 506.96 2.70 c p1
191.50 433.07 2.70 c p1
172.22 410.90 2.70 c p1
205.27 339.48 2.70 c p1
249.33 349.33 2.70 c p1
230.05 341.94 2.70 c p1
163.96 477.40 2.70 c p1
141.92 388.74 2.70 c p1
177.73 378.89 2.70 c p1
177.73 420.76 2.70 c p1
18.00 258.94 577.28 582.94 cl
0 0 0 srgb
0.75 setlinewidth
[] 0 setdash
1 setlinecap
1 setlinejoin
10.00 setmiterlimit
np
95.11 332.38 m
165.24 0 l
o
np
95.11 332.38 m
0 -7.20 l
o
np
122.65 332.38 m
0 -7.20 l
o
np
150.19 332.38 m
0 -7.20 l
o
np
177.73 332.38 m
0 -7.20 l
o
np
205.27 332.38 m
0 -7.20 l
o
np
232.81 332.38 m
0 -7.20 l
o
np
260.35 332.38 m
0 -7.20 l
o
/Font1 findfont 12 s
95.11 306.46 (10) .5 0 t
122.65 306.46 (20) .5 0 t
150.19 306.46 (30) .5 0 t
177.73 306.46 (40) .5 0 t
205.27 306.46 (50) .5 0 t
232.81 306.46 (60) .5 0 t
260.35 306.46 (70) .5 0 t
np
77.04 354.26 m
0 147.77 l
o
np
77.04 354.26 m
-7.20 0 l
o
np
77.04 378.89 m
-7.20 0 l
o
np
77.04 403.52 m
-7.20 0 l
o
np
77.04 428.14 m
-7.20 0 l
o
np
77.04 452.77 m
-7.20 0 l
o
np
77.04 477.40 m
-7.20 0 l
o
np
77.04 502.03 m
-7.20 0 l
o
59.76 354.26 (10) .5 90 t
59.76 378.89 (20) .5 90 t
59.76 403.52 (30) .5 90 t
59.76 428.14 (40) .5 90 t
59.76 452.77 (50) .5 90 t
59.76 477.40 (60) .5 90 t
59.76 502.03 (70) .5 90 t
np
77.04 332.38 m
190.36 0 l
0 191.52 l
-190.36 0 l
0 -191.52 l
o
18.00 258.94 297.64 582.94 cl
/Font2 findfont 14 s
0 0 0 srgb
172.22 548.40 (c75) .5 0 t
/Font1 findfont 12 s
172.22 263.26 (Locations plot) .5 0 t
172.22 277.66 (X) .5 0 t
30.96 428.14 (Y) .5 90 t
356.68 332.38 547.04 523.90 cl
297.64 258.94 577.28 582.94 cl
/Font2 findfont 14 s
0 0 0 srgb
451.86 548.40 (c75) .5 0 t
/Font1 findfont 12 s
377.50 263.26 (Requests v) 0 ta
-0.300 (olume histogr) tb
-0.120 (am) tb gr
431.52 277.66 (V) 0 ta
-0.960 (olume) tb gr
310.60 387.46 (No) 90 ta
-0.480 (. of requests) tb gr
18.00 258.94 577.28 582.94 cl
0 0 0 srgb
0.75 setlinewidth
[] 0 setdash
1 setlinecap
1 setlinejoin
10.00 setmiterlimit
np
363.73 332.38 m
176.26 0 l
o
np
363.73 332.38 m
0 -7.20 l
o
np
407.79 332.38 m
0 -7.20 l
o
np
451.86 332.38 m
0 -7.20 l
o
np
495.92 332.38 m
0 -7.20 l
o
np
539.99 332.38 m
0 -7.20 l
o
/Font1 findfont 12 s
363.73 306.46 (0) .5 0 t
407.79 306.46 (10) .5 0 t
451.86 306.46 (20) .5 0 t
495.92 306.46 (30) .5 0 t
539.99 306.46 (40) .5 0 t
np
356.68 339.48 m
0 147.78 l
o
np
356.68 339.48 m
-7.20 0 l
o
np
356.68 388.74 m
-7.20 0 l
o
np
356.68 438.00 m
-7.20 0 l
o
np
356.68 487.26 m
-7.20 0 l
o
339.40 339.48 (0) .5 90 t
339.40 388.74 (5) .5 90 t
339.40 438.00 (10) .5 90 t
339.40 487.26 (15) .5 90 t
356.68 332.38 547.04 523.90 cl
0 0 0 srgb
0.75 setlinewidth
[] 0 setdash
1 setlinecap
1 setlinejoin
10.00 setmiterlimit
363.73 339.48 22.03 29.56 r p1
385.76 339.48 22.03 88.67 r p1
407.79 339.48 22.03 177.33 r p1
429.82 339.48 22.03 177.33 r p1
451.86 339.48 22.03 98.52 r p1
473.89 339.48 22.03 128.07 r p1
495.92 339.48 22.03 19.70 r p1
517.95 339.48 22.03 19.70 r p1
ep
%%Trailer
%%Pages: 1
%%EOF
