%!PS-Adobe-3.0
%%DocumentNeededResources: font Helvetica
%%+ font Helvetica-Bold
%%+ font Helvetica-Oblique
%%+ font Helvetica-BoldOblique
%%+ font Symbol
%%DocumentMedia: a4 595 841 0 () ()
%%Title: R Graphics Output
%%Creator: R Software
%%Pages: (atend)
%%Orientation: Portrait
%%BoundingBox: 18 259 577 583
%%EndComments
%%BeginProlog
/bp  { gs sRGB gs } def
% begin .ps.prolog
/gs  { gsave } bind def
/gr  { grestore } bind def
/ep  { showpage gr gr } bind def
/m   { moveto } bind def
/l  { rlineto } bind def
/np  { newpath } bind def
/cp  { closepath } bind def
/f   { fill } bind def
/o   { stroke } bind def
/c   { newpath 0 360 arc } bind def
/r   { 4 2 roll moveto 1 copy 3 -1 roll exch 0 exch rlineto 0 rlineto -1 mul 0 exch rlineto closepath } bind def
/p1  { stroke } bind def
/p2  { gsave bg fill grestore newpath } bind def
/p3  { gsave bg fill grestore stroke } bind def
/p6  { gsave bg eofill grestore newpath } bind def
/p7  { gsave bg eofill grestore stroke } bind def
/t   { 5 -2 roll moveto gsave rotate
       1 index stringwidth pop
       mul neg 0 rmoveto show grestore } bind def
/ta  { 4 -2 roll moveto gsave rotate show } bind def
/tb  { 2 -1 roll 0 rmoveto show } bind def
/cl  { grestore gsave newpath 3 index 3 index moveto 1 index
       4 -1 roll lineto  exch 1 index lineto lineto
       closepath clip newpath } bind def
/rgb { setrgbcolor } bind def
/s   { scalefont setfont } bind def
% end   .ps.prolog
/sRGB { [ /CIEBasedABC
          << /DecodeLMN
               [ { dup 0.03928 le
                        {12.92321 div}
                        {0.055 add 1.055 div 2.4 exp }
                     ifelse
                 } bind dup dup
               ]
             /MatrixLMN [0.412457 0.212673 0.019334
                         0.357576 0.715152 0.119192
                         0.180437 0.072175 0.950301]
             /WhitePoint [0.9505 1.0 1.0890]
           >>
         ] setcolorspace } bind def
/srgb { setcolor } bind def
% begin encoding
/WinAnsiEncoding [
 /.notdef /.notdef /.notdef /.notdef /.notdef /.notdef /.notdef /.notdef
 /.notdef /.notdef /.notdef /.notdef /.notdef /.notdef /.notdef /.notdef
 /.notdef /.notdef /.notdef /.notdef /.notdef /.notdef /.notdef /.notdef
 /.notdef /.notdef /.notdef /.notdef /.notdef /.notdef /.notdef /.notdef
 /space /exclam /quotedbl /numbersign /dollar /percent /ampersand /quoteright
 /parenleft /parenright /asterisk /plus /comma /minus /period /slash
 /zero /one /two /three /four /five /six /seven
 /eight /nine /colon /semicolon /less /equal /greater /question
 /at /A /B /C /D /E /F /G
 /H /I /J /K /L /M /N /O
 /P /Q /R /S /T /U /V /W
 /X /Y /Z /bracketleft /backslash /bracketright /asciicircum /underscore
 /grave /a /b /c /d /e /f /g
 /h /i /j /k /l /m /n /o
 /p /q /r /s /t /u /v /w
 /x /y /z /braceleft /bar /braceright /asciitilde /.notdef
 /Euro /.notdef /quotesinglbase /florin /quotedblbase /ellipsis /dagger /daggerdbl
 /circumflex /perthousand /Scaron /guilsinglleft /OE /.notdef /Zcaron /.notdef
 /.notdef /quoteleft /quoteright /quotedblleft /quotedblright /bullet /endash /emdash
 /tilde /trademark /scaron /guilsinglright /oe /.notdef /zcaron /Ydieresis
 /space /exclamdown /cent /sterling /currency /yen /brokenbar /section
 /dieresis /copyright /ordfeminine /guillemotleft /logicalnot /hyphen /registered /macron
 /degree /plusminus /twosuperior /threesuperior /acute /mu /paragraph /periodcentered
 /cedilla /onesuperior /ordmasculine /guillemotright /onequarter /onehalf /threequarters /questiondown
 /Agrave /Aacute /Acircumflex /Atilde /Adieresis /Aring /AE /Ccedilla
 /Egrave /Eacute /Ecircumflex /Edieresis /Igrave /Iacute /Icircumflex /Idieresis
 /Eth /Ntilde /Ograve /Oacute /Ocircumflex /Otilde /Odieresis /multiply
 /Oslash /Ugrave /Uacute /Ucircumflex /Udieresis /Yacute /Thorn /germandbls
 /agrave /aacute /acircumflex /atilde /adieresis /aring /ae /ccedilla
 /egrave /eacute /ecircumflex /edieresis /igrave /iacute /icircumflex /idieresis
 /eth /ntilde /ograve /oacute /ocircumflex /otilde /odieresis /divide
 /oslash /ugrave /uacute /ucircumflex /udieresis /yacute /thorn /ydieresis
]
 def
% end encoding
%%IncludeResource: font Helvetica
/Helvetica findfont
dup length dict begin
  {1 index /FID ne {def} {pop pop} ifelse} forall
  /Encoding WinAnsiEncoding def
  currentdict
  end
/Font1 exch definefont pop
%%IncludeResource: font Helvetica-Bold
/Helvetica-Bold findfont
dup length dict begin
  {1 index /FID ne {def} {pop pop} ifelse} forall
  /Encoding WinAnsiEncoding def
  currentdict
  end
/Font2 exch definefont pop
%%IncludeResource: font Helvetica-Oblique
/Helvetica-Oblique findfont
dup length dict begin
  {1 index /FID ne {def} {pop pop} ifelse} forall
  /Encoding WinAnsiEncoding def
  currentdict
  end
/Font3 exch definefont pop
%%IncludeResource: font Helvetica-BoldOblique
/Helvetica-BoldOblique findfont
dup length dict begin
  {1 index /FID ne {def} {pop pop} ifelse} forall
  /Encoding WinAnsiEncoding def
  currentdict
  end
/Font4 exch definefont pop
%%IncludeResource: font Symbol
/Symbol findfont
dup length dict begin
  {1 index /FID ne {def} {pop pop} ifelse} forall
  currentdict
  end
/Font5 exch definefont pop
%%EndProlog
%%Page: 1 1
bp
77.04 332.38 267.40 523.90 cl
0 0 0 srgb
0.75 setlinewidth
[] 0 setdash
1 setlinecap
1 setlinejoin
10.00 setmiterlimit
136.31 405.54 2.70 c p1
116.73 409.02 2.70 c p1
208.12 363.82 2.70 c p1
227.71 353.39 2.70 c p1
208.12 367.30 2.70 c p1
155.90 384.68 2.70 c p1
227.71 349.91 2.70 c p1
221.18 353.39 2.70 c p1
260.35 339.48 2.70 c p1
168.95 367.30 2.70 c p1
142.84 409.02 2.70 c p1
123.26 395.11 2.70 c p1
123.26 398.59 2.70 c p1
142.84 419.45 2.70 c p1
123.26 409.02 2.70 c p1
116.73 395.11 2.70 c p1
116.73 398.59 2.70 c p1
155.90 405.54 2.70 c p1
123.26 412.50 2.70 c p1
234.24 447.27 2.70 c p1
247.29 457.70 2.70 c p1
247.29 461.18 2.70 c p1
227.71 454.22 2.70 c p1
221.18 457.70 2.70 c p1
221.18 461.18 2.70 c p1
227.71 457.70 2.70 c p1
253.82 475.09 2.70 c p1
247.29 468.13 2.70 c p1
234.24 450.75 2.70 c p1
240.76 454.22 2.70 c p1
175.48 429.88 2.70 c p1
175.48 433.36 2.70 c p1
162.43 419.45 2.70 c p1
168.95 433.36 2.70 c p1
168.95 415.97 2.70 c p1
168.95 419.45 2.70 c p1
84.09 468.13 2.70 c p1
84.09 471.61 2.70 c p1
136.31 461.18 2.70 c p1
84.09 478.56 2.70 c p1
175.48 454.22 2.70 c p1
227.71 499.43 2.70 c p1
227.71 502.90 2.70 c p1
221.18 499.43 2.70 c p1
208.12 509.86 2.70 c p1
221.18 502.90 2.70 c p1
201.60 495.95 2.70 c p1
201.60 499.43 2.70 c p1
188.54 488.99 2.70 c p1
188.54 492.47 2.70 c p1
182.01 488.99 2.70 c p1
182.01 516.81 2.70 c p1
221.18 506.38 2.70 c p1
175.48 443.79 2.70 c p1
175.48 447.27 2.70 c p1
155.90 447.27 2.70 c p1
155.90 450.75 2.70 c p1
136.31 443.79 2.70 c p1
136.31 447.27 2.70 c p1
142.84 436.84 2.70 c p1
142.84 440.31 2.70 c p1
123.26 440.31 2.70 c p1
123.26 443.79 2.70 c p1
116.73 440.31 2.70 c p1
116.73 443.79 2.70 c p1
110.20 450.75 2.70 c p1
110.20 454.22 2.70 c p1
116.73 461.18 2.70 c p1
84.09 461.18 2.70 c p1
182.01 492.47 2.70 c p1
155.90 388.16 2.70 c p1
18.00 258.94 577.28 582.94 cl
0 0 0 srgb
0.75 setlinewidth
[] 0 setdash
1 setlinecap
1 setlinejoin
10.00 setmiterlimit
np
84.09 332.38 m
163.20 0 l
o
np
84.09 332.38 m
0 -7.20 l
o
np
116.73 332.38 m
0 -7.20 l
o
np
149.37 332.38 m
0 -7.20 l
o
np
182.01 332.38 m
0 -7.20 l
o
np
214.65 332.38 m
0 -7.20 l
o
np
247.29 332.38 m
0 -7.20 l
o
/Font1 findfont 12 s
84.09 306.46 (-20) .5 0 t
116.73 306.46 (-15) .5 0 t
149.37 306.46 (-10) .5 0 t
182.01 306.46 (-5) .5 0 t
214.65 306.46 (0) .5 0 t
247.29 306.46 (5) .5 0 t
np
77.04 356.86 m
0 139.09 l
o
np
77.04 356.86 m
-7.20 0 l
o
np
77.04 391.64 m
-7.20 0 l
o
np
77.04 426.41 m
-7.20 0 l
o
np
77.04 461.18 m
-7.20 0 l
o
np
77.04 495.95 m
-7.20 0 l
o
59.76 356.86 (-20) .5 90 t
59.76 391.64 (-10) .5 90 t
59.76 426.41 (0) .5 90 t
59.76 461.18 (10) .5 90 t
59.76 495.95 (20) .5 90 t
np
77.04 332.38 m
190.36 0 l
0 191.52 l
-190.36 0 l
0 -191.52 l
o
18.00 258.94 297.64 582.94 cl
/Font2 findfont 14 s
0 0 0 srgb
172.22 548.40 (f71) .5 0 t
/Font1 findfont 12 s
172.22 263.26 (Locations plot) .5 0 t
172.22 277.66 (X) .5 0 t
30.96 428.14 (Y) .5 90 t
356.68 332.38 547.04 523.90 cl
297.64 258.94 577.28 582.94 cl
/Font2 findfont 14 s
0 0 0 srgb
451.86 548.40 (f71) .5 0 t
/Font1 findfont 12 s
377.50 263.26 (Requests v) 0 ta
-0.300 (olume histogr) tb
-0.120 (am) tb gr
431.52 277.66 (V) 0 ta
-0.960 (olume) tb gr
310.60 387.46 (No) 90 ta
-0.480 (. of requests) tb gr
18.00 258.94 577.28 582.94 cl
0 0 0 srgb
0.75 setlinewidth
[] 0 setdash
1 setlinecap
1 setlinejoin
10.00 setmiterlimit
np
363.73 332.38 m
160.23 0 l
o
np
363.73 332.38 m
0 -7.20 l
o
np
403.79 332.38 m
0 -7.20 l
o
np
443.85 332.38 m
0 -7.20 l
o
np
483.90 332.38 m
0 -7.20 l
o
np
523.96 332.38 m
0 -7.20 l
o
/Font1 findfont 12 s
363.73 306.46 (0) .5 0 t
403.79 306.46 (5000) .5 0 t
443.85 306.46 (10000) .5 0 t
523.96 306.46 (20000) .5 0 t
np
356.68 339.48 m
0 161.21 l
o
np
356.68 339.48 m
-7.20 0 l
o
np
356.68 371.72 m
-7.20 0 l
o
np
356.68 403.96 m
-7.20 0 l
o
np
356.68 436.21 m
-7.20 0 l
o
np
356.68 468.45 m
-7.20 0 l
o
np
356.68 500.69 m
-7.20 0 l
o
339.40 339.48 (0) .5 90 t
339.40 371.72 (10) .5 90 t
339.40 403.96 (20) .5 90 t
339.40 436.21 (30) .5 90 t
339.40 468.45 (40) .5 90 t
339.40 500.69 (50) .5 90 t
356.68 332.38 547.04 523.90 cl
0 0 0 srgb
0.75 setlinewidth
[] 0 setdash
1 setlinecap
1 setlinejoin
10.00 setmiterlimit
363.73 339.48 16.02 177.33 r p1
379.75 339.48 16.02 38.69 r p1
395.77 339.48 16.02 0.00 r p1
411.80 339.48 16.02 6.45 r p1
427.82 339.48 16.02 0.00 r p1
443.85 339.48 16.02 3.22 r p1
459.87 339.48 16.02 0.00 r p1
475.89 339.48 16.02 0.00 r p1
491.92 339.48 16.02 0.00 r p1
507.94 339.48 16.02 0.00 r p1
523.96 339.48 16.02 3.22 r p1
ep
%%Trailer
%%Pages: 1
%%EOF
