%!PS-Adobe-3.0
%%DocumentNeededResources: font Helvetica
%%+ font Helvetica-Bold
%%+ font Helvetica-Oblique
%%+ font Helvetica-BoldOblique
%%+ font Symbol
%%DocumentMedia: a4 595 841 0 () ()
%%Title: R Graphics Output
%%Creator: R Software
%%Pages: (atend)
%%Orientation: Portrait
%%BoundingBox: 18 259 577 583
%%EndComments
%%BeginProlog
/bp  { gs sRGB gs } def
% begin .ps.prolog
/gs  { gsave } bind def
/gr  { grestore } bind def
/ep  { showpage gr gr } bind def
/m   { moveto } bind def
/l  { rlineto } bind def
/np  { newpath } bind def
/cp  { closepath } bind def
/f   { fill } bind def
/o   { stroke } bind def
/c   { newpath 0 360 arc } bind def
/r   { 4 2 roll moveto 1 copy 3 -1 roll exch 0 exch rlineto 0 rlineto -1 mul 0 exch rlineto closepath } bind def
/p1  { stroke } bind def
/p2  { gsave bg fill grestore newpath } bind def
/p3  { gsave bg fill grestore stroke } bind def
/p6  { gsave bg eofill grestore newpath } bind def
/p7  { gsave bg eofill grestore stroke } bind def
/t   { 5 -2 roll moveto gsave rotate
       1 index stringwidth pop
       mul neg 0 rmoveto show grestore } bind def
/ta  { 4 -2 roll moveto gsave rotate show } bind def
/tb  { 2 -1 roll 0 rmoveto show } bind def
/cl  { grestore gsave newpath 3 index 3 index moveto 1 index
       4 -1 roll lineto  exch 1 index lineto lineto
       closepath clip newpath } bind def
/rgb { setrgbcolor } bind def
/s   { scalefont setfont } bind def
% end   .ps.prolog
/sRGB { [ /CIEBasedABC
          << /DecodeLMN
               [ { dup 0.03928 le
                        {12.92321 div}
                        {0.055 add 1.055 div 2.4 exp }
                     ifelse
                 } bind dup dup
               ]
             /MatrixLMN [0.412457 0.212673 0.019334
                         0.357576 0.715152 0.119192
                         0.180437 0.072175 0.950301]
             /WhitePoint [0.9505 1.0 1.0890]
           >>
         ] setcolorspace } bind def
/srgb { setcolor } bind def
% begin encoding
/WinAnsiEncoding [
 /.notdef /.notdef /.notdef /.notdef /.notdef /.notdef /.notdef /.notdef
 /.notdef /.notdef /.notdef /.notdef /.notdef /.notdef /.notdef /.notdef
 /.notdef /.notdef /.notdef /.notdef /.notdef /.notdef /.notdef /.notdef
 /.notdef /.notdef /.notdef /.notdef /.notdef /.notdef /.notdef /.notdef
 /space /exclam /quotedbl /numbersign /dollar /percent /ampersand /quoteright
 /parenleft /parenright /asterisk /plus /comma /minus /period /slash
 /zero /one /two /three /four /five /six /seven
 /eight /nine /colon /semicolon /less /equal /greater /question
 /at /A /B /C /D /E /F /G
 /H /I /J /K /L /M /N /O
 /P /Q /R /S /T /U /V /W
 /X /Y /Z /bracketleft /backslash /bracketright /asciicircum /underscore
 /grave /a /b /c /d /e /f /g
 /h /i /j /k /l /m /n /o
 /p /q /r /s /t /u /v /w
 /x /y /z /braceleft /bar /braceright /asciitilde /.notdef
 /Euro /.notdef /quotesinglbase /florin /quotedblbase /ellipsis /dagger /daggerdbl
 /circumflex /perthousand /Scaron /guilsinglleft /OE /.notdef /Zcaron /.notdef
 /.notdef /quoteleft /quoteright /quotedblleft /quotedblright /bullet /endash /emdash
 /tilde /trademark /scaron /guilsinglright /oe /.notdef /zcaron /Ydieresis
 /space /exclamdown /cent /sterling /currency /yen /brokenbar /section
 /dieresis /copyright /ordfeminine /guillemotleft /logicalnot /hyphen /registered /macron
 /degree /plusminus /twosuperior /threesuperior /acute /mu /paragraph /periodcentered
 /cedilla /onesuperior /ordmasculine /guillemotright /onequarter /onehalf /threequarters /questiondown
 /Agrave /Aacute /Acircumflex /Atilde /Adieresis /Aring /AE /Ccedilla
 /Egrave /Eacute /Ecircumflex /Edieresis /Igrave /Iacute /Icircumflex /Idieresis
 /Eth /Ntilde /Ograve /Oacute /Ocircumflex /Otilde /Odieresis /multiply
 /Oslash /Ugrave /Uacute /Ucircumflex /Udieresis /Yacute /Thorn /germandbls
 /agrave /aacute /acircumflex /atilde /adieresis /aring /ae /ccedilla
 /egrave /eacute /ecircumflex /edieresis /igrave /iacute /icircumflex /idieresis
 /eth /ntilde /ograve /oacute /ocircumflex /otilde /odieresis /divide
 /oslash /ugrave /uacute /ucircumflex /udieresis /yacute /thorn /ydieresis
]
 def
% end encoding
%%IncludeResource: font Helvetica
/Helvetica findfont
dup length dict begin
  {1 index /FID ne {def} {pop pop} ifelse} forall
  /Encoding WinAnsiEncoding def
  currentdict
  end
/Font1 exch definefont pop
%%IncludeResource: font Helvetica-Bold
/Helvetica-Bold findfont
dup length dict begin
  {1 index /FID ne {def} {pop pop} ifelse} forall
  /Encoding WinAnsiEncoding def
  currentdict
  end
/Font2 exch definefont pop
%%IncludeResource: font Helvetica-Oblique
/Helvetica-Oblique findfont
dup length dict begin
  {1 index /FID ne {def} {pop pop} ifelse} forall
  /Encoding WinAnsiEncoding def
  currentdict
  end
/Font3 exch definefont pop
%%IncludeResource: font Helvetica-BoldOblique
/Helvetica-BoldOblique findfont
dup length dict begin
  {1 index /FID ne {def} {pop pop} ifelse} forall
  /Encoding WinAnsiEncoding def
  currentdict
  end
/Font4 exch definefont pop
%%IncludeResource: font Symbol
/Symbol findfont
dup length dict begin
  {1 index /FID ne {def} {pop pop} ifelse} forall
  currentdict
  end
/Font5 exch definefont pop
%%EndProlog
%%Page: 1 1
bp
77.04 332.38 267.40 523.90 cl
0 0 0 srgb
0.75 setlinewidth
[] 0 setdash
1 setlinecap
1 setlinejoin
10.00 setmiterlimit
167.87 423.29 2.70 c p1
167.87 422.07 2.70 c p1
159.16 431.79 2.70 c p1
173.31 428.14 2.70 c p1
175.48 416.00 2.70 c p1
165.69 419.64 2.70 c p1
177.66 418.43 2.70 c p1
161.34 423.29 2.70 c p1
159.16 424.50 2.70 c p1
160.25 414.78 2.70 c p1
176.57 412.35 2.70 c p1
131.96 441.51 2.70 c p1
116.73 394.14 2.70 c p1
128.70 424.50 2.70 c p1
96.06 409.93 2.70 c p1
92.79 417.21 2.70 c p1
126.52 450.01 2.70 c p1
143.93 456.08 2.70 c p1
90.62 425.72 2.70 c p1
141.75 442.72 2.70 c p1
102.59 433.00 2.70 c p1
141.75 417.21 2.70 c p1
119.99 424.50 2.70 c p1
142.84 401.42 2.70 c p1
119.99 441.51 2.70 c p1
88.44 400.21 2.70 c p1
138.49 417.21 2.70 c p1
126.52 442.72 2.70 c p1
254.91 451.22 2.70 c p1
260.35 484.02 2.70 c p1
238.59 476.73 2.70 c p1
237.50 479.16 2.70 c p1
197.24 515.60 2.70 c p1
162.43 510.74 2.70 c p1
166.78 516.81 2.70 c p1
188.54 452.44 2.70 c p1
196.16 516.81 2.70 c p1
163.51 465.80 2.70 c p1
173.31 493.73 2.70 c p1
202.68 504.67 2.70 c p1
143.93 465.80 2.70 c p1
179.83 509.52 2.70 c p1
173.31 514.38 2.70 c p1
166.78 477.94 2.70 c p1
158.07 453.65 2.70 c p1
160.25 509.52 2.70 c p1
156.99 451.22 2.70 c p1
196.16 459.72 2.70 c p1
153.72 511.95 2.70 c p1
193.98 463.37 2.70 c p1
171.13 418.43 2.70 c p1
153.72 442.72 2.70 c p1
162.43 429.36 2.70 c p1
163.51 425.72 2.70 c p1
162.43 417.21 2.70 c p1
174.39 437.86 2.70 c p1
174.39 413.57 2.70 c p1
165.69 437.86 2.70 c p1
185.27 416.00 2.70 c p1
180.92 429.36 2.70 c p1
165.69 445.15 2.70 c p1
153.72 425.72 2.70 c p1
175.48 448.79 2.70 c p1
162.43 430.57 2.70 c p1
172.22 433.00 2.70 c p1
112.38 339.48 2.70 c p1
98.23 341.91 2.70 c p1
140.67 371.06 2.70 c p1
111.29 367.41 2.70 c p1
123.26 389.28 2.70 c p1
98.23 352.84 2.70 c p1
199.42 407.50 2.70 c p1
189.63 400.21 2.70 c p1
199.42 391.71 2.70 c p1
189.63 426.93 2.70 c p1
178.75 406.28 2.70 c p1
204.86 407.50 2.70 c p1
177.66 408.71 2.70 c p1
173.31 385.63 2.70 c p1
208.12 413.57 2.70 c p1
199.42 405.07 2.70 c p1
146.11 487.66 2.70 c p1
153.72 490.09 2.70 c p1
147.19 496.16 2.70 c p1
153.72 492.52 2.70 c p1
143.93 493.73 2.70 c p1
84.09 400.21 2.70 c p1
100.41 385.63 2.70 c p1
89.53 407.50 2.70 c p1
84.09 389.28 2.70 c p1
106.94 397.78 2.70 c p1
92.79 395.35 2.70 c p1
99.32 407.50 2.70 c p1
208.12 459.72 2.70 c p1
200.51 459.72 2.70 c p1
208.12 470.66 2.70 c p1
214.65 437.86 2.70 c p1
210.30 431.79 2.70 c p1
221.18 448.79 2.70 c p1
242.94 431.79 2.70 c p1
18.00 258.94 577.28 582.94 cl
0 0 0 srgb
0.75 setlinewidth
[] 0 setdash
1 setlinecap
1 setlinejoin
10.00 setmiterlimit
np
121.08 332.38 m
108.80 0 l
o
np
121.08 332.38 m
0 -7.20 l
o
np
175.48 332.38 m
0 -7.20 l
o
np
229.88 332.38 m
0 -7.20 l
o
/Font1 findfont 12 s
121.08 306.46 (-50) .5 0 t
175.48 306.46 (0) .5 0 t
229.88 306.46 (50) .5 0 t
np
77.04 351.62 m
0 121.47 l
o
np
77.04 351.62 m
-7.20 0 l
o
np
77.04 412.35 m
-7.20 0 l
o
np
77.04 473.09 m
-7.20 0 l
o
59.76 351.62 (-50) .5 90 t
59.76 412.35 (0) .5 90 t
59.76 473.09 (50) .5 90 t
np
77.04 332.38 m
190.36 0 l
0 191.52 l
-190.36 0 l
0 -191.52 l
o
18.00 258.94 297.64 582.94 cl
/Font2 findfont 14 s
0 0 0 srgb
172.22 548.40 (tai100d) .5 0 t
/Font1 findfont 12 s
172.22 263.26 (Locations plot) .5 0 t
172.22 277.66 (X) .5 0 t
30.96 428.14 (Y) .5 90 t
356.68 332.38 547.04 523.90 cl
297.64 258.94 577.28 582.94 cl
/Font2 findfont 14 s
0 0 0 srgb
451.86 548.40 (tai100d) .5 0 t
/Font1 findfont 12 s
377.50 263.26 (Requests v) 0 ta
-0.300 (olume histogr) tb
-0.120 (am) tb gr
431.52 277.66 (V) 0 ta
-0.960 (olume) tb gr
310.60 387.46 (No) 90 ta
-0.480 (. of requests) tb gr
18.00 258.94 577.28 582.94 cl
0 0 0 srgb
0.75 setlinewidth
[] 0 setdash
1 setlinecap
1 setlinejoin
10.00 setmiterlimit
np
363.73 332.38 m
160.23 0 l
o
np
363.73 332.38 m
0 -7.20 l
o
np
395.77 332.38 m
0 -7.20 l
o
np
427.82 332.38 m
0 -7.20 l
o
np
459.87 332.38 m
0 -7.20 l
o
np
491.92 332.38 m
0 -7.20 l
o
np
523.96 332.38 m
0 -7.20 l
o
/Font1 findfont 12 s
363.73 306.46 (0) .5 0 t
395.77 306.46 (200) .5 0 t
427.82 306.46 (400) .5 0 t
459.87 306.46 (600) .5 0 t
491.92 306.46 (800) .5 0 t
np
356.68 339.48 m
0 179.90 l
o
np
356.68 339.48 m
-7.20 0 l
o
np
356.68 365.18 m
-7.20 0 l
o
np
356.68 390.88 m
-7.20 0 l
o
np
356.68 416.58 m
-7.20 0 l
o
np
356.68 442.28 m
-7.20 0 l
o
np
356.68 467.98 m
-7.20 0 l
o
np
356.68 493.68 m
-7.20 0 l
o
np
356.68 519.38 m
-7.20 0 l
o
339.40 339.48 (0) .5 90 t
339.40 365.18 (10) .5 90 t
339.40 390.88 (20) .5 90 t
339.40 416.58 (30) .5 90 t
339.40 442.28 (40) .5 90 t
339.40 467.98 (50) .5 90 t
339.40 493.68 (60) .5 90 t
339.40 519.38 (70) .5 90 t
356.68 332.38 547.04 523.90 cl
0 0 0 srgb
0.75 setlinewidth
[] 0 setdash
1 setlinecap
1 setlinejoin
10.00 setmiterlimit
363.73 339.48 16.02 177.33 r p1
379.75 339.48 16.02 30.84 r p1
395.77 339.48 16.02 12.85 r p1
411.80 339.48 16.02 7.71 r p1
427.82 339.48 16.02 2.57 r p1
443.85 339.48 16.02 7.71 r p1
459.87 339.48 16.02 7.71 r p1
475.89 339.48 16.02 2.57 r p1
491.92 339.48 16.02 2.57 r p1
507.94 339.48 16.02 0.00 r p1
523.96 339.48 16.02 5.14 r p1
ep
%%Trailer
%%Pages: 1
%%EOF
