2MPSO_1;normal;reallyclusterd;1.0016171211696428
2MPSO_1;normal;uniform;1.0375447000357142
2MPSO_1;normal;pseudoclustered;1.0371302115714285
2MPSO_1;normal;structured;1.0180302694017857
2MPSO_1;uniform;reallyclusterd;1.0027555115625000
2MPSO_1;uniform;uniform;1.0344336430336538
2MPSO_1;uniform;pseudoclustered;1.0459670375982142
2MPSO_1;uniform;structured;1.0420535818125000
2MPSO_1;skewed;reallyclusterd;1.0617859541071428
2MPSO_1;skewed;uniform;1.1012517647589285
2MPSO_1;skewed;pseudoclustered;1.0354282437232142
2MPSO_1;skewed;structured;1.0848024785267857
2MPSO_1;moreskewed;reallyclusterd;1.0857391328928571
2MPSO_1;moreskewed;uniform;1.1534555360625000
2MPSO_1;moreskewed;pseudoclustered;1.0355037785535714
2MPSO_1;moreskewed;structured;1.1565191448794642
2MPSO_2;normal;reallyclusterd;1.0090189584583333
2MPSO_2;normal;uniform;1.0142711526904761
2MPSO_2;normal;pseudoclustered;1.0329514036041666
2MPSO_2;normal;structured;1.0428537697738095
2MPSO_2;uniform;reallyclusterd;1.0101781835875000
2MPSO_2;uniform;uniform;1.0318318910666666
2MPSO_2;uniform;pseudoclustered;1.0150296401000000
2MPSO_2;uniform;structured;1.0351054700714285
2MPSO_2;skewed;reallyclusterd;1.0209671962750000
2MPSO_2;skewed;uniform;1.0425017909285714
2MPSO_2;skewed;pseudoclustered;1.0414372861125000
2MPSO_2;skewed;structured;1.0293122038000000
2MPSO_2;moreskewed;reallyclusterd;1.0531889845625000
2MPSO_2;moreskewed;uniform;1.0224987231875000
2MPSO_2;moreskewed;pseudoclustered;1.0145784662857142
2MPSO_2;moreskewed;structured;1.0682420101500000
2MPSO_3;normal;reallyclusterd;1.0023611920625000
2MPSO_3;normal;uniform;1.0192737995625000
2MPSO_3;normal;pseudoclustered;1.0391872386875000
2MPSO_3;normal;structured;1.0220701105625000
2MPSO_3;uniform;reallyclusterd;1.0082721650750000
2MPSO_3;uniform;uniform;1.0185125208125000
2MPSO_3;uniform;pseudoclustered;1.0124513762500000
2MPSO_3;uniform;structured;1.0166953476875000
2MPSO_3;skewed;reallyclusterd;1.0121598255625000
2MPSO_3;skewed;uniform;1.0273978417500000
2MPSO_3;skewed;pseudoclustered;1.0314038885000000
2MPSO_3;skewed;structured;1.0316231397500000
2MPSO_3;moreskewed;reallyclusterd;1.0314845070571428
2MPSO_3;moreskewed;uniform;1.0279619828750000
2MPSO_3;moreskewed;pseudoclustered;1.0207576742375000
2MPSO_3;moreskewed;structured;1.0462402060972222
