c199D.vrp	1444,01	1,04	200
VehicleId	ClientId	X	Y	StartTime	EndTime	ArriveTime	Need	
199	0	35	35	0	399	191,52	0	
199	146	32	39	0	0	196,52	5	
199	167	33	44	0	0	210,61901951359278	20	
199	52	27	43	91	0	225,70178204389100	9	
199	127	30	48	0	0	240,53273393873630	15	
199	190	30	50	0	0	251,53273393873630	33	
199	31	31	52	52	0	262,76880191623609	27	
199	162	35	51	0	0	275,89190754185375	16	
199	101	37	52	0	0	287,12797551935354	7	
199	1	41	49	0	0	301,12797551935354	10	
199	176	41	46	0	0	313,12797551935354	18	
199	132	38	46	0	0	325,12797551935354	12	
199	69	37	47	133	0	335,54218908172664	6	
199	27	35	40	46	0	351,82229897100716	16	
200	0	35	35	0	399	143,64	0	
200	137	32	22	0	0	156,9816640641263	9	
200	2	35	17	1	0	171,8126159589716	7	
200	115	36	16	0	0	182,2268295213447	10	
200	178	35	16	0	0	192,2268295213447	29	
200	144	30	15	0	0	206,32584903493748	16	
200	57	32	12	113	0	218,93140031040147	7	
200	15	30	5	25	0	235,21151019968199	8	
200	43	23	3	68	0	251,49162008896251	7	
200	142	21	10	0	0	267,77172997824303	13	
200	42	24	12	66	0	280,37728125370702	5	
200	172	26	13	0	0	291,61334923120681	12	
200	87	28	18	177	0	305,99851403834131	26	
200	97	25	21	0	0	319,24115472546059	12	
200	117	27	23	0	0	331,06958185020678	3	
201	0	35	35	0	399	175,56	0	
201	185	55	50	0	0	200,56	10	
201	79	57	48	157	0	212,38842712474619	23	
201	129	58	48	0	0	222,38842712474619	6	
201	169	62	48	0	0	235,38842712474619	15	
201	78	61	52	152	0	248,51153275036385	3	
201	34	65	55	55	0	262,51153275036385	14	
201	164	62	57	0	0	275,11708402582784	31	
201	81	55	54	160	0	291,73285713169175	26	
201	33	53	52	53	0	303,56128425643794	11	
201	157	50	50	0	0	316,16683553190193	15	
201	102	49	49	0	0	326,58104909427503	30	
201	50	47	47	90	0	338,40947621902122	13	
202	0	35	35	0	399	175,56	0	
202	145	39	10	0	0	200,8779778023443	10	
202	41	42	7	66	0	214,12061848946358	5	
202	22	45	10	38	0	227,36325917658286	18	
202	133	46	10	0	0	237,36325917658286	23	
202	75	49	11	146	0	249,52553683675124	18	
202	23	55	5	39	0	267,01081821098981	29	
202	186	54	10	0	0	281,10983772458259	12	
202	56	53	12	111	0	292,34590570208238	6	
202	197	50	15	0	0	305,58854638920166	19	
202	74	46	13	144	0	319,06068234420124	8	
202	171	44	13	0	0	330,06068234420124	28	
202	73	44	17	144	0	343,06068234420124	9	
203	0	35	35	0	399	175,56	0	
203	60	17	34	118	0	193,5877563773199	3	
203	118	17	33	0	0	203,5877563773199	41	
203	5	15	30	5	0	216,19330765278389	26	
203	173	11	28	0	0	229,66544360778347	6	
203	84	11	31	166	0	241,66544360778347	7	
203	61	12	24	122	0	257,73651141964895	13	
203	113	5	25	0	0	273,80757923151443	23	
203	17	5	30	25	0	287,80757923151443	2	
203	45	6	38	72	0	304,86983697981298	16	
203	125	7	38	0	0	314,86983697981298	28	
203	199	12	38	0	0	328,86983697981298	5	
203	83	14	37	164	0	340,10590495731277	11	
203	166	21	36	0	0	356,17697276917825	19	
204	0	35	35	0	399	207,48	0	
204	70	37	56	136	0	228,575023109729	5	
204	108	31	62	0	0	246,06030448396757	23	
204	10	30	60	17	0	257,29637246146736	16	
204	189	30	60	0	0	266,29637246146736	16	
204	159	26	59	0	0	279,41947808708502	29	
204	62	24	58	122	0	290,65554606458481	19	
204	148	25	55	0	0	302,81782372475319	17	
204	182	22	53	0	0	315,42337500021718	28	
204	88	26	52	178	0	328,54648062583484	9	
205	0	35	35	0	399	159,60	0	
205	153	21	45	0	0	176,8046505340853	11	
205	106	21	47	0	0	187,8046505340853	15	
205	194	21	48	0	0	197,8046505340853	17	
205	7	20	50	10	0	209,04071851158509	5	
205	82	15	47	161	0	238,2709518948453	16	
205	48	13	52	78	0	252,6561167019798	36	
205	124	8	52	0	0	266,6561167019798	10	
205	46	2	48	72	0	282,86721925290778	1	
205	174	7	43	0	0	298,93828706477326	27	
205	8	10	43	13	0	310,93828706477326	9	
205	114	12	42	0	0	322,17435504227305	21	
205	18	20	40	30	0	339,42056629350837	12	
205	89	26	35	189	0	356,23081596941502	15	
206	0	35	35	0	399	143,64	0	
206	9	55	60	13	0	175,6556211871642	16	
206	120	57	58	0	0	187,48404831191039	28	
206	135	62	63	0	0	203,55511612377587	17	
206	35	63	65	56	0	214,79118410127566	8	
206	136	63	69	0	0	227,79118410127566	6	
206	65	62	77	129	0	256,46225774829855	20	
206	71	57	68	138	0	275,75788788928555	15	
206	161	55	65	0	0	288,36343916474954	37	
206	103	52	64	0	0	300,52571682491792	16	
206	51	49	58	91	0	316,23392075741729	10	
207	0	35	35	0	399	143,64	0	
207	168	9	56	0	0	177,0615499341368	13	
207	47	8	56	76	0	187,0615499341368	27	
207	36	2	60	58	0	203,27265248506478	5	
207	143	5	64	0	0	217,27265248506478	11	
207	49	6	68	85	0	230,39575811068244	30	
207	64	15	77	124	0	252,12368017204034	9	
207	63	27	69	124	0	275,54588527389634	10	
207	126	27	68	0	0	285,54588527389634	7	
207	11	20	65	18	0	302,16165837976025	12	
207	175	17	64	0	0	314,32393603992863	14	
207	107	17	63	0	0	324,32393603992863	19	
207	19	15	60	32	0	336,92948731539262	17	
207	123	16	57	0	0	349,09176497556100	16	
208	0	35	35	0	399	159,60	0	
208	12	50	35	19	0	174,60	19	
208	109	52	33	0	0	186,42842712474619	11	
208	177	55	34	0	0	198,59070478491457	17	
208	150	56	37	0	0	210,75298244508295	10	
208	80	56	37	158	0	219,75298244508295	6	
208	68	56	39	132	0	230,75298244508295	36	
208	121	62	42	0	0	246,46118637758232	8	
208	29	64	42	48	0	257,46118637758232	9	
208	24	65	35	39	0	273,53225418944780	3	
208	163	62	35	0	0	285,53225418944780	12	
208	134	61	33	0	0	296,76832216694759	26	
208	54	57	29	100	0	311,42517641643997	18	
208	195	50	30	0	0	327,49624422830545	21	
209	0	35	35	0	399	191,52	0	
209	6	25	30	6	0	202,7003398874989	3	
209	96	22	27	0	0	215,94298057461818	11	
209	59	21	24	118	0	228,10525823478656	28	
209	151	22	22	0	0	239,34132621228635	18	
209	98	19	21	0	0	251,50360387245473	10	
209	37	20	20	61	0	261,91781743482783	8	
209	100	18	18	0	0	273,74624455957402	17	
209	91	15	19	191	0	285,90852221974240	1	
209	85	16	22	166	0	298,07079987991078	41	
209	93	18	24	194	0	309,89922700465697	22	
209	104	20	26	0	0	321,72765412940316	9	
209	99	20	26	0	0	330,72765412940316	9	
209	92	22	22	194	0	344,19979008440274	2	
209	95	25	24	0	0	356,80534135986673	20	
210	0	35	35	0	399	127,68	0	
210	193	16	19	0	0	152,5194846967484	18	
210	192	15	14	0	0	166,61850421034118	11	
210	119	13	13	0	0	177,85457218784097	9	
210	14	15	10	24	0	220,08555127546399	20	
210	38	5	5	62	0	240,26589116296289	16	
210	140	5	6	0	0	250,26589116296289	7	
210	44	11	14	69	0	269,26589116296289	18	
210	191	12	17	0	0	281,42816882313127	15	
210	141	10	17	0	0	292,42816882313127	27	
210	86	4	18	169	0	307,51093135342949	35	
210	16	10	20	25	0	322,83548667376625	19	
211	0	35	35	0	399	159,60	0	
211	122	42	57	0	0	182,6867927612304	8	
211	30	40	60	50	0	195,29234403669439	21	
211	20	45	65	33	0	211,36341184855987	9	
211	188	47	66	0	0	222,59947982605966	24	
211	66	49	73	130	0	238,87958971534018	25	
211	128	43	67	0	0	256,36487108957875	14	
211	160	40	66	0	0	268,52714874974713	26	
211	131	37	69	0	0	281,76978943686641	11	
211	32	35	69	52	0	292,76978943686641	23	
211	181	31	76	0	0	309,83204718516496	25	
211	90	31	67	190	0	327,83204718516496	3	
212	0	35	35	0	399	143,64	0	
212	179	52	26	0	0	162,8753840616713	13	
212	130	58	27	0	0	177,95814659196952	19	
212	165	62	24	0	0	191,95814659196952	8	
212	55	63	23	104	0	202,37236015434262	2	
212	25	65	20	43	0	214,97791142980661	6	
212	170	66	14	0	0	230,06067396010483	22	
212	67	67	5	130	0	248,11605909824225	25	
212	39	60	12	65	0	267,01555403485391	31	
212	187	60	15	0	0	279,01555403485391	14	
212	139	59	15	0	0	289,01555403485391	14	
212	155	55	20	0	0	304,41867827228676	21	
212	4	55	20	5	0	313,41867827228676	19	
212	110	51	21	0	0	326,54178389790442	5	
213	0	35	35	0	399	207,48	0	
213	26	45	30	44	0	218,6603398874989	17	
213	149	48	28	0	0	231,26589116296289	18	
213	198	48	21	0	0	247,26589116296289	20	
213	72	47	16	143	0	261,36491067655567	25	
213	21	45	20	33	0	274,83704663155525	11	
213	180	43	26	0	0	290,16160195189201	22	
213	40	40	25	66	0	302,32387961206039	9	
213	105	40	30	0	0	316,32387961206039	21	
213	53	37	31	98	0	328,48615727222877	14	
214	0	35	35	0	399	191,52	0	
214	154	45	35	0	0	201,52	30	
214	138	45	35	0	0	210,52	15	
214	184	50	40	0	0	226,59106781186548	19	
214	116	52	41	0	0	237,82713578936527	15	
214	158	55	45	0	0	251,82713578936527	16	
214	3	55	45	3	0	260,82713578936527	13	
214	77	53	43	148	0	299,10842712474619	14	
214	196	51	42	0	0	310,34449510224598	27	
214	76	49	42	147	0	321,34449510224598	13	
214	111	42	41	0	0	337,41556291411146	19	
214	28	41	37	47	0	350,53866853972912	16	
215	0	35	35	0	399	255,36	0	
215	152	36	26	0	0	264,41538513813742	26	
215	58	36	26	116	0	273,41538513813742	18	
215	13	30	25	19	0	288,49814766843564	23	
215	94	26	27	196	0	301,97028362343522	27	
215	183	26	29	0	0	312,97028362343522	27	
215	147	25	32	0	0	325,13256128360360	25	
215	112	31	32	0	0	340,13256128360360	29	
215	156	33	34	0	0	351,96098840834979	19	
