f134D.vrp	12813,53	1,04	2210
VehicleId	ClientId	X	Y	StartTime	EndTime	ArriveTime	Need	
134	0	-60	150	0	11741	6105,32	0	
134	82	-80	300	0	0	6256,647459504216	266	
134	20	-50	300	1278	0	6299,647459504216	24	
134	83	10	600	0	0	6618,588630319783	704	
134	85	100	520	0	0	6752,004576107706	18	
134	84	100	520	0	0	6765,004576107706	38	
134	86	100	510	0	0	6788,004576107706	30	
134	87	160	290	0	0	7029,039661127534	25	
134	89	160	210	0	0	7122,039661127534	18	
134	90	155	192	0	0	7153,7212028198034	25	
134	16	205	190	1040	0	7216,7611868325906	24	
134	13	235	190	909	0	7259,7611868325906	24	
134	15	250	200	1039	0	7290,7889432099105	19	
134	88	260	210	0	0	7317,9310788336415	12	
134	14	260	200	953	0	7340,9310788336415	24	
134	11	283	143	672	0	7415,3965162761587	24	
134	12	270	143	716	0	7441,3965162761587	32	
134	10	265	117	587	0	7480,8729208659062	24	
134	9	290	100	541	0	7524,1053537815682	30	
134	8	300	105	453	0	7548,2856936690671	24	
134	7	335	105	389	0	7596,2856936690671	31	
134	6	310	80	345	0	7644,6410327283945	1	
134	5	290	80	282	0	7677,6410327283945	36	
134	4	278	83	259	0	7703,0103496052475	24	
134	2	246	83	111	0	7748,0103496052475	226	
134	42	230	40	2898	0	7806,8906285930653	36	
134	41	228	31	2702	0	7829,11017305035819	24	
134	3	233	13	130	0	7860,79171474262759	37	
134	40	203	21	2702	0	7904,84006413514759	24	
134	37	172	24	2509	0	7948,98488713994249	37	
134	38	172	42	2550	0	7979,98488713994249	24	
134	96	162	40	0	0	8003,18292616712809	9	
134	45	185	64	3049	0	8049,42446644431739	24	
134	94	169	77	0	0	8083,03999457240569	20	
134	93	165	78	0	0	8100,16310019802335	12	
134	29	144	113	1969	0	8153,97976346194045	18	
134	92	172	143	0	0	8208,01633251930685	18	
134	28	114	145	1969	0	8279,05080503349445	36	
134	27	98	166	1967	0	8318,45156259838265	31	
134	26	70	150	1819	0	8363,70059359157685	30	
134	25	48	170	1754	0	8406,43273108621385	18	
134	21	13	178	1430	0	8455,33537722824635	24	
134	91	0	165	0	0	8486,72015353909655	35	
134	0	-60	150	0	11741	8561,56673792336145	0	
134	22	18	138	1492	0	8640,48441655115685	61	
134	24	20	136	1666	0	8656,31284367590304	36	
134	23	18	131	1495	0	8674,69800848303754	71	
134	60	58	85	4155	0	8748,65701109955024	18	
134	59	65	97	4066	0	8775,54945508900004	18	
134	31	93	107	2098	0	8818,28159258363704	18	
134	58	112	69	4066	0	8873,76688415613304	24	
134	57	123	55	4043	0	8904,57137797089794	22	
134	105	134	55	0	0	8928,57137797089794	58	
134	97	150	40	0	0	8963,50309017035924	36	
134	39	182	44	2598	0	9008,75212116355344	99	
134	44	208	40	3030	0	9048,05801403948524	25	
134	43	208	40	3006	0	9061,05801403948524	30	
134	95	180	20	0	0	9108,46731510765574	1126	
134	98	150	30	0	0	9153,09009170933954	12	
134	100	145	30	0	0	9171,09009170933954	96	
134	99	148	24	0	0	9190,79829564183891	31	
134	36	150	18	2488	0	9210,12285096217567	24	
134	35	145	10	2399	0	9232,55683209423227	39	
134	101	130	26	0	0	9267,48854429369357	27	
134	104	128	36	0	0	9290,68658332087917	12	
134	102	118	30	0	0	9315,34848711056977	54	
134	53	112	33	3719	0	9335,05669104306914	18	
134	103	120	40	0	0	9358,68683685580374	137	
134	56	123	47	3874	0	9379,30260996166765	24	
134	55	115	46	3828	0	9400,36486770996620	18	
134	54	108	47	3762	0	9420,43593552183168	20	
134	0	-60	150	0	11741	9630,49683981286568	0	
134	30	110	120	2096	0	9803,12360482918668	1004	
134	61	72	60	4194	0	9887,14472844744548	24	
134	62	72	40	4281	0	9920,14472844744548	24	
134	52	90	35	3700	0	9951,82627013971488	306	
134	51	90	33	3632	0	9966,82627013971488	24	
134	50	87	28	3547	0	9985,65722203456018	18	
134	49	56	18	3354	0	10031,23021698436488	83	
134	48	32	28	3265	0	10070,23021698436488	229	
134	34	20	0	2273	0	10113,69330940782048	18	
134	32	6	28	2142	0	10157,99826109281758	34	
134	1	32	51	25	0	10205,71137100823718	30	
134	75	21	62	5729	0	10234,26772019434118	23	
134	47	-5	69	3203	0	10274,19354423001368	196	
134	72	-20	100	5386	0	10321,63189494545878	24	
135	0	-60	150	0	11741	7044,60	0	
135	115	-1070	300	0	0	8065,6778618695	42	
135	114	-1180	220	0	0	8214,692566956854	535	
135	106	-1500	80	0	0	8576,977550888314	206	
135	107	-1520	10	0	0	8662,7786497811192	178	
135	108	-1520	0	0	0	8685,7786497811192	486	
135	109	-1420	-310	0	0	9024,5085992791662	36	
135	120	-1200	-200	0	0	9283,4760768041432	726	
137	0	-60	150	0	11741	6105,32	0	
137	19	-300	300	1278	0	6388,339433961698	115	
137	65	-400	490	4479	0	6616,048539497537	40	
137	130	-480	370	0	0	6773,270590516097	232	
137	119	-620	320	0	0	6934,931277989282	18	
137	117	-780	150	0	0	7181,383628587857	110	
137	131	-850	150	0	0	7264,383628587857	483	
137	116	-850	140	0	0	7287,383628587857	9	
137	113	-800	-140	0	0	7584,812881654415	373	
137	129	-800	-150	0	0	7607,812881654415	91	
137	128	-800	-160	0	0	7630,812881654415	112	
137	127	-800	-170	0	0	7653,812881654415	79	
137	121	-900	-220	0	0	7778,616280529404	187	
137	122	-790	-190	0	0	7905,633823039318	23	
137	123	-790	-185	0	0	7923,633823039318	134	
137	124	-790	-180	0	0	7941,633823039318	47	
137	126	-790	-170	0	0	7964,633823039318	43	
137	0	-60	150	0	11741	8774,690910078885	0	
137	66	-150	100	4543	0	8877,647211488755	166	
137	71	-180	100	5319	0	8920,647211488755	285	
137	81	-620	-100	0	0	9416,969050432538	120	
137	110	-780	-190	0	0	9613,544647939396	261	
137	111	-780	-180	0	0	9636,544647939396	135	
137	125	-780	-175	0	0	9654,544647939396	51	
137	112	-780	-170	0	0	9672,544647939396	135	
137	132	-620	-90	0	0	9864,430086139379	828	
137	18	-210	140	1234	0	10347,536457081105	36	
137	17	-200	130	1171	0	10374,678592704836	18	
137	118	-150	160	0	0	10445,988111653289	36	
137	46	-140	160	3073	0	10468,988111653289	122	
139	0	-60	150	0	11741	8923,16	0	
139	73	-40	80	5538	0	8995,9610988928052	24	
139	74	-30	50	5603	0	9040,5838754944890	205	
139	134	-10	32	0	0	9080,4911235886364	12	
139	76	-17	30	5751	0	9100,77123347791692	28	
139	77	-30	20	5817	0	9130,17245294477362	51	
139	64	-30	12	4327	0	9151,17245294477362	24	
139	63	-40	-40	4326	0	9217,12526212426852	30	
139	79	-30	-60	0	0	9252,48594189926642	19	
139	67	-110	-100	4648	0	9354,92866099925802	254	
139	70	-240	-350	5063	0	9649,70871707136502	17	
139	69	-250	-350	4975	0	9672,70871707136502	94	
139	68	-250	-200	4650	0	9835,70871707136502	187	
139	80	-300	-110	0	0	9951,66501848123502	262	
139	33	-300	-100	2164	0	9974,66501848123502	504	
139	133	-150	-40	0	0	10149,21996269527002	11	
139	78	-70	0	0	0	10251,66268179526162	49	
