tai100dD.vrp	1820,39	1,04	1297
VehicleId	ClientId	X	Y	StartTime	EndTime	ArriveTime	Need	
102	0	0	0	0	782	375,36	0	
102	75	13	12	0	0	393,0518060129541	26	
102	97	36	21	0	0	440,7499840834110	257	
102	98	32	16	0	0	470,15310832084385	603	
102	59	9	3	0	0	519,57279794808965	86	
102	0	0	0	0	782	626,80683298050514	0	
102	79	-2	-22	0	0	648,89755501487964	1017	
104	0	0	0	0	782	250,24	0	
104	77	27	-4	0	0	277,5346881279124	34	
104	80	30	1	0	0	306,3656400227577	85	
104	100	62	16	0	0	364,7068341169023	4	
104	29	73	32	175	0	511,6164878389476	85	
104	30	78	59	175	0	562,0755482744396	1061	
104	99	42	30	0	0	631,3032455997445	4	
105	0	0	0	0	782	0	0	
105	51	-4	5	0	0	6,40312423743285	141	
105	55	-12	4	0	0	37,46538198573140	5	
105	54	-11	11	0	0	67,53644979759688	4	
105	53	-12	14	0	0	93,69872745776526	261	
105	62	-20	11	0	0	125,24273120308279	11	
105	70	-48	-19	0	0	189,27930026044919	83	
105	13	-54	-15	82	0	219,49040281137717	29	
105	91	-63	-12	0	0	251,97723579188231	30	
105	93	-70	-4	0	0	285,60738160461691	21	
105	15	-73	-2	89	0	312,21293288008090	106	
105	89	-79	-4	0	0	341,53748820041766	43	
105	26	-80	-10	160	0	370,62025073071588	67	
105	87	-84	-10	0	0	397,62025073071588	117	
105	90	-84	-19	0	0	429,62025073071588	64	
105	92	-76	-14	0	0	462,05423186277248	3	
105	88	-69	-22	0	0	495,68437767550708	48	
105	69	-59	-37	0	0	536,71213405282698	6	
105	71	-71	-49	0	0	576,68269680130408	11	
105	67	-71	-58	0	0	608,68269680130408	65	
105	66	-58	-60	0	0	644,83564323926998	9	
105	68	-32	-34	0	0	704,60519586097048	155	
106	0	0	0	0	782	218,96	0	
106	96	30	48	0	0	275,5638867923396	7	
106	31	58	53	183	0	327,0068120989954	344	
106	32	57	55	188	0	352,24288007649519	22	
106	40	25	76	253	0	413,51819849450449	39	
106	33	20	85	204	0	446,81382863549149	15	
106	37	19	86	213	0	471,22804219786459	74	
106	42	4	80	289	0	510,38353661926809	22	
106	43	-2	84	295	0	540,59463917019607	171	
106	35	-8	86	210	0	569,91919449053283	44	
106	34	-12	81	206	0	599,32231872796568	219	
106	46	-14	80	347	0	624,55838670546547	19	
106	39	-2	67	233	0	665,25019271841957	3	
106	44	-8	54	326	0	702,56801378169597	65	
107	0	0	0	0	782	437,92	0	
107	57	-1	1	0	0	439,3342135623731	25	
107	10	-14	2	63	0	475,3726183727784	12	
107	24	-30	-9	145	0	517,7891062117260	856	
107	0	0	0	0	782	572,1100257384576	0	
107	1	-7	9	7	0	583,5117799894490	94	
107	47	-17	32	354	0	631,5916523974179	7	
107	45	-16	34	327	0	656,82772037491769	405	
107	65	-3	17	0	0	701,22865493395039	149	
107	4	-2	13	25	0	728,35176055956805	619	
108	0	0	0	0	782	218,96	0	
108	50	17	42	0	0	264,2700430368368	149	
108	95	23	39	0	0	293,97824696933617	625	
108	94	30	39	0	0	323,97824696933617	514	
108	0	0	0	0	782	416,2836584005702	0	
108	5	0	3	27	0	419,2836584005702	61	
108	7	2	5	39	0	445,11208552531639	4	
108	60	5	14	0	0	501,68683298050514	124	
108	48	19	39	364	0	553,33993054429394	586	
108	36	12	33	213	0	585,55947500158683	370	
108	63	0	30	0	0	620,92879187843983	41	
108	56	-1	21	0	0	652,98417701657725	21	
110	0	0	0	0	782	62,56	0	
110	6	-9	6	36	0	73,376653826392	3	
110	8	-13	9	40	0	101,376653826392	13	
110	9	-15	10	50	0	126,61272180389179	44	
110	3	-15	16	23	0	155,61272180389179	17	
110	52	-20	25	0	0	188,90835194487879	9	
110	20	-31	25	128	0	222,90835194487879	212	
110	12	-40	24	82	0	254,96373708301621	114	
110	17	-45	31	111	0	286,56606235005884	43	
110	28	-45	25	174	0	373,08	310	
110	25	-51	24	156	0	402,16276253029822	13	
110	21	-67	17	128	0	442,62701172687122	42	
110	19	-78	11	128	0	478,15697581301292	38	
110	16	-76	4	109	0	508,43708570229344	157	
110	23	-51	10	138	0	557,14700596665834	19	
110	14	-43	10	87	0	588,14700596665834	76	
110	27	-34	4	174	0	621,96365979305034	144	
110	22	-31	4	132	0	647,96365979305034	10	
111	0	0	0	0	782	156,40	0	
111	2	-7	8	14	0	167,0301458127346	12	
111	64	-12	15	0	0	198,63247107977723	279	
111	58	-9	21	0	0	228,34067501227660	86	
111	61	-9	27	0	0	257,34067501227660	123	
111	18	-29	36	115	0	302,27238721173790	4	
111	41	-29	44	255	0	437,64	54	
111	82	-27	62	0	0	478,7507702762748	7	
111	86	-29	67	0	0	507,1359350834093	15	
111	84	-26	69	0	0	533,74148635887329	524	
111	49	-20	82	378	0	571,05930742214969	15	
111	85	-20	66	0	0	610,05930742214969	16	
111	83	-20	64	0	0	635,05930742214969	6	
111	38	-11	44	217	0	679,99101962161099	82	
112	0	0	0	0	782	469,20	0	
112	78	2	-3	0	0	472,80555127546399	13	
112	76	3	-5	0	0	498,04161925296378	5	
112	73	13	-10	0	0	532,22195914046268	4	
112	74	22	-17	0	0	566,62371339145408	56	
112	81	22	-6	0	0	600,62371339145408	10	
112	72	22	-4	0	0	625,62371339145408	735	
112	11	1	0	73	0	670,00127171788608	35	
